ISO-10303-21;
HEADER;
/* Generated by software containing ST-Developer
 * from STEP Tools, Inc. (www.steptools.com) 
 */

FILE_DESCRIPTION(
/* description */ (''),
/* implementation_level */ '2;1');

FILE_NAME(
/* name */ 
'F:\\User\\Daten\\DWG\\Anw\\FW\\Zwischenspeicher\\\X\C4nderung filotec
\\3d\\10\\1010396_3D.stp',
/* time_stamp */ '2018-04-18T09:31:35+02:00',
/* author */ ('watermann'),
/* organization */ ('Fa. Bopla'),
/* preprocessor_version */ 'ST-DEVELOPER v16.5',
/* originating_system */ 'Autodesk Inventor 2017',
/* authorisation */ '');

FILE_SCHEMA (('AUTOMOTIVE_DESIGN { 1 0 10303 214 3 1 1 }'));
ENDSEC;

DATA;
#10=MECHANICAL_DESIGN_GEOMETRIC_PRESENTATION_REPRESENTATION('',(#13),#533);
#11=SHAPE_REPRESENTATION_RELATIONSHIP('SRR','None',#542,#12);
#12=ADVANCED_BREP_SHAPE_REPRESENTATION('',(#14),#532);
#13=STYLED_ITEM('',(#551),#14);
#14=MANIFOLD_SOLID_BREP('Volumenk\X\F6rper1',#307);
#15=PLANE('',#338);
#16=PLANE('',#339);
#17=PLANE('',#345);
#18=PLANE('',#348);
#19=PLANE('',#351);
#20=PLANE('',#352);
#21=LINE('',#485,#37);
#22=LINE('',#488,#38);
#23=LINE('',#491,#39);
#24=LINE('',#493,#40);
#25=LINE('',#494,#41);
#26=LINE('',#497,#42);
#27=LINE('',#501,#43);
#28=LINE('',#505,#44);
#29=LINE('',#509,#45);
#30=LINE('',#513,#46);
#31=LINE('',#514,#47);
#32=LINE('',#518,#48);
#33=LINE('',#521,#49);
#34=LINE('',#522,#50);
#35=LINE('',#525,#51);
#36=LINE('',#528,#52);
#37=VECTOR('',#399,10.);
#38=VECTOR('',#402,10.);
#39=VECTOR('',#405,10.);
#40=VECTOR('',#406,10.);
#41=VECTOR('',#407,10.);
#42=VECTOR('',#410,10.);
#43=VECTOR('',#413,10.);
#44=VECTOR('',#416,10.);
#45=VECTOR('',#421,10.);
#46=VECTOR('',#426,10.);
#47=VECTOR('',#427,10.);
#48=VECTOR('',#432,10.);
#49=VECTOR('',#435,10.);
#50=VECTOR('',#436,10.);
#51=VECTOR('',#439,10.);
#52=VECTOR('',#444,10.);
#53=CYLINDRICAL_SURFACE('',#318,1.75);
#54=CYLINDRICAL_SURFACE('',#323,1.75);
#55=CYLINDRICAL_SURFACE('',#328,1.75);
#56=CYLINDRICAL_SURFACE('',#333,1.75);
#57=CYLINDRICAL_SURFACE('',#335,1.25);
#58=CYLINDRICAL_SURFACE('',#343,1.25);
#59=CYLINDRICAL_SURFACE('',#346,1.25);
#60=CYLINDRICAL_SURFACE('',#349,1.25);
#61=FACE_BOUND('',#96,.T.);
#62=FACE_BOUND('',#98,.T.);
#63=FACE_BOUND('',#100,.T.);
#64=FACE_BOUND('',#102,.T.);
#65=FACE_BOUND('',#104,.T.);
#66=FACE_BOUND('',#106,.T.);
#67=FACE_BOUND('',#108,.T.);
#68=FACE_BOUND('',#110,.T.);
#69=FACE_BOUND('',#114,.T.);
#70=FACE_BOUND('',#115,.T.);
#71=FACE_BOUND('',#116,.T.);
#72=FACE_BOUND('',#117,.T.);
#73=FACE_BOUND('',#125,.T.);
#74=FACE_BOUND('',#126,.T.);
#75=FACE_BOUND('',#127,.T.);
#76=FACE_BOUND('',#128,.T.);
#77=FACE_OUTER_BOUND('',#95,.T.);
#78=FACE_OUTER_BOUND('',#97,.T.);
#79=FACE_OUTER_BOUND('',#99,.T.);
#80=FACE_OUTER_BOUND('',#101,.T.);
#81=FACE_OUTER_BOUND('',#103,.T.);
#82=FACE_OUTER_BOUND('',#105,.T.);
#83=FACE_OUTER_BOUND('',#107,.T.);
#84=FACE_OUTER_BOUND('',#109,.T.);
#85=FACE_OUTER_BOUND('',#111,.T.);
#86=FACE_OUTER_BOUND('',#112,.T.);
#87=FACE_OUTER_BOUND('',#113,.T.);
#88=FACE_OUTER_BOUND('',#118,.T.);
#89=FACE_OUTER_BOUND('',#119,.T.);
#90=FACE_OUTER_BOUND('',#120,.T.);
#91=FACE_OUTER_BOUND('',#121,.T.);
#92=FACE_OUTER_BOUND('',#122,.T.);
#93=FACE_OUTER_BOUND('',#123,.T.);
#94=FACE_OUTER_BOUND('',#124,.T.);
#95=EDGE_LOOP('',(#213));
#96=EDGE_LOOP('',(#214));
#97=EDGE_LOOP('',(#215));
#98=EDGE_LOOP('',(#216));
#99=EDGE_LOOP('',(#217));
#100=EDGE_LOOP('',(#218));
#101=EDGE_LOOP('',(#219));
#102=EDGE_LOOP('',(#220));
#103=EDGE_LOOP('',(#221));
#104=EDGE_LOOP('',(#222));
#105=EDGE_LOOP('',(#223));
#106=EDGE_LOOP('',(#224));
#107=EDGE_LOOP('',(#225));
#108=EDGE_LOOP('',(#226));
#109=EDGE_LOOP('',(#227));
#110=EDGE_LOOP('',(#228));
#111=EDGE_LOOP('',(#229,#230,#231,#232));
#112=EDGE_LOOP('',(#233,#234,#235,#236));
#113=EDGE_LOOP('',(#237,#238,#239,#240,#241,#242,#243,#244));
#114=EDGE_LOOP('',(#245));
#115=EDGE_LOOP('',(#246));
#116=EDGE_LOOP('',(#247));
#117=EDGE_LOOP('',(#248));
#118=EDGE_LOOP('',(#249,#250,#251,#252));
#119=EDGE_LOOP('',(#253,#254,#255,#256));
#120=EDGE_LOOP('',(#257,#258,#259,#260));
#121=EDGE_LOOP('',(#261,#262,#263,#264));
#122=EDGE_LOOP('',(#265,#266,#267,#268));
#123=EDGE_LOOP('',(#269,#270,#271,#272));
#124=EDGE_LOOP('',(#273,#274,#275,#276,#277,#278,#279,#280));
#125=EDGE_LOOP('',(#281));
#126=EDGE_LOOP('',(#282));
#127=EDGE_LOOP('',(#283));
#128=EDGE_LOOP('',(#284));
#129=CIRCLE('',#316,3.25);
#130=CIRCLE('',#317,1.75);
#131=CIRCLE('',#319,1.75);
#132=CIRCLE('',#321,3.25);
#133=CIRCLE('',#322,1.75);
#134=CIRCLE('',#324,1.75);
#135=CIRCLE('',#326,3.25);
#136=CIRCLE('',#327,1.75);
#137=CIRCLE('',#329,1.75);
#138=CIRCLE('',#331,3.25);
#139=CIRCLE('',#332,1.75);
#140=CIRCLE('',#334,1.75);
#141=CIRCLE('',#336,1.25);
#142=CIRCLE('',#337,1.25);
#143=CIRCLE('',#340,1.25);
#144=CIRCLE('',#341,1.25);
#145=CIRCLE('',#342,1.25);
#146=CIRCLE('',#344,1.25);
#147=CIRCLE('',#347,1.25);
#148=CIRCLE('',#350,1.25);
#149=VERTEX_POINT('',#449);
#150=VERTEX_POINT('',#451);
#151=VERTEX_POINT('',#454);
#152=VERTEX_POINT('',#457);
#153=VERTEX_POINT('',#459);
#154=VERTEX_POINT('',#462);
#155=VERTEX_POINT('',#465);
#156=VERTEX_POINT('',#467);
#157=VERTEX_POINT('',#470);
#158=VERTEX_POINT('',#473);
#159=VERTEX_POINT('',#475);
#160=VERTEX_POINT('',#478);
#161=VERTEX_POINT('',#481);
#162=VERTEX_POINT('',#482);
#163=VERTEX_POINT('',#484);
#164=VERTEX_POINT('',#486);
#165=VERTEX_POINT('',#490);
#166=VERTEX_POINT('',#492);
#167=VERTEX_POINT('',#496);
#168=VERTEX_POINT('',#498);
#169=VERTEX_POINT('',#500);
#170=VERTEX_POINT('',#502);
#171=VERTEX_POINT('',#504);
#172=VERTEX_POINT('',#508);
#173=VERTEX_POINT('',#512);
#174=VERTEX_POINT('',#516);
#175=VERTEX_POINT('',#520);
#176=VERTEX_POINT('',#524);
#177=EDGE_CURVE('',#149,#149,#129,.T.);
#178=EDGE_CURVE('',#150,#150,#130,.T.);
#179=EDGE_CURVE('',#151,#151,#131,.T.);
#180=EDGE_CURVE('',#152,#152,#132,.T.);
#181=EDGE_CURVE('',#153,#153,#133,.T.);
#182=EDGE_CURVE('',#154,#154,#134,.T.);
#183=EDGE_CURVE('',#155,#155,#135,.T.);
#184=EDGE_CURVE('',#156,#156,#136,.T.);
#185=EDGE_CURVE('',#157,#157,#137,.T.);
#186=EDGE_CURVE('',#158,#158,#138,.T.);
#187=EDGE_CURVE('',#159,#159,#139,.T.);
#188=EDGE_CURVE('',#160,#160,#140,.T.);
#189=EDGE_CURVE('',#161,#162,#141,.T.);
#190=EDGE_CURVE('',#162,#163,#21,.T.);
#191=EDGE_CURVE('',#163,#164,#142,.T.);
#192=EDGE_CURVE('',#164,#161,#22,.T.);
#193=EDGE_CURVE('',#162,#165,#23,.T.);
#194=EDGE_CURVE('',#166,#165,#24,.T.);
#195=EDGE_CURVE('',#166,#163,#25,.T.);
#196=EDGE_CURVE('',#167,#161,#26,.T.);
#197=EDGE_CURVE('',#168,#167,#143,.T.);
#198=EDGE_CURVE('',#169,#168,#27,.T.);
#199=EDGE_CURVE('',#170,#169,#144,.T.);
#200=EDGE_CURVE('',#171,#170,#28,.T.);
#201=EDGE_CURVE('',#165,#171,#145,.T.);
#202=EDGE_CURVE('',#171,#172,#29,.T.);
#203=EDGE_CURVE('',#172,#166,#146,.T.);
#204=EDGE_CURVE('',#173,#170,#30,.T.);
#205=EDGE_CURVE('',#173,#172,#31,.T.);
#206=EDGE_CURVE('',#174,#173,#147,.T.);
#207=EDGE_CURVE('',#169,#174,#32,.T.);
#208=EDGE_CURVE('',#175,#168,#33,.T.);
#209=EDGE_CURVE('',#175,#174,#34,.T.);
#210=EDGE_CURVE('',#167,#176,#35,.T.);
#211=EDGE_CURVE('',#176,#175,#148,.T.);
#212=EDGE_CURVE('',#164,#176,#36,.T.);
#213=ORIENTED_EDGE('',*,*,#177,.F.);
#214=ORIENTED_EDGE('',*,*,#178,.F.);
#215=ORIENTED_EDGE('',*,*,#179,.F.);
#216=ORIENTED_EDGE('',*,*,#178,.T.);
#217=ORIENTED_EDGE('',*,*,#180,.F.);
#218=ORIENTED_EDGE('',*,*,#181,.F.);
#219=ORIENTED_EDGE('',*,*,#182,.F.);
#220=ORIENTED_EDGE('',*,*,#181,.T.);
#221=ORIENTED_EDGE('',*,*,#183,.F.);
#222=ORIENTED_EDGE('',*,*,#184,.F.);
#223=ORIENTED_EDGE('',*,*,#185,.F.);
#224=ORIENTED_EDGE('',*,*,#184,.T.);
#225=ORIENTED_EDGE('',*,*,#186,.F.);
#226=ORIENTED_EDGE('',*,*,#187,.F.);
#227=ORIENTED_EDGE('',*,*,#188,.F.);
#228=ORIENTED_EDGE('',*,*,#187,.T.);
#229=ORIENTED_EDGE('',*,*,#189,.T.);
#230=ORIENTED_EDGE('',*,*,#190,.T.);
#231=ORIENTED_EDGE('',*,*,#191,.T.);
#232=ORIENTED_EDGE('',*,*,#192,.T.);
#233=ORIENTED_EDGE('',*,*,#190,.F.);
#234=ORIENTED_EDGE('',*,*,#193,.T.);
#235=ORIENTED_EDGE('',*,*,#194,.F.);
#236=ORIENTED_EDGE('',*,*,#195,.T.);
#237=ORIENTED_EDGE('',*,*,#189,.F.);
#238=ORIENTED_EDGE('',*,*,#196,.F.);
#239=ORIENTED_EDGE('',*,*,#197,.F.);
#240=ORIENTED_EDGE('',*,*,#198,.F.);
#241=ORIENTED_EDGE('',*,*,#199,.F.);
#242=ORIENTED_EDGE('',*,*,#200,.F.);
#243=ORIENTED_EDGE('',*,*,#201,.F.);
#244=ORIENTED_EDGE('',*,*,#193,.F.);
#245=ORIENTED_EDGE('',*,*,#179,.T.);
#246=ORIENTED_EDGE('',*,*,#182,.T.);
#247=ORIENTED_EDGE('',*,*,#185,.T.);
#248=ORIENTED_EDGE('',*,*,#188,.T.);
#249=ORIENTED_EDGE('',*,*,#201,.T.);
#250=ORIENTED_EDGE('',*,*,#202,.T.);
#251=ORIENTED_EDGE('',*,*,#203,.T.);
#252=ORIENTED_EDGE('',*,*,#194,.T.);
#253=ORIENTED_EDGE('',*,*,#202,.F.);
#254=ORIENTED_EDGE('',*,*,#200,.T.);
#255=ORIENTED_EDGE('',*,*,#204,.F.);
#256=ORIENTED_EDGE('',*,*,#205,.T.);
#257=ORIENTED_EDGE('',*,*,#206,.T.);
#258=ORIENTED_EDGE('',*,*,#204,.T.);
#259=ORIENTED_EDGE('',*,*,#199,.T.);
#260=ORIENTED_EDGE('',*,*,#207,.T.);
#261=ORIENTED_EDGE('',*,*,#207,.F.);
#262=ORIENTED_EDGE('',*,*,#198,.T.);
#263=ORIENTED_EDGE('',*,*,#208,.F.);
#264=ORIENTED_EDGE('',*,*,#209,.T.);
#265=ORIENTED_EDGE('',*,*,#197,.T.);
#266=ORIENTED_EDGE('',*,*,#210,.T.);
#267=ORIENTED_EDGE('',*,*,#211,.T.);
#268=ORIENTED_EDGE('',*,*,#208,.T.);
#269=ORIENTED_EDGE('',*,*,#192,.F.);
#270=ORIENTED_EDGE('',*,*,#212,.T.);
#271=ORIENTED_EDGE('',*,*,#210,.F.);
#272=ORIENTED_EDGE('',*,*,#196,.T.);
#273=ORIENTED_EDGE('',*,*,#191,.F.);
#274=ORIENTED_EDGE('',*,*,#195,.F.);
#275=ORIENTED_EDGE('',*,*,#203,.F.);
#276=ORIENTED_EDGE('',*,*,#205,.F.);
#277=ORIENTED_EDGE('',*,*,#206,.F.);
#278=ORIENTED_EDGE('',*,*,#209,.F.);
#279=ORIENTED_EDGE('',*,*,#211,.F.);
#280=ORIENTED_EDGE('',*,*,#212,.F.);
#281=ORIENTED_EDGE('',*,*,#177,.T.);
#282=ORIENTED_EDGE('',*,*,#180,.T.);
#283=ORIENTED_EDGE('',*,*,#183,.T.);
#284=ORIENTED_EDGE('',*,*,#186,.T.);
#285=CONICAL_SURFACE('',#315,2.5,45.);
#286=CONICAL_SURFACE('',#320,2.5,45.);
#287=CONICAL_SURFACE('',#325,2.5,45.);
#288=CONICAL_SURFACE('',#330,2.5,45.);
#289=ADVANCED_FACE('',(#77,#61),#285,.F.);
#290=ADVANCED_FACE('',(#78,#62),#53,.F.);
#291=ADVANCED_FACE('',(#79,#63),#286,.F.);
#292=ADVANCED_FACE('',(#80,#64),#54,.F.);
#293=ADVANCED_FACE('',(#81,#65),#287,.F.);
#294=ADVANCED_FACE('',(#82,#66),#55,.F.);
#295=ADVANCED_FACE('',(#83,#67),#288,.F.);
#296=ADVANCED_FACE('',(#84,#68),#56,.F.);
#297=ADVANCED_FACE('',(#85),#57,.T.);
#298=ADVANCED_FACE('',(#86),#15,.T.);
#299=ADVANCED_FACE('',(#87,#69,#70,#71,#72),#16,.F.);
#300=ADVANCED_FACE('',(#88),#58,.T.);
#301=ADVANCED_FACE('',(#89),#17,.T.);
#302=ADVANCED_FACE('',(#90),#59,.T.);
#303=ADVANCED_FACE('',(#91),#18,.T.);
#304=ADVANCED_FACE('',(#92),#60,.T.);
#305=ADVANCED_FACE('',(#93),#19,.T.);
#306=ADVANCED_FACE('',(#94,#73,#74,#75,#76),#20,.T.);
#307=CLOSED_SHELL('',(#289,#290,#291,#292,#293,#294,#295,#296,#297,#298,
#299,#300,#301,#302,#303,#304,#305,#306));
#308=DATE_TIME_ROLE('creation_date');
#309=APPLIED_DATE_AND_TIME_ASSIGNMENT(#310,#308,(#544));
#310=DATE_AND_TIME(#311,#312);
#311=CALENDAR_DATE(2012,6,7);
#312=LOCAL_TIME(7,57,46.,#313);
#313=COORDINATED_UNIVERSAL_TIME_OFFSET(0,0,.BEHIND.);
#314=AXIS2_PLACEMENT_3D('placement',#447,#353,#354);
#315=AXIS2_PLACEMENT_3D('',#448,#355,#356);
#316=AXIS2_PLACEMENT_3D('',#450,#357,#358);
#317=AXIS2_PLACEMENT_3D('',#452,#359,#360);
#318=AXIS2_PLACEMENT_3D('',#453,#361,#362);
#319=AXIS2_PLACEMENT_3D('',#455,#363,#364);
#320=AXIS2_PLACEMENT_3D('',#456,#365,#366);
#321=AXIS2_PLACEMENT_3D('',#458,#367,#368);
#322=AXIS2_PLACEMENT_3D('',#460,#369,#370);
#323=AXIS2_PLACEMENT_3D('',#461,#371,#372);
#324=AXIS2_PLACEMENT_3D('',#463,#373,#374);
#325=AXIS2_PLACEMENT_3D('',#464,#375,#376);
#326=AXIS2_PLACEMENT_3D('',#466,#377,#378);
#327=AXIS2_PLACEMENT_3D('',#468,#379,#380);
#328=AXIS2_PLACEMENT_3D('',#469,#381,#382);
#329=AXIS2_PLACEMENT_3D('',#471,#383,#384);
#330=AXIS2_PLACEMENT_3D('',#472,#385,#386);
#331=AXIS2_PLACEMENT_3D('',#474,#387,#388);
#332=AXIS2_PLACEMENT_3D('',#476,#389,#390);
#333=AXIS2_PLACEMENT_3D('',#477,#391,#392);
#334=AXIS2_PLACEMENT_3D('',#479,#393,#394);
#335=AXIS2_PLACEMENT_3D('',#480,#395,#396);
#336=AXIS2_PLACEMENT_3D('',#483,#397,#398);
#337=AXIS2_PLACEMENT_3D('',#487,#400,#401);
#338=AXIS2_PLACEMENT_3D('',#489,#403,#404);
#339=AXIS2_PLACEMENT_3D('',#495,#408,#409);
#340=AXIS2_PLACEMENT_3D('',#499,#411,#412);
#341=AXIS2_PLACEMENT_3D('',#503,#414,#415);
#342=AXIS2_PLACEMENT_3D('',#506,#417,#418);
#343=AXIS2_PLACEMENT_3D('',#507,#419,#420);
#344=AXIS2_PLACEMENT_3D('',#510,#422,#423);
#345=AXIS2_PLACEMENT_3D('',#511,#424,#425);
#346=AXIS2_PLACEMENT_3D('',#515,#428,#429);
#347=AXIS2_PLACEMENT_3D('',#517,#430,#431);
#348=AXIS2_PLACEMENT_3D('',#519,#433,#434);
#349=AXIS2_PLACEMENT_3D('',#523,#437,#438);
#350=AXIS2_PLACEMENT_3D('',#526,#440,#441);
#351=AXIS2_PLACEMENT_3D('',#527,#442,#443);
#352=AXIS2_PLACEMENT_3D('',#529,#445,#446);
#353=DIRECTION('axis',(0.,0.,1.));
#354=DIRECTION('refdir',(1.,0.,0.));
#355=DIRECTION('center_axis',(0.,0.,1.));
#356=DIRECTION('ref_axis',(1.,0.,0.));
#357=DIRECTION('center_axis',(0.,0.,-1.));
#358=DIRECTION('ref_axis',(1.,0.,0.));
#359=DIRECTION('center_axis',(0.,0.,1.));
#360=DIRECTION('ref_axis',(1.,0.,0.));
#361=DIRECTION('center_axis',(0.,0.,1.));
#362=DIRECTION('ref_axis',(1.,0.,0.));
#363=DIRECTION('center_axis',(0.,0.,1.));
#364=DIRECTION('ref_axis',(1.,0.,0.));
#365=DIRECTION('center_axis',(0.,0.,1.));
#366=DIRECTION('ref_axis',(1.,0.,0.));
#367=DIRECTION('center_axis',(0.,0.,-1.));
#368=DIRECTION('ref_axis',(1.,0.,0.));
#369=DIRECTION('center_axis',(0.,0.,1.));
#370=DIRECTION('ref_axis',(1.,0.,0.));
#371=DIRECTION('center_axis',(0.,0.,1.));
#372=DIRECTION('ref_axis',(1.,0.,0.));
#373=DIRECTION('center_axis',(0.,0.,1.));
#374=DIRECTION('ref_axis',(1.,0.,0.));
#375=DIRECTION('center_axis',(0.,0.,1.));
#376=DIRECTION('ref_axis',(1.,0.,0.));
#377=DIRECTION('center_axis',(0.,0.,-1.));
#378=DIRECTION('ref_axis',(1.,0.,0.));
#379=DIRECTION('center_axis',(0.,0.,1.));
#380=DIRECTION('ref_axis',(1.,0.,0.));
#381=DIRECTION('center_axis',(0.,0.,1.));
#382=DIRECTION('ref_axis',(1.,0.,0.));
#383=DIRECTION('center_axis',(0.,0.,1.));
#384=DIRECTION('ref_axis',(1.,0.,0.));
#385=DIRECTION('center_axis',(0.,0.,1.));
#386=DIRECTION('ref_axis',(1.,0.,0.));
#387=DIRECTION('center_axis',(0.,0.,-1.));
#388=DIRECTION('ref_axis',(1.,0.,0.));
#389=DIRECTION('center_axis',(0.,0.,1.));
#390=DIRECTION('ref_axis',(1.,0.,0.));
#391=DIRECTION('center_axis',(0.,0.,1.));
#392=DIRECTION('ref_axis',(1.,0.,0.));
#393=DIRECTION('center_axis',(0.,0.,1.));
#394=DIRECTION('ref_axis',(1.,0.,0.));
#395=DIRECTION('center_axis',(0.,0.,-1.));
#396=DIRECTION('ref_axis',(0.707106781186547,-0.707106781186547,0.));
#397=DIRECTION('center_axis',(0.,0.,1.));
#398=DIRECTION('ref_axis',(0.707106781186547,-0.707106781186547,0.));
#399=DIRECTION('',(0.,0.,1.));
#400=DIRECTION('center_axis',(0.,0.,-1.));
#401=DIRECTION('ref_axis',(0.707106781186547,-0.707106781186547,0.));
#402=DIRECTION('',(0.,0.,-1.));
#403=DIRECTION('center_axis',(1.,0.,0.));
#404=DIRECTION('ref_axis',(0.,0.,-1.));
#405=DIRECTION('',(0.,1.,0.));
#406=DIRECTION('',(0.,0.,-1.));
#407=DIRECTION('',(0.,-1.,0.));
#408=DIRECTION('center_axis',(0.,0.,1.));
#409=DIRECTION('ref_axis',(1.,0.,0.));
#410=DIRECTION('',(1.,0.,0.));
#411=DIRECTION('center_axis',(0.,0.,1.));
#412=DIRECTION('ref_axis',(-0.707106781186547,-0.707106781186547,0.));
#413=DIRECTION('',(0.,-1.,0.));
#414=DIRECTION('center_axis',(0.,0.,1.));
#415=DIRECTION('ref_axis',(-0.707106781186547,0.707106781186547,0.));
#416=DIRECTION('',(-1.,0.,0.));
#417=DIRECTION('center_axis',(0.,0.,1.));
#418=DIRECTION('ref_axis',(0.707106781186547,0.707106781186547,0.));
#419=DIRECTION('center_axis',(0.,0.,-1.));
#420=DIRECTION('ref_axis',(0.707106781186547,0.707106781186547,0.));
#421=DIRECTION('',(0.,0.,1.));
#422=DIRECTION('center_axis',(0.,0.,-1.));
#423=DIRECTION('ref_axis',(0.707106781186547,0.707106781186547,0.));
#424=DIRECTION('center_axis',(0.,1.,0.));
#425=DIRECTION('ref_axis',(0.,0.,1.));
#426=DIRECTION('',(0.,0.,-1.));
#427=DIRECTION('',(1.,0.,0.));
#428=DIRECTION('center_axis',(0.,0.,1.));
#429=DIRECTION('ref_axis',(-0.707106781186547,0.707106781186547,0.));
#430=DIRECTION('center_axis',(0.,0.,-1.));
#431=DIRECTION('ref_axis',(-0.707106781186547,0.707106781186547,0.));
#432=DIRECTION('',(0.,0.,1.));
#433=DIRECTION('center_axis',(-1.,0.,0.));
#434=DIRECTION('ref_axis',(0.,0.,1.));
#435=DIRECTION('',(0.,0.,-1.));
#436=DIRECTION('',(0.,1.,0.));
#437=DIRECTION('center_axis',(0.,0.,-1.));
#438=DIRECTION('ref_axis',(-0.707106781186547,-0.707106781186547,0.));
#439=DIRECTION('',(0.,0.,1.));
#440=DIRECTION('center_axis',(0.,0.,-1.));
#441=DIRECTION('ref_axis',(-0.707106781186547,-0.707106781186547,0.));
#442=DIRECTION('center_axis',(0.,-1.,0.));
#443=DIRECTION('ref_axis',(0.,0.,-1.));
#444=DIRECTION('',(-1.,0.,0.));
#445=DIRECTION('center_axis',(0.,0.,1.));
#446=DIRECTION('ref_axis',(1.,0.,0.));
#447=CARTESIAN_POINT('',(0.,0.,0.));
#448=CARTESIAN_POINT('Origin',(48.5,-19.45,0.25));
#449=CARTESIAN_POINT('',(51.75,-19.45,1.));
#450=CARTESIAN_POINT('Origin',(48.5,-19.45,1.));
#451=CARTESIAN_POINT('',(50.25,-19.45,-0.5));
#452=CARTESIAN_POINT('Origin',(48.5,-19.45,-0.500000000000004));
#453=CARTESIAN_POINT('Origin',(48.5,-19.45,-115.131391105075));
#454=CARTESIAN_POINT('',(46.75,-19.45,-0.999999999999996));
#455=CARTESIAN_POINT('Origin',(48.5,-19.45,-0.999999999999996));
#456=CARTESIAN_POINT('Origin',(-48.5,-19.45,0.25));
#457=CARTESIAN_POINT('',(-45.25,-19.45,1.));
#458=CARTESIAN_POINT('Origin',(-48.5,-19.45,1.));
#459=CARTESIAN_POINT('',(-46.75,-19.45,-0.5));
#460=CARTESIAN_POINT('Origin',(-48.5,-19.45,-0.500000000000004));
#461=CARTESIAN_POINT('Origin',(-48.5,-19.45,-115.131391105075));
#462=CARTESIAN_POINT('',(-50.25,-19.45,-0.999999999999996));
#463=CARTESIAN_POINT('Origin',(-48.5,-19.45,-0.999999999999996));
#464=CARTESIAN_POINT('Origin',(48.5,19.45,0.25));
#465=CARTESIAN_POINT('',(51.75,19.45,1.));
#466=CARTESIAN_POINT('Origin',(48.5,19.45,1.));
#467=CARTESIAN_POINT('',(50.25,19.45,-0.5));
#468=CARTESIAN_POINT('Origin',(48.5,19.45,-0.500000000000004));
#469=CARTESIAN_POINT('Origin',(48.5,19.45,-115.131391105075));
#470=CARTESIAN_POINT('',(46.75,19.45,-0.999999999999996));
#471=CARTESIAN_POINT('Origin',(48.5,19.45,-0.999999999999996));
#472=CARTESIAN_POINT('Origin',(-48.5,19.45,0.25));
#473=CARTESIAN_POINT('',(-45.25,19.45,1.));
#474=CARTESIAN_POINT('Origin',(-48.5,19.45,1.));
#475=CARTESIAN_POINT('',(-46.75,19.45,-0.5));
#476=CARTESIAN_POINT('Origin',(-48.5,19.45,-0.500000000000004));
#477=CARTESIAN_POINT('Origin',(-48.5,19.45,-115.131391105075));
#478=CARTESIAN_POINT('',(-50.25,19.45,-0.999999999999996));
#479=CARTESIAN_POINT('Origin',(-48.5,19.45,-0.999999999999996));
#480=CARTESIAN_POINT('Origin',(51.5,-23.,0.));
#481=CARTESIAN_POINT('',(51.5,-24.25,-1.));
#482=CARTESIAN_POINT('',(52.75,-23.,-1.));
#483=CARTESIAN_POINT('Origin',(51.5,-23.,-1.));
#484=CARTESIAN_POINT('',(52.75,-23.,1.));
#485=CARTESIAN_POINT('',(52.75,-23.,0.));
#486=CARTESIAN_POINT('',(51.5,-24.25,1.));
#487=CARTESIAN_POINT('Origin',(51.5,-23.,1.));
#488=CARTESIAN_POINT('',(51.5,-24.25,0.));
#489=CARTESIAN_POINT('Origin',(52.75,24.25,0.));
#490=CARTESIAN_POINT('',(52.75,23.,-1.));
#491=CARTESIAN_POINT('',(52.75,24.25,-1.));
#492=CARTESIAN_POINT('',(52.75,23.,1.));
#493=CARTESIAN_POINT('',(52.75,23.,0.));
#494=CARTESIAN_POINT('',(52.75,24.25,1.));
#495=CARTESIAN_POINT('Origin',(0.,0.,-1.));
#496=CARTESIAN_POINT('',(-51.5,-24.25,-1.));
#497=CARTESIAN_POINT('',(52.75,-24.25,-1.));
#498=CARTESIAN_POINT('',(-52.75,-23.,-1.));
#499=CARTESIAN_POINT('Origin',(-51.5,-23.,-1.));
#500=CARTESIAN_POINT('',(-52.75,23.,-1.));
#501=CARTESIAN_POINT('',(-52.75,-24.25,-1.));
#502=CARTESIAN_POINT('',(-51.5,24.25,-1.));
#503=CARTESIAN_POINT('Origin',(-51.5,23.,-1.));
#504=CARTESIAN_POINT('',(51.5,24.25,-1.));
#505=CARTESIAN_POINT('',(-52.75,24.25,-1.));
#506=CARTESIAN_POINT('Origin',(51.5,23.,-1.));
#507=CARTESIAN_POINT('Origin',(51.5,23.,0.));
#508=CARTESIAN_POINT('',(51.5,24.25,1.));
#509=CARTESIAN_POINT('',(51.5,24.25,0.));
#510=CARTESIAN_POINT('Origin',(51.5,23.,1.));
#511=CARTESIAN_POINT('Origin',(-52.75,24.25,0.));
#512=CARTESIAN_POINT('',(-51.5,24.25,1.));
#513=CARTESIAN_POINT('',(-51.5,24.25,0.));
#514=CARTESIAN_POINT('',(-52.75,24.25,1.));
#515=CARTESIAN_POINT('Origin',(-51.5,23.,0.));
#516=CARTESIAN_POINT('',(-52.75,23.,1.));
#517=CARTESIAN_POINT('Origin',(-51.5,23.,1.));
#518=CARTESIAN_POINT('',(-52.75,23.,0.));
#519=CARTESIAN_POINT('Origin',(-52.75,-24.25,0.));
#520=CARTESIAN_POINT('',(-52.75,-23.,1.));
#521=CARTESIAN_POINT('',(-52.75,-23.,0.));
#522=CARTESIAN_POINT('',(-52.75,-24.25,1.));
#523=CARTESIAN_POINT('Origin',(-51.5,-23.,0.));
#524=CARTESIAN_POINT('',(-51.5,-24.25,1.));
#525=CARTESIAN_POINT('',(-51.5,-24.25,0.));
#526=CARTESIAN_POINT('Origin',(-51.5,-23.,1.));
#527=CARTESIAN_POINT('Origin',(52.75,-24.25,0.));
#528=CARTESIAN_POINT('',(52.75,-24.25,1.));
#529=CARTESIAN_POINT('Origin',(0.,0.,1.));
#530=UNCERTAINTY_MEASURE_WITH_UNIT(LENGTH_MEASURE(0.01),#534,
'DISTANCE_ACCURACY_VALUE',
'Maximum model space distance between geometric entities at asserted c
onnectivities');
#531=UNCERTAINTY_MEASURE_WITH_UNIT(LENGTH_MEASURE(1.E-6),#534,
'DISTANCE_ACCURACY_VALUE',
'Maximum model space distance between geometric entities at asserted c
onnectivities');
#532=(
GEOMETRIC_REPRESENTATION_CONTEXT(3)
GLOBAL_UNCERTAINTY_ASSIGNED_CONTEXT((#530))
GLOBAL_UNIT_ASSIGNED_CONTEXT((#534,#537,#535))
REPRESENTATION_CONTEXT('','3D')
);
#533=(
GEOMETRIC_REPRESENTATION_CONTEXT(3)
GLOBAL_UNCERTAINTY_ASSIGNED_CONTEXT((#531))
GLOBAL_UNIT_ASSIGNED_CONTEXT((#534,#537,#535))
REPRESENTATION_CONTEXT('','3D')
);
#534=(
LENGTH_UNIT()
NAMED_UNIT(*)
SI_UNIT(.MILLI.,.METRE.)
);
#535=(
NAMED_UNIT(*)
SI_UNIT($,.STERADIAN.)
SOLID_ANGLE_UNIT()
);
#536=DIMENSIONAL_EXPONENTS(0.,0.,0.,0.,0.,0.,0.);
#537=(
CONVERSION_BASED_UNIT('degree',#539)
NAMED_UNIT(#536)
PLANE_ANGLE_UNIT()
);
#538=(
NAMED_UNIT(*)
PLANE_ANGLE_UNIT()
SI_UNIT($,.RADIAN.)
);
#539=PLANE_ANGLE_MEASURE_WITH_UNIT(PLANE_ANGLE_MEASURE(0.01745329252),#538);
#540=SHAPE_DEFINITION_REPRESENTATION(#541,#542);
#541=PRODUCT_DEFINITION_SHAPE('',$,#544);
#542=SHAPE_REPRESENTATION('',(#314),#532);
#543=PRODUCT_DEFINITION_CONTEXT('part definition',#548,'design');
#544=PRODUCT_DEFINITION('1010396_3D','1010396_3D',#545,#543);
#545=PRODUCT_DEFINITION_FORMATION('',$,#550);
#546=PRODUCT_RELATED_PRODUCT_CATEGORY('1010396_3D','1010396_3D',(#550));
#547=APPLICATION_PROTOCOL_DEFINITION('international standard',
'automotive_design',2009,#548);
#548=APPLICATION_CONTEXT(
'Core Data for Automotive Mechanical Design Process');
#549=PRODUCT_CONTEXT('part definition',#548,'mechanical');
#550=PRODUCT('1010396_3D','1010396_3D',$,(#549));
#551=PRESENTATION_STYLE_ASSIGNMENT((#552));
#552=SURFACE_STYLE_USAGE(.BOTH.,#553);
#553=SURFACE_SIDE_STYLE('',(#554));
#554=SURFACE_STYLE_FILL_AREA(#555);
#555=FILL_AREA_STYLE('',(#556));
#556=FILL_AREA_STYLE_COLOUR('',#557);
#557=COLOUR_RGB('',0.898039215686275,0.898039215686275,0.898039215686275);
ENDSEC;
END-ISO-10303-21;
