ISO-10303-21;
HEADER;
FILE_DESCRIPTION((''),'2;1');
FILE_NAME('NC3FAH1','2008-10-02T',('odo'),(''),
'PRO/ENGINEER BY PARAMETRIC TECHNOLOGY CORPORATION, 2007460',
'PRO/ENGINEER BY PARAMETRIC TECHNOLOGY CORPORATION, 2007460','');
FILE_SCHEMA(('CONFIG_CONTROL_DESIGN'));
ENDSEC;
DATA;
#2=CARTESIAN_POINT('',(9.9E0,9.9E0,0.E0));
#3=DIRECTION('',(0.E0,0.E0,-1.E0));
#4=DIRECTION('',(1.E0,0.E0,0.E0));
#5=AXIS2_PLACEMENT_3D('',#2,#3,#4);
#7=CARTESIAN_POINT('',(9.9E0,9.9E0,0.E0));
#8=DIRECTION('',(0.E0,0.E0,-1.E0));
#9=DIRECTION('',(-1.E0,0.E0,0.E0));
#10=AXIS2_PLACEMENT_3D('',#7,#8,#9);
#12=CARTESIAN_POINT('',(-9.9E0,-9.9E0,0.E0));
#13=DIRECTION('',(0.E0,0.E0,-1.E0));
#14=DIRECTION('',(1.E0,0.E0,0.E0));
#15=AXIS2_PLACEMENT_3D('',#12,#13,#14);
#17=CARTESIAN_POINT('',(-9.9E0,-9.9E0,0.E0));
#18=DIRECTION('',(0.E0,0.E0,-1.E0));
#19=DIRECTION('',(-1.E0,0.E0,0.E0));
#20=AXIS2_PLACEMENT_3D('',#17,#18,#19);
#22=CARTESIAN_POINT('',(0.E0,0.E0,0.E0));
#23=DIRECTION('',(0.E0,0.E0,-1.E0));
#24=DIRECTION('',(-1.E0,0.E0,0.E0));
#25=AXIS2_PLACEMENT_3D('',#22,#23,#24);
#27=DIRECTION('',(0.E0,1.E0,0.E0));
#28=VECTOR('',#27,5.588097867079E0);
#29=CARTESIAN_POINT('',(1.1E1,4.512243142064E-10,0.E0));
#30=LINE('',#29,#28);
#31=CARTESIAN_POINT('',(1.4E1,5.588097867530E0,0.E0));
#32=DIRECTION('',(0.E0,0.E0,-1.E0));
#33=DIRECTION('',(-1.E0,0.E0,0.E0));
#34=AXIS2_PLACEMENT_3D('',#31,#32,#33);
#36=CARTESIAN_POINT('',(9.9E0,9.9E0,0.E0));
#37=DIRECTION('',(0.E0,0.E0,1.E0));
#38=DIRECTION('',(6.890756302521E-1,-7.246894340286E-1,0.E0));
#39=AXIS2_PLACEMENT_3D('',#36,#37,#38);
#41=CARTESIAN_POINT('',(5.832566634974E0,1.787235760745E1,0.E0));
#42=DIRECTION('',(0.E0,0.E0,-1.E0));
#43=DIRECTION('',(4.544618284946E-1,-8.907662131229E-1,0.E0));
#44=AXIS2_PLACEMENT_3D('',#41,#42,#43);
#46=CARTESIAN_POINT('',(0.E0,0.E0,0.E0));
#47=DIRECTION('',(0.E0,0.E0,1.E0));
#48=DIRECTION('',(3.102429061156E-1,9.506573195452E-1,0.E0));
#49=AXIS2_PLACEMENT_3D('',#46,#47,#48);
#51=DIRECTION('',(0.E0,-1.E0,0.E0));
#52=VECTOR('',#51,6.545227268781E0);
#53=CARTESIAN_POINT('',(-1.1E1,6.545227268781E0,0.E0));
#54=LINE('',#53,#52);
#55=CARTESIAN_POINT('',(0.E0,0.E0,0.E0));
#56=DIRECTION('',(0.E0,0.E0,-1.E0));
#57=DIRECTION('',(1.E0,-8.590602528191E-8,0.E0));
#58=AXIS2_PLACEMENT_3D('',#55,#56,#57);
#60=DIRECTION('',(0.E0,-1.E0,0.E0));
#61=VECTOR('',#60,4.464008830029E0);
#62=CARTESIAN_POINT('',(-1.1E1,0.E0,0.E0));
#63=LINE('',#62,#61);
#64=CARTESIAN_POINT('',(-1.9E1,-4.464008830029E0,0.E0));
#65=DIRECTION('',(0.E0,0.E0,-1.E0));
#66=DIRECTION('',(1.E0,0.E0,0.E0));
#67=AXIS2_PLACEMENT_3D('',#64,#65,#66);
#69=CARTESIAN_POINT('',(-9.9E0,-9.9E0,0.E0));
#70=DIRECTION('',(0.E0,0.E0,1.E0));
#71=DIRECTION('',(-8.584905660378E-1,5.128293556575E-1,0.E0));
#72=AXIS2_PLACEMENT_3D('',#69,#70,#71);
#74=DIRECTION('',(1.E0,0.E0,0.E0));
#75=VECTOR('',#74,1.64E1);
#76=CARTESIAN_POINT('',(-9.9E0,-1.25E1,0.E0));
#77=LINE('',#76,#75);
#78=DIRECTION('',(0.E0,1.E0,0.E0));
#79=VECTOR('',#78,1.473214430307E0);
#80=CARTESIAN_POINT('',(6.5E0,-1.25E1,0.E0));
#81=LINE('',#80,#79);
#82=CARTESIAN_POINT('',(0.E0,0.E0,0.E0));
#83=DIRECTION('',(0.E0,0.E0,1.E0));
#84=DIRECTION('',(5.078125E-1,-8.614676226323E-1,0.E0));
#85=AXIS2_PLACEMENT_3D('',#82,#83,#84);
#87=DIRECTION('',(0.E0,1.E0,0.E0));
#88=VECTOR('',#87,6.545227269233E0);
#89=CARTESIAN_POINT('',(1.1E1,-6.545227268782E0,0.E0));
#90=LINE('',#89,#88);
#91=DIRECTION('',(0.E0,0.E0,1.E0));
#92=VECTOR('',#91,1.95E1);
#93=CARTESIAN_POINT('',(1.1075E1,9.9E0,0.E0));
#94=LINE('',#93,#92);
#95=DIRECTION('',(0.E0,0.E0,1.E0));
#96=VECTOR('',#95,1.95E1);
#97=CARTESIAN_POINT('',(8.725E0,9.9E0,0.E0));
#98=LINE('',#97,#96);
#99=CARTESIAN_POINT('',(9.9E0,9.9E0,1.95E1));
#100=DIRECTION('',(0.E0,0.E0,-1.E0));
#101=DIRECTION('',(1.E0,0.E0,0.E0));
#102=AXIS2_PLACEMENT_3D('',#99,#100,#101);
#104=CARTESIAN_POINT('',(9.9E0,9.9E0,1.95E1));
#105=DIRECTION('',(0.E0,0.E0,-1.E0));
#106=DIRECTION('',(-1.E0,0.E0,0.E0));
#107=AXIS2_PLACEMENT_3D('',#104,#105,#106);
#109=CARTESIAN_POINT('',(-9.9E0,-9.9E0,1.95E1));
#110=DIRECTION('',(0.E0,0.E0,-1.E0));
#111=DIRECTION('',(1.E0,0.E0,0.E0));
#112=AXIS2_PLACEMENT_3D('',#109,#110,#111);
#114=CARTESIAN_POINT('',(-9.9E0,-9.9E0,1.95E1));
#115=DIRECTION('',(0.E0,0.E0,-1.E0));
#116=DIRECTION('',(-1.E0,0.E0,0.E0));
#117=AXIS2_PLACEMENT_3D('',#114,#115,#116);
#119=DIRECTION('',(0.E0,-1.E0,0.E0));
#120=VECTOR('',#119,1.100923609881E1);
#121=CARTESIAN_POINT('',(-1.1E1,6.545227268781E0,1.95E1));
#122=LINE('',#121,#120);
#123=CARTESIAN_POINT('',(0.E0,0.E0,1.95E1));
#124=DIRECTION('',(0.E0,0.E0,1.E0));
#125=DIRECTION('',(3.102429061156E-1,9.506573195452E-1,0.E0));
#126=AXIS2_PLACEMENT_3D('',#123,#124,#125);
#128=CARTESIAN_POINT('',(5.832566634974E0,1.787235760745E1,1.95E1));
#129=DIRECTION('',(0.E0,0.E0,-1.E0));
#130=DIRECTION('',(4.544618284946E-1,-8.907662131229E-1,0.E0));
#131=AXIS2_PLACEMENT_3D('',#128,#129,#130);
#133=CARTESIAN_POINT('',(9.9E0,9.9E0,1.95E1));
#134=DIRECTION('',(0.E0,0.E0,1.E0));
#135=DIRECTION('',(6.890756302521E-1,-7.246894340286E-1,0.E0));
#136=AXIS2_PLACEMENT_3D('',#133,#134,#135);
#138=CARTESIAN_POINT('',(1.4E1,5.588097867530E0,1.95E1));
#139=DIRECTION('',(0.E0,0.E0,-1.E0));
#140=DIRECTION('',(-1.E0,0.E0,0.E0));
#141=AXIS2_PLACEMENT_3D('',#138,#139,#140);
#143=DIRECTION('',(0.E0,1.E0,0.E0));
#144=VECTOR('',#143,1.213332513631E1);
#145=CARTESIAN_POINT('',(1.1E1,-6.545227268782E0,1.95E1));
#146=LINE('',#145,#144);
#147=CARTESIAN_POINT('',(0.E0,0.E0,1.95E1));
#148=DIRECTION('',(0.E0,0.E0,1.E0));
#149=DIRECTION('',(5.078125E-1,-8.614676226323E-1,0.E0));
#150=AXIS2_PLACEMENT_3D('',#147,#148,#149);
#152=DIRECTION('',(0.E0,1.E0,0.E0));
#153=VECTOR('',#152,1.473214430307E0);
#154=CARTESIAN_POINT('',(6.5E0,-1.25E1,1.95E1));
#155=LINE('',#154,#153);
#156=DIRECTION('',(1.E0,0.E0,0.E0));
#157=VECTOR('',#156,1.64E1);
#158=CARTESIAN_POINT('',(-9.9E0,-1.25E1,1.95E1));
#159=LINE('',#158,#157);
#160=CARTESIAN_POINT('',(-9.9E0,-9.9E0,1.95E1));
#161=DIRECTION('',(0.E0,0.E0,1.E0));
#162=DIRECTION('',(-8.584905660378E-1,5.128293556575E-1,0.E0));
#163=AXIS2_PLACEMENT_3D('',#160,#161,#162);
#165=CARTESIAN_POINT('',(-1.9E1,-4.464008830029E0,1.95E1));
#166=DIRECTION('',(0.E0,0.E0,-1.E0));
#167=DIRECTION('',(1.E0,0.E0,0.E0));
#168=AXIS2_PLACEMENT_3D('',#165,#166,#167);
#170=DIRECTION('',(0.E0,0.E0,1.E0));
#171=VECTOR('',#170,1.95E1);
#172=CARTESIAN_POINT('',(-8.725E0,-9.9E0,0.E0));
#173=LINE('',#172,#171);
#174=DIRECTION('',(0.E0,0.E0,1.E0));
#175=VECTOR('',#174,1.95E1);
#176=CARTESIAN_POINT('',(-1.1075E1,-9.9E0,0.E0));
#177=LINE('',#176,#175);
#178=DIRECTION('',(0.E0,0.E0,1.E0));
#179=VECTOR('',#178,1.95E1);
#180=CARTESIAN_POINT('',(-1.1E1,6.545227268781E0,0.E0));
#181=LINE('',#180,#179);
#182=DIRECTION('',(0.E0,0.E0,1.E0));
#183=VECTOR('',#182,1.95E1);
#184=CARTESIAN_POINT('',(3.971109198280E0,1.216841369018E1,0.E0));
#185=LINE('',#184,#183);
#186=DIRECTION('',(0.E0,0.E0,1.E0));
#187=VECTOR('',#186,1.95E1);
#188=CARTESIAN_POINT('',(8.559337605941E0,1.252776032871E1,0.E0));
#189=LINE('',#188,#187);
#190=DIRECTION('',(0.E0,0.E0,1.E0));
#191=VECTOR('',#190,1.95E1);
#192=CARTESIAN_POINT('',(1.193277310924E1,7.762166169616E0,0.E0));
#193=LINE('',#192,#191);
#194=DIRECTION('',(0.E0,0.E0,1.E0));
#195=VECTOR('',#194,1.95E1);
#196=CARTESIAN_POINT('',(1.1E1,5.588097867530E0,0.E0));
#197=LINE('',#196,#195);
#198=DIRECTION('',(0.E0,0.E0,1.E0));
#199=VECTOR('',#198,1.95E1);
#200=CARTESIAN_POINT('',(1.1E1,-6.545227268782E0,0.E0));
#201=LINE('',#200,#199);
#202=DIRECTION('',(0.E0,0.E0,1.E0));
#203=VECTOR('',#202,1.95E1);
#204=CARTESIAN_POINT('',(6.5E0,-1.102678556969E1,0.E0));
#205=LINE('',#204,#203);
#206=DIRECTION('',(0.E0,0.E0,1.E0));
#207=VECTOR('',#206,1.95E1);
#208=CARTESIAN_POINT('',(6.5E0,-1.25E1,0.E0));
#209=LINE('',#208,#207);
#210=DIRECTION('',(0.E0,0.E0,1.E0));
#211=VECTOR('',#210,1.95E1);
#212=CARTESIAN_POINT('',(-9.9E0,-1.25E1,0.E0));
#213=LINE('',#212,#211);
#214=CARTESIAN_POINT('',(-3.81E0,-1.25E1,3.81E0));
#215=DIRECTION('',(0.E0,1.E0,0.E0));
#216=DIRECTION('',(1.E0,0.E0,0.E0));
#217=AXIS2_PLACEMENT_3D('',#214,#215,#216);
#219=CARTESIAN_POINT('',(-3.81E0,-1.25E1,3.81E0));
#220=DIRECTION('',(0.E0,1.E0,0.E0));
#221=DIRECTION('',(-1.E0,0.E0,0.E0));
#222=AXIS2_PLACEMENT_3D('',#219,#220,#221);
#224=CARTESIAN_POINT('',(3.81E0,-1.25E1,8.89E0));
#225=DIRECTION('',(0.E0,1.E0,0.E0));
#226=DIRECTION('',(1.E0,0.E0,0.E0));
#227=AXIS2_PLACEMENT_3D('',#224,#225,#226);
#229=CARTESIAN_POINT('',(3.81E0,-1.25E1,8.89E0));
#230=DIRECTION('',(0.E0,1.E0,0.E0));
#231=DIRECTION('',(-1.E0,0.E0,0.E0));
#232=AXIS2_PLACEMENT_3D('',#229,#230,#231);
#234=CARTESIAN_POINT('',(-3.81E0,-1.25E1,1.27E1));
#235=DIRECTION('',(0.E0,1.E0,0.E0));
#236=DIRECTION('',(1.E0,0.E0,0.E0));
#237=AXIS2_PLACEMENT_3D('',#234,#235,#236);
#239=CARTESIAN_POINT('',(-3.81E0,-1.25E1,1.27E1));
#240=DIRECTION('',(0.E0,1.E0,0.E0));
#241=DIRECTION('',(-1.E0,0.E0,0.E0));
#242=AXIS2_PLACEMENT_3D('',#239,#240,#241);
#244=CARTESIAN_POINT('',(3.81E0,-1.25E1,1.3335E1));
#245=DIRECTION('',(0.E0,1.E0,0.E0));
#246=DIRECTION('',(1.E0,0.E0,0.E0));
#247=AXIS2_PLACEMENT_3D('',#244,#245,#246);
#249=CARTESIAN_POINT('',(3.81E0,-1.25E1,1.3335E1));
#250=DIRECTION('',(0.E0,1.E0,0.E0));
#251=DIRECTION('',(-1.E0,0.E0,0.E0));
#252=AXIS2_PLACEMENT_3D('',#249,#250,#251);
#254=CARTESIAN_POINT('',(0.E0,-1.25E1,1.7145E1));
#255=DIRECTION('',(0.E0,1.E0,0.E0));
#256=DIRECTION('',(1.E0,0.E0,0.E0));
#257=AXIS2_PLACEMENT_3D('',#254,#255,#256);
#259=CARTESIAN_POINT('',(0.E0,-1.25E1,1.7145E1));
#260=DIRECTION('',(0.E0,1.E0,0.E0));
#261=DIRECTION('',(-1.E0,0.E0,0.E0));
#262=AXIS2_PLACEMENT_3D('',#259,#260,#261);
#264=DIRECTION('',(0.E0,0.E0,1.E0));
#265=VECTOR('',#264,1.95E1);
#266=CARTESIAN_POINT('',(-1.213207547170E1,-8.566643675290E0,0.E0));
#267=LINE('',#266,#265);
#268=DIRECTION('',(0.E0,0.E0,1.E0));
#269=VECTOR('',#268,1.95E1);
#270=CARTESIAN_POINT('',(-1.1E1,-4.464008830029E0,0.E0));
#271=LINE('',#270,#269);
#272=DIRECTION('',(0.E0,1.E0,0.E0));
#273=VECTOR('',#272,1.5E0);
#274=CARTESIAN_POINT('',(-3.01E0,-1.4E1,3.81E0));
#275=LINE('',#274,#273);
#276=DIRECTION('',(0.E0,1.E0,0.E0));
#277=VECTOR('',#276,1.5E0);
#278=CARTESIAN_POINT('',(-4.61E0,-1.4E1,3.81E0));
#279=LINE('',#278,#277);
#280=CARTESIAN_POINT('',(-3.81E0,-1.4E1,3.81E0));
#281=DIRECTION('',(0.E0,-1.E0,0.E0));
#282=DIRECTION('',(-1.E0,0.E0,0.E0));
#283=AXIS2_PLACEMENT_3D('',#280,#281,#282);
#285=CARTESIAN_POINT('',(-3.81E0,-1.4E1,3.81E0));
#286=DIRECTION('',(0.E0,-1.E0,0.E0));
#287=DIRECTION('',(1.E0,0.E0,0.E0));
#288=AXIS2_PLACEMENT_3D('',#285,#286,#287);
#290=CARTESIAN_POINT('',(3.81E0,-1.4E1,8.89E0));
#291=DIRECTION('',(0.E0,-1.E0,0.E0));
#292=DIRECTION('',(-1.E0,0.E0,0.E0));
#293=AXIS2_PLACEMENT_3D('',#290,#291,#292);
#295=CARTESIAN_POINT('',(3.81E0,-1.4E1,8.89E0));
#296=DIRECTION('',(0.E0,-1.E0,0.E0));
#297=DIRECTION('',(1.E0,0.E0,0.E0));
#298=AXIS2_PLACEMENT_3D('',#295,#296,#297);
#300=DIRECTION('',(0.E0,1.E0,0.E0));
#301=VECTOR('',#300,1.5E0);
#302=CARTESIAN_POINT('',(4.61E0,-1.4E1,8.89E0));
#303=LINE('',#302,#301);
#304=DIRECTION('',(0.E0,1.E0,0.E0));
#305=VECTOR('',#304,1.5E0);
#306=CARTESIAN_POINT('',(3.01E0,-1.4E1,8.89E0));
#307=LINE('',#306,#305);
#308=DIRECTION('',(0.E0,-1.E0,0.E0));
#309=VECTOR('',#308,3.5E0);
#310=CARTESIAN_POINT('',(-3.01E0,-1.25E1,1.27E1));
#311=LINE('',#310,#309);
#312=DIRECTION('',(0.E0,-1.E0,0.E0));
#313=VECTOR('',#312,3.5E0);
#314=CARTESIAN_POINT('',(-4.61E0,-1.25E1,1.27E1));
#315=LINE('',#314,#313);
#316=CARTESIAN_POINT('',(-3.81E0,-1.6E1,1.27E1));
#317=DIRECTION('',(0.E0,1.E0,0.E0));
#318=DIRECTION('',(1.E0,0.E0,0.E0));
#319=AXIS2_PLACEMENT_3D('',#316,#317,#318);
#321=CARTESIAN_POINT('',(-3.81E0,-1.6E1,1.27E1));
#322=DIRECTION('',(0.E0,1.E0,0.E0));
#323=DIRECTION('',(-1.E0,0.E0,0.E0));
#324=AXIS2_PLACEMENT_3D('',#321,#322,#323);
#326=CARTESIAN_POINT('',(3.81E0,-1.6E1,1.3335E1));
#327=DIRECTION('',(0.E0,1.E0,0.E0));
#328=DIRECTION('',(1.E0,0.E0,0.E0));
#329=AXIS2_PLACEMENT_3D('',#326,#327,#328);
#331=CARTESIAN_POINT('',(3.81E0,-1.6E1,1.3335E1));
#332=DIRECTION('',(0.E0,1.E0,0.E0));
#333=DIRECTION('',(-1.E0,0.E0,0.E0));
#334=AXIS2_PLACEMENT_3D('',#331,#332,#333);
#336=CARTESIAN_POINT('',(0.E0,-1.6E1,1.7145E1));
#337=DIRECTION('',(0.E0,1.E0,0.E0));
#338=DIRECTION('',(1.E0,0.E0,0.E0));
#339=AXIS2_PLACEMENT_3D('',#336,#337,#338);
#341=CARTESIAN_POINT('',(0.E0,-1.6E1,1.7145E1));
#342=DIRECTION('',(0.E0,1.E0,0.E0));
#343=DIRECTION('',(-1.E0,0.E0,0.E0));
#344=AXIS2_PLACEMENT_3D('',#341,#342,#343);
#346=DIRECTION('',(0.E0,-1.E0,0.E0));
#347=VECTOR('',#346,3.5E0);
#348=CARTESIAN_POINT('',(4.61E0,-1.25E1,1.3335E1));
#349=LINE('',#348,#347);
#350=DIRECTION('',(0.E0,-1.E0,0.E0));
#351=VECTOR('',#350,3.5E0);
#352=CARTESIAN_POINT('',(3.01E0,-1.25E1,1.3335E1));
#353=LINE('',#352,#351);
#354=DIRECTION('',(0.E0,-1.E0,0.E0));
#355=VECTOR('',#354,3.5E0);
#356=CARTESIAN_POINT('',(6.E-1,-1.25E1,1.7145E1));
#357=LINE('',#356,#355);
#358=DIRECTION('',(0.E0,-1.E0,0.E0));
#359=VECTOR('',#358,3.5E0);
#360=CARTESIAN_POINT('',(-6.E-1,-1.25E1,1.7145E1));
#361=LINE('',#360,#359);
#362=DIRECTION('',(0.E0,0.E0,1.E0));
#363=VECTOR('',#362,4.E-1);
#364=CARTESIAN_POINT('',(2.5E0,1.071214264281E1,-3.1E0));
#365=LINE('',#364,#363);
#366=DIRECTION('',(1.315819881037E-14,0.E0,-1.E0));
#367=VECTOR('',#366,2.7E0);
#368=CARTESIAN_POINT('',(-1.1E1,0.E0,0.E0));
#369=LINE('',#368,#367);
#370=CARTESIAN_POINT('',(0.E0,0.E0,-2.7E0));
#371=DIRECTION('',(0.E0,0.E0,-1.E0));
#372=DIRECTION('',(-1.E0,0.E0,0.E0));
#373=AXIS2_PLACEMENT_3D('',#370,#371,#372);
#375=DIRECTION('',(0.E0,-1.E0,0.E0));
#376=VECTOR('',#375,1.288104230328E0);
#377=CARTESIAN_POINT('',(-2.5E0,1.071214264281E1,-2.7E0));
#378=LINE('',#377,#376);
#379=CARTESIAN_POINT('',(0.E0,0.E0,-2.7E0));
#380=DIRECTION('',(0.E0,0.E0,-1.E0));
#381=DIRECTION('',(-1.E0,0.E0,0.E0));
#382=AXIS2_PLACEMENT_3D('',#379,#380,#381);
#384=CARTESIAN_POINT('',(0.E0,0.E0,-2.7E0));
#385=DIRECTION('',(0.E0,0.E0,-1.E0));
#386=DIRECTION('',(1.E0,0.E0,0.E0));
#387=AXIS2_PLACEMENT_3D('',#384,#385,#386);
#389=CARTESIAN_POINT('',(0.E0,0.E0,-2.7E0));
#390=DIRECTION('',(0.E0,0.E0,-1.E0));
#391=DIRECTION('',(2.272727272727E-1,9.738311493468E-1,0.E0));
#392=AXIS2_PLACEMENT_3D('',#389,#390,#391);
#394=DIRECTION('',(0.E0,1.E0,0.E0));
#395=VECTOR('',#394,1.288104230328E0);
#396=CARTESIAN_POINT('',(2.5E0,9.424038412487E0,-2.7E0));
#397=LINE('',#396,#395);
#398=CARTESIAN_POINT('',(0.E0,0.E0,-2.7E0));
#399=DIRECTION('',(0.E0,0.E0,-1.E0));
#400=DIRECTION('',(2.564102564103E-1,9.665680423062E-1,0.E0));
#401=AXIS2_PLACEMENT_3D('',#398,#399,#400);
#403=CARTESIAN_POINT('',(0.E0,0.E0,-2.7E0));
#404=DIRECTION('',(0.E0,0.E0,-1.E0));
#405=DIRECTION('',(1.E0,0.E0,0.E0));
#406=AXIS2_PLACEMENT_3D('',#403,#404,#405);
#408=CARTESIAN_POINT('',(4.05E0,0.E0,-2.7E0));
#409=DIRECTION('',(0.E0,0.E0,-1.E0));
#410=DIRECTION('',(-1.E0,0.E0,0.E0));
#411=AXIS2_PLACEMENT_3D('',#408,#409,#410);
#413=CARTESIAN_POINT('',(4.05E0,0.E0,-2.7E0));
#414=DIRECTION('',(0.E0,0.E0,-1.E0));
#415=DIRECTION('',(1.E0,0.E0,0.E0));
#416=AXIS2_PLACEMENT_3D('',#413,#414,#415);
#418=CARTESIAN_POINT('',(0.E0,-3.95E0,-2.7E0));
#419=DIRECTION('',(0.E0,0.E0,-1.E0));
#420=DIRECTION('',(-1.E0,0.E0,0.E0));
#421=AXIS2_PLACEMENT_3D('',#418,#419,#420);
#423=CARTESIAN_POINT('',(0.E0,-3.95E0,-2.7E0));
#424=DIRECTION('',(0.E0,0.E0,-1.E0));
#425=DIRECTION('',(1.E0,0.E0,0.E0));
#426=AXIS2_PLACEMENT_3D('',#423,#424,#425);
#428=CARTESIAN_POINT('',(-4.05E0,0.E0,-2.7E0));
#429=DIRECTION('',(0.E0,0.E0,-1.E0));
#430=DIRECTION('',(-1.E0,0.E0,0.E0));
#431=AXIS2_PLACEMENT_3D('',#428,#429,#430);
#433=CARTESIAN_POINT('',(-4.05E0,0.E0,-2.7E0));
#434=DIRECTION('',(0.E0,0.E0,-1.E0));
#435=DIRECTION('',(1.E0,0.E0,0.E0));
#436=AXIS2_PLACEMENT_3D('',#433,#434,#435);
#438=CARTESIAN_POINT('',(0.E0,0.E0,-2.7E0));
#439=DIRECTION('',(0.E0,0.E0,-1.E0));
#440=DIRECTION('',(1.E0,0.E0,0.E0));
#441=AXIS2_PLACEMENT_3D('',#438,#439,#440);
#443=CARTESIAN_POINT('',(0.E0,0.E0,-2.7E0));
#444=DIRECTION('',(0.E0,0.E0,-1.E0));
#445=DIRECTION('',(-1.E0,0.E0,0.E0));
#446=AXIS2_PLACEMENT_3D('',#443,#444,#445);
#448=DIRECTION('',(-7.507222356989E-14,3.425831047415E-13,-1.E0));
#449=VECTOR('',#448,4.2E0);
#450=CARTESIAN_POINT('',(2.5E0,9.424038412487E0,-2.7E0));
#451=LINE('',#450,#449);
#452=DIRECTION('',(-7.517795909605E-14,-3.421601626369E-13,1.E0));
#453=VECTOR('',#452,4.2E0);
#454=CARTESIAN_POINT('',(-2.5E0,9.424038412488E0,-6.9E0));
#455=LINE('',#454,#453);
#456=DIRECTION('',(0.E0,0.E0,1.E0));
#457=VECTOR('',#456,1.3E1);
#458=CARTESIAN_POINT('',(-9.75E0,0.E0,-2.7E0));
#459=LINE('',#458,#457);
#460=DIRECTION('',(0.E0,0.E0,-1.E0));
#461=VECTOR('',#460,3.8E0);
#462=CARTESIAN_POINT('',(2.5E0,1.125E1,-3.1E0));
#463=LINE('',#462,#461);
#464=CARTESIAN_POINT('',(0.E0,0.E0,-3.1E0));
#465=DIRECTION('',(0.E0,0.E0,1.E0));
#466=DIRECTION('',(2.272727272727E-1,9.738311493468E-1,0.E0));
#467=AXIS2_PLACEMENT_3D('',#464,#465,#466);
#469=DIRECTION('',(0.E0,-1.E0,0.E0));
#470=VECTOR('',#469,5.378573571857E-1);
#471=CARTESIAN_POINT('',(-2.5E0,1.125E1,-3.1E0));
#472=LINE('',#471,#470);
#473=DIRECTION('',(1.E0,0.E0,0.E0));
#474=VECTOR('',#473,5.E-1);
#475=CARTESIAN_POINT('',(-3.E0,1.125E1,-3.1E0));
#476=LINE('',#475,#474);
#477=CARTESIAN_POINT('',(-3.E0,1.325E1,-3.1E0));
#478=DIRECTION('',(0.E0,0.E0,-1.E0));
#479=DIRECTION('',(0.E0,-1.E0,0.E0));
#480=AXIS2_PLACEMENT_3D('',#477,#478,#479);
#482=DIRECTION('',(0.E0,-1.E0,0.E0));
#483=VECTOR('',#482,8.161984870957E-1);
#484=CARTESIAN_POINT('',(-5.E0,1.406619848710E1,-3.1E0));
#485=LINE('',#484,#483);
#486=CARTESIAN_POINT('',(-3.E0,1.406619848710E1,-3.1E0));
#487=DIRECTION('',(0.E0,0.E0,-1.E0));
#488=DIRECTION('',(-1.E0,0.E0,0.E0));
#489=AXIS2_PLACEMENT_3D('',#486,#487,#488);
#491=CARTESIAN_POINT('',(0.E0,6.65E0,-3.1E0));
#492=DIRECTION('',(0.E0,0.E0,1.E0));
#493=DIRECTION('',(3.75E-1,9.270248108870E-1,0.E0));
#494=AXIS2_PLACEMENT_3D('',#491,#492,#493);
#496=CARTESIAN_POINT('',(3.E0,1.406619848710E1,-3.1E0));
#497=DIRECTION('',(0.E0,0.E0,-1.E0));
#498=DIRECTION('',(3.75E-1,9.270248108870E-1,0.E0));
#499=AXIS2_PLACEMENT_3D('',#496,#497,#498);
#501=DIRECTION('',(0.E0,1.E0,0.E0));
#502=VECTOR('',#501,8.161984870957E-1);
#503=CARTESIAN_POINT('',(5.E0,1.325E1,-3.1E0));
#504=LINE('',#503,#502);
#505=CARTESIAN_POINT('',(3.E0,1.325E1,-3.1E0));
#506=DIRECTION('',(0.E0,0.E0,-1.E0));
#507=DIRECTION('',(1.E0,0.E0,0.E0));
#508=AXIS2_PLACEMENT_3D('',#505,#506,#507);
#510=DIRECTION('',(1.E0,0.E0,0.E0));
#511=VECTOR('',#510,5.E-1);
#512=CARTESIAN_POINT('',(2.5E0,1.125E1,-3.1E0));
#513=LINE('',#512,#511);
#514=DIRECTION('',(0.E0,1.E0,0.E0));
#515=VECTOR('',#514,5.378573571857E-1);
#516=CARTESIAN_POINT('',(2.5E0,1.071214264281E1,-3.1E0));
#517=LINE('',#516,#515);
#518=DIRECTION('',(0.E0,0.E0,1.E0));
#519=VECTOR('',#518,4.E-1);
#520=CARTESIAN_POINT('',(-2.5E0,1.071214264281E1,-3.1E0));
#521=LINE('',#520,#519);
#522=CARTESIAN_POINT('',(0.E0,6.65E0,-6.9E0));
#523=DIRECTION('',(0.E0,0.E0,1.E0));
#524=DIRECTION('',(3.75E-1,9.270248108870E-1,0.E0));
#525=AXIS2_PLACEMENT_3D('',#522,#523,#524);
#527=CARTESIAN_POINT('',(-3.E0,1.406619848710E1,-6.9E0));
#528=DIRECTION('',(0.E0,0.E0,-1.E0));
#529=DIRECTION('',(-1.E0,0.E0,0.E0));
#530=AXIS2_PLACEMENT_3D('',#527,#528,#529);
#532=DIRECTION('',(0.E0,-1.E0,0.E0));
#533=VECTOR('',#532,8.161984870957E-1);
#534=CARTESIAN_POINT('',(-5.E0,1.406619848710E1,-6.9E0));
#535=LINE('',#534,#533);
#536=CARTESIAN_POINT('',(-3.E0,1.325E1,-6.9E0));
#537=DIRECTION('',(0.E0,0.E0,-1.E0));
#538=DIRECTION('',(0.E0,-1.E0,0.E0));
#539=AXIS2_PLACEMENT_3D('',#536,#537,#538);
#541=DIRECTION('',(1.E0,0.E0,0.E0));
#542=VECTOR('',#541,5.E-1);
#543=CARTESIAN_POINT('',(-3.E0,1.125E1,-6.9E0));
#544=LINE('',#543,#542);
#545=DIRECTION('',(1.726779693231E-13,-1.E0,0.E0));
#546=VECTOR('',#545,1.825961587512E0);
#547=CARTESIAN_POINT('',(-2.5E0,1.125E1,-6.9E0));
#548=LINE('',#547,#546);
#549=CARTESIAN_POINT('',(0.E0,0.E0,-6.9E0));
#550=DIRECTION('',(0.E0,0.E0,-1.E0));
#551=DIRECTION('',(-2.564102564102E-1,9.665680423062E-1,0.E0));
#552=AXIS2_PLACEMENT_3D('',#549,#550,#551);
#554=DIRECTION('',(1.726779693231E-13,1.E0,0.E0));
#555=VECTOR('',#554,1.825961587512E0);
#556=CARTESIAN_POINT('',(2.5E0,9.424038412488E0,-6.9E0));
#557=LINE('',#556,#555);
#558=DIRECTION('',(1.E0,0.E0,0.E0));
#559=VECTOR('',#558,5.E-1);
#560=CARTESIAN_POINT('',(2.5E0,1.125E1,-6.9E0));
#561=LINE('',#560,#559);
#562=CARTESIAN_POINT('',(3.E0,1.325E1,-6.9E0));
#563=DIRECTION('',(0.E0,0.E0,-1.E0));
#564=DIRECTION('',(1.E0,0.E0,0.E0));
#565=AXIS2_PLACEMENT_3D('',#562,#563,#564);
#567=DIRECTION('',(0.E0,1.E0,0.E0));
#568=VECTOR('',#567,8.161984870957E-1);
#569=CARTESIAN_POINT('',(5.E0,1.325E1,-6.9E0));
#570=LINE('',#569,#568);
#571=CARTESIAN_POINT('',(3.E0,1.406619848710E1,-6.9E0));
#572=DIRECTION('',(0.E0,0.E0,-1.E0));
#573=DIRECTION('',(3.75E-1,9.270248108869E-1,0.E0));
#574=AXIS2_PLACEMENT_3D('',#571,#572,#573);
#576=DIRECTION('',(0.E0,0.E0,1.E0));
#577=VECTOR('',#576,3.8E0);
#578=CARTESIAN_POINT('',(-3.75E0,1.592024810887E1,-6.9E0));
#579=LINE('',#578,#577);
#580=DIRECTION('',(0.E0,0.E0,1.E0));
#581=VECTOR('',#580,3.8E0);
#582=CARTESIAN_POINT('',(3.75E0,1.592024810887E1,-6.9E0));
#583=LINE('',#582,#581);
#584=DIRECTION('',(0.E0,0.E0,1.E0));
#585=VECTOR('',#584,3.8E0);
#586=CARTESIAN_POINT('',(5.E0,1.406619848710E1,-6.9E0));
#587=LINE('',#586,#585);
#588=DIRECTION('',(0.E0,0.E0,1.E0));
#589=VECTOR('',#588,3.8E0);
#590=CARTESIAN_POINT('',(5.E0,1.325E1,-6.9E0));
#591=LINE('',#590,#589);
#592=DIRECTION('',(0.E0,0.E0,1.E0));
#593=VECTOR('',#592,3.8E0);
#594=CARTESIAN_POINT('',(3.E0,1.125E1,-6.9E0));
#595=LINE('',#594,#593);
#596=DIRECTION('',(0.E0,0.E0,1.E0));
#597=VECTOR('',#596,3.8E0);
#598=CARTESIAN_POINT('',(-5.E0,1.406619848710E1,-6.9E0));
#599=LINE('',#598,#597);
#600=DIRECTION('',(0.E0,0.E0,1.E0));
#601=VECTOR('',#600,3.8E0);
#602=CARTESIAN_POINT('',(-5.E0,1.325E1,-6.9E0));
#603=LINE('',#602,#601);
#604=DIRECTION('',(0.E0,0.E0,1.E0));
#605=VECTOR('',#604,3.8E0);
#606=CARTESIAN_POINT('',(-3.E0,1.125E1,-6.9E0));
#607=LINE('',#606,#605);
#608=DIRECTION('',(0.E0,0.E0,-1.E0));
#609=VECTOR('',#608,3.8E0);
#610=CARTESIAN_POINT('',(-2.5E0,1.125E1,-3.1E0));
#611=LINE('',#610,#609);
#612=DIRECTION('',(0.E0,0.E0,1.E0));
#613=VECTOR('',#612,1.3E1);
#614=CARTESIAN_POINT('',(9.75E0,0.E0,-2.7E0));
#615=LINE('',#614,#613);
#616=CARTESIAN_POINT('',(0.E0,0.E0,1.03E1));
#617=DIRECTION('',(0.E0,0.E0,-1.E0));
#618=DIRECTION('',(-1.E0,0.E0,0.E0));
#619=AXIS2_PLACEMENT_3D('',#616,#617,#618);
#621=CARTESIAN_POINT('',(0.E0,0.E0,1.03E1));
#622=DIRECTION('',(0.E0,0.E0,-1.E0));
#623=DIRECTION('',(1.E0,0.E0,0.E0));
#624=AXIS2_PLACEMENT_3D('',#621,#622,#623);
#626=CARTESIAN_POINT('',(4.05E0,0.E0,1.03E1));
#627=DIRECTION('',(0.E0,0.E0,-1.E0));
#628=DIRECTION('',(-1.E0,0.E0,0.E0));
#629=AXIS2_PLACEMENT_3D('',#626,#627,#628);
#631=CARTESIAN_POINT('',(4.05E0,0.E0,1.03E1));
#632=DIRECTION('',(0.E0,0.E0,-1.E0));
#633=DIRECTION('',(1.E0,0.E0,0.E0));
#634=AXIS2_PLACEMENT_3D('',#631,#632,#633);
#636=CARTESIAN_POINT('',(0.E0,-3.95E0,1.03E1));
#637=DIRECTION('',(0.E0,0.E0,-1.E0));
#638=DIRECTION('',(-1.E0,0.E0,0.E0));
#639=AXIS2_PLACEMENT_3D('',#636,#637,#638);
#641=CARTESIAN_POINT('',(0.E0,-3.95E0,1.03E1));
#642=DIRECTION('',(0.E0,0.E0,-1.E0));
#643=DIRECTION('',(1.E0,0.E0,0.E0));
#644=AXIS2_PLACEMENT_3D('',#641,#642,#643);
#646=CARTESIAN_POINT('',(-4.05E0,0.E0,1.03E1));
#647=DIRECTION('',(0.E0,0.E0,-1.E0));
#648=DIRECTION('',(-1.E0,0.E0,0.E0));
#649=AXIS2_PLACEMENT_3D('',#646,#647,#648);
#651=CARTESIAN_POINT('',(-4.05E0,0.E0,1.03E1));
#652=DIRECTION('',(0.E0,0.E0,-1.E0));
#653=DIRECTION('',(1.E0,0.E0,0.E0));
#654=AXIS2_PLACEMENT_3D('',#651,#652,#653);
#656=CARTESIAN_POINT('',(0.E0,0.E0,1.03E1));
#657=DIRECTION('',(0.E0,0.E0,1.E0));
#658=DIRECTION('',(-1.E0,0.E0,0.E0));
#659=AXIS2_PLACEMENT_3D('',#656,#657,#658);
#661=CARTESIAN_POINT('',(0.E0,0.E0,1.03E1));
#662=DIRECTION('',(0.E0,0.E0,1.E0));
#663=DIRECTION('',(1.E0,0.E0,0.E0));
#664=AXIS2_PLACEMENT_3D('',#661,#662,#663);
#666=DIRECTION('',(0.E0,0.E0,1.E0));
#667=VECTOR('',#666,1.3E1);
#668=CARTESIAN_POINT('',(2.8E0,0.E0,-2.7E0));
#669=LINE('',#668,#667);
#670=DIRECTION('',(0.E0,0.E0,1.E0));
#671=VECTOR('',#670,1.3E1);
#672=CARTESIAN_POINT('',(5.3E0,0.E0,-2.7E0));
#673=LINE('',#672,#671);
#674=DIRECTION('',(0.E0,0.E0,1.E0));
#675=VECTOR('',#674,1.3E1);
#676=CARTESIAN_POINT('',(-1.25E0,-3.95E0,-2.7E0));
#677=LINE('',#676,#675);
#678=DIRECTION('',(0.E0,0.E0,1.E0));
#679=VECTOR('',#678,1.3E1);
#680=CARTESIAN_POINT('',(1.25E0,-3.95E0,-2.7E0));
#681=LINE('',#680,#679);
#682=DIRECTION('',(0.E0,0.E0,1.E0));
#683=VECTOR('',#682,1.3E1);
#684=CARTESIAN_POINT('',(-5.3E0,0.E0,-2.7E0));
#685=LINE('',#684,#683);
#686=DIRECTION('',(0.E0,0.E0,1.E0));
#687=VECTOR('',#686,1.3E1);
#688=CARTESIAN_POINT('',(-2.8E0,0.E0,-2.7E0));
#689=LINE('',#688,#687);
#690=DIRECTION('',(0.E0,0.E0,1.E0));
#691=VECTOR('',#690,1.3E1);
#692=CARTESIAN_POINT('',(-7.925E0,0.E0,-2.7E0));
#693=LINE('',#692,#691);
#694=DIRECTION('',(0.E0,0.E0,1.E0));
#695=VECTOR('',#694,1.3E1);
#696=CARTESIAN_POINT('',(7.925E0,0.E0,-2.7E0));
#697=LINE('',#696,#695);
#698=DIRECTION('',(0.E0,-1.671196174590E-10,-1.E0));
#699=VECTOR('',#698,2.7E0);
#700=CARTESIAN_POINT('',(1.1E1,4.512243142064E-10,0.E0));
#701=LINE('',#700,#699);
#702=CARTESIAN_POINT('',(-1.213207547170E1,-8.566643675290E0,0.E0));
#703=CARTESIAN_POINT('',(-9.9E0,-1.25E1,0.E0));
#704=VERTEX_POINT('',#702);
#705=VERTEX_POINT('',#703);
#706=CARTESIAN_POINT('',(6.5E0,-1.25E1,0.E0));
#707=VERTEX_POINT('',#706);
#708=CARTESIAN_POINT('',(6.5E0,-1.102678556969E1,0.E0));
#709=VERTEX_POINT('',#708);
#710=CARTESIAN_POINT('',(1.193277310924E1,7.762166169616E0,0.E0));
#711=CARTESIAN_POINT('',(8.559337605941E0,1.252776032871E1,0.E0));
#712=VERTEX_POINT('',#710);
#713=VERTEX_POINT('',#711);
#714=CARTESIAN_POINT('',(3.971109198280E0,1.216841369018E1,0.E0));
#715=VERTEX_POINT('',#714);
#716=CARTESIAN_POINT('',(-1.1E1,6.545227268781E0,0.E0));
#717=VERTEX_POINT('',#716);
#718=CARTESIAN_POINT('',(-1.1E1,6.545227268781E0,1.95E1));
#719=CARTESIAN_POINT('',(-1.1E1,-4.464008830029E0,1.95E1));
#720=VERTEX_POINT('',#718);
#721=VERTEX_POINT('',#719);
#722=CARTESIAN_POINT('',(-1.213207547170E1,-8.566643675290E0,1.95E1));
#723=CARTESIAN_POINT('',(-9.9E0,-1.25E1,1.95E1));
#724=VERTEX_POINT('',#722);
#725=VERTEX_POINT('',#723);
#726=CARTESIAN_POINT('',(6.5E0,-1.25E1,1.95E1));
#727=VERTEX_POINT('',#726);
#728=CARTESIAN_POINT('',(6.5E0,-1.102678556969E1,1.95E1));
#729=VERTEX_POINT('',#728);
#730=CARTESIAN_POINT('',(1.1E1,-6.545227268782E0,1.95E1));
#731=CARTESIAN_POINT('',(1.1E1,5.588097867530E0,1.95E1));
#732=VERTEX_POINT('',#730);
#733=VERTEX_POINT('',#731);
#734=CARTESIAN_POINT('',(1.193277310924E1,7.762166169616E0,1.95E1));
#735=CARTESIAN_POINT('',(8.559337605941E0,1.252776032871E1,1.95E1));
#736=VERTEX_POINT('',#734);
#737=VERTEX_POINT('',#735);
#738=CARTESIAN_POINT('',(3.971109198280E0,1.216841369018E1,1.95E1));
#739=VERTEX_POINT('',#738);
#740=CARTESIAN_POINT('',(1.1075E1,9.9E0,0.E0));
#741=CARTESIAN_POINT('',(8.725E0,9.9E0,0.E0));
#742=VERTEX_POINT('',#740);
#743=VERTEX_POINT('',#741);
#744=CARTESIAN_POINT('',(-8.725E0,-9.9E0,0.E0));
#745=CARTESIAN_POINT('',(-1.1075E1,-9.9E0,0.E0));
#746=VERTEX_POINT('',#744);
#747=VERTEX_POINT('',#745);
#748=CARTESIAN_POINT('',(1.1075E1,9.9E0,1.95E1));
#749=CARTESIAN_POINT('',(8.725E0,9.9E0,1.95E1));
#750=VERTEX_POINT('',#748);
#751=VERTEX_POINT('',#749);
#752=CARTESIAN_POINT('',(-8.725E0,-9.9E0,1.95E1));
#753=CARTESIAN_POINT('',(-1.1075E1,-9.9E0,1.95E1));
#754=VERTEX_POINT('',#752);
#755=VERTEX_POINT('',#753);
#756=CARTESIAN_POINT('',(1.1E1,0.E0,-2.7E0));
#757=CARTESIAN_POINT('',(-1.1E1,0.E0,-2.7E0));
#758=VERTEX_POINT('',#756);
#759=VERTEX_POINT('',#757);
#760=CARTESIAN_POINT('',(-1.1E1,0.E0,0.E0));
#761=CARTESIAN_POINT('',(1.1E1,9.464703567700E-7,0.E0));
#762=VERTEX_POINT('',#760);
#763=VERTEX_POINT('',#761);
#764=CARTESIAN_POINT('',(-1.1E1,-4.464008830029E0,0.E0));
#765=VERTEX_POINT('',#764);
#766=CARTESIAN_POINT('',(1.1E1,-6.545227268782E0,0.E0));
#767=VERTEX_POINT('',#766);
#768=CARTESIAN_POINT('',(1.1E1,5.588097867530E0,0.E0));
#769=VERTEX_POINT('',#768);
#770=CARTESIAN_POINT('',(-4.61E0,-1.4E1,3.81E0));
#771=CARTESIAN_POINT('',(-3.01E0,-1.4E1,3.81E0));
#772=VERTEX_POINT('',#770);
#773=VERTEX_POINT('',#771);
#774=CARTESIAN_POINT('',(3.01E0,-1.4E1,8.89E0));
#775=CARTESIAN_POINT('',(4.61E0,-1.4E1,8.89E0));
#776=VERTEX_POINT('',#774);
#777=VERTEX_POINT('',#775);
#778=CARTESIAN_POINT('',(-3.01E0,-1.25E1,3.81E0));
#779=VERTEX_POINT('',#778);
#780=CARTESIAN_POINT('',(-4.61E0,-1.25E1,3.81E0));
#781=VERTEX_POINT('',#780);
#782=CARTESIAN_POINT('',(4.61E0,-1.25E1,8.89E0));
#783=VERTEX_POINT('',#782);
#784=CARTESIAN_POINT('',(3.01E0,-1.25E1,8.89E0));
#785=VERTEX_POINT('',#784);
#786=CARTESIAN_POINT('',(-9.75E0,0.E0,1.03E1));
#787=CARTESIAN_POINT('',(9.75E0,0.E0,1.03E1));
#788=VERTEX_POINT('',#786);
#789=VERTEX_POINT('',#787);
#790=CARTESIAN_POINT('',(-9.75E0,0.E0,-2.7E0));
#791=CARTESIAN_POINT('',(-2.5E0,9.424038412485E0,-2.7E0));
#792=VERTEX_POINT('',#790);
#793=VERTEX_POINT('',#791);
#794=CARTESIAN_POINT('',(9.75E0,0.E0,-2.7E0));
#795=VERTEX_POINT('',#794);
#796=CARTESIAN_POINT('',(-3.01E0,-1.6E1,1.27E1));
#797=CARTESIAN_POINT('',(-4.61E0,-1.6E1,1.27E1));
#798=VERTEX_POINT('',#796);
#799=VERTEX_POINT('',#797);
#800=CARTESIAN_POINT('',(4.61E0,-1.6E1,1.3335E1));
#801=CARTESIAN_POINT('',(3.01E0,-1.6E1,1.3335E1));
#802=VERTEX_POINT('',#800);
#803=VERTEX_POINT('',#801);
#804=CARTESIAN_POINT('',(6.E-1,-1.6E1,1.7145E1));
#805=CARTESIAN_POINT('',(-6.E-1,-1.6E1,1.7145E1));
#806=VERTEX_POINT('',#804);
#807=VERTEX_POINT('',#805);
#808=CARTESIAN_POINT('',(-3.01E0,-1.25E1,1.27E1));
#809=CARTESIAN_POINT('',(-4.61E0,-1.25E1,1.27E1));
#810=VERTEX_POINT('',#808);
#811=VERTEX_POINT('',#809);
#812=CARTESIAN_POINT('',(4.61E0,-1.25E1,1.3335E1));
#813=CARTESIAN_POINT('',(3.01E0,-1.25E1,1.3335E1));
#814=VERTEX_POINT('',#812);
#815=VERTEX_POINT('',#813);
#816=CARTESIAN_POINT('',(6.E-1,-1.25E1,1.7145E1));
#817=CARTESIAN_POINT('',(-6.E-1,-1.25E1,1.7145E1));
#818=VERTEX_POINT('',#816);
#819=VERTEX_POINT('',#817);
#820=CARTESIAN_POINT('',(2.8E0,0.E0,1.03E1));
#821=CARTESIAN_POINT('',(5.3E0,0.E0,1.03E1));
#822=VERTEX_POINT('',#820);
#823=VERTEX_POINT('',#821);
#824=CARTESIAN_POINT('',(-1.25E0,-3.95E0,1.03E1));
#825=CARTESIAN_POINT('',(1.25E0,-3.95E0,1.03E1));
#826=VERTEX_POINT('',#824);
#827=VERTEX_POINT('',#825);
#828=CARTESIAN_POINT('',(-5.3E0,0.E0,1.03E1));
#829=CARTESIAN_POINT('',(-2.8E0,0.E0,1.03E1));
#830=VERTEX_POINT('',#828);
#831=VERTEX_POINT('',#829);
#832=CARTESIAN_POINT('',(2.8E0,0.E0,-2.7E0));
#833=CARTESIAN_POINT('',(5.3E0,0.E0,-2.7E0));
#834=VERTEX_POINT('',#832);
#835=VERTEX_POINT('',#833);
#836=CARTESIAN_POINT('',(-1.25E0,-3.95E0,-2.7E0));
#837=CARTESIAN_POINT('',(1.25E0,-3.95E0,-2.7E0));
#838=VERTEX_POINT('',#836);
#839=VERTEX_POINT('',#837);
#840=CARTESIAN_POINT('',(-5.3E0,0.E0,-2.7E0));
#841=CARTESIAN_POINT('',(-2.8E0,0.E0,-2.7E0));
#842=VERTEX_POINT('',#840);
#843=VERTEX_POINT('',#841);
#844=CARTESIAN_POINT('',(3.75E0,1.592024810887E1,-6.9E0));
#845=CARTESIAN_POINT('',(-3.75E0,1.592024810887E1,-6.9E0));
#846=VERTEX_POINT('',#844);
#847=VERTEX_POINT('',#845);
#848=CARTESIAN_POINT('',(5.E0,1.325E1,-6.9E0));
#849=CARTESIAN_POINT('',(5.E0,1.406619848710E1,-6.9E0));
#850=VERTEX_POINT('',#848);
#851=VERTEX_POINT('',#849);
#852=CARTESIAN_POINT('',(-3.E0,1.125E1,-6.9E0));
#853=CARTESIAN_POINT('',(-2.5E0,1.125E1,-6.9E0));
#854=VERTEX_POINT('',#852);
#855=VERTEX_POINT('',#853);
#856=CARTESIAN_POINT('',(-5.E0,1.406619848710E1,-6.9E0));
#857=CARTESIAN_POINT('',(-5.E0,1.325E1,-6.9E0));
#858=VERTEX_POINT('',#856);
#859=VERTEX_POINT('',#857);
#860=CARTESIAN_POINT('',(3.75E0,1.592024810887E1,-3.1E0));
#861=CARTESIAN_POINT('',(-3.75E0,1.592024810887E1,-3.1E0));
#862=VERTEX_POINT('',#860);
#863=VERTEX_POINT('',#861);
#864=CARTESIAN_POINT('',(5.E0,1.325E1,-3.1E0));
#865=CARTESIAN_POINT('',(5.E0,1.406619848710E1,-3.1E0));
#866=VERTEX_POINT('',#864);
#867=VERTEX_POINT('',#865);
#868=CARTESIAN_POINT('',(-3.E0,1.125E1,-3.1E0));
#869=CARTESIAN_POINT('',(-2.5E0,1.125E1,-3.1E0));
#870=VERTEX_POINT('',#868);
#871=VERTEX_POINT('',#869);
#872=CARTESIAN_POINT('',(-5.E0,1.406619848710E1,-3.1E0));
#873=CARTESIAN_POINT('',(-5.E0,1.325E1,-3.1E0));
#874=VERTEX_POINT('',#872);
#875=VERTEX_POINT('',#873);
#876=CARTESIAN_POINT('',(2.5E0,1.125E1,-6.9E0));
#877=CARTESIAN_POINT('',(3.E0,1.125E1,-6.9E0));
#878=VERTEX_POINT('',#876);
#879=VERTEX_POINT('',#877);
#880=CARTESIAN_POINT('',(2.5E0,9.424038412488E0,-6.9E0));
#881=VERTEX_POINT('',#880);
#882=CARTESIAN_POINT('',(-2.499999999999E0,9.424038412486E0,-6.9E0));
#883=VERTEX_POINT('',#882);
#884=CARTESIAN_POINT('',(2.5E0,1.125E1,-3.1E0));
#885=CARTESIAN_POINT('',(3.E0,1.125E1,-3.1E0));
#886=VERTEX_POINT('',#884);
#887=VERTEX_POINT('',#885);
#888=CARTESIAN_POINT('',(2.5E0,1.071214264281E1,-3.1E0));
#889=CARTESIAN_POINT('',(-2.5E0,1.071214264281E1,-3.1E0));
#890=VERTEX_POINT('',#888);
#891=VERTEX_POINT('',#889);
#892=CARTESIAN_POINT('',(-2.5E0,1.071214264281E1,-2.7E0));
#893=VERTEX_POINT('',#892);
#894=CARTESIAN_POINT('',(2.5E0,1.071214264281E1,-2.7E0));
#895=VERTEX_POINT('',#894);
#896=CARTESIAN_POINT('',(2.5E0,9.424038412485E0,-2.7E0));
#897=VERTEX_POINT('',#896);
#898=CARTESIAN_POINT('',(-7.925E0,0.E0,1.03E1));
#899=CARTESIAN_POINT('',(7.925E0,0.E0,1.03E1));
#900=VERTEX_POINT('',#898);
#901=VERTEX_POINT('',#899);
#902=CARTESIAN_POINT('',(7.925E0,0.E0,-2.7E0));
#903=CARTESIAN_POINT('',(-7.925E0,0.E0,-2.7E0));
#904=VERTEX_POINT('',#902);
#905=VERTEX_POINT('',#903);
#906=CARTESIAN_POINT('',(0.E0,0.E0,0.E0));
#907=DIRECTION('',(0.E0,0.E0,1.E0));
#908=DIRECTION('',(1.E0,0.E0,0.E0));
#909=AXIS2_PLACEMENT_3D('',#906,#907,#908);
#910=PLANE('',#909);
#912=ORIENTED_EDGE('',*,*,#911,.T.);
#914=ORIENTED_EDGE('',*,*,#913,.T.);
#916=ORIENTED_EDGE('',*,*,#915,.T.);
#918=ORIENTED_EDGE('',*,*,#917,.T.);
#920=ORIENTED_EDGE('',*,*,#919,.T.);
#922=ORIENTED_EDGE('',*,*,#921,.T.);
#924=ORIENTED_EDGE('',*,*,#923,.T.);
#925=EDGE_LOOP('',(#912,#914,#916,#918,#920,#922,#924));
#926=FACE_OUTER_BOUND('',#925,.F.);
#928=ORIENTED_EDGE('',*,*,#927,.T.);
#930=ORIENTED_EDGE('',*,*,#929,.T.);
#931=EDGE_LOOP('',(#928,#930));
#932=FACE_BOUND('',#931,.F.);
#933=ADVANCED_FACE('',(#926,#932),#910,.F.);
#934=CARTESIAN_POINT('',(0.E0,0.E0,0.E0));
#935=DIRECTION('',(0.E0,0.E0,1.E0));
#936=DIRECTION('',(1.E0,0.E0,0.E0));
#937=AXIS2_PLACEMENT_3D('',#934,#935,#936);
#938=PLANE('',#937);
#940=ORIENTED_EDGE('',*,*,#939,.T.);
#942=ORIENTED_EDGE('',*,*,#941,.T.);
#944=ORIENTED_EDGE('',*,*,#943,.T.);
#946=ORIENTED_EDGE('',*,*,#945,.T.);
#948=ORIENTED_EDGE('',*,*,#947,.T.);
#950=ORIENTED_EDGE('',*,*,#949,.T.);
#952=ORIENTED_EDGE('',*,*,#951,.T.);
#954=ORIENTED_EDGE('',*,*,#953,.T.);
#955=EDGE_LOOP('',(#940,#942,#944,#946,#948,#950,#952,#954));
#956=FACE_OUTER_BOUND('',#955,.F.);
#958=ORIENTED_EDGE('',*,*,#957,.T.);
#960=ORIENTED_EDGE('',*,*,#959,.T.);
#961=EDGE_LOOP('',(#958,#960));
#962=FACE_BOUND('',#961,.F.);
#963=ADVANCED_FACE('',(#956,#962),#938,.F.);
#964=CARTESIAN_POINT('',(9.9E0,9.9E0,0.E0));
#965=DIRECTION('',(0.E0,0.E0,1.E0));
#966=DIRECTION('',(1.E0,0.E0,0.E0));
#967=AXIS2_PLACEMENT_3D('',#964,#965,#966);
#968=CYLINDRICAL_SURFACE('',#967,1.175E0);
#969=ORIENTED_EDGE('',*,*,#927,.F.);
#971=ORIENTED_EDGE('',*,*,#970,.T.);
#973=ORIENTED_EDGE('',*,*,#972,.T.);
#975=ORIENTED_EDGE('',*,*,#974,.F.);
#976=EDGE_LOOP('',(#969,#971,#973,#975));
#977=FACE_OUTER_BOUND('',#976,.F.);
#978=ADVANCED_FACE('',(#977),#968,.F.);
#979=CARTESIAN_POINT('',(9.9E0,9.9E0,0.E0));
#980=DIRECTION('',(0.E0,0.E0,1.E0));
#981=DIRECTION('',(1.E0,0.E0,0.E0));
#982=AXIS2_PLACEMENT_3D('',#979,#980,#981);
#983=CYLINDRICAL_SURFACE('',#982,1.175E0);
#984=ORIENTED_EDGE('',*,*,#929,.F.);
#985=ORIENTED_EDGE('',*,*,#974,.T.);
#987=ORIENTED_EDGE('',*,*,#986,.T.);
#988=ORIENTED_EDGE('',*,*,#970,.F.);
#989=EDGE_LOOP('',(#984,#985,#987,#988));
#990=FACE_OUTER_BOUND('',#989,.F.);
#991=ADVANCED_FACE('',(#990),#983,.F.);
#992=CARTESIAN_POINT('',(0.E0,0.E0,1.95E1));
#993=DIRECTION('',(0.E0,0.E0,1.E0));
#994=DIRECTION('',(1.E0,0.E0,0.E0));
#995=AXIS2_PLACEMENT_3D('',#992,#993,#994);
#996=PLANE('',#995);
#998=ORIENTED_EDGE('',*,*,#997,.F.);
#1000=ORIENTED_EDGE('',*,*,#999,.F.);
#1002=ORIENTED_EDGE('',*,*,#1001,.F.);
#1004=ORIENTED_EDGE('',*,*,#1003,.F.);
#1006=ORIENTED_EDGE('',*,*,#1005,.F.);
#1008=ORIENTED_EDGE('',*,*,#1007,.F.);
#1010=ORIENTED_EDGE('',*,*,#1009,.F.);
#1012=ORIENTED_EDGE('',*,*,#1011,.F.);
#1014=ORIENTED_EDGE('',*,*,#1013,.F.);
#1016=ORIENTED_EDGE('',*,*,#1015,.F.);
#1018=ORIENTED_EDGE('',*,*,#1017,.F.);
#1019=EDGE_LOOP('',(#998,#1000,#1002,#1004,#1006,#1008,#1010,#1012,#1014,#1016,
#1018));
#1020=FACE_OUTER_BOUND('',#1019,.F.);
#1021=ORIENTED_EDGE('',*,*,#972,.F.);
#1022=ORIENTED_EDGE('',*,*,#986,.F.);
#1023=EDGE_LOOP('',(#1021,#1022));
#1024=FACE_BOUND('',#1023,.F.);
#1026=ORIENTED_EDGE('',*,*,#1025,.F.);
#1028=ORIENTED_EDGE('',*,*,#1027,.F.);
#1029=EDGE_LOOP('',(#1026,#1028));
#1030=FACE_BOUND('',#1029,.F.);
#1031=ADVANCED_FACE('',(#1020,#1024,#1030),#996,.T.);
#1032=CARTESIAN_POINT('',(-9.9E0,-9.9E0,0.E0));
#1033=DIRECTION('',(0.E0,0.E0,1.E0));
#1034=DIRECTION('',(1.E0,0.E0,0.E0));
#1035=AXIS2_PLACEMENT_3D('',#1032,#1033,#1034);
#1036=CYLINDRICAL_SURFACE('',#1035,1.175E0);
#1037=ORIENTED_EDGE('',*,*,#957,.F.);
#1039=ORIENTED_EDGE('',*,*,#1038,.T.);
#1040=ORIENTED_EDGE('',*,*,#1025,.T.);
#1042=ORIENTED_EDGE('',*,*,#1041,.F.);
#1043=EDGE_LOOP('',(#1037,#1039,#1040,#1042));
#1044=FACE_OUTER_BOUND('',#1043,.F.);
#1045=ADVANCED_FACE('',(#1044),#1036,.F.);
#1046=CARTESIAN_POINT('',(-9.9E0,-9.9E0,0.E0));
#1047=DIRECTION('',(0.E0,0.E0,1.E0));
#1048=DIRECTION('',(1.E0,0.E0,0.E0));
#1049=AXIS2_PLACEMENT_3D('',#1046,#1047,#1048);
#1050=CYLINDRICAL_SURFACE('',#1049,1.175E0);
#1051=ORIENTED_EDGE('',*,*,#959,.F.);
#1052=ORIENTED_EDGE('',*,*,#1041,.T.);
#1053=ORIENTED_EDGE('',*,*,#1027,.T.);
#1054=ORIENTED_EDGE('',*,*,#1038,.F.);
#1055=EDGE_LOOP('',(#1051,#1052,#1053,#1054));
#1056=FACE_OUTER_BOUND('',#1055,.F.);
#1057=ADVANCED_FACE('',(#1056),#1050,.F.);
#1058=CARTESIAN_POINT('',(-1.1E1,6.545227268781E0,0.E0));
#1059=DIRECTION('',(-1.E0,0.E0,0.E0));
#1060=DIRECTION('',(0.E0,-1.E0,0.E0));
#1061=AXIS2_PLACEMENT_3D('',#1058,#1059,#1060);
#1062=PLANE('',#1061);
#1063=ORIENTED_EDGE('',*,*,#923,.F.);
#1065=ORIENTED_EDGE('',*,*,#1064,.T.);
#1066=ORIENTED_EDGE('',*,*,#997,.T.);
#1068=ORIENTED_EDGE('',*,*,#1067,.F.);
#1069=ORIENTED_EDGE('',*,*,#941,.F.);
#1070=EDGE_LOOP('',(#1063,#1065,#1066,#1068,#1069));
#1071=FACE_OUTER_BOUND('',#1070,.F.);
#1072=ADVANCED_FACE('',(#1071),#1062,.T.);
#1073=CARTESIAN_POINT('',(0.E0,0.E0,0.E0));
#1074=DIRECTION('',(0.E0,0.E0,1.E0));
#1075=DIRECTION('',(1.E0,0.E0,0.E0));
#1076=AXIS2_PLACEMENT_3D('',#1073,#1074,#1075);
#1077=CYLINDRICAL_SURFACE('',#1076,1.28E1);
#1078=ORIENTED_EDGE('',*,*,#921,.F.);
#1080=ORIENTED_EDGE('',*,*,#1079,.T.);
#1081=ORIENTED_EDGE('',*,*,#999,.T.);
#1082=ORIENTED_EDGE('',*,*,#1064,.F.);
#1083=EDGE_LOOP('',(#1078,#1080,#1081,#1082));
#1084=FACE_OUTER_BOUND('',#1083,.F.);
#1085=ADVANCED_FACE('',(#1084),#1077,.T.);
#1086=CARTESIAN_POINT('',(5.832566634974E0,1.787235760745E1,0.E0));
#1087=DIRECTION('',(0.E0,0.E0,1.E0));
#1088=DIRECTION('',(1.E0,0.E0,0.E0));
#1089=AXIS2_PLACEMENT_3D('',#1086,#1087,#1088);
#1090=CYLINDRICAL_SURFACE('',#1089,6.E0);
#1091=ORIENTED_EDGE('',*,*,#919,.F.);
#1093=ORIENTED_EDGE('',*,*,#1092,.T.);
#1094=ORIENTED_EDGE('',*,*,#1001,.T.);
#1095=ORIENTED_EDGE('',*,*,#1079,.F.);
#1096=EDGE_LOOP('',(#1091,#1093,#1094,#1095));
#1097=FACE_OUTER_BOUND('',#1096,.F.);
#1098=ADVANCED_FACE('',(#1097),#1090,.F.);
#1099=CARTESIAN_POINT('',(9.9E0,9.9E0,0.E0));
#1100=DIRECTION('',(0.E0,0.E0,1.E0));
#1101=DIRECTION('',(1.E0,0.E0,0.E0));
#1102=AXIS2_PLACEMENT_3D('',#1099,#1100,#1101);
#1103=CYLINDRICAL_SURFACE('',#1102,2.95E0);
#1104=ORIENTED_EDGE('',*,*,#917,.F.);
#1106=ORIENTED_EDGE('',*,*,#1105,.T.);
#1107=ORIENTED_EDGE('',*,*,#1003,.T.);
#1108=ORIENTED_EDGE('',*,*,#1092,.F.);
#1109=EDGE_LOOP('',(#1104,#1106,#1107,#1108));
#1110=FACE_OUTER_BOUND('',#1109,.F.);
#1111=ADVANCED_FACE('',(#1110),#1103,.T.);
#1112=CARTESIAN_POINT('',(1.4E1,5.588097867530E0,0.E0));
#1113=DIRECTION('',(0.E0,0.E0,1.E0));
#1114=DIRECTION('',(1.E0,0.E0,0.E0));
#1115=AXIS2_PLACEMENT_3D('',#1112,#1113,#1114);
#1116=CYLINDRICAL_SURFACE('',#1115,3.E0);
#1117=ORIENTED_EDGE('',*,*,#915,.F.);
#1119=ORIENTED_EDGE('',*,*,#1118,.T.);
#1120=ORIENTED_EDGE('',*,*,#1005,.T.);
#1121=ORIENTED_EDGE('',*,*,#1105,.F.);
#1122=EDGE_LOOP('',(#1117,#1119,#1120,#1121));
#1123=FACE_OUTER_BOUND('',#1122,.F.);
#1124=ADVANCED_FACE('',(#1123),#1116,.F.);
#1125=CARTESIAN_POINT('',(1.1E1,-6.545227268782E0,0.E0));
#1126=DIRECTION('',(1.E0,0.E0,0.E0));
#1127=DIRECTION('',(0.E0,1.E0,0.E0));
#1128=AXIS2_PLACEMENT_3D('',#1125,#1126,#1127);
#1129=PLANE('',#1128);
#1130=ORIENTED_EDGE('',*,*,#953,.F.);
#1132=ORIENTED_EDGE('',*,*,#1131,.T.);
#1133=ORIENTED_EDGE('',*,*,#1007,.T.);
#1134=ORIENTED_EDGE('',*,*,#1118,.F.);
#1135=ORIENTED_EDGE('',*,*,#913,.F.);
#1136=EDGE_LOOP('',(#1130,#1132,#1133,#1134,#1135));
#1137=FACE_OUTER_BOUND('',#1136,.F.);
#1138=ADVANCED_FACE('',(#1137),#1129,.T.);
#1139=CARTESIAN_POINT('',(0.E0,0.E0,0.E0));
#1140=DIRECTION('',(0.E0,0.E0,1.E0));
#1141=DIRECTION('',(1.E0,0.E0,0.E0));
#1142=AXIS2_PLACEMENT_3D('',#1139,#1140,#1141);
#1143=CYLINDRICAL_SURFACE('',#1142,1.28E1);
#1144=ORIENTED_EDGE('',*,*,#951,.F.);
#1146=ORIENTED_EDGE('',*,*,#1145,.T.);
#1147=ORIENTED_EDGE('',*,*,#1009,.T.);
#1148=ORIENTED_EDGE('',*,*,#1131,.F.);
#1149=EDGE_LOOP('',(#1144,#1146,#1147,#1148));
#1150=FACE_OUTER_BOUND('',#1149,.F.);
#1151=ADVANCED_FACE('',(#1150),#1143,.T.);
#1152=CARTESIAN_POINT('',(6.5E0,-1.25E1,0.E0));
#1153=DIRECTION('',(1.E0,0.E0,0.E0));
#1154=DIRECTION('',(0.E0,1.E0,0.E0));
#1155=AXIS2_PLACEMENT_3D('',#1152,#1153,#1154);
#1156=PLANE('',#1155);
#1157=ORIENTED_EDGE('',*,*,#949,.F.);
#1159=ORIENTED_EDGE('',*,*,#1158,.T.);
#1160=ORIENTED_EDGE('',*,*,#1011,.T.);
#1161=ORIENTED_EDGE('',*,*,#1145,.F.);
#1162=EDGE_LOOP('',(#1157,#1159,#1160,#1161));
#1163=FACE_OUTER_BOUND('',#1162,.F.);
#1164=ADVANCED_FACE('',(#1163),#1156,.T.);
#1165=CARTESIAN_POINT('',(-9.9E0,-1.25E1,0.E0));
#1166=DIRECTION('',(0.E0,-1.E0,0.E0));
#1167=DIRECTION('',(1.E0,0.E0,0.E0));
#1168=AXIS2_PLACEMENT_3D('',#1165,#1166,#1167);
#1169=PLANE('',#1168);
#1170=ORIENTED_EDGE('',*,*,#947,.F.);
#1172=ORIENTED_EDGE('',*,*,#1171,.T.);
#1173=ORIENTED_EDGE('',*,*,#1013,.T.);
#1174=ORIENTED_EDGE('',*,*,#1158,.F.);
#1175=EDGE_LOOP('',(#1170,#1172,#1173,#1174));
#1176=FACE_OUTER_BOUND('',#1175,.F.);
#1178=ORIENTED_EDGE('',*,*,#1177,.F.);
#1180=ORIENTED_EDGE('',*,*,#1179,.F.);
#1181=EDGE_LOOP('',(#1178,#1180));
#1182=FACE_BOUND('',#1181,.F.);
#1184=ORIENTED_EDGE('',*,*,#1183,.F.);
#1186=ORIENTED_EDGE('',*,*,#1185,.F.);
#1187=EDGE_LOOP('',(#1184,#1186));
#1188=FACE_BOUND('',#1187,.F.);
#1190=ORIENTED_EDGE('',*,*,#1189,.F.);
#1192=ORIENTED_EDGE('',*,*,#1191,.F.);
#1193=EDGE_LOOP('',(#1190,#1192));
#1194=FACE_BOUND('',#1193,.F.);
#1196=ORIENTED_EDGE('',*,*,#1195,.F.);
#1198=ORIENTED_EDGE('',*,*,#1197,.F.);
#1199=EDGE_LOOP('',(#1196,#1198));
#1200=FACE_BOUND('',#1199,.F.);
#1202=ORIENTED_EDGE('',*,*,#1201,.F.);
#1204=ORIENTED_EDGE('',*,*,#1203,.F.);
#1205=EDGE_LOOP('',(#1202,#1204));
#1206=FACE_BOUND('',#1205,.F.);
#1207=ADVANCED_FACE('',(#1176,#1182,#1188,#1194,#1200,#1206),#1169,.T.);
#1208=CARTESIAN_POINT('',(-9.9E0,-9.9E0,0.E0));
#1209=DIRECTION('',(0.E0,0.E0,1.E0));
#1210=DIRECTION('',(1.E0,0.E0,0.E0));
#1211=AXIS2_PLACEMENT_3D('',#1208,#1209,#1210);
#1212=CYLINDRICAL_SURFACE('',#1211,2.6E0);
#1213=ORIENTED_EDGE('',*,*,#945,.F.);
#1215=ORIENTED_EDGE('',*,*,#1214,.T.);
#1216=ORIENTED_EDGE('',*,*,#1015,.T.);
#1217=ORIENTED_EDGE('',*,*,#1171,.F.);
#1218=EDGE_LOOP('',(#1213,#1215,#1216,#1217));
#1219=FACE_OUTER_BOUND('',#1218,.F.);
#1220=ADVANCED_FACE('',(#1219),#1212,.T.);
#1221=CARTESIAN_POINT('',(-1.9E1,-4.464008830029E0,0.E0));
#1222=DIRECTION('',(0.E0,0.E0,1.E0));
#1223=DIRECTION('',(1.E0,0.E0,0.E0));
#1224=AXIS2_PLACEMENT_3D('',#1221,#1222,#1223);
#1225=CYLINDRICAL_SURFACE('',#1224,8.E0);
#1226=ORIENTED_EDGE('',*,*,#943,.F.);
#1227=ORIENTED_EDGE('',*,*,#1067,.T.);
#1228=ORIENTED_EDGE('',*,*,#1017,.T.);
#1229=ORIENTED_EDGE('',*,*,#1214,.F.);
#1230=EDGE_LOOP('',(#1226,#1227,#1228,#1229));
#1231=FACE_OUTER_BOUND('',#1230,.F.);
#1232=ADVANCED_FACE('',(#1231),#1225,.F.);
#1233=CARTESIAN_POINT('',(-3.81E0,0.E0,3.81E0));
#1234=DIRECTION('',(0.E0,1.E0,0.E0));
#1235=DIRECTION('',(1.E0,0.E0,0.E0));
#1236=AXIS2_PLACEMENT_3D('',#1233,#1234,#1235);
#1237=CYLINDRICAL_SURFACE('',#1236,8.E-1);
#1239=ORIENTED_EDGE('',*,*,#1238,.T.);
#1240=ORIENTED_EDGE('',*,*,#1177,.T.);
#1242=ORIENTED_EDGE('',*,*,#1241,.F.);
#1244=ORIENTED_EDGE('',*,*,#1243,.T.);
#1245=EDGE_LOOP('',(#1239,#1240,#1242,#1244));
#1246=FACE_OUTER_BOUND('',#1245,.F.);
#1247=ADVANCED_FACE('',(#1246),#1237,.T.);
#1248=CARTESIAN_POINT('',(-3.81E0,0.E0,3.81E0));
#1249=DIRECTION('',(0.E0,1.E0,0.E0));
#1250=DIRECTION('',(1.E0,0.E0,0.E0));
#1251=AXIS2_PLACEMENT_3D('',#1248,#1249,#1250);
#1252=CYLINDRICAL_SURFACE('',#1251,8.E-1);
#1253=ORIENTED_EDGE('',*,*,#1238,.F.);
#1255=ORIENTED_EDGE('',*,*,#1254,.T.);
#1256=ORIENTED_EDGE('',*,*,#1241,.T.);
#1257=ORIENTED_EDGE('',*,*,#1179,.T.);
#1258=EDGE_LOOP('',(#1253,#1255,#1256,#1257));
#1259=FACE_OUTER_BOUND('',#1258,.F.);
#1260=ADVANCED_FACE('',(#1259),#1252,.T.);
#1261=CARTESIAN_POINT('',(0.E0,-1.4E1,0.E0));
#1262=DIRECTION('',(0.E0,1.E0,0.E0));
#1263=DIRECTION('',(1.E0,0.E0,0.E0));
#1264=AXIS2_PLACEMENT_3D('',#1261,#1262,#1263);
#1265=PLANE('',#1264);
#1266=ORIENTED_EDGE('',*,*,#1243,.F.);
#1267=ORIENTED_EDGE('',*,*,#1254,.F.);
#1268=EDGE_LOOP('',(#1266,#1267));
#1269=FACE_OUTER_BOUND('',#1268,.F.);
#1270=ADVANCED_FACE('',(#1269),#1265,.F.);
#1271=CARTESIAN_POINT('',(0.E0,-1.4E1,0.E0));
#1272=DIRECTION('',(0.E0,1.E0,0.E0));
#1273=DIRECTION('',(1.E0,0.E0,0.E0));
#1274=AXIS2_PLACEMENT_3D('',#1271,#1272,#1273);
#1275=PLANE('',#1274);
#1277=ORIENTED_EDGE('',*,*,#1276,.F.);
#1279=ORIENTED_EDGE('',*,*,#1278,.F.);
#1280=EDGE_LOOP('',(#1277,#1279));
#1281=FACE_OUTER_BOUND('',#1280,.F.);
#1282=ADVANCED_FACE('',(#1281),#1275,.F.);
#1283=CARTESIAN_POINT('',(3.81E0,0.E0,8.89E0));
#1284=DIRECTION('',(0.E0,1.E0,0.E0));
#1285=DIRECTION('',(1.E0,0.E0,0.E0));
#1286=AXIS2_PLACEMENT_3D('',#1283,#1284,#1285);
#1287=CYLINDRICAL_SURFACE('',#1286,8.E-1);
#1289=ORIENTED_EDGE('',*,*,#1288,.T.);
#1290=ORIENTED_EDGE('',*,*,#1183,.T.);
#1292=ORIENTED_EDGE('',*,*,#1291,.F.);
#1293=ORIENTED_EDGE('',*,*,#1276,.T.);
#1294=EDGE_LOOP('',(#1289,#1290,#1292,#1293));
#1295=FACE_OUTER_BOUND('',#1294,.F.);
#1296=ADVANCED_FACE('',(#1295),#1287,.T.);
#1297=CARTESIAN_POINT('',(3.81E0,0.E0,8.89E0));
#1298=DIRECTION('',(0.E0,1.E0,0.E0));
#1299=DIRECTION('',(1.E0,0.E0,0.E0));
#1300=AXIS2_PLACEMENT_3D('',#1297,#1298,#1299);
#1301=CYLINDRICAL_SURFACE('',#1300,8.E-1);
#1302=ORIENTED_EDGE('',*,*,#1288,.F.);
#1303=ORIENTED_EDGE('',*,*,#1278,.T.);
#1304=ORIENTED_EDGE('',*,*,#1291,.T.);
#1305=ORIENTED_EDGE('',*,*,#1185,.T.);
#1306=EDGE_LOOP('',(#1302,#1303,#1304,#1305));
#1307=FACE_OUTER_BOUND('',#1306,.F.);
#1308=ADVANCED_FACE('',(#1307),#1301,.T.);
#1309=CARTESIAN_POINT('',(-3.81E0,0.E0,1.27E1));
#1310=DIRECTION('',(0.E0,1.E0,0.E0));
#1311=DIRECTION('',(1.E0,0.E0,0.E0));
#1312=AXIS2_PLACEMENT_3D('',#1309,#1310,#1311);
#1313=CYLINDRICAL_SURFACE('',#1312,8.E-1);
#1314=ORIENTED_EDGE('',*,*,#1189,.T.);
#1316=ORIENTED_EDGE('',*,*,#1315,.T.);
#1318=ORIENTED_EDGE('',*,*,#1317,.F.);
#1320=ORIENTED_EDGE('',*,*,#1319,.F.);
#1321=EDGE_LOOP('',(#1314,#1316,#1318,#1320));
#1322=FACE_OUTER_BOUND('',#1321,.F.);
#1323=ADVANCED_FACE('',(#1322),#1313,.T.);
#1324=CARTESIAN_POINT('',(-3.81E0,0.E0,1.27E1));
#1325=DIRECTION('',(0.E0,1.E0,0.E0));
#1326=DIRECTION('',(1.E0,0.E0,0.E0));
#1327=AXIS2_PLACEMENT_3D('',#1324,#1325,#1326);
#1328=CYLINDRICAL_SURFACE('',#1327,8.E-1);
#1329=ORIENTED_EDGE('',*,*,#1191,.T.);
#1330=ORIENTED_EDGE('',*,*,#1319,.T.);
#1332=ORIENTED_EDGE('',*,*,#1331,.F.);
#1333=ORIENTED_EDGE('',*,*,#1315,.F.);
#1334=EDGE_LOOP('',(#1329,#1330,#1332,#1333));
#1335=FACE_OUTER_BOUND('',#1334,.F.);
#1336=ADVANCED_FACE('',(#1335),#1328,.T.);
#1337=CARTESIAN_POINT('',(0.E0,-1.6E1,0.E0));
#1338=DIRECTION('',(0.E0,1.E0,0.E0));
#1339=DIRECTION('',(1.E0,0.E0,0.E0));
#1340=AXIS2_PLACEMENT_3D('',#1337,#1338,#1339);
#1341=PLANE('',#1340);
#1342=ORIENTED_EDGE('',*,*,#1317,.T.);
#1343=ORIENTED_EDGE('',*,*,#1331,.T.);
#1344=EDGE_LOOP('',(#1342,#1343));
#1345=FACE_OUTER_BOUND('',#1344,.F.);
#1346=ADVANCED_FACE('',(#1345),#1341,.F.);
#1347=CARTESIAN_POINT('',(0.E0,-1.6E1,0.E0));
#1348=DIRECTION('',(0.E0,1.E0,0.E0));
#1349=DIRECTION('',(1.E0,0.E0,0.E0));
#1350=AXIS2_PLACEMENT_3D('',#1347,#1348,#1349);
#1351=PLANE('',#1350);
#1353=ORIENTED_EDGE('',*,*,#1352,.T.);
#1355=ORIENTED_EDGE('',*,*,#1354,.T.);
#1356=EDGE_LOOP('',(#1353,#1355));
#1357=FACE_OUTER_BOUND('',#1356,.F.);
#1358=ADVANCED_FACE('',(#1357),#1351,.F.);
#1359=CARTESIAN_POINT('',(0.E0,-1.6E1,0.E0));
#1360=DIRECTION('',(0.E0,1.E0,0.E0));
#1361=DIRECTION('',(1.E0,0.E0,0.E0));
#1362=AXIS2_PLACEMENT_3D('',#1359,#1360,#1361);
#1363=PLANE('',#1362);
#1365=ORIENTED_EDGE('',*,*,#1364,.T.);
#1367=ORIENTED_EDGE('',*,*,#1366,.T.);
#1368=EDGE_LOOP('',(#1365,#1367));
#1369=FACE_OUTER_BOUND('',#1368,.F.);
#1370=ADVANCED_FACE('',(#1369),#1363,.F.);
#1371=CARTESIAN_POINT('',(3.81E0,0.E0,1.3335E1));
#1372=DIRECTION('',(0.E0,1.E0,0.E0));
#1373=DIRECTION('',(1.E0,0.E0,0.E0));
#1374=AXIS2_PLACEMENT_3D('',#1371,#1372,#1373);
#1375=CYLINDRICAL_SURFACE('',#1374,8.E-1);
#1376=ORIENTED_EDGE('',*,*,#1195,.T.);
#1378=ORIENTED_EDGE('',*,*,#1377,.T.);
#1379=ORIENTED_EDGE('',*,*,#1352,.F.);
#1381=ORIENTED_EDGE('',*,*,#1380,.F.);
#1382=EDGE_LOOP('',(#1376,#1378,#1379,#1381));
#1383=FACE_OUTER_BOUND('',#1382,.F.);
#1384=ADVANCED_FACE('',(#1383),#1375,.T.);
#1385=CARTESIAN_POINT('',(3.81E0,0.E0,1.3335E1));
#1386=DIRECTION('',(0.E0,1.E0,0.E0));
#1387=DIRECTION('',(1.E0,0.E0,0.E0));
#1388=AXIS2_PLACEMENT_3D('',#1385,#1386,#1387);
#1389=CYLINDRICAL_SURFACE('',#1388,8.E-1);
#1390=ORIENTED_EDGE('',*,*,#1197,.T.);
#1391=ORIENTED_EDGE('',*,*,#1380,.T.);
#1392=ORIENTED_EDGE('',*,*,#1354,.F.);
#1393=ORIENTED_EDGE('',*,*,#1377,.F.);
#1394=EDGE_LOOP('',(#1390,#1391,#1392,#1393));
#1395=FACE_OUTER_BOUND('',#1394,.F.);
#1396=ADVANCED_FACE('',(#1395),#1389,.T.);
#1397=CARTESIAN_POINT('',(0.E0,0.E0,1.7145E1));
#1398=DIRECTION('',(0.E0,1.E0,0.E0));
#1399=DIRECTION('',(1.E0,0.E0,0.E0));
#1400=AXIS2_PLACEMENT_3D('',#1397,#1398,#1399);
#1401=CYLINDRICAL_SURFACE('',#1400,6.E-1);
#1402=ORIENTED_EDGE('',*,*,#1201,.T.);
#1404=ORIENTED_EDGE('',*,*,#1403,.T.);
#1405=ORIENTED_EDGE('',*,*,#1364,.F.);
#1407=ORIENTED_EDGE('',*,*,#1406,.F.);
#1408=EDGE_LOOP('',(#1402,#1404,#1405,#1407));
#1409=FACE_OUTER_BOUND('',#1408,.F.);
#1410=ADVANCED_FACE('',(#1409),#1401,.T.);
#1411=CARTESIAN_POINT('',(0.E0,0.E0,1.7145E1));
#1412=DIRECTION('',(0.E0,1.E0,0.E0));
#1413=DIRECTION('',(1.E0,0.E0,0.E0));
#1414=AXIS2_PLACEMENT_3D('',#1411,#1412,#1413);
#1415=CYLINDRICAL_SURFACE('',#1414,6.E-1);
#1416=ORIENTED_EDGE('',*,*,#1203,.T.);
#1417=ORIENTED_EDGE('',*,*,#1406,.T.);
#1418=ORIENTED_EDGE('',*,*,#1366,.F.);
#1419=ORIENTED_EDGE('',*,*,#1403,.F.);
#1420=EDGE_LOOP('',(#1416,#1417,#1418,#1419));
#1421=FACE_OUTER_BOUND('',#1420,.F.);
#1422=ADVANCED_FACE('',(#1421),#1415,.T.);
#1423=CARTESIAN_POINT('',(0.E0,0.E0,0.E0));
#1424=DIRECTION('',(0.E0,0.E0,-1.E0));
#1425=DIRECTION('',(-1.E0,0.E0,0.E0));
#1426=AXIS2_PLACEMENT_3D('',#1423,#1424,#1425);
#1427=CYLINDRICAL_SURFACE('',#1426,1.1E1);
#1429=ORIENTED_EDGE('',*,*,#1428,.T.);
#1431=ORIENTED_EDGE('',*,*,#1430,.F.);
#1433=ORIENTED_EDGE('',*,*,#1432,.F.);
#1435=ORIENTED_EDGE('',*,*,#1434,.T.);
#1437=ORIENTED_EDGE('',*,*,#1436,.T.);
#1439=ORIENTED_EDGE('',*,*,#1438,.F.);
#1440=ORIENTED_EDGE('',*,*,#911,.F.);
#1442=ORIENTED_EDGE('',*,*,#1441,.T.);
#1443=EDGE_LOOP('',(#1429,#1431,#1433,#1435,#1437,#1439,#1440,#1442));
#1444=FACE_OUTER_BOUND('',#1443,.F.);
#1445=ADVANCED_FACE('',(#1444),#1427,.T.);
#1446=CARTESIAN_POINT('',(0.E0,0.E0,-2.7E0));
#1447=DIRECTION('',(0.E0,0.E0,-1.E0));
#1448=DIRECTION('',(-1.E0,0.E0,0.E0));
#1449=AXIS2_PLACEMENT_3D('',#1446,#1447,#1448);
#1450=PLANE('',#1449);
#1452=ORIENTED_EDGE('',*,*,#1451,.T.);
#1454=ORIENTED_EDGE('',*,*,#1453,.F.);
#1455=ORIENTED_EDGE('',*,*,#1428,.F.);
#1457=ORIENTED_EDGE('',*,*,#1456,.F.);
#1458=ORIENTED_EDGE('',*,*,#1436,.F.);
#1460=ORIENTED_EDGE('',*,*,#1459,.F.);
#1462=ORIENTED_EDGE('',*,*,#1461,.T.);
#1464=ORIENTED_EDGE('',*,*,#1463,.T.);
#1465=EDGE_LOOP('',(#1452,#1454,#1455,#1457,#1458,#1460,#1462,#1464));
#1466=FACE_OUTER_BOUND('',#1465,.F.);
#1467=ADVANCED_FACE('',(#1466),#1450,.T.);
#1468=CARTESIAN_POINT('',(0.E0,0.E0,-2.7E0));
#1469=DIRECTION('',(0.E0,0.E0,-1.E0));
#1470=DIRECTION('',(-1.E0,0.E0,0.E0));
#1471=AXIS2_PLACEMENT_3D('',#1468,#1469,#1470);
#1472=PLANE('',#1471);
#1474=ORIENTED_EDGE('',*,*,#1473,.F.);
#1476=ORIENTED_EDGE('',*,*,#1475,.F.);
#1477=EDGE_LOOP('',(#1474,#1476));
#1478=FACE_OUTER_BOUND('',#1477,.F.);
#1480=ORIENTED_EDGE('',*,*,#1479,.T.);
#1482=ORIENTED_EDGE('',*,*,#1481,.T.);
#1483=EDGE_LOOP('',(#1480,#1482));
#1484=FACE_BOUND('',#1483,.F.);
#1486=ORIENTED_EDGE('',*,*,#1485,.T.);
#1488=ORIENTED_EDGE('',*,*,#1487,.T.);
#1489=EDGE_LOOP('',(#1486,#1488));
#1490=FACE_BOUND('',#1489,.F.);
#1492=ORIENTED_EDGE('',*,*,#1491,.T.);
#1494=ORIENTED_EDGE('',*,*,#1493,.T.);
#1495=EDGE_LOOP('',(#1492,#1494));
#1496=FACE_BOUND('',#1495,.F.);
#1497=ADVANCED_FACE('',(#1478,#1484,#1490,#1496),#1472,.T.);
#1498=CARTESIAN_POINT('',(0.E0,0.E0,-2.7E0));
#1499=DIRECTION('',(0.E0,0.E0,-1.E0));
#1500=DIRECTION('',(-1.E0,0.E0,0.E0));
#1501=AXIS2_PLACEMENT_3D('',#1498,#1499,#1500);
#1502=CYLINDRICAL_SURFACE('',#1501,9.75E0);
#1503=ORIENTED_EDGE('',*,*,#1461,.F.);
#1505=ORIENTED_EDGE('',*,*,#1504,.T.);
#1507=ORIENTED_EDGE('',*,*,#1506,.F.);
#1509=ORIENTED_EDGE('',*,*,#1508,.T.);
#1510=ORIENTED_EDGE('',*,*,#1451,.F.);
#1512=ORIENTED_EDGE('',*,*,#1511,.T.);
#1514=ORIENTED_EDGE('',*,*,#1513,.T.);
#1516=ORIENTED_EDGE('',*,*,#1515,.F.);
#1517=EDGE_LOOP('',(#1503,#1505,#1507,#1509,#1510,#1512,#1514,#1516));
#1518=FACE_OUTER_BOUND('',#1517,.F.);
#1519=ADVANCED_FACE('',(#1518),#1502,.F.);
#1520=CARTESIAN_POINT('',(2.5E0,1.125E1,-6.9E0));
#1521=DIRECTION('',(1.E0,0.E0,0.E0));
#1522=DIRECTION('',(0.E0,-1.E0,0.E0));
#1523=AXIS2_PLACEMENT_3D('',#1520,#1521,#1522);
#1524=PLANE('',#1523);
#1525=ORIENTED_EDGE('',*,*,#1459,.T.);
#1526=ORIENTED_EDGE('',*,*,#1434,.F.);
#1528=ORIENTED_EDGE('',*,*,#1527,.T.);
#1530=ORIENTED_EDGE('',*,*,#1529,.T.);
#1532=ORIENTED_EDGE('',*,*,#1531,.F.);
#1533=ORIENTED_EDGE('',*,*,#1504,.F.);
#1534=EDGE_LOOP('',(#1525,#1526,#1528,#1530,#1532,#1533));
#1535=FACE_OUTER_BOUND('',#1534,.F.);
#1536=ADVANCED_FACE('',(#1535),#1524,.T.);
#1537=CARTESIAN_POINT('',(0.E0,0.E0,-3.1E0));
#1538=DIRECTION('',(0.E0,0.E0,1.E0));
#1539=DIRECTION('',(1.E0,0.E0,0.E0));
#1540=AXIS2_PLACEMENT_3D('',#1537,#1538,#1539);
#1541=PLANE('',#1540);
#1542=ORIENTED_EDGE('',*,*,#1432,.T.);
#1544=ORIENTED_EDGE('',*,*,#1543,.F.);
#1546=ORIENTED_EDGE('',*,*,#1545,.F.);
#1548=ORIENTED_EDGE('',*,*,#1547,.T.);
#1550=ORIENTED_EDGE('',*,*,#1549,.F.);
#1552=ORIENTED_EDGE('',*,*,#1551,.T.);
#1554=ORIENTED_EDGE('',*,*,#1553,.F.);
#1556=ORIENTED_EDGE('',*,*,#1555,.T.);
#1558=ORIENTED_EDGE('',*,*,#1557,.F.);
#1560=ORIENTED_EDGE('',*,*,#1559,.T.);
#1562=ORIENTED_EDGE('',*,*,#1561,.F.);
#1563=ORIENTED_EDGE('',*,*,#1527,.F.);
#1564=EDGE_LOOP('',(#1542,#1544,#1546,#1548,#1550,#1552,#1554,#1556,#1558,#1560,
#1562,#1563));
#1565=FACE_OUTER_BOUND('',#1564,.F.);
#1566=ADVANCED_FACE('',(#1565),#1541,.T.);
#1567=CARTESIAN_POINT('',(-2.5E0,9.424038412489E0,-6.9E0));
#1568=DIRECTION('',(-1.E0,0.E0,0.E0));
#1569=DIRECTION('',(0.E0,1.E0,0.E0));
#1570=AXIS2_PLACEMENT_3D('',#1567,#1568,#1569);
#1571=PLANE('',#1570);
#1572=ORIENTED_EDGE('',*,*,#1453,.T.);
#1573=ORIENTED_EDGE('',*,*,#1508,.F.);
#1575=ORIENTED_EDGE('',*,*,#1574,.F.);
#1577=ORIENTED_EDGE('',*,*,#1576,.F.);
#1578=ORIENTED_EDGE('',*,*,#1543,.T.);
#1579=ORIENTED_EDGE('',*,*,#1430,.T.);
#1580=EDGE_LOOP('',(#1572,#1573,#1575,#1577,#1578,#1579));
#1581=FACE_OUTER_BOUND('',#1580,.F.);
#1582=ADVANCED_FACE('',(#1581),#1571,.T.);
#1583=CARTESIAN_POINT('',(0.E0,0.E0,-6.9E0));
#1584=DIRECTION('',(0.E0,0.E0,-1.E0));
#1585=DIRECTION('',(-1.E0,0.E0,0.E0));
#1586=AXIS2_PLACEMENT_3D('',#1583,#1584,#1585);
#1587=PLANE('',#1586);
#1589=ORIENTED_EDGE('',*,*,#1588,.T.);
#1591=ORIENTED_EDGE('',*,*,#1590,.F.);
#1593=ORIENTED_EDGE('',*,*,#1592,.T.);
#1595=ORIENTED_EDGE('',*,*,#1594,.F.);
#1597=ORIENTED_EDGE('',*,*,#1596,.T.);
#1598=ORIENTED_EDGE('',*,*,#1574,.T.);
#1599=ORIENTED_EDGE('',*,*,#1506,.T.);
#1600=ORIENTED_EDGE('',*,*,#1531,.T.);
#1602=ORIENTED_EDGE('',*,*,#1601,.T.);
#1604=ORIENTED_EDGE('',*,*,#1603,.F.);
#1606=ORIENTED_EDGE('',*,*,#1605,.T.);
#1608=ORIENTED_EDGE('',*,*,#1607,.F.);
#1609=EDGE_LOOP('',(#1589,#1591,#1593,#1595,#1597,#1598,#1599,#1600,#1602,#1604,
#1606,#1608));
#1610=FACE_OUTER_BOUND('',#1609,.F.);
#1611=ADVANCED_FACE('',(#1610),#1587,.T.);
#1612=CARTESIAN_POINT('',(0.E0,6.65E0,-6.9E0));
#1613=DIRECTION('',(0.E0,0.E0,-1.E0));
#1614=DIRECTION('',(-1.E0,0.E0,0.E0));
#1615=AXIS2_PLACEMENT_3D('',#1612,#1613,#1614);
#1616=CYLINDRICAL_SURFACE('',#1615,1.E1);
#1617=ORIENTED_EDGE('',*,*,#1588,.F.);
#1619=ORIENTED_EDGE('',*,*,#1618,.T.);
#1620=ORIENTED_EDGE('',*,*,#1553,.T.);
#1622=ORIENTED_EDGE('',*,*,#1621,.F.);
#1623=EDGE_LOOP('',(#1617,#1619,#1620,#1622));
#1624=FACE_OUTER_BOUND('',#1623,.F.);
#1625=ADVANCED_FACE('',(#1624),#1616,.T.);
#1626=CARTESIAN_POINT('',(3.E0,1.406619848710E1,-6.9E0));
#1627=DIRECTION('',(0.E0,0.E0,-1.E0));
#1628=DIRECTION('',(-1.E0,0.E0,0.E0));
#1629=AXIS2_PLACEMENT_3D('',#1626,#1627,#1628);
#1630=CYLINDRICAL_SURFACE('',#1629,2.E0);
#1631=ORIENTED_EDGE('',*,*,#1607,.T.);
#1633=ORIENTED_EDGE('',*,*,#1632,.T.);
#1634=ORIENTED_EDGE('',*,*,#1555,.F.);
#1635=ORIENTED_EDGE('',*,*,#1618,.F.);
#1636=EDGE_LOOP('',(#1631,#1633,#1634,#1635));
#1637=FACE_OUTER_BOUND('',#1636,.F.);
#1638=ADVANCED_FACE('',(#1637),#1630,.T.);
#1639=CARTESIAN_POINT('',(5.E0,1.406619848710E1,-6.9E0));
#1640=DIRECTION('',(1.E0,0.E0,0.E0));
#1641=DIRECTION('',(0.E0,-1.E0,0.E0));
#1642=AXIS2_PLACEMENT_3D('',#1639,#1640,#1641);
#1643=PLANE('',#1642);
#1644=ORIENTED_EDGE('',*,*,#1605,.F.);
#1646=ORIENTED_EDGE('',*,*,#1645,.T.);
#1647=ORIENTED_EDGE('',*,*,#1557,.T.);
#1648=ORIENTED_EDGE('',*,*,#1632,.F.);
#1649=EDGE_LOOP('',(#1644,#1646,#1647,#1648));
#1650=FACE_OUTER_BOUND('',#1649,.F.);
#1651=ADVANCED_FACE('',(#1650),#1643,.T.);
#1652=CARTESIAN_POINT('',(3.E0,1.325E1,-6.9E0));
#1653=DIRECTION('',(0.E0,0.E0,-1.E0));
#1654=DIRECTION('',(-1.E0,0.E0,0.E0));
#1655=AXIS2_PLACEMENT_3D('',#1652,#1653,#1654);
#1656=CYLINDRICAL_SURFACE('',#1655,2.E0);
#1657=ORIENTED_EDGE('',*,*,#1603,.T.);
#1659=ORIENTED_EDGE('',*,*,#1658,.T.);
#1660=ORIENTED_EDGE('',*,*,#1559,.F.);
#1661=ORIENTED_EDGE('',*,*,#1645,.F.);
#1662=EDGE_LOOP('',(#1657,#1659,#1660,#1661));
#1663=FACE_OUTER_BOUND('',#1662,.F.);
#1664=ADVANCED_FACE('',(#1663),#1656,.T.);
#1665=CARTESIAN_POINT('',(3.E0,1.125E1,-6.9E0));
#1666=DIRECTION('',(0.E0,-1.E0,0.E0));
#1667=DIRECTION('',(-1.E0,0.E0,0.E0));
#1668=AXIS2_PLACEMENT_3D('',#1665,#1666,#1667);
#1669=PLANE('',#1668);
#1670=ORIENTED_EDGE('',*,*,#1601,.F.);
#1671=ORIENTED_EDGE('',*,*,#1529,.F.);
#1672=ORIENTED_EDGE('',*,*,#1561,.T.);
#1673=ORIENTED_EDGE('',*,*,#1658,.F.);
#1674=EDGE_LOOP('',(#1670,#1671,#1672,#1673));
#1675=FACE_OUTER_BOUND('',#1674,.F.);
#1676=ADVANCED_FACE('',(#1675),#1669,.T.);
#1677=CARTESIAN_POINT('',(-3.E0,1.406619848710E1,-6.9E0));
#1678=DIRECTION('',(0.E0,0.E0,-1.E0));
#1679=DIRECTION('',(-1.E0,0.E0,0.E0));
#1680=AXIS2_PLACEMENT_3D('',#1677,#1678,#1679);
#1681=CYLINDRICAL_SURFACE('',#1680,2.E0);
#1682=ORIENTED_EDGE('',*,*,#1590,.T.);
#1683=ORIENTED_EDGE('',*,*,#1621,.T.);
#1684=ORIENTED_EDGE('',*,*,#1551,.F.);
#1686=ORIENTED_EDGE('',*,*,#1685,.F.);
#1687=EDGE_LOOP('',(#1682,#1683,#1684,#1686));
#1688=FACE_OUTER_BOUND('',#1687,.F.);
#1689=ADVANCED_FACE('',(#1688),#1681,.T.);
#1690=CARTESIAN_POINT('',(-5.E0,1.325E1,-6.9E0));
#1691=DIRECTION('',(-1.E0,0.E0,0.E0));
#1692=DIRECTION('',(0.E0,1.E0,0.E0));
#1693=AXIS2_PLACEMENT_3D('',#1690,#1691,#1692);
#1694=PLANE('',#1693);
#1695=ORIENTED_EDGE('',*,*,#1592,.F.);
#1696=ORIENTED_EDGE('',*,*,#1685,.T.);
#1697=ORIENTED_EDGE('',*,*,#1549,.T.);
#1699=ORIENTED_EDGE('',*,*,#1698,.F.);
#1700=EDGE_LOOP('',(#1695,#1696,#1697,#1699));
#1701=FACE_OUTER_BOUND('',#1700,.F.);
#1702=ADVANCED_FACE('',(#1701),#1694,.T.);
#1703=CARTESIAN_POINT('',(-3.E0,1.325E1,-6.9E0));
#1704=DIRECTION('',(0.E0,0.E0,-1.E0));
#1705=DIRECTION('',(-1.E0,0.E0,0.E0));
#1706=AXIS2_PLACEMENT_3D('',#1703,#1704,#1705);
#1707=CYLINDRICAL_SURFACE('',#1706,2.E0);
#1708=ORIENTED_EDGE('',*,*,#1594,.T.);
#1709=ORIENTED_EDGE('',*,*,#1698,.T.);
#1710=ORIENTED_EDGE('',*,*,#1547,.F.);
#1712=ORIENTED_EDGE('',*,*,#1711,.F.);
#1713=EDGE_LOOP('',(#1708,#1709,#1710,#1712));
#1714=FACE_OUTER_BOUND('',#1713,.F.);
#1715=ADVANCED_FACE('',(#1714),#1707,.T.);
#1716=CARTESIAN_POINT('',(-2.5E0,1.125E1,-6.9E0));
#1717=DIRECTION('',(0.E0,-1.E0,0.E0));
#1718=DIRECTION('',(-1.E0,0.E0,0.E0));
#1719=AXIS2_PLACEMENT_3D('',#1716,#1717,#1718);
#1720=PLANE('',#1719);
#1721=ORIENTED_EDGE('',*,*,#1596,.F.);
#1722=ORIENTED_EDGE('',*,*,#1711,.T.);
#1723=ORIENTED_EDGE('',*,*,#1545,.T.);
#1724=ORIENTED_EDGE('',*,*,#1576,.T.);
#1725=EDGE_LOOP('',(#1721,#1722,#1723,#1724));
#1726=FACE_OUTER_BOUND('',#1725,.F.);
#1727=ADVANCED_FACE('',(#1726),#1720,.T.);
#1728=CARTESIAN_POINT('',(0.E0,0.E0,-2.7E0));
#1729=DIRECTION('',(0.E0,0.E0,-1.E0));
#1730=DIRECTION('',(-1.E0,0.E0,0.E0));
#1731=AXIS2_PLACEMENT_3D('',#1728,#1729,#1730);
#1732=CYLINDRICAL_SURFACE('',#1731,9.75E0);
#1733=ORIENTED_EDGE('',*,*,#1463,.F.);
#1734=ORIENTED_EDGE('',*,*,#1515,.T.);
#1736=ORIENTED_EDGE('',*,*,#1735,.T.);
#1737=ORIENTED_EDGE('',*,*,#1511,.F.);
#1738=EDGE_LOOP('',(#1733,#1734,#1736,#1737));
#1739=FACE_OUTER_BOUND('',#1738,.F.);
#1740=ADVANCED_FACE('',(#1739),#1732,.F.);
#1741=CARTESIAN_POINT('',(0.E0,0.E0,1.03E1));
#1742=DIRECTION('',(0.E0,0.E0,-1.E0));
#1743=DIRECTION('',(-1.E0,0.E0,0.E0));
#1744=AXIS2_PLACEMENT_3D('',#1741,#1742,#1743);
#1745=PLANE('',#1744);
#1746=ORIENTED_EDGE('',*,*,#1513,.F.);
#1747=ORIENTED_EDGE('',*,*,#1735,.F.);
#1748=EDGE_LOOP('',(#1746,#1747));
#1749=FACE_OUTER_BOUND('',#1748,.F.);
#1751=ORIENTED_EDGE('',*,*,#1750,.F.);
#1753=ORIENTED_EDGE('',*,*,#1752,.F.);
#1754=EDGE_LOOP('',(#1751,#1753));
#1755=FACE_BOUND('',#1754,.F.);
#1756=ADVANCED_FACE('',(#1749,#1755),#1745,.T.);
#1757=CARTESIAN_POINT('',(0.E0,0.E0,1.03E1));
#1758=DIRECTION('',(0.E0,0.E0,-1.E0));
#1759=DIRECTION('',(-1.E0,0.E0,0.E0));
#1760=AXIS2_PLACEMENT_3D('',#1757,#1758,#1759);
#1761=PLANE('',#1760);
#1763=ORIENTED_EDGE('',*,*,#1762,.F.);
#1765=ORIENTED_EDGE('',*,*,#1764,.F.);
#1766=EDGE_LOOP('',(#1763,#1765));
#1767=FACE_OUTER_BOUND('',#1766,.F.);
#1768=ADVANCED_FACE('',(#1767),#1761,.T.);
#1769=CARTESIAN_POINT('',(0.E0,0.E0,1.03E1));
#1770=DIRECTION('',(0.E0,0.E0,-1.E0));
#1771=DIRECTION('',(-1.E0,0.E0,0.E0));
#1772=AXIS2_PLACEMENT_3D('',#1769,#1770,#1771);
#1773=PLANE('',#1772);
#1775=ORIENTED_EDGE('',*,*,#1774,.F.);
#1777=ORIENTED_EDGE('',*,*,#1776,.F.);
#1778=EDGE_LOOP('',(#1775,#1777));
#1779=FACE_OUTER_BOUND('',#1778,.F.);
#1780=ADVANCED_FACE('',(#1779),#1773,.T.);
#1781=CARTESIAN_POINT('',(0.E0,0.E0,1.03E1));
#1782=DIRECTION('',(0.E0,0.E0,-1.E0));
#1783=DIRECTION('',(-1.E0,0.E0,0.E0));
#1784=AXIS2_PLACEMENT_3D('',#1781,#1782,#1783);
#1785=PLANE('',#1784);
#1787=ORIENTED_EDGE('',*,*,#1786,.F.);
#1789=ORIENTED_EDGE('',*,*,#1788,.F.);
#1790=EDGE_LOOP('',(#1787,#1789));
#1791=FACE_OUTER_BOUND('',#1790,.F.);
#1792=ADVANCED_FACE('',(#1791),#1785,.T.);
#1793=CARTESIAN_POINT('',(4.05E0,0.E0,-2.7E0));
#1794=DIRECTION('',(0.E0,0.E0,-1.E0));
#1795=DIRECTION('',(-1.E0,0.E0,0.E0));
#1796=AXIS2_PLACEMENT_3D('',#1793,#1794,#1795);
#1797=CYLINDRICAL_SURFACE('',#1796,1.25E0);
#1798=ORIENTED_EDGE('',*,*,#1479,.F.);
#1800=ORIENTED_EDGE('',*,*,#1799,.T.);
#1801=ORIENTED_EDGE('',*,*,#1762,.T.);
#1803=ORIENTED_EDGE('',*,*,#1802,.F.);
#1804=EDGE_LOOP('',(#1798,#1800,#1801,#1803));
#1805=FACE_OUTER_BOUND('',#1804,.F.);
#1806=ADVANCED_FACE('',(#1805),#1797,.F.);
#1807=CARTESIAN_POINT('',(4.05E0,0.E0,-2.7E0));
#1808=DIRECTION('',(0.E0,0.E0,-1.E0));
#1809=DIRECTION('',(-1.E0,0.E0,0.E0));
#1810=AXIS2_PLACEMENT_3D('',#1807,#1808,#1809);
#1811=CYLINDRICAL_SURFACE('',#1810,1.25E0);
#1812=ORIENTED_EDGE('',*,*,#1481,.F.);
#1813=ORIENTED_EDGE('',*,*,#1802,.T.);
#1814=ORIENTED_EDGE('',*,*,#1764,.T.);
#1815=ORIENTED_EDGE('',*,*,#1799,.F.);
#1816=EDGE_LOOP('',(#1812,#1813,#1814,#1815));
#1817=FACE_OUTER_BOUND('',#1816,.F.);
#1818=ADVANCED_FACE('',(#1817),#1811,.F.);
#1819=CARTESIAN_POINT('',(0.E0,-3.95E0,-2.7E0));
#1820=DIRECTION('',(0.E0,0.E0,-1.E0));
#1821=DIRECTION('',(-1.E0,0.E0,0.E0));
#1822=AXIS2_PLACEMENT_3D('',#1819,#1820,#1821);
#1823=CYLINDRICAL_SURFACE('',#1822,1.25E0);
#1824=ORIENTED_EDGE('',*,*,#1485,.F.);
#1826=ORIENTED_EDGE('',*,*,#1825,.T.);
#1827=ORIENTED_EDGE('',*,*,#1774,.T.);
#1829=ORIENTED_EDGE('',*,*,#1828,.F.);
#1830=EDGE_LOOP('',(#1824,#1826,#1827,#1829));
#1831=FACE_OUTER_BOUND('',#1830,.F.);
#1832=ADVANCED_FACE('',(#1831),#1823,.F.);
#1833=CARTESIAN_POINT('',(0.E0,-3.95E0,-2.7E0));
#1834=DIRECTION('',(0.E0,0.E0,-1.E0));
#1835=DIRECTION('',(-1.E0,0.E0,0.E0));
#1836=AXIS2_PLACEMENT_3D('',#1833,#1834,#1835);
#1837=CYLINDRICAL_SURFACE('',#1836,1.25E0);
#1838=ORIENTED_EDGE('',*,*,#1487,.F.);
#1839=ORIENTED_EDGE('',*,*,#1828,.T.);
#1840=ORIENTED_EDGE('',*,*,#1776,.T.);
#1841=ORIENTED_EDGE('',*,*,#1825,.F.);
#1842=EDGE_LOOP('',(#1838,#1839,#1840,#1841));
#1843=FACE_OUTER_BOUND('',#1842,.F.);
#1844=ADVANCED_FACE('',(#1843),#1837,.F.);
#1845=CARTESIAN_POINT('',(-4.05E0,0.E0,-2.7E0));
#1846=DIRECTION('',(0.E0,0.E0,-1.E0));
#1847=DIRECTION('',(-1.E0,0.E0,0.E0));
#1848=AXIS2_PLACEMENT_3D('',#1845,#1846,#1847);
#1849=CYLINDRICAL_SURFACE('',#1848,1.25E0);
#1850=ORIENTED_EDGE('',*,*,#1491,.F.);
#1852=ORIENTED_EDGE('',*,*,#1851,.T.);
#1853=ORIENTED_EDGE('',*,*,#1786,.T.);
#1855=ORIENTED_EDGE('',*,*,#1854,.F.);
#1856=EDGE_LOOP('',(#1850,#1852,#1853,#1855));
#1857=FACE_OUTER_BOUND('',#1856,.F.);
#1858=ADVANCED_FACE('',(#1857),#1849,.F.);
#1859=CARTESIAN_POINT('',(-4.05E0,0.E0,-2.7E0));
#1860=DIRECTION('',(0.E0,0.E0,-1.E0));
#1861=DIRECTION('',(-1.E0,0.E0,0.E0));
#1862=AXIS2_PLACEMENT_3D('',#1859,#1860,#1861);
#1863=CYLINDRICAL_SURFACE('',#1862,1.25E0);
#1864=ORIENTED_EDGE('',*,*,#1493,.F.);
#1865=ORIENTED_EDGE('',*,*,#1854,.T.);
#1866=ORIENTED_EDGE('',*,*,#1788,.T.);
#1867=ORIENTED_EDGE('',*,*,#1851,.F.);
#1868=EDGE_LOOP('',(#1864,#1865,#1866,#1867));
#1869=FACE_OUTER_BOUND('',#1868,.F.);
#1870=ADVANCED_FACE('',(#1869),#1863,.F.);
#1871=CARTESIAN_POINT('',(0.E0,0.E0,-2.7E0));
#1872=DIRECTION('',(0.E0,0.E0,-1.E0));
#1873=DIRECTION('',(-1.E0,0.E0,0.E0));
#1874=AXIS2_PLACEMENT_3D('',#1871,#1872,#1873);
#1875=CYLINDRICAL_SURFACE('',#1874,7.925E0);
#1876=ORIENTED_EDGE('',*,*,#1473,.T.);
#1878=ORIENTED_EDGE('',*,*,#1877,.T.);
#1879=ORIENTED_EDGE('',*,*,#1750,.T.);
#1881=ORIENTED_EDGE('',*,*,#1880,.F.);
#1882=EDGE_LOOP('',(#1876,#1878,#1879,#1881));
#1883=FACE_OUTER_BOUND('',#1882,.F.);
#1884=ADVANCED_FACE('',(#1883),#1875,.T.);
#1885=CARTESIAN_POINT('',(0.E0,0.E0,-2.7E0));
#1886=DIRECTION('',(0.E0,0.E0,-1.E0));
#1887=DIRECTION('',(-1.E0,0.E0,0.E0));
#1888=AXIS2_PLACEMENT_3D('',#1885,#1886,#1887);
#1889=CYLINDRICAL_SURFACE('',#1888,7.925E0);
#1890=ORIENTED_EDGE('',*,*,#1475,.T.);
#1891=ORIENTED_EDGE('',*,*,#1880,.T.);
#1892=ORIENTED_EDGE('',*,*,#1752,.T.);
#1893=ORIENTED_EDGE('',*,*,#1877,.F.);
#1894=EDGE_LOOP('',(#1890,#1891,#1892,#1893));
#1895=FACE_OUTER_BOUND('',#1894,.F.);
#1896=ADVANCED_FACE('',(#1895),#1889,.T.);
#1897=CARTESIAN_POINT('',(0.E0,0.E0,0.E0));
#1898=DIRECTION('',(0.E0,0.E0,-1.E0));
#1899=DIRECTION('',(-1.E0,0.E0,0.E0));
#1900=AXIS2_PLACEMENT_3D('',#1897,#1898,#1899);
#1901=CYLINDRICAL_SURFACE('',#1900,1.1E1);
#1902=ORIENTED_EDGE('',*,*,#939,.F.);
#1903=ORIENTED_EDGE('',*,*,#1438,.T.);
#1904=ORIENTED_EDGE('',*,*,#1456,.T.);
#1905=ORIENTED_EDGE('',*,*,#1441,.F.);
#1906=EDGE_LOOP('',(#1902,#1903,#1904,#1905));
#1907=FACE_OUTER_BOUND('',#1906,.F.);
#1908=ADVANCED_FACE('',(#1907),#1901,.T.);
#1909=CLOSED_SHELL('',(#933,#963,#978,#991,#1031,#1045,#1057,#1072,#1085,#1098,
#1111,#1124,#1138,#1151,#1164,#1207,#1220,#1232,#1247,#1260,#1270,#1282,#1296,
#1308,#1323,#1336,#1346,#1358,#1370,#1384,#1396,#1410,#1422,#1445,#1467,#1497,
#1519,#1536,#1566,#1582,#1611,#1625,#1638,#1651,#1664,#1676,#1689,#1702,#1715,
#1727,#1740,#1756,#1768,#1780,#1792,#1806,#1818,#1832,#1844,#1858,#1870,#1884,
#1896,#1908));
#1910=MANIFOLD_SOLID_BREP('',#1909);
#1911=(LENGTH_UNIT()NAMED_UNIT(*)SI_UNIT(.MILLI.,.METRE.));
#1912=DIMENSIONAL_EXPONENTS(0.E0,0.E0,0.E0,0.E0,0.E0,0.E0,0.E0);
#1913=(NAMED_UNIT(*)PLANE_ANGLE_UNIT()SI_UNIT($,.RADIAN.));
#1914=PLANE_ANGLE_MEASURE_WITH_UNIT(PLANE_ANGLE_MEASURE(1.745329251994E-2),
#1913);
#1915=(CONVERSION_BASED_UNIT('DEGREE',#1914)NAMED_UNIT(#1912)PLANE_ANGLE_UNIT(
));
#1916=(NAMED_UNIT(*)SI_UNIT($,.STERADIAN.)SOLID_ANGLE_UNIT());
#1917=UNCERTAINTY_MEASURE_WITH_UNIT(LENGTH_MEASURE(4.905346185896E-3),#1911,
'closure',
'Maximum model space distance between geometric entities at asserted connectivities');
#1918=(GEOMETRIC_REPRESENTATION_CONTEXT(3)GLOBAL_UNCERTAINTY_ASSIGNED_CONTEXT((
#1917))GLOBAL_UNIT_ASSIGNED_CONTEXT((#1911,#1915,#1916))REPRESENTATION_CONTEXT(
'ID1','3'));
#1920=APPLICATION_CONTEXT(
'CONFIGURATION CONTROLLED 3D DESIGNS OF MECHANICAL PARTS AND ASSEMBLIES');
#1921=APPLICATION_PROTOCOL_DEFINITION('international standard',
'config_control_design',1994,#1920);
#1922=DESIGN_CONTEXT('',#1920,'design');
#1923=MECHANICAL_CONTEXT('',#1920,'mechanical');
#1924=PRODUCT('NC3FAH1','NC3FAH1','NOT SPECIFIED',(#1923));
#1925=PRODUCT_DEFINITION_FORMATION_WITH_SPECIFIED_SOURCE('1','LAST_VERSION',
#1924,.MADE.);
#1929=PRODUCT_CATEGORY('part','');
#1930=PRODUCT_RELATED_PRODUCT_CATEGORY('detail','',(#1924));
#1931=PRODUCT_CATEGORY_RELATIONSHIP('','',#1929,#1930);
#1932=SECURITY_CLASSIFICATION_LEVEL('unclassified');
#1933=SECURITY_CLASSIFICATION('','',#1932);
#1934=CC_DESIGN_SECURITY_CLASSIFICATION(#1933,(#1925));
#1935=APPROVAL_STATUS('approved');
#1936=APPROVAL(#1935,'');
#1937=CC_DESIGN_APPROVAL(#1936,(#1933,#1925,#1926));
#1938=CALENDAR_DATE(108,2,10);
#1939=COORDINATED_UNIVERSAL_TIME_OFFSET(3,0,.AHEAD.);
#1940=LOCAL_TIME(8,0,2.4E1,#1939);
#1941=DATE_AND_TIME(#1938,#1940);
#1942=APPROVAL_DATE_TIME(#1941,#1936);
#1943=DATE_TIME_ROLE('creation_date');
#1944=CC_DESIGN_DATE_AND_TIME_ASSIGNMENT(#1941,#1943,(#1926));
#1945=DATE_TIME_ROLE('classification_date');
#1946=CC_DESIGN_DATE_AND_TIME_ASSIGNMENT(#1941,#1945,(#1933));
#1947=PERSON('UNSPECIFIED','UNSPECIFIED',$,$,$,$);
#1948=ORGANIZATION('UNSPECIFIED','UNSPECIFIED','UNSPECIFIED');
#1949=PERSON_AND_ORGANIZATION(#1947,#1948);
#1950=APPROVAL_ROLE('approver');
#1951=APPROVAL_PERSON_ORGANIZATION(#1949,#1936,#1950);
#1952=PERSON_AND_ORGANIZATION_ROLE('creator');
#1953=CC_DESIGN_PERSON_AND_ORGANIZATION_ASSIGNMENT(#1949,#1952,(#1925,#1926));
#1954=PERSON_AND_ORGANIZATION_ROLE('design_supplier');
#1955=CC_DESIGN_PERSON_AND_ORGANIZATION_ASSIGNMENT(#1949,#1954,(#1925));
#1956=PERSON_AND_ORGANIZATION_ROLE('classification_officer');
#1957=CC_DESIGN_PERSON_AND_ORGANIZATION_ASSIGNMENT(#1949,#1956,(#1933));
#1958=PERSON_AND_ORGANIZATION_ROLE('design_owner');
#1959=CC_DESIGN_PERSON_AND_ORGANIZATION_ASSIGNMENT(#1949,#1958,(#1924));
#6=CIRCLE('',#5,1.175E0);
#11=CIRCLE('',#10,1.175E0);
#16=CIRCLE('',#15,1.175E0);
#21=CIRCLE('',#20,1.175E0);
#26=CIRCLE('',#25,1.1E1);
#35=CIRCLE('',#34,3.E0);
#40=CIRCLE('',#39,2.95E0);
#45=CIRCLE('',#44,6.E0);
#50=CIRCLE('',#49,1.28E1);
#59=CIRCLE('',#58,1.1E1);
#68=CIRCLE('',#67,8.E0);
#73=CIRCLE('',#72,2.6E0);
#86=CIRCLE('',#85,1.28E1);
#103=CIRCLE('',#102,1.175E0);
#108=CIRCLE('',#107,1.175E0);
#113=CIRCLE('',#112,1.175E0);
#118=CIRCLE('',#117,1.175E0);
#127=CIRCLE('',#126,1.28E1);
#132=CIRCLE('',#131,6.E0);
#137=CIRCLE('',#136,2.95E0);
#142=CIRCLE('',#141,3.E0);
#151=CIRCLE('',#150,1.28E1);
#164=CIRCLE('',#163,2.6E0);
#169=CIRCLE('',#168,8.E0);
#218=CIRCLE('',#217,8.E-1);
#223=CIRCLE('',#222,8.E-1);
#228=CIRCLE('',#227,8.E-1);
#233=CIRCLE('',#232,8.E-1);
#238=CIRCLE('',#237,8.E-1);
#243=CIRCLE('',#242,8.E-1);
#248=CIRCLE('',#247,8.E-1);
#253=CIRCLE('',#252,8.E-1);
#258=CIRCLE('',#257,6.E-1);
#263=CIRCLE('',#262,6.E-1);
#284=CIRCLE('',#283,8.E-1);
#289=CIRCLE('',#288,8.E-1);
#294=CIRCLE('',#293,8.E-1);
#299=CIRCLE('',#298,8.E-1);
#320=CIRCLE('',#319,8.E-1);
#325=CIRCLE('',#324,8.E-1);
#330=CIRCLE('',#329,8.E-1);
#335=CIRCLE('',#334,8.E-1);
#340=CIRCLE('',#339,6.E-1);
#345=CIRCLE('',#344,6.E-1);
#374=CIRCLE('',#373,9.75E0);
#383=CIRCLE('',#382,1.1E1);
#388=CIRCLE('',#387,1.1E1);
#393=CIRCLE('',#392,1.1E1);
#402=CIRCLE('',#401,9.75E0);
#407=CIRCLE('',#406,9.75E0);
#412=CIRCLE('',#411,1.25E0);
#417=CIRCLE('',#416,1.25E0);
#422=CIRCLE('',#421,1.25E0);
#427=CIRCLE('',#426,1.25E0);
#432=CIRCLE('',#431,1.25E0);
#437=CIRCLE('',#436,1.25E0);
#442=CIRCLE('',#441,7.925E0);
#447=CIRCLE('',#446,7.925E0);
#468=CIRCLE('',#467,1.1E1);
#481=CIRCLE('',#480,2.E0);
#490=CIRCLE('',#489,2.E0);
#495=CIRCLE('',#494,1.E1);
#500=CIRCLE('',#499,2.E0);
#509=CIRCLE('',#508,2.E0);
#526=CIRCLE('',#525,1.E1);
#531=CIRCLE('',#530,2.E0);
#540=CIRCLE('',#539,2.E0);
#553=CIRCLE('',#552,9.75E0);
#566=CIRCLE('',#565,2.E0);
#575=CIRCLE('',#574,2.E0);
#620=CIRCLE('',#619,9.75E0);
#625=CIRCLE('',#624,9.75E0);
#630=CIRCLE('',#629,1.25E0);
#635=CIRCLE('',#634,1.25E0);
#640=CIRCLE('',#639,1.25E0);
#645=CIRCLE('',#644,1.25E0);
#650=CIRCLE('',#649,1.25E0);
#655=CIRCLE('',#654,1.25E0);
#660=CIRCLE('',#659,7.925E0);
#665=CIRCLE('',#664,7.925E0);
#911=EDGE_CURVE('',#762,#763,#26,.T.);
#913=EDGE_CURVE('',#763,#769,#30,.T.);
#915=EDGE_CURVE('',#769,#712,#35,.T.);
#917=EDGE_CURVE('',#712,#713,#40,.T.);
#919=EDGE_CURVE('',#713,#715,#45,.T.);
#921=EDGE_CURVE('',#715,#717,#50,.T.);
#923=EDGE_CURVE('',#717,#762,#54,.T.);
#927=EDGE_CURVE('',#742,#743,#6,.T.);
#929=EDGE_CURVE('',#743,#742,#11,.T.);
#939=EDGE_CURVE('',#763,#762,#59,.T.);
#941=EDGE_CURVE('',#762,#765,#63,.T.);
#943=EDGE_CURVE('',#765,#704,#68,.T.);
#945=EDGE_CURVE('',#704,#705,#73,.T.);
#947=EDGE_CURVE('',#705,#707,#77,.T.);
#949=EDGE_CURVE('',#707,#709,#81,.T.);
#951=EDGE_CURVE('',#709,#767,#86,.T.);
#953=EDGE_CURVE('',#767,#763,#90,.T.);
#957=EDGE_CURVE('',#746,#747,#16,.T.);
#959=EDGE_CURVE('',#747,#746,#21,.T.);
#970=EDGE_CURVE('',#742,#750,#94,.T.);
#972=EDGE_CURVE('',#750,#751,#103,.T.);
#974=EDGE_CURVE('',#743,#751,#98,.T.);
#986=EDGE_CURVE('',#751,#750,#108,.T.);
#997=EDGE_CURVE('',#720,#721,#122,.T.);
#999=EDGE_CURVE('',#739,#720,#127,.T.);
#1001=EDGE_CURVE('',#737,#739,#132,.T.);
#1003=EDGE_CURVE('',#736,#737,#137,.T.);
#1005=EDGE_CURVE('',#733,#736,#142,.T.);
#1007=EDGE_CURVE('',#732,#733,#146,.T.);
#1009=EDGE_CURVE('',#729,#732,#151,.T.);
#1011=EDGE_CURVE('',#727,#729,#155,.T.);
#1013=EDGE_CURVE('',#725,#727,#159,.T.);
#1015=EDGE_CURVE('',#724,#725,#164,.T.);
#1017=EDGE_CURVE('',#721,#724,#169,.T.);
#1025=EDGE_CURVE('',#754,#755,#113,.T.);
#1027=EDGE_CURVE('',#755,#754,#118,.T.);
#1038=EDGE_CURVE('',#746,#754,#173,.T.);
#1041=EDGE_CURVE('',#747,#755,#177,.T.);
#1064=EDGE_CURVE('',#717,#720,#181,.T.);
#1067=EDGE_CURVE('',#765,#721,#271,.T.);
#1079=EDGE_CURVE('',#715,#739,#185,.T.);
#1092=EDGE_CURVE('',#713,#737,#189,.T.);
#1105=EDGE_CURVE('',#712,#736,#193,.T.);
#1118=EDGE_CURVE('',#769,#733,#197,.T.);
#1131=EDGE_CURVE('',#767,#732,#201,.T.);
#1145=EDGE_CURVE('',#709,#729,#205,.T.);
#1158=EDGE_CURVE('',#707,#727,#209,.T.);
#1171=EDGE_CURVE('',#705,#725,#213,.T.);
#1177=EDGE_CURVE('',#779,#781,#218,.T.);
#1179=EDGE_CURVE('',#781,#779,#223,.T.);
#1183=EDGE_CURVE('',#783,#785,#228,.T.);
#1185=EDGE_CURVE('',#785,#783,#233,.T.);
#1189=EDGE_CURVE('',#810,#811,#238,.T.);
#1191=EDGE_CURVE('',#811,#810,#243,.T.);
#1195=EDGE_CURVE('',#814,#815,#248,.T.);
#1197=EDGE_CURVE('',#815,#814,#253,.T.);
#1201=EDGE_CURVE('',#818,#819,#258,.T.);
#1203=EDGE_CURVE('',#819,#818,#263,.T.);
#1214=EDGE_CURVE('',#704,#724,#267,.T.);
#1238=EDGE_CURVE('',#773,#779,#275,.T.);
#1241=EDGE_CURVE('',#772,#781,#279,.T.);
#1243=EDGE_CURVE('',#772,#773,#284,.T.);
#1254=EDGE_CURVE('',#773,#772,#289,.T.);
#1276=EDGE_CURVE('',#776,#777,#294,.T.);
#1278=EDGE_CURVE('',#777,#776,#299,.T.);
#1288=EDGE_CURVE('',#777,#783,#303,.T.);
#1291=EDGE_CURVE('',#776,#785,#307,.T.);
#1315=EDGE_CURVE('',#811,#799,#315,.T.);
#1317=EDGE_CURVE('',#798,#799,#320,.T.);
#1319=EDGE_CURVE('',#810,#798,#311,.T.);
#1331=EDGE_CURVE('',#799,#798,#325,.T.);
#1352=EDGE_CURVE('',#802,#803,#330,.T.);
#1354=EDGE_CURVE('',#803,#802,#335,.T.);
#1364=EDGE_CURVE('',#806,#807,#340,.T.);
#1366=EDGE_CURVE('',#807,#806,#345,.T.);
#1377=EDGE_CURVE('',#815,#803,#353,.T.);
#1380=EDGE_CURVE('',#814,#802,#349,.T.);
#1403=EDGE_CURVE('',#819,#807,#361,.T.);
#1406=EDGE_CURVE('',#818,#806,#357,.T.);
#1428=EDGE_CURVE('',#759,#893,#383,.T.);
#1430=EDGE_CURVE('',#891,#893,#521,.T.);
#1432=EDGE_CURVE('',#890,#891,#468,.T.);
#1434=EDGE_CURVE('',#890,#895,#365,.T.);
#1436=EDGE_CURVE('',#895,#758,#393,.T.);
#1438=EDGE_CURVE('',#763,#758,#701,.T.);
#1441=EDGE_CURVE('',#762,#759,#369,.T.);
#1451=EDGE_CURVE('',#792,#793,#374,.T.);
#1453=EDGE_CURVE('',#893,#793,#378,.T.);
#1456=EDGE_CURVE('',#758,#759,#388,.T.);
#1459=EDGE_CURVE('',#897,#895,#397,.T.);
#1461=EDGE_CURVE('',#897,#795,#402,.T.);
#1463=EDGE_CURVE('',#795,#792,#407,.T.);
#1473=EDGE_CURVE('',#904,#905,#442,.T.);
#1475=EDGE_CURVE('',#905,#904,#447,.T.);
#1479=EDGE_CURVE('',#834,#835,#412,.T.);
#1481=EDGE_CURVE('',#835,#834,#417,.T.);
#1485=EDGE_CURVE('',#838,#839,#422,.T.);
#1487=EDGE_CURVE('',#839,#838,#427,.T.);
#1491=EDGE_CURVE('',#842,#843,#432,.T.);
#1493=EDGE_CURVE('',#843,#842,#437,.T.);
#1504=EDGE_CURVE('',#897,#881,#451,.T.);
#1506=EDGE_CURVE('',#883,#881,#553,.T.);
#1508=EDGE_CURVE('',#883,#793,#455,.T.);
#1511=EDGE_CURVE('',#792,#788,#459,.T.);
#1513=EDGE_CURVE('',#788,#789,#620,.T.);
#1515=EDGE_CURVE('',#795,#789,#615,.T.);
#1527=EDGE_CURVE('',#890,#886,#517,.T.);
#1529=EDGE_CURVE('',#886,#878,#463,.T.);
#1531=EDGE_CURVE('',#881,#878,#557,.T.);
#1543=EDGE_CURVE('',#871,#891,#472,.T.);
#1545=EDGE_CURVE('',#870,#871,#476,.T.);
#1547=EDGE_CURVE('',#870,#875,#481,.T.);
#1549=EDGE_CURVE('',#874,#875,#485,.T.);
#1551=EDGE_CURVE('',#874,#863,#490,.T.);
#1553=EDGE_CURVE('',#862,#863,#495,.T.);
#1555=EDGE_CURVE('',#862,#867,#500,.T.);
#1557=EDGE_CURVE('',#866,#867,#504,.T.);
#1559=EDGE_CURVE('',#866,#887,#509,.T.);
#1561=EDGE_CURVE('',#886,#887,#513,.T.);
#1574=EDGE_CURVE('',#855,#883,#548,.T.);
#1576=EDGE_CURVE('',#871,#855,#611,.T.);
#1588=EDGE_CURVE('',#846,#847,#526,.T.);
#1590=EDGE_CURVE('',#858,#847,#531,.T.);
#1592=EDGE_CURVE('',#858,#859,#535,.T.);
#1594=EDGE_CURVE('',#854,#859,#540,.T.);
#1596=EDGE_CURVE('',#854,#855,#544,.T.);
#1601=EDGE_CURVE('',#878,#879,#561,.T.);
#1603=EDGE_CURVE('',#850,#879,#566,.T.);
#1605=EDGE_CURVE('',#850,#851,#570,.T.);
#1607=EDGE_CURVE('',#846,#851,#575,.T.);
#1618=EDGE_CURVE('',#846,#862,#583,.T.);
#1621=EDGE_CURVE('',#847,#863,#579,.T.);
#1632=EDGE_CURVE('',#851,#867,#587,.T.);
#1645=EDGE_CURVE('',#850,#866,#591,.T.);
#1658=EDGE_CURVE('',#879,#887,#595,.T.);
#1685=EDGE_CURVE('',#858,#874,#599,.T.);
#1698=EDGE_CURVE('',#859,#875,#603,.T.);
#1711=EDGE_CURVE('',#854,#870,#607,.T.);
#1735=EDGE_CURVE('',#789,#788,#625,.T.);
#1750=EDGE_CURVE('',#900,#901,#660,.T.);
#1752=EDGE_CURVE('',#901,#900,#665,.T.);
#1762=EDGE_CURVE('',#822,#823,#630,.T.);
#1764=EDGE_CURVE('',#823,#822,#635,.T.);
#1774=EDGE_CURVE('',#826,#827,#640,.T.);
#1776=EDGE_CURVE('',#827,#826,#645,.T.);
#1786=EDGE_CURVE('',#830,#831,#650,.T.);
#1788=EDGE_CURVE('',#831,#830,#655,.T.);
#1799=EDGE_CURVE('',#834,#822,#669,.T.);
#1802=EDGE_CURVE('',#835,#823,#673,.T.);
#1825=EDGE_CURVE('',#838,#826,#677,.T.);
#1828=EDGE_CURVE('',#839,#827,#681,.T.);
#1851=EDGE_CURVE('',#842,#830,#685,.T.);
#1854=EDGE_CURVE('',#843,#831,#689,.T.);
#1877=EDGE_CURVE('',#905,#900,#693,.T.);
#1880=EDGE_CURVE('',#904,#901,#697,.T.);
#1919=ADVANCED_BREP_SHAPE_REPRESENTATION('',(#1910),#1918);
#1926=PRODUCT_DEFINITION('design','',#1925,#1922);
#1927=PRODUCT_DEFINITION_SHAPE('','SHAPE FOR NC3FAH1.',#1926);
#1928=SHAPE_DEFINITION_REPRESENTATION(#1927,#1919);
ENDSEC;
END-ISO-10303-21;
