ISO-10303-21;
HEADER;
FILE_DESCRIPTION((''),'2;1');
FILE_NAME('D-NC3FAH-0','2012-03-02T',('odo'),(''),
'PRO/ENGINEER BY PARAMETRIC TECHNOLOGY CORPORATION, 2011310',
'PRO/ENGINEER BY PARAMETRIC TECHNOLOGY CORPORATION, 2011310','');
FILE_SCHEMA(('AUTOMOTIVE_DESIGN_CC2 { 1 2 10303 214 -1 1 5 2 }'));
ENDSEC;
DATA;
#217=CARTESIAN_POINT('',(9.9E0,9.9E0,0.E0));
#218=DIRECTION('',(0.E0,0.E0,-1.E0));
#219=DIRECTION('',(1.E0,0.E0,0.E0));
#220=AXIS2_PLACEMENT_3D('',#217,#218,#219);
#222=DRAUGHTING_PRE_DEFINED_CURVE_FONT('continuous');
#223=CURVE_STYLE('',#222,POSITIVE_LENGTH_MEASURE(2.E-2),#199);
#224=PRESENTATION_STYLE_ASSIGNMENT((#223));
#225=STYLED_ITEM('',(#224),#221);
#226=CARTESIAN_POINT('',(9.9E0,9.9E0,0.E0));
#227=DIRECTION('',(0.E0,0.E0,-1.E0));
#228=DIRECTION('',(-1.E0,0.E0,0.E0));
#229=AXIS2_PLACEMENT_3D('',#226,#227,#228);
#231=CURVE_STYLE('',#222,POSITIVE_LENGTH_MEASURE(2.E-2),#199);
#232=PRESENTATION_STYLE_ASSIGNMENT((#231));
#233=STYLED_ITEM('',(#232),#230);
#234=CARTESIAN_POINT('',(-9.9E0,-9.9E0,0.E0));
#235=DIRECTION('',(0.E0,0.E0,-1.E0));
#236=DIRECTION('',(1.E0,0.E0,0.E0));
#237=AXIS2_PLACEMENT_3D('',#234,#235,#236);
#239=CURVE_STYLE('',#222,POSITIVE_LENGTH_MEASURE(2.E-2),#199);
#240=PRESENTATION_STYLE_ASSIGNMENT((#239));
#241=STYLED_ITEM('',(#240),#238);
#242=CARTESIAN_POINT('',(-9.9E0,-9.9E0,0.E0));
#243=DIRECTION('',(0.E0,0.E0,-1.E0));
#244=DIRECTION('',(-1.E0,0.E0,0.E0));
#245=AXIS2_PLACEMENT_3D('',#242,#243,#244);
#247=CURVE_STYLE('',#222,POSITIVE_LENGTH_MEASURE(2.E-2),#199);
#248=PRESENTATION_STYLE_ASSIGNMENT((#247));
#249=STYLED_ITEM('',(#248),#246);
#250=CARTESIAN_POINT('',(0.E0,0.E0,0.E0));
#251=DIRECTION('',(0.E0,0.E0,-1.E0));
#252=DIRECTION('',(-1.E0,0.E0,0.E0));
#253=AXIS2_PLACEMENT_3D('',#250,#251,#252);
#255=CURVE_STYLE('',#222,POSITIVE_LENGTH_MEASURE(2.E-2),#199);
#256=PRESENTATION_STYLE_ASSIGNMENT((#255));
#257=STYLED_ITEM('',(#256),#254);
#258=DIRECTION('',(0.E0,1.E0,0.E0));
#259=VECTOR('',#258,5.588097867079E0);
#260=CARTESIAN_POINT('',(1.1E1,4.512243142242E-10,0.E0));
#261=LINE('',#260,#259);
#262=CURVE_STYLE('',#222,POSITIVE_LENGTH_MEASURE(2.E-2),#199);
#263=PRESENTATION_STYLE_ASSIGNMENT((#262));
#264=STYLED_ITEM('',(#263),#261);
#265=CARTESIAN_POINT('',(1.4E1,5.588097867530E0,0.E0));
#266=DIRECTION('',(0.E0,0.E0,-1.E0));
#267=DIRECTION('',(-1.E0,0.E0,0.E0));
#268=AXIS2_PLACEMENT_3D('',#265,#266,#267);
#270=CURVE_STYLE('',#222,POSITIVE_LENGTH_MEASURE(2.E-2),#199);
#271=PRESENTATION_STYLE_ASSIGNMENT((#270));
#272=STYLED_ITEM('',(#271),#269);
#273=CARTESIAN_POINT('',(9.9E0,9.9E0,0.E0));
#274=DIRECTION('',(0.E0,0.E0,1.E0));
#275=DIRECTION('',(6.890756302521E-1,-7.246894340286E-1,0.E0));
#276=AXIS2_PLACEMENT_3D('',#273,#274,#275);
#278=CURVE_STYLE('',#222,POSITIVE_LENGTH_MEASURE(2.E-2),#199);
#279=PRESENTATION_STYLE_ASSIGNMENT((#278));
#280=STYLED_ITEM('',(#279),#277);
#281=CARTESIAN_POINT('',(5.832566634974E0,1.787235760745E1,0.E0));
#282=DIRECTION('',(0.E0,0.E0,-1.E0));
#283=DIRECTION('',(4.544618284946E-1,-8.907662131229E-1,0.E0));
#284=AXIS2_PLACEMENT_3D('',#281,#282,#283);
#286=CURVE_STYLE('',#222,POSITIVE_LENGTH_MEASURE(2.E-2),#199);
#287=PRESENTATION_STYLE_ASSIGNMENT((#286));
#288=STYLED_ITEM('',(#287),#285);
#289=CARTESIAN_POINT('',(0.E0,0.E0,0.E0));
#290=DIRECTION('',(0.E0,0.E0,1.E0));
#291=DIRECTION('',(3.102429061156E-1,9.506573195452E-1,0.E0));
#292=AXIS2_PLACEMENT_3D('',#289,#290,#291);
#294=CURVE_STYLE('',#222,POSITIVE_LENGTH_MEASURE(2.E-2),#199);
#295=PRESENTATION_STYLE_ASSIGNMENT((#294));
#296=STYLED_ITEM('',(#295),#293);
#297=DIRECTION('',(0.E0,-1.E0,0.E0));
#298=VECTOR('',#297,6.545227268781E0);
#299=CARTESIAN_POINT('',(-1.1E1,6.545227268781E0,0.E0));
#300=LINE('',#299,#298);
#301=CURVE_STYLE('',#222,POSITIVE_LENGTH_MEASURE(2.E-2),#199);
#302=PRESENTATION_STYLE_ASSIGNMENT((#301));
#303=STYLED_ITEM('',(#302),#300);
#304=CARTESIAN_POINT('',(0.E0,0.E0,0.E0));
#305=DIRECTION('',(0.E0,0.E0,-1.E0));
#306=DIRECTION('',(1.E0,-8.590602528191E-8,0.E0));
#307=AXIS2_PLACEMENT_3D('',#304,#305,#306);
#309=CURVE_STYLE('',#222,POSITIVE_LENGTH_MEASURE(2.E-2),#199);
#310=PRESENTATION_STYLE_ASSIGNMENT((#309));
#311=STYLED_ITEM('',(#310),#308);
#312=DIRECTION('',(0.E0,-1.E0,0.E0));
#313=VECTOR('',#312,4.464008830029E0);
#314=CARTESIAN_POINT('',(-1.1E1,0.E0,0.E0));
#315=LINE('',#314,#313);
#316=CURVE_STYLE('',#222,POSITIVE_LENGTH_MEASURE(2.E-2),#199);
#317=PRESENTATION_STYLE_ASSIGNMENT((#316));
#318=STYLED_ITEM('',(#317),#315);
#319=CARTESIAN_POINT('',(-1.9E1,-4.464008830029E0,0.E0));
#320=DIRECTION('',(0.E0,0.E0,-1.E0));
#321=DIRECTION('',(1.E0,0.E0,0.E0));
#322=AXIS2_PLACEMENT_3D('',#319,#320,#321);
#324=CURVE_STYLE('',#222,POSITIVE_LENGTH_MEASURE(2.E-2),#199);
#325=PRESENTATION_STYLE_ASSIGNMENT((#324));
#326=STYLED_ITEM('',(#325),#323);
#327=CARTESIAN_POINT('',(-9.9E0,-9.9E0,0.E0));
#328=DIRECTION('',(0.E0,0.E0,1.E0));
#329=DIRECTION('',(-8.584905660378E-1,5.128293556575E-1,0.E0));
#330=AXIS2_PLACEMENT_3D('',#327,#328,#329);
#332=CURVE_STYLE('',#222,POSITIVE_LENGTH_MEASURE(2.E-2),#199);
#333=PRESENTATION_STYLE_ASSIGNMENT((#332));
#334=STYLED_ITEM('',(#333),#331);
#335=DIRECTION('',(1.E0,0.E0,0.E0));
#336=VECTOR('',#335,1.64E1);
#337=CARTESIAN_POINT('',(-9.9E0,-1.25E1,0.E0));
#338=LINE('',#337,#336);
#339=CURVE_STYLE('',#222,POSITIVE_LENGTH_MEASURE(2.E-2),#199);
#340=PRESENTATION_STYLE_ASSIGNMENT((#339));
#341=STYLED_ITEM('',(#340),#338);
#342=DIRECTION('',(0.E0,1.E0,0.E0));
#343=VECTOR('',#342,1.473214430307E0);
#344=CARTESIAN_POINT('',(6.5E0,-1.25E1,0.E0));
#345=LINE('',#344,#343);
#346=CURVE_STYLE('',#222,POSITIVE_LENGTH_MEASURE(2.E-2),#199);
#347=PRESENTATION_STYLE_ASSIGNMENT((#346));
#348=STYLED_ITEM('',(#347),#345);
#349=CARTESIAN_POINT('',(0.E0,0.E0,0.E0));
#350=DIRECTION('',(0.E0,0.E0,1.E0));
#351=DIRECTION('',(5.078125E-1,-8.614676226323E-1,0.E0));
#352=AXIS2_PLACEMENT_3D('',#349,#350,#351);
#354=CURVE_STYLE('',#222,POSITIVE_LENGTH_MEASURE(2.E-2),#199);
#355=PRESENTATION_STYLE_ASSIGNMENT((#354));
#356=STYLED_ITEM('',(#355),#353);
#357=DIRECTION('',(0.E0,1.E0,0.E0));
#358=VECTOR('',#357,6.545227269233E0);
#359=CARTESIAN_POINT('',(1.1E1,-6.545227268782E0,0.E0));
#360=LINE('',#359,#358);
#361=CURVE_STYLE('',#222,POSITIVE_LENGTH_MEASURE(2.E-2),#199);
#362=PRESENTATION_STYLE_ASSIGNMENT((#361));
#363=STYLED_ITEM('',(#362),#360);
#364=DIRECTION('',(0.E0,0.E0,1.E0));
#365=VECTOR('',#364,1.95E1);
#366=CARTESIAN_POINT('',(1.1075E1,9.9E0,0.E0));
#367=LINE('',#366,#365);
#368=CURVE_STYLE('',#222,POSITIVE_LENGTH_MEASURE(2.E-2),#199);
#369=PRESENTATION_STYLE_ASSIGNMENT((#368));
#370=STYLED_ITEM('',(#369),#367);
#371=DIRECTION('',(0.E0,0.E0,1.E0));
#372=VECTOR('',#371,1.95E1);
#373=CARTESIAN_POINT('',(8.725E0,9.9E0,0.E0));
#374=LINE('',#373,#372);
#375=CURVE_STYLE('',#222,POSITIVE_LENGTH_MEASURE(2.E-2),#199);
#376=PRESENTATION_STYLE_ASSIGNMENT((#375));
#377=STYLED_ITEM('',(#376),#374);
#378=CARTESIAN_POINT('',(9.9E0,9.9E0,1.95E1));
#379=DIRECTION('',(0.E0,0.E0,-1.E0));
#380=DIRECTION('',(1.E0,0.E0,0.E0));
#381=AXIS2_PLACEMENT_3D('',#378,#379,#380);
#383=CURVE_STYLE('',#222,POSITIVE_LENGTH_MEASURE(2.E-2),#199);
#384=PRESENTATION_STYLE_ASSIGNMENT((#383));
#385=STYLED_ITEM('',(#384),#382);
#386=CARTESIAN_POINT('',(9.9E0,9.9E0,1.95E1));
#387=DIRECTION('',(0.E0,0.E0,-1.E0));
#388=DIRECTION('',(-1.E0,0.E0,0.E0));
#389=AXIS2_PLACEMENT_3D('',#386,#387,#388);
#391=CURVE_STYLE('',#222,POSITIVE_LENGTH_MEASURE(2.E-2),#199);
#392=PRESENTATION_STYLE_ASSIGNMENT((#391));
#393=STYLED_ITEM('',(#392),#390);
#394=CARTESIAN_POINT('',(-9.9E0,-9.9E0,1.95E1));
#395=DIRECTION('',(0.E0,0.E0,-1.E0));
#396=DIRECTION('',(1.E0,0.E0,0.E0));
#397=AXIS2_PLACEMENT_3D('',#394,#395,#396);
#399=CURVE_STYLE('',#222,POSITIVE_LENGTH_MEASURE(2.E-2),#199);
#400=PRESENTATION_STYLE_ASSIGNMENT((#399));
#401=STYLED_ITEM('',(#400),#398);
#402=CARTESIAN_POINT('',(-9.9E0,-9.9E0,1.95E1));
#403=DIRECTION('',(0.E0,0.E0,-1.E0));
#404=DIRECTION('',(-1.E0,0.E0,0.E0));
#405=AXIS2_PLACEMENT_3D('',#402,#403,#404);
#407=CURVE_STYLE('',#222,POSITIVE_LENGTH_MEASURE(2.E-2),#199);
#408=PRESENTATION_STYLE_ASSIGNMENT((#407));
#409=STYLED_ITEM('',(#408),#406);
#410=DIRECTION('',(0.E0,-1.E0,0.E0));
#411=VECTOR('',#410,1.100923609881E1);
#412=CARTESIAN_POINT('',(-1.1E1,6.545227268781E0,1.95E1));
#413=LINE('',#412,#411);
#414=CURVE_STYLE('',#222,POSITIVE_LENGTH_MEASURE(2.E-2),#199);
#415=PRESENTATION_STYLE_ASSIGNMENT((#414));
#416=STYLED_ITEM('',(#415),#413);
#417=CARTESIAN_POINT('',(0.E0,0.E0,1.95E1));
#418=DIRECTION('',(0.E0,0.E0,1.E0));
#419=DIRECTION('',(3.102429061156E-1,9.506573195452E-1,0.E0));
#420=AXIS2_PLACEMENT_3D('',#417,#418,#419);
#422=CURVE_STYLE('',#222,POSITIVE_LENGTH_MEASURE(2.E-2),#199);
#423=PRESENTATION_STYLE_ASSIGNMENT((#422));
#424=STYLED_ITEM('',(#423),#421);
#425=CARTESIAN_POINT('',(5.832566634974E0,1.787235760745E1,1.95E1));
#426=DIRECTION('',(0.E0,0.E0,-1.E0));
#427=DIRECTION('',(4.544618284946E-1,-8.907662131229E-1,0.E0));
#428=AXIS2_PLACEMENT_3D('',#425,#426,#427);
#430=CURVE_STYLE('',#222,POSITIVE_LENGTH_MEASURE(2.E-2),#199);
#431=PRESENTATION_STYLE_ASSIGNMENT((#430));
#432=STYLED_ITEM('',(#431),#429);
#433=CARTESIAN_POINT('',(9.9E0,9.9E0,1.95E1));
#434=DIRECTION('',(0.E0,0.E0,1.E0));
#435=DIRECTION('',(6.890756302521E-1,-7.246894340286E-1,0.E0));
#436=AXIS2_PLACEMENT_3D('',#433,#434,#435);
#438=CURVE_STYLE('',#222,POSITIVE_LENGTH_MEASURE(2.E-2),#199);
#439=PRESENTATION_STYLE_ASSIGNMENT((#438));
#440=STYLED_ITEM('',(#439),#437);
#441=CARTESIAN_POINT('',(1.4E1,5.588097867530E0,1.95E1));
#442=DIRECTION('',(0.E0,0.E0,-1.E0));
#443=DIRECTION('',(-1.E0,0.E0,0.E0));
#444=AXIS2_PLACEMENT_3D('',#441,#442,#443);
#446=CURVE_STYLE('',#222,POSITIVE_LENGTH_MEASURE(2.E-2),#199);
#447=PRESENTATION_STYLE_ASSIGNMENT((#446));
#448=STYLED_ITEM('',(#447),#445);
#449=DIRECTION('',(0.E0,1.E0,0.E0));
#450=VECTOR('',#449,1.213332513631E1);
#451=CARTESIAN_POINT('',(1.1E1,-6.545227268782E0,1.95E1));
#452=LINE('',#451,#450);
#453=CURVE_STYLE('',#222,POSITIVE_LENGTH_MEASURE(2.E-2),#199);
#454=PRESENTATION_STYLE_ASSIGNMENT((#453));
#455=STYLED_ITEM('',(#454),#452);
#456=CARTESIAN_POINT('',(0.E0,0.E0,1.95E1));
#457=DIRECTION('',(0.E0,0.E0,1.E0));
#458=DIRECTION('',(5.078125E-1,-8.614676226323E-1,0.E0));
#459=AXIS2_PLACEMENT_3D('',#456,#457,#458);
#461=CURVE_STYLE('',#222,POSITIVE_LENGTH_MEASURE(2.E-2),#199);
#462=PRESENTATION_STYLE_ASSIGNMENT((#461));
#463=STYLED_ITEM('',(#462),#460);
#464=DIRECTION('',(0.E0,1.E0,0.E0));
#465=VECTOR('',#464,1.473214430307E0);
#466=CARTESIAN_POINT('',(6.5E0,-1.25E1,1.95E1));
#467=LINE('',#466,#465);
#468=CURVE_STYLE('',#222,POSITIVE_LENGTH_MEASURE(2.E-2),#199);
#469=PRESENTATION_STYLE_ASSIGNMENT((#468));
#470=STYLED_ITEM('',(#469),#467);
#471=DIRECTION('',(1.E0,0.E0,0.E0));
#472=VECTOR('',#471,1.64E1);
#473=CARTESIAN_POINT('',(-9.9E0,-1.25E1,1.95E1));
#474=LINE('',#473,#472);
#475=CURVE_STYLE('',#222,POSITIVE_LENGTH_MEASURE(2.E-2),#199);
#476=PRESENTATION_STYLE_ASSIGNMENT((#475));
#477=STYLED_ITEM('',(#476),#474);
#478=CARTESIAN_POINT('',(-9.9E0,-9.9E0,1.95E1));
#479=DIRECTION('',(0.E0,0.E0,1.E0));
#480=DIRECTION('',(-8.584905660378E-1,5.128293556575E-1,0.E0));
#481=AXIS2_PLACEMENT_3D('',#478,#479,#480);
#483=CURVE_STYLE('',#222,POSITIVE_LENGTH_MEASURE(2.E-2),#199);
#484=PRESENTATION_STYLE_ASSIGNMENT((#483));
#485=STYLED_ITEM('',(#484),#482);
#486=CARTESIAN_POINT('',(-1.9E1,-4.464008830029E0,1.95E1));
#487=DIRECTION('',(0.E0,0.E0,-1.E0));
#488=DIRECTION('',(1.E0,0.E0,0.E0));
#489=AXIS2_PLACEMENT_3D('',#486,#487,#488);
#491=CURVE_STYLE('',#222,POSITIVE_LENGTH_MEASURE(2.E-2),#199);
#492=PRESENTATION_STYLE_ASSIGNMENT((#491));
#493=STYLED_ITEM('',(#492),#490);
#494=DIRECTION('',(0.E0,0.E0,1.E0));
#495=VECTOR('',#494,1.95E1);
#496=CARTESIAN_POINT('',(-8.725E0,-9.9E0,0.E0));
#497=LINE('',#496,#495);
#498=CURVE_STYLE('',#222,POSITIVE_LENGTH_MEASURE(2.E-2),#199);
#499=PRESENTATION_STYLE_ASSIGNMENT((#498));
#500=STYLED_ITEM('',(#499),#497);
#501=DIRECTION('',(0.E0,0.E0,1.E0));
#502=VECTOR('',#501,1.95E1);
#503=CARTESIAN_POINT('',(-1.1075E1,-9.9E0,0.E0));
#504=LINE('',#503,#502);
#505=CURVE_STYLE('',#222,POSITIVE_LENGTH_MEASURE(2.E-2),#199);
#506=PRESENTATION_STYLE_ASSIGNMENT((#505));
#507=STYLED_ITEM('',(#506),#504);
#508=DIRECTION('',(0.E0,0.E0,1.E0));
#509=VECTOR('',#508,1.95E1);
#510=CARTESIAN_POINT('',(-1.1E1,6.545227268781E0,0.E0));
#511=LINE('',#510,#509);
#512=CURVE_STYLE('',#222,POSITIVE_LENGTH_MEASURE(2.E-2),#199);
#513=PRESENTATION_STYLE_ASSIGNMENT((#512));
#514=STYLED_ITEM('',(#513),#511);
#515=DIRECTION('',(0.E0,0.E0,1.E0));
#516=VECTOR('',#515,1.95E1);
#517=CARTESIAN_POINT('',(3.971109198280E0,1.216841369018E1,0.E0));
#518=LINE('',#517,#516);
#519=CURVE_STYLE('',#222,POSITIVE_LENGTH_MEASURE(2.E-2),#199);
#520=PRESENTATION_STYLE_ASSIGNMENT((#519));
#521=STYLED_ITEM('',(#520),#518);
#522=DIRECTION('',(0.E0,0.E0,1.E0));
#523=VECTOR('',#522,1.95E1);
#524=CARTESIAN_POINT('',(8.559337605941E0,1.252776032871E1,0.E0));
#525=LINE('',#524,#523);
#526=CURVE_STYLE('',#222,POSITIVE_LENGTH_MEASURE(2.E-2),#199);
#527=PRESENTATION_STYLE_ASSIGNMENT((#526));
#528=STYLED_ITEM('',(#527),#525);
#529=DIRECTION('',(0.E0,0.E0,1.E0));
#530=VECTOR('',#529,1.95E1);
#531=CARTESIAN_POINT('',(1.193277310924E1,7.762166169616E0,0.E0));
#532=LINE('',#531,#530);
#533=CURVE_STYLE('',#222,POSITIVE_LENGTH_MEASURE(2.E-2),#199);
#534=PRESENTATION_STYLE_ASSIGNMENT((#533));
#535=STYLED_ITEM('',(#534),#532);
#536=DIRECTION('',(0.E0,0.E0,1.E0));
#537=VECTOR('',#536,1.95E1);
#538=CARTESIAN_POINT('',(1.1E1,5.588097867530E0,0.E0));
#539=LINE('',#538,#537);
#540=CURVE_STYLE('',#222,POSITIVE_LENGTH_MEASURE(2.E-2),#199);
#541=PRESENTATION_STYLE_ASSIGNMENT((#540));
#542=STYLED_ITEM('',(#541),#539);
#543=DIRECTION('',(0.E0,0.E0,1.E0));
#544=VECTOR('',#543,1.95E1);
#545=CARTESIAN_POINT('',(1.1E1,-6.545227268782E0,0.E0));
#546=LINE('',#545,#544);
#547=CURVE_STYLE('',#222,POSITIVE_LENGTH_MEASURE(2.E-2),#199);
#548=PRESENTATION_STYLE_ASSIGNMENT((#547));
#549=STYLED_ITEM('',(#548),#546);
#550=DIRECTION('',(0.E0,0.E0,1.E0));
#551=VECTOR('',#550,1.95E1);
#552=CARTESIAN_POINT('',(6.5E0,-1.102678556969E1,0.E0));
#553=LINE('',#552,#551);
#554=CURVE_STYLE('',#222,POSITIVE_LENGTH_MEASURE(2.E-2),#199);
#555=PRESENTATION_STYLE_ASSIGNMENT((#554));
#556=STYLED_ITEM('',(#555),#553);
#557=DIRECTION('',(0.E0,0.E0,1.E0));
#558=VECTOR('',#557,1.95E1);
#559=CARTESIAN_POINT('',(6.5E0,-1.25E1,0.E0));
#560=LINE('',#559,#558);
#561=CURVE_STYLE('',#222,POSITIVE_LENGTH_MEASURE(2.E-2),#199);
#562=PRESENTATION_STYLE_ASSIGNMENT((#561));
#563=STYLED_ITEM('',(#562),#560);
#564=DIRECTION('',(0.E0,0.E0,1.E0));
#565=VECTOR('',#564,1.95E1);
#566=CARTESIAN_POINT('',(-9.9E0,-1.25E1,0.E0));
#567=LINE('',#566,#565);
#568=CURVE_STYLE('',#222,POSITIVE_LENGTH_MEASURE(2.E-2),#199);
#569=PRESENTATION_STYLE_ASSIGNMENT((#568));
#570=STYLED_ITEM('',(#569),#567);
#571=CARTESIAN_POINT('',(-3.81E0,-1.25E1,3.81E0));
#572=DIRECTION('',(0.E0,1.E0,0.E0));
#573=DIRECTION('',(1.E0,0.E0,0.E0));
#574=AXIS2_PLACEMENT_3D('',#571,#572,#573);
#576=CURVE_STYLE('',#222,POSITIVE_LENGTH_MEASURE(2.E-2),#199);
#577=PRESENTATION_STYLE_ASSIGNMENT((#576));
#578=STYLED_ITEM('',(#577),#575);
#579=CARTESIAN_POINT('',(-3.81E0,-1.25E1,3.81E0));
#580=DIRECTION('',(0.E0,1.E0,0.E0));
#581=DIRECTION('',(-1.E0,0.E0,0.E0));
#582=AXIS2_PLACEMENT_3D('',#579,#580,#581);
#584=CURVE_STYLE('',#222,POSITIVE_LENGTH_MEASURE(2.E-2),#199);
#585=PRESENTATION_STYLE_ASSIGNMENT((#584));
#586=STYLED_ITEM('',(#585),#583);
#587=CARTESIAN_POINT('',(3.81E0,-1.25E1,8.89E0));
#588=DIRECTION('',(0.E0,1.E0,0.E0));
#589=DIRECTION('',(1.E0,0.E0,0.E0));
#590=AXIS2_PLACEMENT_3D('',#587,#588,#589);
#592=CURVE_STYLE('',#222,POSITIVE_LENGTH_MEASURE(2.E-2),#199);
#593=PRESENTATION_STYLE_ASSIGNMENT((#592));
#594=STYLED_ITEM('',(#593),#591);
#595=CARTESIAN_POINT('',(3.81E0,-1.25E1,8.89E0));
#596=DIRECTION('',(0.E0,1.E0,0.E0));
#597=DIRECTION('',(-1.E0,0.E0,0.E0));
#598=AXIS2_PLACEMENT_3D('',#595,#596,#597);
#600=CURVE_STYLE('',#222,POSITIVE_LENGTH_MEASURE(2.E-2),#199);
#601=PRESENTATION_STYLE_ASSIGNMENT((#600));
#602=STYLED_ITEM('',(#601),#599);
#603=CARTESIAN_POINT('',(-3.81E0,-1.25E1,1.27E1));
#604=DIRECTION('',(0.E0,1.E0,0.E0));
#605=DIRECTION('',(1.E0,0.E0,0.E0));
#606=AXIS2_PLACEMENT_3D('',#603,#604,#605);
#608=CURVE_STYLE('',#222,POSITIVE_LENGTH_MEASURE(2.E-2),#199);
#609=PRESENTATION_STYLE_ASSIGNMENT((#608));
#610=STYLED_ITEM('',(#609),#607);
#611=CARTESIAN_POINT('',(-3.81E0,-1.25E1,1.27E1));
#612=DIRECTION('',(0.E0,1.E0,0.E0));
#613=DIRECTION('',(-1.E0,0.E0,0.E0));
#614=AXIS2_PLACEMENT_3D('',#611,#612,#613);
#616=CURVE_STYLE('',#222,POSITIVE_LENGTH_MEASURE(2.E-2),#199);
#617=PRESENTATION_STYLE_ASSIGNMENT((#616));
#618=STYLED_ITEM('',(#617),#615);
#619=CARTESIAN_POINT('',(3.81E0,-1.25E1,1.3335E1));
#620=DIRECTION('',(0.E0,1.E0,0.E0));
#621=DIRECTION('',(1.E0,0.E0,0.E0));
#622=AXIS2_PLACEMENT_3D('',#619,#620,#621);
#624=CURVE_STYLE('',#222,POSITIVE_LENGTH_MEASURE(2.E-2),#199);
#625=PRESENTATION_STYLE_ASSIGNMENT((#624));
#626=STYLED_ITEM('',(#625),#623);
#627=CARTESIAN_POINT('',(3.81E0,-1.25E1,1.3335E1));
#628=DIRECTION('',(0.E0,1.E0,0.E0));
#629=DIRECTION('',(-1.E0,0.E0,0.E0));
#630=AXIS2_PLACEMENT_3D('',#627,#628,#629);
#632=CURVE_STYLE('',#222,POSITIVE_LENGTH_MEASURE(2.E-2),#199);
#633=PRESENTATION_STYLE_ASSIGNMENT((#632));
#634=STYLED_ITEM('',(#633),#631);
#635=CARTESIAN_POINT('',(0.E0,-1.25E1,1.7145E1));
#636=DIRECTION('',(0.E0,1.E0,0.E0));
#637=DIRECTION('',(1.E0,0.E0,0.E0));
#638=AXIS2_PLACEMENT_3D('',#635,#636,#637);
#640=CURVE_STYLE('',#222,POSITIVE_LENGTH_MEASURE(2.E-2),#199);
#641=PRESENTATION_STYLE_ASSIGNMENT((#640));
#642=STYLED_ITEM('',(#641),#639);
#643=CARTESIAN_POINT('',(0.E0,-1.25E1,1.7145E1));
#644=DIRECTION('',(0.E0,1.E0,0.E0));
#645=DIRECTION('',(-1.E0,0.E0,0.E0));
#646=AXIS2_PLACEMENT_3D('',#643,#644,#645);
#648=CURVE_STYLE('',#222,POSITIVE_LENGTH_MEASURE(2.E-2),#199);
#649=PRESENTATION_STYLE_ASSIGNMENT((#648));
#650=STYLED_ITEM('',(#649),#647);
#651=DIRECTION('',(0.E0,0.E0,1.E0));
#652=VECTOR('',#651,1.95E1);
#653=CARTESIAN_POINT('',(-1.213207547170E1,-8.566643675290E0,0.E0));
#654=LINE('',#653,#652);
#655=CURVE_STYLE('',#222,POSITIVE_LENGTH_MEASURE(2.E-2),#199);
#656=PRESENTATION_STYLE_ASSIGNMENT((#655));
#657=STYLED_ITEM('',(#656),#654);
#658=DIRECTION('',(0.E0,0.E0,1.E0));
#659=VECTOR('',#658,1.95E1);
#660=CARTESIAN_POINT('',(-1.1E1,-4.464008830029E0,0.E0));
#661=LINE('',#660,#659);
#662=CURVE_STYLE('',#222,POSITIVE_LENGTH_MEASURE(2.E-2),#199);
#663=PRESENTATION_STYLE_ASSIGNMENT((#662));
#664=STYLED_ITEM('',(#663),#661);
#665=DIRECTION('',(0.E0,1.E0,0.E0));
#666=VECTOR('',#665,1.5E0);
#667=CARTESIAN_POINT('',(-3.01E0,-1.4E1,3.81E0));
#668=LINE('',#667,#666);
#669=CURVE_STYLE('',#222,POSITIVE_LENGTH_MEASURE(2.E-2),#199);
#670=PRESENTATION_STYLE_ASSIGNMENT((#669));
#671=STYLED_ITEM('',(#670),#668);
#672=DIRECTION('',(0.E0,1.E0,0.E0));
#673=VECTOR('',#672,1.5E0);
#674=CARTESIAN_POINT('',(-4.61E0,-1.4E1,3.81E0));
#675=LINE('',#674,#673);
#676=CURVE_STYLE('',#222,POSITIVE_LENGTH_MEASURE(2.E-2),#199);
#677=PRESENTATION_STYLE_ASSIGNMENT((#676));
#678=STYLED_ITEM('',(#677),#675);
#679=CARTESIAN_POINT('',(-3.81E0,-1.4E1,3.81E0));
#680=DIRECTION('',(0.E0,-1.E0,0.E0));
#681=DIRECTION('',(-1.E0,0.E0,0.E0));
#682=AXIS2_PLACEMENT_3D('',#679,#680,#681);
#684=CURVE_STYLE('',#222,POSITIVE_LENGTH_MEASURE(2.E-2),#199);
#685=PRESENTATION_STYLE_ASSIGNMENT((#684));
#686=STYLED_ITEM('',(#685),#683);
#687=CARTESIAN_POINT('',(-3.81E0,-1.4E1,3.81E0));
#688=DIRECTION('',(0.E0,-1.E0,0.E0));
#689=DIRECTION('',(1.E0,0.E0,0.E0));
#690=AXIS2_PLACEMENT_3D('',#687,#688,#689);
#692=CURVE_STYLE('',#222,POSITIVE_LENGTH_MEASURE(2.E-2),#199);
#693=PRESENTATION_STYLE_ASSIGNMENT((#692));
#694=STYLED_ITEM('',(#693),#691);
#695=CARTESIAN_POINT('',(3.81E0,-1.4E1,8.89E0));
#696=DIRECTION('',(0.E0,-1.E0,0.E0));
#697=DIRECTION('',(-1.E0,0.E0,0.E0));
#698=AXIS2_PLACEMENT_3D('',#695,#696,#697);
#700=CURVE_STYLE('',#222,POSITIVE_LENGTH_MEASURE(2.E-2),#199);
#701=PRESENTATION_STYLE_ASSIGNMENT((#700));
#702=STYLED_ITEM('',(#701),#699);
#703=CARTESIAN_POINT('',(3.81E0,-1.4E1,8.89E0));
#704=DIRECTION('',(0.E0,-1.E0,0.E0));
#705=DIRECTION('',(1.E0,0.E0,0.E0));
#706=AXIS2_PLACEMENT_3D('',#703,#704,#705);
#708=CURVE_STYLE('',#222,POSITIVE_LENGTH_MEASURE(2.E-2),#199);
#709=PRESENTATION_STYLE_ASSIGNMENT((#708));
#710=STYLED_ITEM('',(#709),#707);
#711=DIRECTION('',(0.E0,1.E0,0.E0));
#712=VECTOR('',#711,1.5E0);
#713=CARTESIAN_POINT('',(4.61E0,-1.4E1,8.89E0));
#714=LINE('',#713,#712);
#715=CURVE_STYLE('',#222,POSITIVE_LENGTH_MEASURE(2.E-2),#199);
#716=PRESENTATION_STYLE_ASSIGNMENT((#715));
#717=STYLED_ITEM('',(#716),#714);
#718=DIRECTION('',(0.E0,1.E0,0.E0));
#719=VECTOR('',#718,1.5E0);
#720=CARTESIAN_POINT('',(3.01E0,-1.4E1,8.89E0));
#721=LINE('',#720,#719);
#722=CURVE_STYLE('',#222,POSITIVE_LENGTH_MEASURE(2.E-2),#199);
#723=PRESENTATION_STYLE_ASSIGNMENT((#722));
#724=STYLED_ITEM('',(#723),#721);
#725=DIRECTION('',(0.E0,-1.E0,0.E0));
#726=VECTOR('',#725,3.5E0);
#727=CARTESIAN_POINT('',(-3.01E0,-1.25E1,1.27E1));
#728=LINE('',#727,#726);
#729=CURVE_STYLE('',#222,POSITIVE_LENGTH_MEASURE(2.E-2),#199);
#730=PRESENTATION_STYLE_ASSIGNMENT((#729));
#731=STYLED_ITEM('',(#730),#728);
#732=DIRECTION('',(0.E0,-1.E0,0.E0));
#733=VECTOR('',#732,3.5E0);
#734=CARTESIAN_POINT('',(-4.61E0,-1.25E1,1.27E1));
#735=LINE('',#734,#733);
#736=CURVE_STYLE('',#222,POSITIVE_LENGTH_MEASURE(2.E-2),#199);
#737=PRESENTATION_STYLE_ASSIGNMENT((#736));
#738=STYLED_ITEM('',(#737),#735);
#739=CARTESIAN_POINT('',(-3.81E0,-1.6E1,1.27E1));
#740=DIRECTION('',(0.E0,1.E0,0.E0));
#741=DIRECTION('',(1.E0,0.E0,0.E0));
#742=AXIS2_PLACEMENT_3D('',#739,#740,#741);
#744=CURVE_STYLE('',#222,POSITIVE_LENGTH_MEASURE(2.E-2),#199);
#745=PRESENTATION_STYLE_ASSIGNMENT((#744));
#746=STYLED_ITEM('',(#745),#743);
#747=CARTESIAN_POINT('',(-3.81E0,-1.6E1,1.27E1));
#748=DIRECTION('',(0.E0,1.E0,0.E0));
#749=DIRECTION('',(-1.E0,0.E0,0.E0));
#750=AXIS2_PLACEMENT_3D('',#747,#748,#749);
#752=CURVE_STYLE('',#222,POSITIVE_LENGTH_MEASURE(2.E-2),#199);
#753=PRESENTATION_STYLE_ASSIGNMENT((#752));
#754=STYLED_ITEM('',(#753),#751);
#755=CARTESIAN_POINT('',(3.81E0,-1.6E1,1.3335E1));
#756=DIRECTION('',(0.E0,1.E0,0.E0));
#757=DIRECTION('',(1.E0,0.E0,0.E0));
#758=AXIS2_PLACEMENT_3D('',#755,#756,#757);
#760=CURVE_STYLE('',#222,POSITIVE_LENGTH_MEASURE(2.E-2),#199);
#761=PRESENTATION_STYLE_ASSIGNMENT((#760));
#762=STYLED_ITEM('',(#761),#759);
#763=CARTESIAN_POINT('',(3.81E0,-1.6E1,1.3335E1));
#764=DIRECTION('',(0.E0,1.E0,0.E0));
#765=DIRECTION('',(-1.E0,0.E0,0.E0));
#766=AXIS2_PLACEMENT_3D('',#763,#764,#765);
#768=CURVE_STYLE('',#222,POSITIVE_LENGTH_MEASURE(2.E-2),#199);
#769=PRESENTATION_STYLE_ASSIGNMENT((#768));
#770=STYLED_ITEM('',(#769),#767);
#771=CARTESIAN_POINT('',(0.E0,-1.6E1,1.7145E1));
#772=DIRECTION('',(0.E0,1.E0,0.E0));
#773=DIRECTION('',(1.E0,0.E0,0.E0));
#774=AXIS2_PLACEMENT_3D('',#771,#772,#773);
#776=CURVE_STYLE('',#222,POSITIVE_LENGTH_MEASURE(2.E-2),#199);
#777=PRESENTATION_STYLE_ASSIGNMENT((#776));
#778=STYLED_ITEM('',(#777),#775);
#779=CARTESIAN_POINT('',(0.E0,-1.6E1,1.7145E1));
#780=DIRECTION('',(0.E0,1.E0,0.E0));
#781=DIRECTION('',(-1.E0,0.E0,0.E0));
#782=AXIS2_PLACEMENT_3D('',#779,#780,#781);
#784=CURVE_STYLE('',#222,POSITIVE_LENGTH_MEASURE(2.E-2),#199);
#785=PRESENTATION_STYLE_ASSIGNMENT((#784));
#786=STYLED_ITEM('',(#785),#783);
#787=DIRECTION('',(0.E0,-1.E0,0.E0));
#788=VECTOR('',#787,3.5E0);
#789=CARTESIAN_POINT('',(4.61E0,-1.25E1,1.3335E1));
#790=LINE('',#789,#788);
#791=CURVE_STYLE('',#222,POSITIVE_LENGTH_MEASURE(2.E-2),#199);
#792=PRESENTATION_STYLE_ASSIGNMENT((#791));
#793=STYLED_ITEM('',(#792),#790);
#794=DIRECTION('',(0.E0,-1.E0,0.E0));
#795=VECTOR('',#794,3.5E0);
#796=CARTESIAN_POINT('',(3.01E0,-1.25E1,1.3335E1));
#797=LINE('',#796,#795);
#798=CURVE_STYLE('',#222,POSITIVE_LENGTH_MEASURE(2.E-2),#199);
#799=PRESENTATION_STYLE_ASSIGNMENT((#798));
#800=STYLED_ITEM('',(#799),#797);
#801=DIRECTION('',(0.E0,-1.E0,0.E0));
#802=VECTOR('',#801,3.5E0);
#803=CARTESIAN_POINT('',(6.E-1,-1.25E1,1.7145E1));
#804=LINE('',#803,#802);
#805=CURVE_STYLE('',#222,POSITIVE_LENGTH_MEASURE(2.E-2),#199);
#806=PRESENTATION_STYLE_ASSIGNMENT((#805));
#807=STYLED_ITEM('',(#806),#804);
#808=DIRECTION('',(0.E0,-1.E0,0.E0));
#809=VECTOR('',#808,3.5E0);
#810=CARTESIAN_POINT('',(-6.E-1,-1.25E1,1.7145E1));
#811=LINE('',#810,#809);
#812=CURVE_STYLE('',#222,POSITIVE_LENGTH_MEASURE(2.E-2),#199);
#813=PRESENTATION_STYLE_ASSIGNMENT((#812));
#814=STYLED_ITEM('',(#813),#811);
#815=DIRECTION('',(1.315819881037E-14,0.E0,-1.E0));
#816=VECTOR('',#815,2.7E0);
#817=CARTESIAN_POINT('',(-1.1E1,0.E0,0.E0));
#818=LINE('',#817,#816);
#819=CURVE_STYLE('',#222,POSITIVE_LENGTH_MEASURE(2.E-2),#199);
#820=PRESENTATION_STYLE_ASSIGNMENT((#819));
#821=STYLED_ITEM('',(#820),#818);
#822=DIRECTION('',(0.E0,-1.671196174546E-10,-1.E0));
#823=VECTOR('',#822,2.7E0);
#824=CARTESIAN_POINT('',(1.1E1,4.512243142242E-10,0.E0));
#825=LINE('',#824,#823);
#826=CURVE_STYLE('',#222,POSITIVE_LENGTH_MEASURE(2.E-2),#199);
#827=PRESENTATION_STYLE_ASSIGNMENT((#826));
#828=STYLED_ITEM('',(#827),#825);
#829=CARTESIAN_POINT('',(0.E0,0.E0,-2.7E0));
#830=DIRECTION('',(0.E0,0.E0,-1.E0));
#831=DIRECTION('',(-1.E0,0.E0,0.E0));
#832=AXIS2_PLACEMENT_3D('',#829,#830,#831);
#834=CURVE_STYLE('',#222,POSITIVE_LENGTH_MEASURE(2.E-2),#199);
#835=PRESENTATION_STYLE_ASSIGNMENT((#834));
#836=STYLED_ITEM('',(#835),#833);
#837=CARTESIAN_POINT('',(0.E0,0.E0,-2.7E0));
#838=DIRECTION('',(0.E0,0.E0,-1.E0));
#839=DIRECTION('',(1.E0,0.E0,0.E0));
#840=AXIS2_PLACEMENT_3D('',#837,#838,#839);
#842=CURVE_STYLE('',#222,POSITIVE_LENGTH_MEASURE(2.E-2),#199);
#843=PRESENTATION_STYLE_ASSIGNMENT((#842));
#844=STYLED_ITEM('',(#843),#841);
#845=CARTESIAN_POINT('',(0.E0,0.E0,-2.7E0));
#846=DIRECTION('',(0.E0,0.E0,-1.E0));
#847=DIRECTION('',(-1.E0,0.E0,0.E0));
#848=AXIS2_PLACEMENT_3D('',#845,#846,#847);
#850=CURVE_STYLE('',#222,POSITIVE_LENGTH_MEASURE(2.E-2),#199);
#851=PRESENTATION_STYLE_ASSIGNMENT((#850));
#852=STYLED_ITEM('',(#851),#849);
#853=CARTESIAN_POINT('',(0.E0,0.E0,-2.7E0));
#854=DIRECTION('',(0.E0,0.E0,-1.E0));
#855=DIRECTION('',(1.E0,0.E0,0.E0));
#856=AXIS2_PLACEMENT_3D('',#853,#854,#855);
#858=CURVE_STYLE('',#222,POSITIVE_LENGTH_MEASURE(2.E-2),#199);
#859=PRESENTATION_STYLE_ASSIGNMENT((#858));
#860=STYLED_ITEM('',(#859),#857);
#861=CARTESIAN_POINT('',(4.05E0,0.E0,-2.7E0));
#862=DIRECTION('',(0.E0,0.E0,-1.E0));
#863=DIRECTION('',(-1.E0,0.E0,0.E0));
#864=AXIS2_PLACEMENT_3D('',#861,#862,#863);
#866=CURVE_STYLE('',#222,POSITIVE_LENGTH_MEASURE(2.E-2),#199);
#867=PRESENTATION_STYLE_ASSIGNMENT((#866));
#868=STYLED_ITEM('',(#867),#865);
#869=CARTESIAN_POINT('',(4.05E0,0.E0,-2.7E0));
#870=DIRECTION('',(0.E0,0.E0,-1.E0));
#871=DIRECTION('',(1.E0,0.E0,0.E0));
#872=AXIS2_PLACEMENT_3D('',#869,#870,#871);
#874=CURVE_STYLE('',#222,POSITIVE_LENGTH_MEASURE(2.E-2),#199);
#875=PRESENTATION_STYLE_ASSIGNMENT((#874));
#876=STYLED_ITEM('',(#875),#873);
#877=CARTESIAN_POINT('',(0.E0,-3.95E0,-2.7E0));
#878=DIRECTION('',(0.E0,0.E0,-1.E0));
#879=DIRECTION('',(-1.E0,0.E0,0.E0));
#880=AXIS2_PLACEMENT_3D('',#877,#878,#879);
#882=CURVE_STYLE('',#222,POSITIVE_LENGTH_MEASURE(2.E-2),#199);
#883=PRESENTATION_STYLE_ASSIGNMENT((#882));
#884=STYLED_ITEM('',(#883),#881);
#885=CARTESIAN_POINT('',(0.E0,-3.95E0,-2.7E0));
#886=DIRECTION('',(0.E0,0.E0,-1.E0));
#887=DIRECTION('',(1.E0,0.E0,0.E0));
#888=AXIS2_PLACEMENT_3D('',#885,#886,#887);
#890=CURVE_STYLE('',#222,POSITIVE_LENGTH_MEASURE(2.E-2),#199);
#891=PRESENTATION_STYLE_ASSIGNMENT((#890));
#892=STYLED_ITEM('',(#891),#889);
#893=CARTESIAN_POINT('',(-4.05E0,0.E0,-2.7E0));
#894=DIRECTION('',(0.E0,0.E0,-1.E0));
#895=DIRECTION('',(-1.E0,0.E0,0.E0));
#896=AXIS2_PLACEMENT_3D('',#893,#894,#895);
#898=CURVE_STYLE('',#222,POSITIVE_LENGTH_MEASURE(2.E-2),#199);
#899=PRESENTATION_STYLE_ASSIGNMENT((#898));
#900=STYLED_ITEM('',(#899),#897);
#901=CARTESIAN_POINT('',(-4.05E0,0.E0,-2.7E0));
#902=DIRECTION('',(0.E0,0.E0,-1.E0));
#903=DIRECTION('',(1.E0,0.E0,0.E0));
#904=AXIS2_PLACEMENT_3D('',#901,#902,#903);
#906=CURVE_STYLE('',#222,POSITIVE_LENGTH_MEASURE(2.E-2),#199);
#907=PRESENTATION_STYLE_ASSIGNMENT((#906));
#908=STYLED_ITEM('',(#907),#905);
#909=CARTESIAN_POINT('',(0.E0,0.E0,-2.7E0));
#910=DIRECTION('',(0.E0,0.E0,-1.E0));
#911=DIRECTION('',(1.E0,0.E0,0.E0));
#912=AXIS2_PLACEMENT_3D('',#909,#910,#911);
#914=CURVE_STYLE('',#222,POSITIVE_LENGTH_MEASURE(2.E-2),#199);
#915=PRESENTATION_STYLE_ASSIGNMENT((#914));
#916=STYLED_ITEM('',(#915),#913);
#917=CARTESIAN_POINT('',(0.E0,0.E0,-2.7E0));
#918=DIRECTION('',(0.E0,0.E0,-1.E0));
#919=DIRECTION('',(-1.E0,0.E0,0.E0));
#920=AXIS2_PLACEMENT_3D('',#917,#918,#919);
#922=CURVE_STYLE('',#222,POSITIVE_LENGTH_MEASURE(2.E-2),#199);
#923=PRESENTATION_STYLE_ASSIGNMENT((#922));
#924=STYLED_ITEM('',(#923),#921);
#925=DIRECTION('',(0.E0,0.E0,1.E0));
#926=VECTOR('',#925,1.3E1);
#927=CARTESIAN_POINT('',(-9.75E0,0.E0,-2.7E0));
#928=LINE('',#927,#926);
#929=CURVE_STYLE('',#222,POSITIVE_LENGTH_MEASURE(2.E-2),#199);
#930=PRESENTATION_STYLE_ASSIGNMENT((#929));
#931=STYLED_ITEM('',(#930),#928);
#932=DIRECTION('',(0.E0,0.E0,1.E0));
#933=VECTOR('',#932,1.3E1);
#934=CARTESIAN_POINT('',(9.75E0,0.E0,-2.7E0));
#935=LINE('',#934,#933);
#936=CURVE_STYLE('',#222,POSITIVE_LENGTH_MEASURE(2.E-2),#199);
#937=PRESENTATION_STYLE_ASSIGNMENT((#936));
#938=STYLED_ITEM('',(#937),#935);
#939=CARTESIAN_POINT('',(0.E0,0.E0,1.03E1));
#940=DIRECTION('',(0.E0,0.E0,-1.E0));
#941=DIRECTION('',(-1.E0,0.E0,0.E0));
#942=AXIS2_PLACEMENT_3D('',#939,#940,#941);
#944=CURVE_STYLE('',#222,POSITIVE_LENGTH_MEASURE(2.E-2),#199);
#945=PRESENTATION_STYLE_ASSIGNMENT((#944));
#946=STYLED_ITEM('',(#945),#943);
#947=CARTESIAN_POINT('',(0.E0,0.E0,1.03E1));
#948=DIRECTION('',(0.E0,0.E0,-1.E0));
#949=DIRECTION('',(1.E0,0.E0,0.E0));
#950=AXIS2_PLACEMENT_3D('',#947,#948,#949);
#952=CURVE_STYLE('',#222,POSITIVE_LENGTH_MEASURE(2.E-2),#199);
#953=PRESENTATION_STYLE_ASSIGNMENT((#952));
#954=STYLED_ITEM('',(#953),#951);
#955=CARTESIAN_POINT('',(4.05E0,0.E0,1.03E1));
#956=DIRECTION('',(0.E0,0.E0,-1.E0));
#957=DIRECTION('',(-1.E0,0.E0,0.E0));
#958=AXIS2_PLACEMENT_3D('',#955,#956,#957);
#960=CURVE_STYLE('',#222,POSITIVE_LENGTH_MEASURE(2.E-2),#199);
#961=PRESENTATION_STYLE_ASSIGNMENT((#960));
#962=STYLED_ITEM('',(#961),#959);
#963=CARTESIAN_POINT('',(4.05E0,0.E0,1.03E1));
#964=DIRECTION('',(0.E0,0.E0,-1.E0));
#965=DIRECTION('',(1.E0,0.E0,0.E0));
#966=AXIS2_PLACEMENT_3D('',#963,#964,#965);
#968=CURVE_STYLE('',#222,POSITIVE_LENGTH_MEASURE(2.E-2),#199);
#969=PRESENTATION_STYLE_ASSIGNMENT((#968));
#970=STYLED_ITEM('',(#969),#967);
#971=CARTESIAN_POINT('',(0.E0,-3.95E0,1.03E1));
#972=DIRECTION('',(0.E0,0.E0,-1.E0));
#973=DIRECTION('',(-1.E0,0.E0,0.E0));
#974=AXIS2_PLACEMENT_3D('',#971,#972,#973);
#976=CURVE_STYLE('',#222,POSITIVE_LENGTH_MEASURE(2.E-2),#199);
#977=PRESENTATION_STYLE_ASSIGNMENT((#976));
#978=STYLED_ITEM('',(#977),#975);
#979=CARTESIAN_POINT('',(0.E0,-3.95E0,1.03E1));
#980=DIRECTION('',(0.E0,0.E0,-1.E0));
#981=DIRECTION('',(1.E0,0.E0,0.E0));
#982=AXIS2_PLACEMENT_3D('',#979,#980,#981);
#984=CURVE_STYLE('',#222,POSITIVE_LENGTH_MEASURE(2.E-2),#199);
#985=PRESENTATION_STYLE_ASSIGNMENT((#984));
#986=STYLED_ITEM('',(#985),#983);
#987=CARTESIAN_POINT('',(-4.05E0,0.E0,1.03E1));
#988=DIRECTION('',(0.E0,0.E0,-1.E0));
#989=DIRECTION('',(-1.E0,0.E0,0.E0));
#990=AXIS2_PLACEMENT_3D('',#987,#988,#989);
#992=CURVE_STYLE('',#222,POSITIVE_LENGTH_MEASURE(2.E-2),#199);
#993=PRESENTATION_STYLE_ASSIGNMENT((#992));
#994=STYLED_ITEM('',(#993),#991);
#995=CARTESIAN_POINT('',(-4.05E0,0.E0,1.03E1));
#996=DIRECTION('',(0.E0,0.E0,-1.E0));
#997=DIRECTION('',(1.E0,0.E0,0.E0));
#998=AXIS2_PLACEMENT_3D('',#995,#996,#997);
#1000=CURVE_STYLE('',#222,POSITIVE_LENGTH_MEASURE(2.E-2),#199);
#1001=PRESENTATION_STYLE_ASSIGNMENT((#1000));
#1002=STYLED_ITEM('',(#1001),#999);
#1003=CARTESIAN_POINT('',(0.E0,0.E0,1.03E1));
#1004=DIRECTION('',(0.E0,0.E0,1.E0));
#1005=DIRECTION('',(-1.E0,0.E0,0.E0));
#1006=AXIS2_PLACEMENT_3D('',#1003,#1004,#1005);
#1008=CURVE_STYLE('',#222,POSITIVE_LENGTH_MEASURE(2.E-2),#199);
#1009=PRESENTATION_STYLE_ASSIGNMENT((#1008));
#1010=STYLED_ITEM('',(#1009),#1007);
#1011=CARTESIAN_POINT('',(0.E0,0.E0,1.03E1));
#1012=DIRECTION('',(0.E0,0.E0,1.E0));
#1013=DIRECTION('',(1.E0,0.E0,0.E0));
#1014=AXIS2_PLACEMENT_3D('',#1011,#1012,#1013);
#1016=CURVE_STYLE('',#222,POSITIVE_LENGTH_MEASURE(2.E-2),#199);
#1017=PRESENTATION_STYLE_ASSIGNMENT((#1016));
#1018=STYLED_ITEM('',(#1017),#1015);
#1019=DIRECTION('',(0.E0,0.E0,1.E0));
#1020=VECTOR('',#1019,1.3E1);
#1021=CARTESIAN_POINT('',(2.8E0,0.E0,-2.7E0));
#1022=LINE('',#1021,#1020);
#1023=CURVE_STYLE('',#222,POSITIVE_LENGTH_MEASURE(2.E-2),#199);
#1024=PRESENTATION_STYLE_ASSIGNMENT((#1023));
#1025=STYLED_ITEM('',(#1024),#1022);
#1026=DIRECTION('',(0.E0,0.E0,1.E0));
#1027=VECTOR('',#1026,1.3E1);
#1028=CARTESIAN_POINT('',(5.3E0,0.E0,-2.7E0));
#1029=LINE('',#1028,#1027);
#1030=CURVE_STYLE('',#222,POSITIVE_LENGTH_MEASURE(2.E-2),#199);
#1031=PRESENTATION_STYLE_ASSIGNMENT((#1030));
#1032=STYLED_ITEM('',(#1031),#1029);
#1033=DIRECTION('',(0.E0,0.E0,1.E0));
#1034=VECTOR('',#1033,1.3E1);
#1035=CARTESIAN_POINT('',(-1.25E0,-3.95E0,-2.7E0));
#1036=LINE('',#1035,#1034);
#1037=CURVE_STYLE('',#222,POSITIVE_LENGTH_MEASURE(2.E-2),#199);
#1038=PRESENTATION_STYLE_ASSIGNMENT((#1037));
#1039=STYLED_ITEM('',(#1038),#1036);
#1040=DIRECTION('',(0.E0,0.E0,1.E0));
#1041=VECTOR('',#1040,1.3E1);
#1042=CARTESIAN_POINT('',(1.25E0,-3.95E0,-2.7E0));
#1043=LINE('',#1042,#1041);
#1044=CURVE_STYLE('',#222,POSITIVE_LENGTH_MEASURE(2.E-2),#199);
#1045=PRESENTATION_STYLE_ASSIGNMENT((#1044));
#1046=STYLED_ITEM('',(#1045),#1043);
#1047=DIRECTION('',(0.E0,0.E0,1.E0));
#1048=VECTOR('',#1047,1.3E1);
#1049=CARTESIAN_POINT('',(-5.3E0,0.E0,-2.7E0));
#1050=LINE('',#1049,#1048);
#1051=CURVE_STYLE('',#222,POSITIVE_LENGTH_MEASURE(2.E-2),#199);
#1052=PRESENTATION_STYLE_ASSIGNMENT((#1051));
#1053=STYLED_ITEM('',(#1052),#1050);
#1054=DIRECTION('',(0.E0,0.E0,1.E0));
#1055=VECTOR('',#1054,1.3E1);
#1056=CARTESIAN_POINT('',(-2.8E0,0.E0,-2.7E0));
#1057=LINE('',#1056,#1055);
#1058=CURVE_STYLE('',#222,POSITIVE_LENGTH_MEASURE(2.E-2),#199);
#1059=PRESENTATION_STYLE_ASSIGNMENT((#1058));
#1060=STYLED_ITEM('',(#1059),#1057);
#1061=DIRECTION('',(0.E0,0.E0,1.E0));
#1062=VECTOR('',#1061,1.3E1);
#1063=CARTESIAN_POINT('',(-7.925E0,0.E0,-2.7E0));
#1064=LINE('',#1063,#1062);
#1065=CURVE_STYLE('',#222,POSITIVE_LENGTH_MEASURE(2.E-2),#199);
#1066=PRESENTATION_STYLE_ASSIGNMENT((#1065));
#1067=STYLED_ITEM('',(#1066),#1064);
#1068=DIRECTION('',(0.E0,0.E0,1.E0));
#1069=VECTOR('',#1068,1.3E1);
#1070=CARTESIAN_POINT('',(7.925E0,0.E0,-2.7E0));
#1071=LINE('',#1070,#1069);
#1072=CURVE_STYLE('',#222,POSITIVE_LENGTH_MEASURE(2.E-2),#199);
#1073=PRESENTATION_STYLE_ASSIGNMENT((#1072));
#1074=STYLED_ITEM('',(#1073),#1071);
#1075=CARTESIAN_POINT('',(-1.213207547170E1,-8.566643675290E0,0.E0));
#1076=CARTESIAN_POINT('',(-9.9E0,-1.25E1,0.E0));
#1077=VERTEX_POINT('',#1075);
#1078=VERTEX_POINT('',#1076);
#1079=CARTESIAN_POINT('',(6.5E0,-1.25E1,0.E0));
#1080=VERTEX_POINT('',#1079);
#1081=CARTESIAN_POINT('',(6.5E0,-1.102678556969E1,0.E0));
#1082=VERTEX_POINT('',#1081);
#1083=CARTESIAN_POINT('',(1.193277310924E1,7.762166169616E0,0.E0));
#1084=CARTESIAN_POINT('',(8.559337605941E0,1.252776032871E1,0.E0));
#1085=VERTEX_POINT('',#1083);
#1086=VERTEX_POINT('',#1084);
#1087=CARTESIAN_POINT('',(3.971109198280E0,1.216841369018E1,0.E0));
#1088=VERTEX_POINT('',#1087);
#1089=CARTESIAN_POINT('',(-1.1E1,6.545227268781E0,0.E0));
#1090=VERTEX_POINT('',#1089);
#1091=CARTESIAN_POINT('',(-1.1E1,6.545227268781E0,1.95E1));
#1092=CARTESIAN_POINT('',(-1.1E1,-4.464008830029E0,1.95E1));
#1093=VERTEX_POINT('',#1091);
#1094=VERTEX_POINT('',#1092);
#1095=CARTESIAN_POINT('',(-1.213207547170E1,-8.566643675290E0,1.95E1));
#1096=CARTESIAN_POINT('',(-9.9E0,-1.25E1,1.95E1));
#1097=VERTEX_POINT('',#1095);
#1098=VERTEX_POINT('',#1096);
#1099=CARTESIAN_POINT('',(6.5E0,-1.25E1,1.95E1));
#1100=VERTEX_POINT('',#1099);
#1101=CARTESIAN_POINT('',(6.5E0,-1.102678556969E1,1.95E1));
#1102=VERTEX_POINT('',#1101);
#1103=CARTESIAN_POINT('',(1.1E1,-6.545227268782E0,1.95E1));
#1104=CARTESIAN_POINT('',(1.1E1,5.588097867530E0,1.95E1));
#1105=VERTEX_POINT('',#1103);
#1106=VERTEX_POINT('',#1104);
#1107=CARTESIAN_POINT('',(1.193277310924E1,7.762166169616E0,1.95E1));
#1108=CARTESIAN_POINT('',(8.559337605941E0,1.252776032871E1,1.95E1));
#1109=VERTEX_POINT('',#1107);
#1110=VERTEX_POINT('',#1108);
#1111=CARTESIAN_POINT('',(3.971109198280E0,1.216841369018E1,1.95E1));
#1112=VERTEX_POINT('',#1111);
#1113=CARTESIAN_POINT('',(1.1075E1,9.9E0,0.E0));
#1114=CARTESIAN_POINT('',(8.725E0,9.9E0,0.E0));
#1115=VERTEX_POINT('',#1113);
#1116=VERTEX_POINT('',#1114);
#1117=CARTESIAN_POINT('',(-8.725E0,-9.9E0,0.E0));
#1118=CARTESIAN_POINT('',(-1.1075E1,-9.9E0,0.E0));
#1119=VERTEX_POINT('',#1117);
#1120=VERTEX_POINT('',#1118);
#1121=CARTESIAN_POINT('',(1.1075E1,9.9E0,1.95E1));
#1122=CARTESIAN_POINT('',(8.725E0,9.9E0,1.95E1));
#1123=VERTEX_POINT('',#1121);
#1124=VERTEX_POINT('',#1122);
#1125=CARTESIAN_POINT('',(-8.725E0,-9.9E0,1.95E1));
#1126=CARTESIAN_POINT('',(-1.1075E1,-9.9E0,1.95E1));
#1127=VERTEX_POINT('',#1125);
#1128=VERTEX_POINT('',#1126);
#1129=CARTESIAN_POINT('',(-1.1E1,0.E0,-2.7E0));
#1130=CARTESIAN_POINT('',(1.1E1,0.E0,-2.7E0));
#1131=VERTEX_POINT('',#1129);
#1132=VERTEX_POINT('',#1130);
#1133=CARTESIAN_POINT('',(-1.1E1,0.E0,0.E0));
#1134=CARTESIAN_POINT('',(1.1E1,9.464703567701E-7,0.E0));
#1135=VERTEX_POINT('',#1133);
#1136=VERTEX_POINT('',#1134);
#1137=CARTESIAN_POINT('',(-1.1E1,-4.464008830029E0,0.E0));
#1138=VERTEX_POINT('',#1137);
#1139=CARTESIAN_POINT('',(1.1E1,-6.545227268782E0,0.E0));
#1140=VERTEX_POINT('',#1139);
#1141=CARTESIAN_POINT('',(1.1E1,5.588097867530E0,0.E0));
#1142=VERTEX_POINT('',#1141);
#1143=CARTESIAN_POINT('',(-4.61E0,-1.4E1,3.81E0));
#1144=CARTESIAN_POINT('',(-3.01E0,-1.4E1,3.81E0));
#1145=VERTEX_POINT('',#1143);
#1146=VERTEX_POINT('',#1144);
#1147=CARTESIAN_POINT('',(3.01E0,-1.4E1,8.89E0));
#1148=CARTESIAN_POINT('',(4.61E0,-1.4E1,8.89E0));
#1149=VERTEX_POINT('',#1147);
#1150=VERTEX_POINT('',#1148);
#1151=CARTESIAN_POINT('',(-3.01E0,-1.25E1,3.81E0));
#1152=VERTEX_POINT('',#1151);
#1153=CARTESIAN_POINT('',(-4.61E0,-1.25E1,3.81E0));
#1154=VERTEX_POINT('',#1153);
#1155=CARTESIAN_POINT('',(4.61E0,-1.25E1,8.89E0));
#1156=VERTEX_POINT('',#1155);
#1157=CARTESIAN_POINT('',(3.01E0,-1.25E1,8.89E0));
#1158=VERTEX_POINT('',#1157);
#1159=CARTESIAN_POINT('',(-9.75E0,0.E0,1.03E1));
#1160=CARTESIAN_POINT('',(9.75E0,0.E0,1.03E1));
#1161=VERTEX_POINT('',#1159);
#1162=VERTEX_POINT('',#1160);
#1163=CARTESIAN_POINT('',(-9.75E0,0.E0,-2.7E0));
#1164=CARTESIAN_POINT('',(9.75E0,0.E0,-2.7E0));
#1165=VERTEX_POINT('',#1163);
#1166=VERTEX_POINT('',#1164);
#1167=CARTESIAN_POINT('',(-3.01E0,-1.6E1,1.27E1));
#1168=CARTESIAN_POINT('',(-4.61E0,-1.6E1,1.27E1));
#1169=VERTEX_POINT('',#1167);
#1170=VERTEX_POINT('',#1168);
#1171=CARTESIAN_POINT('',(4.61E0,-1.6E1,1.3335E1));
#1172=CARTESIAN_POINT('',(3.01E0,-1.6E1,1.3335E1));
#1173=VERTEX_POINT('',#1171);
#1174=VERTEX_POINT('',#1172);
#1175=CARTESIAN_POINT('',(6.E-1,-1.6E1,1.7145E1));
#1176=CARTESIAN_POINT('',(-6.E-1,-1.6E1,1.7145E1));
#1177=VERTEX_POINT('',#1175);
#1178=VERTEX_POINT('',#1176);
#1179=CARTESIAN_POINT('',(-3.01E0,-1.25E1,1.27E1));
#1180=CARTESIAN_POINT('',(-4.61E0,-1.25E1,1.27E1));
#1181=VERTEX_POINT('',#1179);
#1182=VERTEX_POINT('',#1180);
#1183=CARTESIAN_POINT('',(4.61E0,-1.25E1,1.3335E1));
#1184=CARTESIAN_POINT('',(3.01E0,-1.25E1,1.3335E1));
#1185=VERTEX_POINT('',#1183);
#1186=VERTEX_POINT('',#1184);
#1187=CARTESIAN_POINT('',(6.E-1,-1.25E1,1.7145E1));
#1188=CARTESIAN_POINT('',(-6.E-1,-1.25E1,1.7145E1));
#1189=VERTEX_POINT('',#1187);
#1190=VERTEX_POINT('',#1188);
#1191=CARTESIAN_POINT('',(2.8E0,0.E0,1.03E1));
#1192=CARTESIAN_POINT('',(5.3E0,0.E0,1.03E1));
#1193=VERTEX_POINT('',#1191);
#1194=VERTEX_POINT('',#1192);
#1195=CARTESIAN_POINT('',(-1.25E0,-3.95E0,1.03E1));
#1196=CARTESIAN_POINT('',(1.25E0,-3.95E0,1.03E1));
#1197=VERTEX_POINT('',#1195);
#1198=VERTEX_POINT('',#1196);
#1199=CARTESIAN_POINT('',(-5.3E0,0.E0,1.03E1));
#1200=CARTESIAN_POINT('',(-2.8E0,0.E0,1.03E1));
#1201=VERTEX_POINT('',#1199);
#1202=VERTEX_POINT('',#1200);
#1203=CARTESIAN_POINT('',(2.8E0,0.E0,-2.7E0));
#1204=CARTESIAN_POINT('',(5.3E0,0.E0,-2.7E0));
#1205=VERTEX_POINT('',#1203);
#1206=VERTEX_POINT('',#1204);
#1207=CARTESIAN_POINT('',(-1.25E0,-3.95E0,-2.7E0));
#1208=CARTESIAN_POINT('',(1.25E0,-3.95E0,-2.7E0));
#1209=VERTEX_POINT('',#1207);
#1210=VERTEX_POINT('',#1208);
#1211=CARTESIAN_POINT('',(-5.3E0,0.E0,-2.7E0));
#1212=CARTESIAN_POINT('',(-2.8E0,0.E0,-2.7E0));
#1213=VERTEX_POINT('',#1211);
#1214=VERTEX_POINT('',#1212);
#1215=CARTESIAN_POINT('',(-7.925E0,0.E0,1.03E1));
#1216=CARTESIAN_POINT('',(7.925E0,0.E0,1.03E1));
#1217=VERTEX_POINT('',#1215);
#1218=VERTEX_POINT('',#1216);
#1219=CARTESIAN_POINT('',(7.925E0,0.E0,-2.7E0));
#1220=CARTESIAN_POINT('',(-7.925E0,0.E0,-2.7E0));
#1221=VERTEX_POINT('',#1219);
#1222=VERTEX_POINT('',#1220);
#1223=CARTESIAN_POINT('',(0.E0,0.E0,0.E0));
#1224=DIRECTION('',(0.E0,0.E0,1.E0));
#1225=DIRECTION('',(1.E0,0.E0,0.E0));
#1226=AXIS2_PLACEMENT_3D('',#1223,#1224,#1225);
#1227=PLANE('',#1226);
#1229=ORIENTED_EDGE('',*,*,#1228,.T.);
#1231=ORIENTED_EDGE('',*,*,#1230,.T.);
#1233=ORIENTED_EDGE('',*,*,#1232,.T.);
#1235=ORIENTED_EDGE('',*,*,#1234,.T.);
#1237=ORIENTED_EDGE('',*,*,#1236,.T.);
#1239=ORIENTED_EDGE('',*,*,#1238,.T.);
#1241=ORIENTED_EDGE('',*,*,#1240,.T.);
#1242=EDGE_LOOP('',(#1229,#1231,#1233,#1235,#1237,#1239,#1241));
#1243=FACE_OUTER_BOUND('',#1242,.F.);
#1245=ORIENTED_EDGE('',*,*,#1244,.T.);
#1247=ORIENTED_EDGE('',*,*,#1246,.T.);
#1248=EDGE_LOOP('',(#1245,#1247));
#1249=FACE_BOUND('',#1248,.F.);
#1251=CARTESIAN_POINT('',(0.E0,0.E0,0.E0));
#1252=DIRECTION('',(0.E0,0.E0,1.E0));
#1253=DIRECTION('',(1.E0,0.E0,0.E0));
#1254=AXIS2_PLACEMENT_3D('',#1251,#1252,#1253);
#1255=PLANE('',#1254);
#1257=ORIENTED_EDGE('',*,*,#1256,.T.);
#1259=ORIENTED_EDGE('',*,*,#1258,.T.);
#1261=ORIENTED_EDGE('',*,*,#1260,.T.);
#1263=ORIENTED_EDGE('',*,*,#1262,.T.);
#1265=ORIENTED_EDGE('',*,*,#1264,.T.);
#1267=ORIENTED_EDGE('',*,*,#1266,.T.);
#1269=ORIENTED_EDGE('',*,*,#1268,.T.);
#1271=ORIENTED_EDGE('',*,*,#1270,.T.);
#1272=EDGE_LOOP('',(#1257,#1259,#1261,#1263,#1265,#1267,#1269,#1271));
#1273=FACE_OUTER_BOUND('',#1272,.F.);
#1275=ORIENTED_EDGE('',*,*,#1274,.T.);
#1277=ORIENTED_EDGE('',*,*,#1276,.T.);
#1278=EDGE_LOOP('',(#1275,#1277));
#1279=FACE_BOUND('',#1278,.F.);
#1281=CARTESIAN_POINT('',(9.9E0,9.9E0,0.E0));
#1282=DIRECTION('',(0.E0,0.E0,1.E0));
#1283=DIRECTION('',(1.E0,0.E0,0.E0));
#1284=AXIS2_PLACEMENT_3D('',#1281,#1282,#1283);
#1285=CYLINDRICAL_SURFACE('',#1284,1.175E0);
#1286=ORIENTED_EDGE('',*,*,#1244,.F.);
#1288=ORIENTED_EDGE('',*,*,#1287,.T.);
#1290=ORIENTED_EDGE('',*,*,#1289,.T.);
#1292=ORIENTED_EDGE('',*,*,#1291,.F.);
#1293=EDGE_LOOP('',(#1286,#1288,#1290,#1292));
#1294=FACE_OUTER_BOUND('',#1293,.F.);
#1296=CARTESIAN_POINT('',(9.9E0,9.9E0,0.E0));
#1297=DIRECTION('',(0.E0,0.E0,1.E0));
#1298=DIRECTION('',(1.E0,0.E0,0.E0));
#1299=AXIS2_PLACEMENT_3D('',#1296,#1297,#1298);
#1300=CYLINDRICAL_SURFACE('',#1299,1.175E0);
#1301=ORIENTED_EDGE('',*,*,#1246,.F.);
#1302=ORIENTED_EDGE('',*,*,#1291,.T.);
#1304=ORIENTED_EDGE('',*,*,#1303,.T.);
#1305=ORIENTED_EDGE('',*,*,#1287,.F.);
#1306=EDGE_LOOP('',(#1301,#1302,#1304,#1305));
#1307=FACE_OUTER_BOUND('',#1306,.F.);
#1309=CARTESIAN_POINT('',(0.E0,0.E0,1.95E1));
#1310=DIRECTION('',(0.E0,0.E0,1.E0));
#1311=DIRECTION('',(1.E0,0.E0,0.E0));
#1312=AXIS2_PLACEMENT_3D('',#1309,#1310,#1311);
#1313=PLANE('',#1312);
#1315=ORIENTED_EDGE('',*,*,#1314,.F.);
#1317=ORIENTED_EDGE('',*,*,#1316,.F.);
#1319=ORIENTED_EDGE('',*,*,#1318,.F.);
#1321=ORIENTED_EDGE('',*,*,#1320,.F.);
#1323=ORIENTED_EDGE('',*,*,#1322,.F.);
#1325=ORIENTED_EDGE('',*,*,#1324,.F.);
#1327=ORIENTED_EDGE('',*,*,#1326,.F.);
#1329=ORIENTED_EDGE('',*,*,#1328,.F.);
#1331=ORIENTED_EDGE('',*,*,#1330,.F.);
#1333=ORIENTED_EDGE('',*,*,#1332,.F.);
#1335=ORIENTED_EDGE('',*,*,#1334,.F.);
#1336=EDGE_LOOP('',(#1315,#1317,#1319,#1321,#1323,#1325,#1327,#1329,#1331,#1333,
#1335));
#1337=FACE_OUTER_BOUND('',#1336,.F.);
#1339=ORIENTED_EDGE('',*,*,#1338,.F.);
#1341=ORIENTED_EDGE('',*,*,#1340,.F.);
#1342=EDGE_LOOP('',(#1339,#1341));
#1343=FACE_BOUND('',#1342,.F.);
#1344=ORIENTED_EDGE('',*,*,#1289,.F.);
#1345=ORIENTED_EDGE('',*,*,#1303,.F.);
#1346=EDGE_LOOP('',(#1344,#1345));
#1347=FACE_BOUND('',#1346,.F.);
#1349=CARTESIAN_POINT('',(-9.9E0,-9.9E0,0.E0));
#1350=DIRECTION('',(0.E0,0.E0,1.E0));
#1351=DIRECTION('',(1.E0,0.E0,0.E0));
#1352=AXIS2_PLACEMENT_3D('',#1349,#1350,#1351);
#1353=CYLINDRICAL_SURFACE('',#1352,1.175E0);
#1354=ORIENTED_EDGE('',*,*,#1274,.F.);
#1356=ORIENTED_EDGE('',*,*,#1355,.T.);
#1357=ORIENTED_EDGE('',*,*,#1338,.T.);
#1359=ORIENTED_EDGE('',*,*,#1358,.F.);
#1360=EDGE_LOOP('',(#1354,#1356,#1357,#1359));
#1361=FACE_OUTER_BOUND('',#1360,.F.);
#1363=CARTESIAN_POINT('',(-9.9E0,-9.9E0,0.E0));
#1364=DIRECTION('',(0.E0,0.E0,1.E0));
#1365=DIRECTION('',(1.E0,0.E0,0.E0));
#1366=AXIS2_PLACEMENT_3D('',#1363,#1364,#1365);
#1367=CYLINDRICAL_SURFACE('',#1366,1.175E0);
#1368=ORIENTED_EDGE('',*,*,#1276,.F.);
#1369=ORIENTED_EDGE('',*,*,#1358,.T.);
#1370=ORIENTED_EDGE('',*,*,#1340,.T.);
#1371=ORIENTED_EDGE('',*,*,#1355,.F.);
#1372=EDGE_LOOP('',(#1368,#1369,#1370,#1371));
#1373=FACE_OUTER_BOUND('',#1372,.F.);
#1375=CARTESIAN_POINT('',(-1.1E1,6.545227268781E0,0.E0));
#1376=DIRECTION('',(-1.E0,0.E0,0.E0));
#1377=DIRECTION('',(0.E0,-1.E0,0.E0));
#1378=AXIS2_PLACEMENT_3D('',#1375,#1376,#1377);
#1379=PLANE('',#1378);
#1380=ORIENTED_EDGE('',*,*,#1240,.F.);
#1382=ORIENTED_EDGE('',*,*,#1381,.T.);
#1383=ORIENTED_EDGE('',*,*,#1314,.T.);
#1385=ORIENTED_EDGE('',*,*,#1384,.F.);
#1386=ORIENTED_EDGE('',*,*,#1258,.F.);
#1387=EDGE_LOOP('',(#1380,#1382,#1383,#1385,#1386));
#1388=FACE_OUTER_BOUND('',#1387,.F.);
#1390=CARTESIAN_POINT('',(0.E0,0.E0,0.E0));
#1391=DIRECTION('',(0.E0,0.E0,1.E0));
#1392=DIRECTION('',(1.E0,0.E0,0.E0));
#1393=AXIS2_PLACEMENT_3D('',#1390,#1391,#1392);
#1394=CYLINDRICAL_SURFACE('',#1393,1.28E1);
#1395=ORIENTED_EDGE('',*,*,#1238,.F.);
#1397=ORIENTED_EDGE('',*,*,#1396,.T.);
#1398=ORIENTED_EDGE('',*,*,#1316,.T.);
#1399=ORIENTED_EDGE('',*,*,#1381,.F.);
#1400=EDGE_LOOP('',(#1395,#1397,#1398,#1399));
#1401=FACE_OUTER_BOUND('',#1400,.F.);
#1403=CARTESIAN_POINT('',(5.832566634974E0,1.787235760745E1,0.E0));
#1404=DIRECTION('',(0.E0,0.E0,1.E0));
#1405=DIRECTION('',(1.E0,0.E0,0.E0));
#1406=AXIS2_PLACEMENT_3D('',#1403,#1404,#1405);
#1407=CYLINDRICAL_SURFACE('',#1406,6.E0);
#1408=ORIENTED_EDGE('',*,*,#1236,.F.);
#1410=ORIENTED_EDGE('',*,*,#1409,.T.);
#1411=ORIENTED_EDGE('',*,*,#1318,.T.);
#1412=ORIENTED_EDGE('',*,*,#1396,.F.);
#1413=EDGE_LOOP('',(#1408,#1410,#1411,#1412));
#1414=FACE_OUTER_BOUND('',#1413,.F.);
#1416=CARTESIAN_POINT('',(9.9E0,9.9E0,0.E0));
#1417=DIRECTION('',(0.E0,0.E0,1.E0));
#1418=DIRECTION('',(1.E0,0.E0,0.E0));
#1419=AXIS2_PLACEMENT_3D('',#1416,#1417,#1418);
#1420=CYLINDRICAL_SURFACE('',#1419,2.95E0);
#1421=ORIENTED_EDGE('',*,*,#1234,.F.);
#1423=ORIENTED_EDGE('',*,*,#1422,.T.);
#1424=ORIENTED_EDGE('',*,*,#1320,.T.);
#1425=ORIENTED_EDGE('',*,*,#1409,.F.);
#1426=EDGE_LOOP('',(#1421,#1423,#1424,#1425));
#1427=FACE_OUTER_BOUND('',#1426,.F.);
#1429=CARTESIAN_POINT('',(1.4E1,5.588097867530E0,0.E0));
#1430=DIRECTION('',(0.E0,0.E0,1.E0));
#1431=DIRECTION('',(1.E0,0.E0,0.E0));
#1432=AXIS2_PLACEMENT_3D('',#1429,#1430,#1431);
#1433=CYLINDRICAL_SURFACE('',#1432,3.E0);
#1434=ORIENTED_EDGE('',*,*,#1232,.F.);
#1436=ORIENTED_EDGE('',*,*,#1435,.T.);
#1437=ORIENTED_EDGE('',*,*,#1322,.T.);
#1438=ORIENTED_EDGE('',*,*,#1422,.F.);
#1439=EDGE_LOOP('',(#1434,#1436,#1437,#1438));
#1440=FACE_OUTER_BOUND('',#1439,.F.);
#1442=CARTESIAN_POINT('',(1.1E1,-6.545227268782E0,0.E0));
#1443=DIRECTION('',(1.E0,0.E0,0.E0));
#1444=DIRECTION('',(0.E0,1.E0,0.E0));
#1445=AXIS2_PLACEMENT_3D('',#1442,#1443,#1444);
#1446=PLANE('',#1445);
#1447=ORIENTED_EDGE('',*,*,#1270,.F.);
#1449=ORIENTED_EDGE('',*,*,#1448,.T.);
#1450=ORIENTED_EDGE('',*,*,#1324,.T.);
#1451=ORIENTED_EDGE('',*,*,#1435,.F.);
#1452=ORIENTED_EDGE('',*,*,#1230,.F.);
#1453=EDGE_LOOP('',(#1447,#1449,#1450,#1451,#1452));
#1454=FACE_OUTER_BOUND('',#1453,.F.);
#1456=CARTESIAN_POINT('',(0.E0,0.E0,0.E0));
#1457=DIRECTION('',(0.E0,0.E0,1.E0));
#1458=DIRECTION('',(1.E0,0.E0,0.E0));
#1459=AXIS2_PLACEMENT_3D('',#1456,#1457,#1458);
#1460=CYLINDRICAL_SURFACE('',#1459,1.28E1);
#1461=ORIENTED_EDGE('',*,*,#1268,.F.);
#1463=ORIENTED_EDGE('',*,*,#1462,.T.);
#1464=ORIENTED_EDGE('',*,*,#1326,.T.);
#1465=ORIENTED_EDGE('',*,*,#1448,.F.);
#1466=EDGE_LOOP('',(#1461,#1463,#1464,#1465));
#1467=FACE_OUTER_BOUND('',#1466,.F.);
#1469=CARTESIAN_POINT('',(6.5E0,-1.25E1,0.E0));
#1470=DIRECTION('',(1.E0,0.E0,0.E0));
#1471=DIRECTION('',(0.E0,1.E0,0.E0));
#1472=AXIS2_PLACEMENT_3D('',#1469,#1470,#1471);
#1473=PLANE('',#1472);
#1474=ORIENTED_EDGE('',*,*,#1266,.F.);
#1476=ORIENTED_EDGE('',*,*,#1475,.T.);
#1477=ORIENTED_EDGE('',*,*,#1328,.T.);
#1478=ORIENTED_EDGE('',*,*,#1462,.F.);
#1479=EDGE_LOOP('',(#1474,#1476,#1477,#1478));
#1480=FACE_OUTER_BOUND('',#1479,.F.);
#1482=CARTESIAN_POINT('',(-9.9E0,-1.25E1,0.E0));
#1483=DIRECTION('',(0.E0,-1.E0,0.E0));
#1484=DIRECTION('',(1.E0,0.E0,0.E0));
#1485=AXIS2_PLACEMENT_3D('',#1482,#1483,#1484);
#1486=PLANE('',#1485);
#1487=ORIENTED_EDGE('',*,*,#1264,.F.);
#1489=ORIENTED_EDGE('',*,*,#1488,.T.);
#1490=ORIENTED_EDGE('',*,*,#1330,.T.);
#1491=ORIENTED_EDGE('',*,*,#1475,.F.);
#1492=EDGE_LOOP('',(#1487,#1489,#1490,#1491));
#1493=FACE_OUTER_BOUND('',#1492,.F.);
#1495=ORIENTED_EDGE('',*,*,#1494,.F.);
#1497=ORIENTED_EDGE('',*,*,#1496,.F.);
#1498=EDGE_LOOP('',(#1495,#1497));
#1499=FACE_BOUND('',#1498,.F.);
#1501=ORIENTED_EDGE('',*,*,#1500,.F.);
#1503=ORIENTED_EDGE('',*,*,#1502,.F.);
#1504=EDGE_LOOP('',(#1501,#1503));
#1505=FACE_BOUND('',#1504,.F.);
#1507=ORIENTED_EDGE('',*,*,#1506,.F.);
#1509=ORIENTED_EDGE('',*,*,#1508,.F.);
#1510=EDGE_LOOP('',(#1507,#1509));
#1511=FACE_BOUND('',#1510,.F.);
#1513=ORIENTED_EDGE('',*,*,#1512,.F.);
#1515=ORIENTED_EDGE('',*,*,#1514,.F.);
#1516=EDGE_LOOP('',(#1513,#1515));
#1517=FACE_BOUND('',#1516,.F.);
#1519=ORIENTED_EDGE('',*,*,#1518,.F.);
#1521=ORIENTED_EDGE('',*,*,#1520,.F.);
#1522=EDGE_LOOP('',(#1519,#1521));
#1523=FACE_BOUND('',#1522,.F.);
#1525=CARTESIAN_POINT('',(-9.9E0,-9.9E0,0.E0));
#1526=DIRECTION('',(0.E0,0.E0,1.E0));
#1527=DIRECTION('',(1.E0,0.E0,0.E0));
#1528=AXIS2_PLACEMENT_3D('',#1525,#1526,#1527);
#1529=CYLINDRICAL_SURFACE('',#1528,2.6E0);
#1530=ORIENTED_EDGE('',*,*,#1262,.F.);
#1532=ORIENTED_EDGE('',*,*,#1531,.T.);
#1533=ORIENTED_EDGE('',*,*,#1332,.T.);
#1534=ORIENTED_EDGE('',*,*,#1488,.F.);
#1535=EDGE_LOOP('',(#1530,#1532,#1533,#1534));
#1536=FACE_OUTER_BOUND('',#1535,.F.);
#1538=CARTESIAN_POINT('',(-1.9E1,-4.464008830029E0,0.E0));
#1539=DIRECTION('',(0.E0,0.E0,1.E0));
#1540=DIRECTION('',(1.E0,0.E0,0.E0));
#1541=AXIS2_PLACEMENT_3D('',#1538,#1539,#1540);
#1542=CYLINDRICAL_SURFACE('',#1541,8.E0);
#1543=ORIENTED_EDGE('',*,*,#1260,.F.);
#1544=ORIENTED_EDGE('',*,*,#1384,.T.);
#1545=ORIENTED_EDGE('',*,*,#1334,.T.);
#1546=ORIENTED_EDGE('',*,*,#1531,.F.);
#1547=EDGE_LOOP('',(#1543,#1544,#1545,#1546));
#1548=FACE_OUTER_BOUND('',#1547,.F.);
#1550=CARTESIAN_POINT('',(-3.81E0,0.E0,3.81E0));
#1551=DIRECTION('',(0.E0,1.E0,0.E0));
#1552=DIRECTION('',(1.E0,0.E0,0.E0));
#1553=AXIS2_PLACEMENT_3D('',#1550,#1551,#1552);
#1554=CYLINDRICAL_SURFACE('',#1553,8.E-1);
#1556=ORIENTED_EDGE('',*,*,#1555,.T.);
#1557=ORIENTED_EDGE('',*,*,#1494,.T.);
#1559=ORIENTED_EDGE('',*,*,#1558,.F.);
#1561=ORIENTED_EDGE('',*,*,#1560,.T.);
#1562=EDGE_LOOP('',(#1556,#1557,#1559,#1561));
#1563=FACE_OUTER_BOUND('',#1562,.F.);
#1565=CARTESIAN_POINT('',(-3.81E0,0.E0,3.81E0));
#1566=DIRECTION('',(0.E0,1.E0,0.E0));
#1567=DIRECTION('',(1.E0,0.E0,0.E0));
#1568=AXIS2_PLACEMENT_3D('',#1565,#1566,#1567);
#1569=CYLINDRICAL_SURFACE('',#1568,8.E-1);
#1570=ORIENTED_EDGE('',*,*,#1555,.F.);
#1572=ORIENTED_EDGE('',*,*,#1571,.T.);
#1573=ORIENTED_EDGE('',*,*,#1558,.T.);
#1574=ORIENTED_EDGE('',*,*,#1496,.T.);
#1575=EDGE_LOOP('',(#1570,#1572,#1573,#1574));
#1576=FACE_OUTER_BOUND('',#1575,.F.);
#1578=CARTESIAN_POINT('',(0.E0,-1.4E1,0.E0));
#1579=DIRECTION('',(0.E0,1.E0,0.E0));
#1580=DIRECTION('',(1.E0,0.E0,0.E0));
#1581=AXIS2_PLACEMENT_3D('',#1578,#1579,#1580);
#1582=PLANE('',#1581);
#1583=ORIENTED_EDGE('',*,*,#1560,.F.);
#1584=ORIENTED_EDGE('',*,*,#1571,.F.);
#1585=EDGE_LOOP('',(#1583,#1584));
#1586=FACE_OUTER_BOUND('',#1585,.F.);
#1588=CARTESIAN_POINT('',(0.E0,-1.4E1,0.E0));
#1589=DIRECTION('',(0.E0,1.E0,0.E0));
#1590=DIRECTION('',(1.E0,0.E0,0.E0));
#1591=AXIS2_PLACEMENT_3D('',#1588,#1589,#1590);
#1592=PLANE('',#1591);
#1594=ORIENTED_EDGE('',*,*,#1593,.F.);
#1596=ORIENTED_EDGE('',*,*,#1595,.F.);
#1597=EDGE_LOOP('',(#1594,#1596));
#1598=FACE_OUTER_BOUND('',#1597,.F.);
#1600=CARTESIAN_POINT('',(3.81E0,0.E0,8.89E0));
#1601=DIRECTION('',(0.E0,1.E0,0.E0));
#1602=DIRECTION('',(1.E0,0.E0,0.E0));
#1603=AXIS2_PLACEMENT_3D('',#1600,#1601,#1602);
#1604=CYLINDRICAL_SURFACE('',#1603,8.E-1);
#1606=ORIENTED_EDGE('',*,*,#1605,.T.);
#1607=ORIENTED_EDGE('',*,*,#1500,.T.);
#1609=ORIENTED_EDGE('',*,*,#1608,.F.);
#1610=ORIENTED_EDGE('',*,*,#1593,.T.);
#1611=EDGE_LOOP('',(#1606,#1607,#1609,#1610));
#1612=FACE_OUTER_BOUND('',#1611,.F.);
#1614=CARTESIAN_POINT('',(3.81E0,0.E0,8.89E0));
#1615=DIRECTION('',(0.E0,1.E0,0.E0));
#1616=DIRECTION('',(1.E0,0.E0,0.E0));
#1617=AXIS2_PLACEMENT_3D('',#1614,#1615,#1616);
#1618=CYLINDRICAL_SURFACE('',#1617,8.E-1);
#1619=ORIENTED_EDGE('',*,*,#1605,.F.);
#1620=ORIENTED_EDGE('',*,*,#1595,.T.);
#1621=ORIENTED_EDGE('',*,*,#1608,.T.);
#1622=ORIENTED_EDGE('',*,*,#1502,.T.);
#1623=EDGE_LOOP('',(#1619,#1620,#1621,#1622));
#1624=FACE_OUTER_BOUND('',#1623,.F.);
#1626=CARTESIAN_POINT('',(-3.81E0,0.E0,1.27E1));
#1627=DIRECTION('',(0.E0,1.E0,0.E0));
#1628=DIRECTION('',(1.E0,0.E0,0.E0));
#1629=AXIS2_PLACEMENT_3D('',#1626,#1627,#1628);
#1630=CYLINDRICAL_SURFACE('',#1629,8.E-1);
#1631=ORIENTED_EDGE('',*,*,#1506,.T.);
#1633=ORIENTED_EDGE('',*,*,#1632,.T.);
#1635=ORIENTED_EDGE('',*,*,#1634,.F.);
#1637=ORIENTED_EDGE('',*,*,#1636,.F.);
#1638=EDGE_LOOP('',(#1631,#1633,#1635,#1637));
#1639=FACE_OUTER_BOUND('',#1638,.F.);
#1641=CARTESIAN_POINT('',(-3.81E0,0.E0,1.27E1));
#1642=DIRECTION('',(0.E0,1.E0,0.E0));
#1643=DIRECTION('',(1.E0,0.E0,0.E0));
#1644=AXIS2_PLACEMENT_3D('',#1641,#1642,#1643);
#1645=CYLINDRICAL_SURFACE('',#1644,8.E-1);
#1646=ORIENTED_EDGE('',*,*,#1508,.T.);
#1647=ORIENTED_EDGE('',*,*,#1636,.T.);
#1649=ORIENTED_EDGE('',*,*,#1648,.F.);
#1650=ORIENTED_EDGE('',*,*,#1632,.F.);
#1651=EDGE_LOOP('',(#1646,#1647,#1649,#1650));
#1652=FACE_OUTER_BOUND('',#1651,.F.);
#1654=CARTESIAN_POINT('',(0.E0,-1.6E1,0.E0));
#1655=DIRECTION('',(0.E0,1.E0,0.E0));
#1656=DIRECTION('',(1.E0,0.E0,0.E0));
#1657=AXIS2_PLACEMENT_3D('',#1654,#1655,#1656);
#1658=PLANE('',#1657);
#1659=ORIENTED_EDGE('',*,*,#1634,.T.);
#1660=ORIENTED_EDGE('',*,*,#1648,.T.);
#1661=EDGE_LOOP('',(#1659,#1660));
#1662=FACE_OUTER_BOUND('',#1661,.F.);
#1664=CARTESIAN_POINT('',(0.E0,-1.6E1,0.E0));
#1665=DIRECTION('',(0.E0,1.E0,0.E0));
#1666=DIRECTION('',(1.E0,0.E0,0.E0));
#1667=AXIS2_PLACEMENT_3D('',#1664,#1665,#1666);
#1668=PLANE('',#1667);
#1670=ORIENTED_EDGE('',*,*,#1669,.T.);
#1672=ORIENTED_EDGE('',*,*,#1671,.T.);
#1673=EDGE_LOOP('',(#1670,#1672));
#1674=FACE_OUTER_BOUND('',#1673,.F.);
#1676=CARTESIAN_POINT('',(0.E0,-1.6E1,0.E0));
#1677=DIRECTION('',(0.E0,1.E0,0.E0));
#1678=DIRECTION('',(1.E0,0.E0,0.E0));
#1679=AXIS2_PLACEMENT_3D('',#1676,#1677,#1678);
#1680=PLANE('',#1679);
#1682=ORIENTED_EDGE('',*,*,#1681,.T.);
#1684=ORIENTED_EDGE('',*,*,#1683,.T.);
#1685=EDGE_LOOP('',(#1682,#1684));
#1686=FACE_OUTER_BOUND('',#1685,.F.);
#1688=CARTESIAN_POINT('',(3.81E0,0.E0,1.3335E1));
#1689=DIRECTION('',(0.E0,1.E0,0.E0));
#1690=DIRECTION('',(1.E0,0.E0,0.E0));
#1691=AXIS2_PLACEMENT_3D('',#1688,#1689,#1690);
#1692=CYLINDRICAL_SURFACE('',#1691,8.E-1);
#1693=ORIENTED_EDGE('',*,*,#1512,.T.);
#1695=ORIENTED_EDGE('',*,*,#1694,.T.);
#1696=ORIENTED_EDGE('',*,*,#1669,.F.);
#1698=ORIENTED_EDGE('',*,*,#1697,.F.);
#1699=EDGE_LOOP('',(#1693,#1695,#1696,#1698));
#1700=FACE_OUTER_BOUND('',#1699,.F.);
#1702=CARTESIAN_POINT('',(3.81E0,0.E0,1.3335E1));
#1703=DIRECTION('',(0.E0,1.E0,0.E0));
#1704=DIRECTION('',(1.E0,0.E0,0.E0));
#1705=AXIS2_PLACEMENT_3D('',#1702,#1703,#1704);
#1706=CYLINDRICAL_SURFACE('',#1705,8.E-1);
#1707=ORIENTED_EDGE('',*,*,#1514,.T.);
#1708=ORIENTED_EDGE('',*,*,#1697,.T.);
#1709=ORIENTED_EDGE('',*,*,#1671,.F.);
#1710=ORIENTED_EDGE('',*,*,#1694,.F.);
#1711=EDGE_LOOP('',(#1707,#1708,#1709,#1710));
#1712=FACE_OUTER_BOUND('',#1711,.F.);
#1714=CARTESIAN_POINT('',(0.E0,0.E0,1.7145E1));
#1715=DIRECTION('',(0.E0,1.E0,0.E0));
#1716=DIRECTION('',(1.E0,0.E0,0.E0));
#1717=AXIS2_PLACEMENT_3D('',#1714,#1715,#1716);
#1718=CYLINDRICAL_SURFACE('',#1717,6.E-1);
#1719=ORIENTED_EDGE('',*,*,#1518,.T.);
#1721=ORIENTED_EDGE('',*,*,#1720,.T.);
#1722=ORIENTED_EDGE('',*,*,#1681,.F.);
#1724=ORIENTED_EDGE('',*,*,#1723,.F.);
#1725=EDGE_LOOP('',(#1719,#1721,#1722,#1724));
#1726=FACE_OUTER_BOUND('',#1725,.F.);
#1728=CARTESIAN_POINT('',(0.E0,0.E0,1.7145E1));
#1729=DIRECTION('',(0.E0,1.E0,0.E0));
#1730=DIRECTION('',(1.E0,0.E0,0.E0));
#1731=AXIS2_PLACEMENT_3D('',#1728,#1729,#1730);
#1732=CYLINDRICAL_SURFACE('',#1731,6.E-1);
#1733=ORIENTED_EDGE('',*,*,#1520,.T.);
#1734=ORIENTED_EDGE('',*,*,#1723,.T.);
#1735=ORIENTED_EDGE('',*,*,#1683,.F.);
#1736=ORIENTED_EDGE('',*,*,#1720,.F.);
#1737=EDGE_LOOP('',(#1733,#1734,#1735,#1736));
#1738=FACE_OUTER_BOUND('',#1737,.F.);
#1740=CARTESIAN_POINT('',(0.E0,0.E0,0.E0));
#1741=DIRECTION('',(0.E0,0.E0,-1.E0));
#1742=DIRECTION('',(-1.E0,0.E0,0.E0));
#1743=AXIS2_PLACEMENT_3D('',#1740,#1741,#1742);
#1744=CYLINDRICAL_SURFACE('',#1743,1.1E1);
#1745=ORIENTED_EDGE('',*,*,#1228,.F.);
#1747=ORIENTED_EDGE('',*,*,#1746,.T.);
#1749=ORIENTED_EDGE('',*,*,#1748,.T.);
#1751=ORIENTED_EDGE('',*,*,#1750,.F.);
#1752=EDGE_LOOP('',(#1745,#1747,#1749,#1751));
#1753=FACE_OUTER_BOUND('',#1752,.F.);
#1755=CARTESIAN_POINT('',(0.E0,0.E0,0.E0));
#1756=DIRECTION('',(0.E0,0.E0,-1.E0));
#1757=DIRECTION('',(-1.E0,0.E0,0.E0));
#1758=AXIS2_PLACEMENT_3D('',#1755,#1756,#1757);
#1759=CYLINDRICAL_SURFACE('',#1758,1.1E1);
#1760=ORIENTED_EDGE('',*,*,#1256,.F.);
#1761=ORIENTED_EDGE('',*,*,#1750,.T.);
#1763=ORIENTED_EDGE('',*,*,#1762,.T.);
#1764=ORIENTED_EDGE('',*,*,#1746,.F.);
#1765=EDGE_LOOP('',(#1760,#1761,#1763,#1764));
#1766=FACE_OUTER_BOUND('',#1765,.F.);
#1768=CARTESIAN_POINT('',(0.E0,0.E0,-2.7E0));
#1769=DIRECTION('',(0.E0,0.E0,-1.E0));
#1770=DIRECTION('',(-1.E0,0.E0,0.E0));
#1771=AXIS2_PLACEMENT_3D('',#1768,#1769,#1770);
#1772=PLANE('',#1771);
#1773=ORIENTED_EDGE('',*,*,#1748,.F.);
#1774=ORIENTED_EDGE('',*,*,#1762,.F.);
#1775=EDGE_LOOP('',(#1773,#1774));
#1776=FACE_OUTER_BOUND('',#1775,.F.);
#1778=ORIENTED_EDGE('',*,*,#1777,.T.);
#1780=ORIENTED_EDGE('',*,*,#1779,.T.);
#1781=EDGE_LOOP('',(#1778,#1780));
#1782=FACE_BOUND('',#1781,.F.);
#1784=CARTESIAN_POINT('',(0.E0,0.E0,-2.7E0));
#1785=DIRECTION('',(0.E0,0.E0,-1.E0));
#1786=DIRECTION('',(-1.E0,0.E0,0.E0));
#1787=AXIS2_PLACEMENT_3D('',#1784,#1785,#1786);
#1788=PLANE('',#1787);
#1790=ORIENTED_EDGE('',*,*,#1789,.F.);
#1792=ORIENTED_EDGE('',*,*,#1791,.F.);
#1793=EDGE_LOOP('',(#1790,#1792));
#1794=FACE_OUTER_BOUND('',#1793,.F.);
#1796=ORIENTED_EDGE('',*,*,#1795,.T.);
#1798=ORIENTED_EDGE('',*,*,#1797,.T.);
#1799=EDGE_LOOP('',(#1796,#1798));
#1800=FACE_BOUND('',#1799,.F.);
#1802=ORIENTED_EDGE('',*,*,#1801,.T.);
#1804=ORIENTED_EDGE('',*,*,#1803,.T.);
#1805=EDGE_LOOP('',(#1802,#1804));
#1806=FACE_BOUND('',#1805,.F.);
#1808=ORIENTED_EDGE('',*,*,#1807,.T.);
#1810=ORIENTED_EDGE('',*,*,#1809,.T.);
#1811=EDGE_LOOP('',(#1808,#1810));
#1812=FACE_BOUND('',#1811,.F.);
#1814=CARTESIAN_POINT('',(0.E0,0.E0,-2.7E0));
#1815=DIRECTION('',(0.E0,0.E0,-1.E0));
#1816=DIRECTION('',(-1.E0,0.E0,0.E0));
#1817=AXIS2_PLACEMENT_3D('',#1814,#1815,#1816);
#1818=CYLINDRICAL_SURFACE('',#1817,9.75E0);
#1819=ORIENTED_EDGE('',*,*,#1777,.F.);
#1821=ORIENTED_EDGE('',*,*,#1820,.T.);
#1823=ORIENTED_EDGE('',*,*,#1822,.T.);
#1825=ORIENTED_EDGE('',*,*,#1824,.F.);
#1826=EDGE_LOOP('',(#1819,#1821,#1823,#1825));
#1827=FACE_OUTER_BOUND('',#1826,.F.);
#1829=CARTESIAN_POINT('',(0.E0,0.E0,-2.7E0));
#1830=DIRECTION('',(0.E0,0.E0,-1.E0));
#1831=DIRECTION('',(-1.E0,0.E0,0.E0));
#1832=AXIS2_PLACEMENT_3D('',#1829,#1830,#1831);
#1833=CYLINDRICAL_SURFACE('',#1832,9.75E0);
#1834=ORIENTED_EDGE('',*,*,#1779,.F.);
#1835=ORIENTED_EDGE('',*,*,#1824,.T.);
#1837=ORIENTED_EDGE('',*,*,#1836,.T.);
#1838=ORIENTED_EDGE('',*,*,#1820,.F.);
#1839=EDGE_LOOP('',(#1834,#1835,#1837,#1838));
#1840=FACE_OUTER_BOUND('',#1839,.F.);
#1842=CARTESIAN_POINT('',(0.E0,0.E0,1.03E1));
#1843=DIRECTION('',(0.E0,0.E0,-1.E0));
#1844=DIRECTION('',(-1.E0,0.E0,0.E0));
#1845=AXIS2_PLACEMENT_3D('',#1842,#1843,#1844);
#1846=PLANE('',#1845);
#1847=ORIENTED_EDGE('',*,*,#1822,.F.);
#1848=ORIENTED_EDGE('',*,*,#1836,.F.);
#1849=EDGE_LOOP('',(#1847,#1848));
#1850=FACE_OUTER_BOUND('',#1849,.F.);
#1852=ORIENTED_EDGE('',*,*,#1851,.F.);
#1854=ORIENTED_EDGE('',*,*,#1853,.F.);
#1855=EDGE_LOOP('',(#1852,#1854));
#1856=FACE_BOUND('',#1855,.F.);
#1858=CARTESIAN_POINT('',(0.E0,0.E0,1.03E1));
#1859=DIRECTION('',(0.E0,0.E0,-1.E0));
#1860=DIRECTION('',(-1.E0,0.E0,0.E0));
#1861=AXIS2_PLACEMENT_3D('',#1858,#1859,#1860);
#1862=PLANE('',#1861);
#1864=ORIENTED_EDGE('',*,*,#1863,.F.);
#1866=ORIENTED_EDGE('',*,*,#1865,.F.);
#1867=EDGE_LOOP('',(#1864,#1866));
#1868=FACE_OUTER_BOUND('',#1867,.F.);
#1870=CARTESIAN_POINT('',(0.E0,0.E0,1.03E1));
#1871=DIRECTION('',(0.E0,0.E0,-1.E0));
#1872=DIRECTION('',(-1.E0,0.E0,0.E0));
#1873=AXIS2_PLACEMENT_3D('',#1870,#1871,#1872);
#1874=PLANE('',#1873);
#1876=ORIENTED_EDGE('',*,*,#1875,.F.);
#1878=ORIENTED_EDGE('',*,*,#1877,.F.);
#1879=EDGE_LOOP('',(#1876,#1878));
#1880=FACE_OUTER_BOUND('',#1879,.F.);
#1882=CARTESIAN_POINT('',(0.E0,0.E0,1.03E1));
#1883=DIRECTION('',(0.E0,0.E0,-1.E0));
#1884=DIRECTION('',(-1.E0,0.E0,0.E0));
#1885=AXIS2_PLACEMENT_3D('',#1882,#1883,#1884);
#1886=PLANE('',#1885);
#1888=ORIENTED_EDGE('',*,*,#1887,.F.);
#1890=ORIENTED_EDGE('',*,*,#1889,.F.);
#1891=EDGE_LOOP('',(#1888,#1890));
#1892=FACE_OUTER_BOUND('',#1891,.F.);
#1894=CARTESIAN_POINT('',(4.05E0,0.E0,-2.7E0));
#1895=DIRECTION('',(0.E0,0.E0,-1.E0));
#1896=DIRECTION('',(-1.E0,0.E0,0.E0));
#1897=AXIS2_PLACEMENT_3D('',#1894,#1895,#1896);
#1898=CYLINDRICAL_SURFACE('',#1897,1.25E0);
#1899=ORIENTED_EDGE('',*,*,#1795,.F.);
#1901=ORIENTED_EDGE('',*,*,#1900,.T.);
#1902=ORIENTED_EDGE('',*,*,#1863,.T.);
#1904=ORIENTED_EDGE('',*,*,#1903,.F.);
#1905=EDGE_LOOP('',(#1899,#1901,#1902,#1904));
#1906=FACE_OUTER_BOUND('',#1905,.F.);
#1908=CARTESIAN_POINT('',(4.05E0,0.E0,-2.7E0));
#1909=DIRECTION('',(0.E0,0.E0,-1.E0));
#1910=DIRECTION('',(-1.E0,0.E0,0.E0));
#1911=AXIS2_PLACEMENT_3D('',#1908,#1909,#1910);
#1912=CYLINDRICAL_SURFACE('',#1911,1.25E0);
#1913=ORIENTED_EDGE('',*,*,#1797,.F.);
#1914=ORIENTED_EDGE('',*,*,#1903,.T.);
#1915=ORIENTED_EDGE('',*,*,#1865,.T.);
#1916=ORIENTED_EDGE('',*,*,#1900,.F.);
#1917=EDGE_LOOP('',(#1913,#1914,#1915,#1916));
#1918=FACE_OUTER_BOUND('',#1917,.F.);
#1920=CARTESIAN_POINT('',(0.E0,-3.95E0,-2.7E0));
#1921=DIRECTION('',(0.E0,0.E0,-1.E0));
#1922=DIRECTION('',(-1.E0,0.E0,0.E0));
#1923=AXIS2_PLACEMENT_3D('',#1920,#1921,#1922);
#1924=CYLINDRICAL_SURFACE('',#1923,1.25E0);
#1925=ORIENTED_EDGE('',*,*,#1801,.F.);
#1927=ORIENTED_EDGE('',*,*,#1926,.T.);
#1928=ORIENTED_EDGE('',*,*,#1875,.T.);
#1930=ORIENTED_EDGE('',*,*,#1929,.F.);
#1931=EDGE_LOOP('',(#1925,#1927,#1928,#1930));
#1932=FACE_OUTER_BOUND('',#1931,.F.);
#1934=CARTESIAN_POINT('',(0.E0,-3.95E0,-2.7E0));
#1935=DIRECTION('',(0.E0,0.E0,-1.E0));
#1936=DIRECTION('',(-1.E0,0.E0,0.E0));
#1937=AXIS2_PLACEMENT_3D('',#1934,#1935,#1936);
#1938=CYLINDRICAL_SURFACE('',#1937,1.25E0);
#1939=ORIENTED_EDGE('',*,*,#1803,.F.);
#1940=ORIENTED_EDGE('',*,*,#1929,.T.);
#1941=ORIENTED_EDGE('',*,*,#1877,.T.);
#1942=ORIENTED_EDGE('',*,*,#1926,.F.);
#1943=EDGE_LOOP('',(#1939,#1940,#1941,#1942));
#1944=FACE_OUTER_BOUND('',#1943,.F.);
#1946=CARTESIAN_POINT('',(-4.05E0,0.E0,-2.7E0));
#1947=DIRECTION('',(0.E0,0.E0,-1.E0));
#1948=DIRECTION('',(-1.E0,0.E0,0.E0));
#1949=AXIS2_PLACEMENT_3D('',#1946,#1947,#1948);
#1950=CYLINDRICAL_SURFACE('',#1949,1.25E0);
#1951=ORIENTED_EDGE('',*,*,#1807,.F.);
#1953=ORIENTED_EDGE('',*,*,#1952,.T.);
#1954=ORIENTED_EDGE('',*,*,#1887,.T.);
#1956=ORIENTED_EDGE('',*,*,#1955,.F.);
#1957=EDGE_LOOP('',(#1951,#1953,#1954,#1956));
#1958=FACE_OUTER_BOUND('',#1957,.F.);
#1960=CARTESIAN_POINT('',(-4.05E0,0.E0,-2.7E0));
#1961=DIRECTION('',(0.E0,0.E0,-1.E0));
#1962=DIRECTION('',(-1.E0,0.E0,0.E0));
#1963=AXIS2_PLACEMENT_3D('',#1960,#1961,#1962);
#1964=CYLINDRICAL_SURFACE('',#1963,1.25E0);
#1965=ORIENTED_EDGE('',*,*,#1809,.F.);
#1966=ORIENTED_EDGE('',*,*,#1955,.T.);
#1967=ORIENTED_EDGE('',*,*,#1889,.T.);
#1968=ORIENTED_EDGE('',*,*,#1952,.F.);
#1969=EDGE_LOOP('',(#1965,#1966,#1967,#1968));
#1970=FACE_OUTER_BOUND('',#1969,.F.);
#1972=CARTESIAN_POINT('',(0.E0,0.E0,-2.7E0));
#1973=DIRECTION('',(0.E0,0.E0,-1.E0));
#1974=DIRECTION('',(-1.E0,0.E0,0.E0));
#1975=AXIS2_PLACEMENT_3D('',#1972,#1973,#1974);
#1976=CYLINDRICAL_SURFACE('',#1975,7.925E0);
#1977=ORIENTED_EDGE('',*,*,#1789,.T.);
#1979=ORIENTED_EDGE('',*,*,#1978,.T.);
#1980=ORIENTED_EDGE('',*,*,#1851,.T.);
#1982=ORIENTED_EDGE('',*,*,#1981,.F.);
#1983=EDGE_LOOP('',(#1977,#1979,#1980,#1982));
#1984=FACE_OUTER_BOUND('',#1983,.F.);
#1986=CARTESIAN_POINT('',(0.E0,0.E0,-2.7E0));
#1987=DIRECTION('',(0.E0,0.E0,-1.E0));
#1988=DIRECTION('',(-1.E0,0.E0,0.E0));
#1989=AXIS2_PLACEMENT_3D('',#1986,#1987,#1988);
#1990=CYLINDRICAL_SURFACE('',#1989,7.925E0);
#1991=ORIENTED_EDGE('',*,*,#1791,.T.);
#1992=ORIENTED_EDGE('',*,*,#1981,.T.);
#1993=ORIENTED_EDGE('',*,*,#1853,.T.);
#1994=ORIENTED_EDGE('',*,*,#1978,.F.);
#1995=EDGE_LOOP('',(#1991,#1992,#1993,#1994));
#1996=FACE_OUTER_BOUND('',#1995,.F.);
#1998=CLOSED_SHELL('',(#1250,#1280,#1295,#1308,#1348,#1362,#1374,#1389,#1402,
#1415,#1428,#1441,#1455,#1468,#1481,#1524,#1537,#1549,#1564,#1577,#1587,#1599,
#1613,#1625,#1640,#1653,#1663,#1675,#1687,#1701,#1713,#1727,#1739,#1754,#1767,
#1783,#1813,#1828,#1841,#1857,#1869,#1881,#1893,#1907,#1919,#1933,#1945,#1959,
#1971,#1985,#1997));
#1999=MANIFOLD_SOLID_BREP('',#1998);
#2000=FILL_AREA_STYLE_COLOUR('',#199);
#2001=FILL_AREA_STYLE('',(#2000));
#2002=SURFACE_STYLE_FILL_AREA(#2001);
#2003=SURFACE_SIDE_STYLE('',(#2002));
#2004=SURFACE_STYLE_USAGE(.BOTH.,#2003);
#2005=PRESENTATION_STYLE_ASSIGNMENT((#2004));
#216=STYLED_ITEM('',(#2005),#1999);
#2007=DIMENSIONAL_EXPONENTS(0.E0,0.E0,0.E0,0.E0,0.E0,0.E0,0.E0);
#2009=PLANE_ANGLE_MEASURE_WITH_UNIT(PLANE_ANGLE_MEASURE(1.745329251994E-2),
#2008);
#2010=(CONVERSION_BASED_UNIT('DEGREE',#2009)NAMED_UNIT(*)PLANE_ANGLE_UNIT());
#2012=UNCERTAINTY_MEASURE_WITH_UNIT(LENGTH_MEASURE(4.436117680581E-3),#2006,
'distance_accuracy_value',
'Maximum model space distance between geometric entities at asserted connectivities');
#2015=MECHANICAL_DESIGN_GEOMETRIC_PRESENTATION_REPRESENTATION('',(#225,#233,
#241,#249,#257,#264,#272,#280,#288,#296,#303,#311,#318,#326,#334,#341,#348,#356,
#363,#370,#377,#385,#393,#401,#409,#416,#424,#432,#440,#448,#455,#463,#470,#477,
#485,#493,#500,#507,#514,#521,#528,#535,#542,#549,#556,#563,#570,#578,#586,#594,
#602,#610,#618,#626,#634,#642,#650,#657,#664,#671,#678,#686,#694,#702,#710,#717,
#724,#731,#738,#746,#754,#762,#770,#778,#786,#793,#800,#807,#814,#821,#828,#836,
#844,#852,#860,#868,#876,#884,#892,#900,#908,#916,#924,#931,#938,#946,#954,#962,
#970,#978,#986,#994,#1002,#1010,#1018,#1025,#1032,#1039,#1046,#1053,#1060,#1067,
#1074,#216),#2013);
#2016=APPLICATION_CONTEXT('automotive_design');
#2017=APPLICATION_PROTOCOL_DEFINITION('draft international standard',
'automotive_design',1998,#2016);
#2018=PRODUCT_DEFINITION_CONTEXT('part definition',#2016,'design');
#2019=PRODUCT_CONTEXT('',#2016,'mechanical');
#2020=PRODUCT('D-NC3FAH-0','D-NC3FAH-0','NOT SPECIFIED',(#2019));
#2021=PRODUCT_DEFINITION_FORMATION_WITH_SPECIFIED_SOURCE('1','LAST_VERSION',
#2020,.MADE.);
#2025=PRODUCT_TYPE('part','',(#2020));
#1=DRAUGHTING_PRE_DEFINED_COLOUR('black');
#2=COLOUR_RGB('',0.E0,0.E0,6.6E-1);
#3=DRAUGHTING_PRE_DEFINED_COLOUR('blue');
#4=COLOUR_RGB('',0.E0,2.E-1,3.4902E-1);
#5=COLOUR_RGB('',0.E0,2.44078E-1,2.84275E-1);
#6=COLOUR_RGB('',0.E0,2.77412E-1,5.20706E-1);
#7=COLOUR_RGB('',0.E0,3.18706E-1,5.49843E-1);
#8=COLOUR_RGB('',0.E0,3.3E-1,0.E0);
#9=COLOUR_RGB('',0.E0,3.37216E-1,5.10039E-1);
#10=COLOUR_RGB('',0.E0,3.50549E-1,2.96627E-1);
#11=COLOUR_RGB('',0.E0,4.05176E-1,3.01843E-1);
#12=COLOUR_RGB('',0.E0,4.31255E-1,2.30784E-1);
#13=COLOUR_RGB('',0.E0,4.5E-1,0.E0);
#14=COLOUR_RGB('',0.E0,4.52549E-1,6.86314E-1);
#15=COLOUR_RGB('',0.E0,4.5098E-1,9.01961E-1);
#16=COLOUR_RGB('',0.E0,4.54863E-1,4.69098E-1);
#17=COLOUR_RGB('',0.E0,4.95725E-1,3.0698E-1);
#18=COLOUR_RGB('',0.E0,5.07647E-1,3.21647E-1);
#19=COLOUR_RGB('',0.E0,5.38706E-1,5.4902E-1);
#20=COLOUR_RGB('',0.E0,6.E-1,0.E0);
#21=COLOUR_RGB('',0.E0,8.E-1,0.E0);
#22=DRAUGHTING_PRE_DEFINED_COLOUR('green');
#23=COLOUR_RGB('',1.7333E-2,2.72824E-1,3.83725E-1);
#24=COLOUR_RGB('',1.9608E-2,1.5686E-2,1.1765E-2);
#25=COLOUR_RGB('',6.7E-2,6.7E-2,6.7E-2);
#26=COLOUR_RGB('',7.0588E-2,7.4902E-2,7.7922E-2);
#27=COLOUR_RGB('',7.8941E-2,1.92431E-1,3.29059E-1);
#28=COLOUR_RGB('',8.4588E-2,1.95529E-1,4.73451E-1);
#29=COLOUR_RGB('',9.0196E-2,3.68627E-1,1.33333E-1);
#30=COLOUR_RGB('',1.01E-1,1.98E-1,9.52E-1);
#31=COLOUR_RGB('',1.06E-1,8.16E-1,2.08E-1);
#32=COLOUR_RGB('',1.08392E-1,1.27412E-1,1.65922E-1);
#33=COLOUR_RGB('',1.2549E-1,1.17647E-1,5.29412E-1);
#34=COLOUR_RGB('',1.35216E-1,1.5502E-1,3.35882E-1);
#35=COLOUR_RGB('',1.42314E-1,2.02E-1,1.53412E-1);
#36=COLOUR_RGB('',1.4902E-1,1.17647E-1,2.3529E-2);
#37=COLOUR_RGB('',1.48824E-1,1.47804E-1,1.53765E-1);
#38=COLOUR_RGB('',1.77412E-1,2.9051E-1,4.29725E-1);
#39=COLOUR_RGB('',1.80471E-1,2.15922E-1,1.46039E-1);
#40=COLOUR_RGB('',1.88235E-1,2.70588E-1,2.78431E-1);
#41=COLOUR_RGB('',1.89333E-1,3.29961E-1,2.63294E-1);
#42=COLOUR_RGB('',1.92353E-1,1.84667E-1,1.25647E-1);
#43=COLOUR_RGB('',2.E-1,4.E-1,1.E0);
#44=COLOUR_RGB('',2.E-1,4.70588E-1,1.E0);
#45=COLOUR_RGB('',2.E-1,8.E-1,1.E0);
#46=COLOUR_RGB('',2.12627E-1,2.39098E-1,2.53843E-1);
#47=COLOUR_RGB('',2.19608E-1,2.31961E-1,1.96275E-1);
#48=COLOUR_RGB('',2.43137E-1,2.5098E-1,7.01961E-1);
#49=COLOUR_RGB('',2.44667E-1,5.22118E-1,4.88706E-1);
#50=COLOUR_RGB('',2.5E-1,2.5E-1,2.5E-1);
#51=COLOUR_RGB('',2.53294E-1,4.33137E-1,1.97216E-1);
#52=COLOUR_RGB('',2.58824E-1,2.07843E-1,0.E0);
#53=COLOUR_RGB('',2.66549E-1,2.5098E-1,1.84941E-1);
#54=COLOUR_RGB('',2.71686E-1,3.97686E-1,5.45098E-1);
#55=COLOUR_RGB('',2.78431E-1,2.78431E-1,2.78431E-1);
#56=COLOUR_RGB('',2.83608E-1,2.13137E-1,1.48118E-1);
#57=COLOUR_RGB('',2.86275E-1,3.60784E-1,3.68627E-1);
#58=COLOUR_RGB('',2.94118E-1,6.70588E-1,3.76471E-1);
#59=COLOUR_RGB('',3.05216E-1,3.16039E-1,3.41255E-1);
#60=COLOUR_RGB('',3.07804E-1,5.22118E-1,2.54314E-1);
#61=COLOUR_RGB('',3.10235E-1,2.32431E-1,1.74667E-1);
#62=COLOUR_RGB('',3.14E-1,7.4E-2,0.E0);
#63=COLOUR_RGB('',3.15765E-1,3.46078E-1,3.58706E-1);
#64=COLOUR_RGB('',3.31725E-1,3.12627E-1,2.57725E-1);
#65=COLOUR_RGB('',3.40667E-1,3.54275E-1,3.3298E-1);
#66=COLOUR_RGB('',3.40353E-1,3.64118E-1,3.6949E-1);
#67=COLOUR_RGB('',3.45373E-1,3.59882E-1,3.17294E-1);
#68=COLOUR_RGB('',3.44118E-1,4.44078E-1,2.29529E-1);
#69=COLOUR_RGB('',3.48431E-1,2.21412E-1,1.53294E-1);
#70=COLOUR_RGB('',3.4902E-1,2.90196E-1,1.76471E-1);
#71=COLOUR_RGB('',3.72549E-1,6.19608E-1,0.E0);
#72=COLOUR_RGB('',3.90157E-1,1.98157E-1,1.75059E-1);
#73=COLOUR_RGB('',4.E-1,1.45098E-1,0.E0);
#74=COLOUR_RGB('',4.E-1,2.39216E-1,1.80392E-1);
#75=COLOUR_RGB('',4.06824E-1,4.97843E-1,3.45569E-1);
#76=COLOUR_RGB('',4.09137E-1,2.56353E-1,1.44314E-1);
#77=COLOUR_RGB('',4.11765E-1,4.39216E-1,8.58824E-1);
#78=COLOUR_RGB('',4.14196E-1,7.0549E-2,1.17059E-1);
#79=COLOUR_RGB('',4.19608E-1,6.03922E-1,9.29412E-1);
#80=COLOUR_RGB('',4.24627E-1,4.12549E-1,3.82353E-1);
#81=COLOUR_RGB('',4.39216E-1,3.52941E-1,0.E0);
#82=COLOUR_RGB('',4.46941E-1,6.67294E-1,6.59843E-1);
#83=COLOUR_RGB('',4.47059E-1,8.E-1,5.21569E-1);
#84=COLOUR_RGB('',4.5098E-1,0.E0,1.80392E-1);
#85=COLOUR_RGB('',4.5098E-1,3.04118E-1,1.61725E-1);
#86=COLOUR_RGB('',4.5098E-1,3.13725E-1,1.33333E-1);
#87=COLOUR_RGB('',4.5098E-1,5.2549E-1,2.23529E-1);
#88=COLOUR_RGB('',4.53529E-1,7.23216E-1,7.08275E-1);
#89=COLOUR_RGB('',4.60353E-1,2.84078E-1,2.13569E-1);
#90=COLOUR_RGB('',4.60902E-1,3.84745E-1,2.48706E-1);
#91=COLOUR_RGB('',4.63E-1,4.43E-1,4.94E-1);
#92=COLOUR_RGB('',4.63255E-1,4.60235E-1,3.42471E-1);
#93=COLOUR_RGB('',4.74314E-1,4.97098E-1,4.47569E-1);
#94=COLOUR_RGB('',4.7902E-1,4.86275E-1,4.78431E-1);
#95=COLOUR_RGB('',4.94078E-1,3.05686E-1,1.58824E-1);
#96=COLOUR_RGB('',5.E-1,5.E-1,5.E-1);
#97=COLOUR_RGB('',5.01961E-1,4.5098E-1,3.64706E-1);
#98=COLOUR_RGB('',5.01961E-1,4.86275E-1,0.E0);
#99=COLOUR_RGB('',5.21569E-1,1.92157E-1,0.E0);
#100=COLOUR_RGB('',5.21569E-1,1.96078E-1,2.54902E-1);
#101=COLOUR_RGB('',5.22E-1,4.94E-1,4.86E-1);
#102=COLOUR_RGB('',5.26941E-1,6.E-3,9.0157E-2);
#103=COLOUR_RGB('',5.2549E-1,7.01961E-1,1.41176E-1);
#104=COLOUR_RGB('',5.41176E-1,5.92157E-1,6.E-1);
#105=COLOUR_RGB('',5.49216E-1,2.83765E-1,1.96157E-1);
#106=COLOUR_RGB('',5.60784E-1,2.23529E-1,0.E0);
#107=COLOUR_RGB('',5.63255E-1,5.31216E-1,4.25529E-1);
#108=COLOUR_RGB('',5.72824E-1,5.57216E-1,5.50824E-1);
#109=COLOUR_RGB('',5.87412E-1,6.13922E-1,6.30196E-1);
#110=COLOUR_RGB('',6.E-1,4.5098E-1,3.29412E-1);
#111=COLOUR_RGB('',6.E-1,7.88235E-1,1.E0);
#112=COLOUR_RGB('',6.08E-1,2.3E-2,7.73E-1);
#113=COLOUR_RGB('',6.12196E-1,5.12549E-1,5.60275E-1);
#114=COLOUR_RGB('',6.11765E-1,9.01961E-1,6.82353E-1);
#115=COLOUR_RGB('',6.18078E-1,8.3569E-2,9.702E-2);
#116=COLOUR_RGB('',6.22784E-1,8.6902E-2,1.11686E-1);
#117=COLOUR_RGB('',6.26863E-1,5.67098E-1,3.83843E-1);
#118=COLOUR_RGB('',6.27451E-1,6.39216E-1,5.84314E-1);
#119=COLOUR_RGB('',6.34902E-1,5.16471E-1,6.5882E-2);
#120=COLOUR_RGB('',6.35294E-1,7.01961E-1,6.07843E-1);
#121=COLOUR_RGB('',6.39216E-1,8.5098E-1,5.09804E-1);
#122=COLOUR_RGB('',6.41804E-1,5.64235E-1,4.6702E-1);
#123=COLOUR_RGB('',6.43137E-1,6.5098E-1,9.29412E-1);
#124=COLOUR_RGB('',6.47E-1,6.47E-1,6.47E-1);
#125=COLOUR_RGB('',6.5098E-1,3.13725E-1,0.E0);
#126=COLOUR_RGB('',6.58824E-1,3.45098E-1,4.07843E-1);
#127=COLOUR_RGB('',6.6098E-1,1.19333E-1,1.22745E-1);
#128=COLOUR_RGB('',6.62157E-1,1.76549E-1,2.17843E-1);
#129=COLOUR_RGB('',6.62706E-1,2.11255E-1,1.61529E-1);
#130=COLOUR_RGB('',6.74353E-1,6.83882E-1,6.51216E-1);
#131=COLOUR_RGB('',6.78431E-1,6.27451E-1,5.37255E-1);
#132=COLOUR_RGB('',6.78431E-1,6.5098E-1,5.29412E-1);
#133=COLOUR_RGB('',6.91529E-1,7.2863E-2,2.29725E-1);
#134=COLOUR_RGB('',7.01961E-1,5.05882E-1,0.E0);
#135=COLOUR_RGB('',7.16235E-1,5.66588E-1,2.87882E-1);
#136=COLOUR_RGB('',7.21569E-1,2.39216E-1,0.E0);
#137=COLOUR_RGB('',7.29412E-1,9.60784E-1,7.76471E-1);
#138=COLOUR_RGB('',7.45569E-1,6.7569E-2,6.4196E-2);
#139=COLOUR_RGB('',7.4902E-1,6.58824E-1,4.86275E-1);
#140=COLOUR_RGB('',7.5298E-1,2.08588E-1,4.52706E-1);
#141=COLOUR_RGB('',7.57E-1,0.E0,0.E0);
#142=COLOUR_RGB('',7.55451E-1,7.71804E-1,7.51882E-1);
#143=COLOUR_RGB('',7.56863E-1,8.39216E-1,8.15686E-1);
#144=COLOUR_RGB('',7.71569E-1,5.76667E-1,0.E0);
#145=COLOUR_RGB('',7.72549E-1,9.01961E-1,5.76471E-1);
#146=COLOUR_RGB('',7.76471E-1,8.E-1,7.21569E-1);
#147=COLOUR_RGB('',7.84196E-1,7.30824E-1,5.01137E-1);
#148=COLOUR_RGB('',7.84314E-1,8.11765E-1,8.03922E-1);
#149=COLOUR_RGB('',8.E-1,4.E-1,0.E0);
#150=COLOUR_RGB('',8.E-1,7.76471E-1,6.78431E-1);
#151=COLOUR_RGB('',8.E-1,8.E-1,8.E-1);
#152=COLOUR_RGB('',8.E-1,1.E0,1.E0);
#153=COLOUR_RGB('',8.10745E-1,2.19804E-1,2.91608E-1);
#154=COLOUR_RGB('',8.11059E-1,3.00588E-1,3.54706E-1);
#155=COLOUR_RGB('',8.09333E-1,6.93176E-1,5.04314E-1);
#156=COLOUR_RGB('',8.11765E-1,0.E0,3.56863E-1);
#157=COLOUR_RGB('',8.20471E-1,3.50627E-1,1.0102E-1);
#158=COLOUR_RGB('',8.19608E-1,7.96078E-1,0.E0);
#159=COLOUR_RGB('',8.21725E-1,6.78549E-1,4.18745E-1);
#160=COLOUR_RGB('',8.25216E-1,4.02941E-1,3.2098E-1);
#161=COLOUR_RGB('',8.44078E-1,8.3898E-1,7.9102E-1);
#162=COLOUR_RGB('',8.49961E-1,3.82078E-1,2.84275E-1);
#163=COLOUR_RGB('',8.70588E-1,0.E0,2.94118E-1);
#164=COLOUR_RGB('',8.72353E-1,6.05098E-1,6.41882E-1);
#165=COLOUR_RGB('',8.77216E-1,6.55176E-1,0.E0);
#166=COLOUR_RGB('',8.784E-1,9.49E-1,1.E0);
#167=COLOUR_RGB('',8.83922E-1,3.15843E-1,8.078E-3);
#168=COLOUR_RGB('',8.90196E-1,6.66667E-1,7.56863E-1);
#169=COLOUR_RGB('',8.93373E-1,5.99922E-1,0.E0);
#170=COLOUR_RGB('',8.9302E-1,6.44588E-1,0.E0);
#171=COLOUR_RGB('',9.02941E-1,5.68392E-1,0.E0);
#172=COLOUR_RGB('',9.01961E-1,8.27451E-1,5.84314E-1);
#173=COLOUR_RGB('',9.12471E-1,4.4651E-1,7.298E-2);
#174=COLOUR_RGB('',9.37E-1,8.51E-1,9.4E-2);
#175=COLOUR_RGB('',9.41176E-1,6.78431E-1,0.E0);
#176=COLOUR_RGB('',9.41176E-1,9.01961E-1,7.52941E-1);
#177=COLOUR_RGB('',9.53294E-1,7.37412E-1,0.E0);
#178=COLOUR_RGB('',9.62706E-1,6.75922E-1,0.E0);
#179=COLOUR_RGB('',9.68627E-1,7.96078E-1,6.98039E-1);
#180=COLOUR_RGB('',9.73804E-1,7.51608E-1,0.E0);
#181=DRAUGHTING_PRE_DEFINED_COLOUR('red');
#182=COLOUR_RGB('',1.E0,0.E0,2.E-1);
#183=COLOUR_RGB('',1.E0,0.E0,3.21569E-1);
#184=COLOUR_RGB('',1.E0,0.E0,4.E-1);
#185=COLOUR_RGB('',1.E0,0.E0,6.E-1);
#186=COLOUR_RGB('',1.E0,0.E0,8.E-1);
#187=COLOUR_RGB('',1.E0,2.E-1,0.E0);
#188=COLOUR_RGB('',1.E0,3.21569E-1,0.E0);
#189=COLOUR_RGB('',1.E0,4.E-1,0.E0);
#190=COLOUR_RGB('',1.E0,4.11765E-1,3.9216E-2);
#191=COLOUR_RGB('',1.E0,4.57E-1,0.E0);
#192=COLOUR_RGB('',1.E0,5.41176E-1,2.70588E-1);
#193=COLOUR_RGB('',1.E0,6.E-1,0.E0);
#194=COLOUR_RGB('',1.E0,6.36196E-1,0.E0);
#195=COLOUR_RGB('',1.E0,6.90196E-1,5.60784E-1);
#196=COLOUR_RGB('',1.E0,7.01961E-1,0.E0);
#197=COLOUR_RGB('',1.E0,7.15E-1,4.11E-1);
#198=COLOUR_RGB('',1.E0,8.E-1,0.E0);
#199=COLOUR_RGB('',1.E0,8.E-1,4.E-1);
#200=COLOUR_RGB('',1.E0,8.31373E-1,2.E-1);
#201=COLOUR_RGB('',1.E0,8.31373E-1,3.80392E-1);
#202=COLOUR_RGB('',1.E0,8.39216E-1,2.31373E-1);
#203=COLOUR_RGB('',1.E0,8.90196E-1,3.4902E-1);
#204=COLOUR_RGB('',1.E0,9.09804E-1,4.19608E-1);
#205=COLOUR_RGB('',1.E0,9.41176E-1,5.098E-2);
#206=COLOUR_RGB('',1.E0,9.43529E-1,8.27843E-1);
#207=COLOUR_RGB('',1.E0,9.88235E-1,5.098E-2);
#208=DRAUGHTING_PRE_DEFINED_COLOUR('yellow');
#209=COLOUR_RGB('',1.E0,1.E0,2.E-1);
#210=COLOUR_RGB('',1.E0,1.E0,2.11765E-1);
#211=COLOUR_RGB('',1.E0,1.E0,4.E-1);
#212=COLOUR_RGB('',1.E0,1.E0,4.90196E-1);
#213=COLOUR_RGB('',1.E0,1.E0,6.E-1);
#214=COLOUR_RGB('',1.E0,1.E0,8.E-1);
#215=DRAUGHTING_PRE_DEFINED_COLOUR('white');
#221=CIRCLE('',#220,1.175E0);
#230=CIRCLE('',#229,1.175E0);
#238=CIRCLE('',#237,1.175E0);
#246=CIRCLE('',#245,1.175E0);
#254=CIRCLE('',#253,1.1E1);
#269=CIRCLE('',#268,3.E0);
#277=CIRCLE('',#276,2.95E0);
#285=CIRCLE('',#284,6.E0);
#293=CIRCLE('',#292,1.28E1);
#308=CIRCLE('',#307,1.1E1);
#323=CIRCLE('',#322,8.E0);
#331=CIRCLE('',#330,2.6E0);
#353=CIRCLE('',#352,1.28E1);
#382=CIRCLE('',#381,1.175E0);
#390=CIRCLE('',#389,1.175E0);
#398=CIRCLE('',#397,1.175E0);
#406=CIRCLE('',#405,1.175E0);
#421=CIRCLE('',#420,1.28E1);
#429=CIRCLE('',#428,6.E0);
#437=CIRCLE('',#436,2.95E0);
#445=CIRCLE('',#444,3.E0);
#460=CIRCLE('',#459,1.28E1);
#482=CIRCLE('',#481,2.6E0);
#490=CIRCLE('',#489,8.E0);
#575=CIRCLE('',#574,8.E-1);
#583=CIRCLE('',#582,8.E-1);
#591=CIRCLE('',#590,8.E-1);
#599=CIRCLE('',#598,8.E-1);
#607=CIRCLE('',#606,8.E-1);
#615=CIRCLE('',#614,8.E-1);
#623=CIRCLE('',#622,8.E-1);
#631=CIRCLE('',#630,8.E-1);
#639=CIRCLE('',#638,6.E-1);
#647=CIRCLE('',#646,6.E-1);
#683=CIRCLE('',#682,8.E-1);
#691=CIRCLE('',#690,8.E-1);
#699=CIRCLE('',#698,8.E-1);
#707=CIRCLE('',#706,8.E-1);
#743=CIRCLE('',#742,8.E-1);
#751=CIRCLE('',#750,8.E-1);
#759=CIRCLE('',#758,8.E-1);
#767=CIRCLE('',#766,8.E-1);
#775=CIRCLE('',#774,6.E-1);
#783=CIRCLE('',#782,6.E-1);
#833=CIRCLE('',#832,1.1E1);
#841=CIRCLE('',#840,1.1E1);
#849=CIRCLE('',#848,9.75E0);
#857=CIRCLE('',#856,9.75E0);
#865=CIRCLE('',#864,1.25E0);
#873=CIRCLE('',#872,1.25E0);
#881=CIRCLE('',#880,1.25E0);
#889=CIRCLE('',#888,1.25E0);
#897=CIRCLE('',#896,1.25E0);
#905=CIRCLE('',#904,1.25E0);
#913=CIRCLE('',#912,7.925E0);
#921=CIRCLE('',#920,7.925E0);
#943=CIRCLE('',#942,9.75E0);
#951=CIRCLE('',#950,9.75E0);
#959=CIRCLE('',#958,1.25E0);
#967=CIRCLE('',#966,1.25E0);
#975=CIRCLE('',#974,1.25E0);
#983=CIRCLE('',#982,1.25E0);
#991=CIRCLE('',#990,1.25E0);
#999=CIRCLE('',#998,1.25E0);
#1007=CIRCLE('',#1006,7.925E0);
#1015=CIRCLE('',#1014,7.925E0);
#1228=EDGE_CURVE('',#1135,#1136,#254,.T.);
#1230=EDGE_CURVE('',#1136,#1142,#261,.T.);
#1232=EDGE_CURVE('',#1142,#1085,#269,.T.);
#1234=EDGE_CURVE('',#1085,#1086,#277,.T.);
#1236=EDGE_CURVE('',#1086,#1088,#285,.T.);
#1238=EDGE_CURVE('',#1088,#1090,#293,.T.);
#1240=EDGE_CURVE('',#1090,#1135,#300,.T.);
#1244=EDGE_CURVE('',#1115,#1116,#221,.T.);
#1246=EDGE_CURVE('',#1116,#1115,#230,.T.);
#1250=ADVANCED_FACE('',(#1243,#1249),#1227,.F.);
#1256=EDGE_CURVE('',#1136,#1135,#308,.T.);
#1258=EDGE_CURVE('',#1135,#1138,#315,.T.);
#1260=EDGE_CURVE('',#1138,#1077,#323,.T.);
#1262=EDGE_CURVE('',#1077,#1078,#331,.T.);
#1264=EDGE_CURVE('',#1078,#1080,#338,.T.);
#1266=EDGE_CURVE('',#1080,#1082,#345,.T.);
#1268=EDGE_CURVE('',#1082,#1140,#353,.T.);
#1270=EDGE_CURVE('',#1140,#1136,#360,.T.);
#1274=EDGE_CURVE('',#1119,#1120,#238,.T.);
#1276=EDGE_CURVE('',#1120,#1119,#246,.T.);
#1280=ADVANCED_FACE('',(#1273,#1279),#1255,.F.);
#1287=EDGE_CURVE('',#1115,#1123,#367,.T.);
#1289=EDGE_CURVE('',#1123,#1124,#382,.T.);
#1291=EDGE_CURVE('',#1116,#1124,#374,.T.);
#1295=ADVANCED_FACE('',(#1294),#1285,.F.);
#1303=EDGE_CURVE('',#1124,#1123,#390,.T.);
#1308=ADVANCED_FACE('',(#1307),#1300,.F.);
#1314=EDGE_CURVE('',#1093,#1094,#413,.T.);
#1316=EDGE_CURVE('',#1112,#1093,#421,.T.);
#1318=EDGE_CURVE('',#1110,#1112,#429,.T.);
#1320=EDGE_CURVE('',#1109,#1110,#437,.T.);
#1322=EDGE_CURVE('',#1106,#1109,#445,.T.);
#1324=EDGE_CURVE('',#1105,#1106,#452,.T.);
#1326=EDGE_CURVE('',#1102,#1105,#460,.T.);
#1328=EDGE_CURVE('',#1100,#1102,#467,.T.);
#1330=EDGE_CURVE('',#1098,#1100,#474,.T.);
#1332=EDGE_CURVE('',#1097,#1098,#482,.T.);
#1334=EDGE_CURVE('',#1094,#1097,#490,.T.);
#1338=EDGE_CURVE('',#1127,#1128,#398,.T.);
#1340=EDGE_CURVE('',#1128,#1127,#406,.T.);
#1348=ADVANCED_FACE('',(#1337,#1343,#1347),#1313,.T.);
#1355=EDGE_CURVE('',#1119,#1127,#497,.T.);
#1358=EDGE_CURVE('',#1120,#1128,#504,.T.);
#1362=ADVANCED_FACE('',(#1361),#1353,.F.);
#1374=ADVANCED_FACE('',(#1373),#1367,.F.);
#1381=EDGE_CURVE('',#1090,#1093,#511,.T.);
#1384=EDGE_CURVE('',#1138,#1094,#661,.T.);
#1389=ADVANCED_FACE('',(#1388),#1379,.T.);
#1396=EDGE_CURVE('',#1088,#1112,#518,.T.);
#1402=ADVANCED_FACE('',(#1401),#1394,.T.);
#1409=EDGE_CURVE('',#1086,#1110,#525,.T.);
#1415=ADVANCED_FACE('',(#1414),#1407,.F.);
#1422=EDGE_CURVE('',#1085,#1109,#532,.T.);
#1428=ADVANCED_FACE('',(#1427),#1420,.T.);
#1435=EDGE_CURVE('',#1142,#1106,#539,.T.);
#1441=ADVANCED_FACE('',(#1440),#1433,.F.);
#1448=EDGE_CURVE('',#1140,#1105,#546,.T.);
#1455=ADVANCED_FACE('',(#1454),#1446,.T.);
#1462=EDGE_CURVE('',#1082,#1102,#553,.T.);
#1468=ADVANCED_FACE('',(#1467),#1460,.T.);
#1475=EDGE_CURVE('',#1080,#1100,#560,.T.);
#1481=ADVANCED_FACE('',(#1480),#1473,.T.);
#1488=EDGE_CURVE('',#1078,#1098,#567,.T.);
#1494=EDGE_CURVE('',#1152,#1154,#575,.T.);
#1496=EDGE_CURVE('',#1154,#1152,#583,.T.);
#1500=EDGE_CURVE('',#1156,#1158,#591,.T.);
#1502=EDGE_CURVE('',#1158,#1156,#599,.T.);
#1506=EDGE_CURVE('',#1181,#1182,#607,.T.);
#1508=EDGE_CURVE('',#1182,#1181,#615,.T.);
#1512=EDGE_CURVE('',#1185,#1186,#623,.T.);
#1514=EDGE_CURVE('',#1186,#1185,#631,.T.);
#1518=EDGE_CURVE('',#1189,#1190,#639,.T.);
#1520=EDGE_CURVE('',#1190,#1189,#647,.T.);
#1524=ADVANCED_FACE('',(#1493,#1499,#1505,#1511,#1517,#1523),#1486,.T.);
#1531=EDGE_CURVE('',#1077,#1097,#654,.T.);
#1537=ADVANCED_FACE('',(#1536),#1529,.T.);
#1549=ADVANCED_FACE('',(#1548),#1542,.F.);
#1555=EDGE_CURVE('',#1146,#1152,#668,.T.);
#1558=EDGE_CURVE('',#1145,#1154,#675,.T.);
#1560=EDGE_CURVE('',#1145,#1146,#683,.T.);
#1564=ADVANCED_FACE('',(#1563),#1554,.T.);
#1571=EDGE_CURVE('',#1146,#1145,#691,.T.);
#1577=ADVANCED_FACE('',(#1576),#1569,.T.);
#1587=ADVANCED_FACE('',(#1586),#1582,.F.);
#1593=EDGE_CURVE('',#1149,#1150,#699,.T.);
#1595=EDGE_CURVE('',#1150,#1149,#707,.T.);
#1599=ADVANCED_FACE('',(#1598),#1592,.F.);
#1605=EDGE_CURVE('',#1150,#1156,#714,.T.);
#1608=EDGE_CURVE('',#1149,#1158,#721,.T.);
#1613=ADVANCED_FACE('',(#1612),#1604,.T.);
#1625=ADVANCED_FACE('',(#1624),#1618,.T.);
#1632=EDGE_CURVE('',#1182,#1170,#735,.T.);
#1634=EDGE_CURVE('',#1169,#1170,#743,.T.);
#1636=EDGE_CURVE('',#1181,#1169,#728,.T.);
#1640=ADVANCED_FACE('',(#1639),#1630,.T.);
#1648=EDGE_CURVE('',#1170,#1169,#751,.T.);
#1653=ADVANCED_FACE('',(#1652),#1645,.T.);
#1663=ADVANCED_FACE('',(#1662),#1658,.F.);
#1669=EDGE_CURVE('',#1173,#1174,#759,.T.);
#1671=EDGE_CURVE('',#1174,#1173,#767,.T.);
#1675=ADVANCED_FACE('',(#1674),#1668,.F.);
#1681=EDGE_CURVE('',#1177,#1178,#775,.T.);
#1683=EDGE_CURVE('',#1178,#1177,#783,.T.);
#1687=ADVANCED_FACE('',(#1686),#1680,.F.);
#1694=EDGE_CURVE('',#1186,#1174,#797,.T.);
#1697=EDGE_CURVE('',#1185,#1173,#790,.T.);
#1701=ADVANCED_FACE('',(#1700),#1692,.T.);
#1713=ADVANCED_FACE('',(#1712),#1706,.T.);
#1720=EDGE_CURVE('',#1190,#1178,#811,.T.);
#1723=EDGE_CURVE('',#1189,#1177,#804,.T.);
#1727=ADVANCED_FACE('',(#1726),#1718,.T.);
#1739=ADVANCED_FACE('',(#1738),#1732,.T.);
#1746=EDGE_CURVE('',#1135,#1131,#818,.T.);
#1748=EDGE_CURVE('',#1131,#1132,#833,.T.);
#1750=EDGE_CURVE('',#1136,#1132,#825,.T.);
#1754=ADVANCED_FACE('',(#1753),#1744,.T.);
#1762=EDGE_CURVE('',#1132,#1131,#841,.T.);
#1767=ADVANCED_FACE('',(#1766),#1759,.T.);
#1777=EDGE_CURVE('',#1165,#1166,#849,.T.);
#1779=EDGE_CURVE('',#1166,#1165,#857,.T.);
#1783=ADVANCED_FACE('',(#1776,#1782),#1772,.T.);
#1789=EDGE_CURVE('',#1221,#1222,#913,.T.);
#1791=EDGE_CURVE('',#1222,#1221,#921,.T.);
#1795=EDGE_CURVE('',#1205,#1206,#865,.T.);
#1797=EDGE_CURVE('',#1206,#1205,#873,.T.);
#1801=EDGE_CURVE('',#1209,#1210,#881,.T.);
#1803=EDGE_CURVE('',#1210,#1209,#889,.T.);
#1807=EDGE_CURVE('',#1213,#1214,#897,.T.);
#1809=EDGE_CURVE('',#1214,#1213,#905,.T.);
#1813=ADVANCED_FACE('',(#1794,#1800,#1806,#1812),#1788,.T.);
#1820=EDGE_CURVE('',#1165,#1161,#928,.T.);
#1822=EDGE_CURVE('',#1161,#1162,#943,.T.);
#1824=EDGE_CURVE('',#1166,#1162,#935,.T.);
#1828=ADVANCED_FACE('',(#1827),#1818,.F.);
#1836=EDGE_CURVE('',#1162,#1161,#951,.T.);
#1841=ADVANCED_FACE('',(#1840),#1833,.F.);
#1851=EDGE_CURVE('',#1217,#1218,#1007,.T.);
#1853=EDGE_CURVE('',#1218,#1217,#1015,.T.);
#1857=ADVANCED_FACE('',(#1850,#1856),#1846,.T.);
#1863=EDGE_CURVE('',#1193,#1194,#959,.T.);
#1865=EDGE_CURVE('',#1194,#1193,#967,.T.);
#1869=ADVANCED_FACE('',(#1868),#1862,.T.);
#1875=EDGE_CURVE('',#1197,#1198,#975,.T.);
#1877=EDGE_CURVE('',#1198,#1197,#983,.T.);
#1881=ADVANCED_FACE('',(#1880),#1874,.T.);
#1887=EDGE_CURVE('',#1201,#1202,#991,.T.);
#1889=EDGE_CURVE('',#1202,#1201,#999,.T.);
#1893=ADVANCED_FACE('',(#1892),#1886,.T.);
#1900=EDGE_CURVE('',#1205,#1193,#1022,.T.);
#1903=EDGE_CURVE('',#1206,#1194,#1029,.T.);
#1907=ADVANCED_FACE('',(#1906),#1898,.F.);
#1919=ADVANCED_FACE('',(#1918),#1912,.F.);
#1926=EDGE_CURVE('',#1209,#1197,#1036,.T.);
#1929=EDGE_CURVE('',#1210,#1198,#1043,.T.);
#1933=ADVANCED_FACE('',(#1932),#1924,.F.);
#1945=ADVANCED_FACE('',(#1944),#1938,.F.);
#1952=EDGE_CURVE('',#1213,#1201,#1050,.T.);
#1955=EDGE_CURVE('',#1214,#1202,#1057,.T.);
#1959=ADVANCED_FACE('',(#1958),#1950,.F.);
#1971=ADVANCED_FACE('',(#1970),#1964,.F.);
#1978=EDGE_CURVE('',#1222,#1217,#1064,.T.);
#1981=EDGE_CURVE('',#1221,#1218,#1071,.T.);
#1985=ADVANCED_FACE('',(#1984),#1976,.T.);
#1997=ADVANCED_FACE('',(#1996),#1990,.T.);
#2006=(LENGTH_UNIT()NAMED_UNIT(*)SI_UNIT(.MILLI.,.METRE.));
#2008=(NAMED_UNIT(*)PLANE_ANGLE_UNIT()SI_UNIT($,.RADIAN.));
#2011=(NAMED_UNIT(*)SI_UNIT($,.STERADIAN.)SOLID_ANGLE_UNIT());
#2013=(GEOMETRIC_REPRESENTATION_CONTEXT(3)GLOBAL_UNCERTAINTY_ASSIGNED_CONTEXT((
#2012))GLOBAL_UNIT_ASSIGNED_CONTEXT((#2006,#2010,#2011))REPRESENTATION_CONTEXT(
'ID1','3'));
#2014=ADVANCED_BREP_SHAPE_REPRESENTATION('',(#1999),#2013);
#2022=PRODUCT_DEFINITION('part definition','',#2021,#2018);
#2023=PRODUCT_DEFINITION_SHAPE('','SHAPE FOR D-NC3FAH-0.',#2022);
#2024=SHAPE_DEFINITION_REPRESENTATION(#2023,#2014);
ENDSEC;
END-ISO-10303-21;
