ISO-10303-21;
HEADER;
/* Generated by software containing ST-Developer
 * from STEP Tools, Inc. (www.steptools.com) 
 */

FILE_DESCRIPTION(
/* description */ ('SK 145'),
/* implementation_level */ '2;1');

FILE_NAME(
/* name */ 'C:\\Users\\lochen\\Desktop\\SK145.stp',
/* time_stamp */ '2017-03-23T08:51:52+01:00',
/* author */ ('Lochen'),
/* organization */ (''),
/* preprocessor_version */ 'ST-DEVELOPER v16.1',
/* originating_system */ 'Autodesk Inventor 2016',
/* authorisation */ '');

FILE_SCHEMA (('AUTOMOTIVE_DESIGN { 1 0 10303 214 3 1 1 }'));
ENDSEC;

DATA;
#10=MECHANICAL_DESIGN_GEOMETRIC_PRESENTATION_REPRESENTATION('',(#13),#987);
#11=SHAPE_REPRESENTATION_RELATIONSHIP('SRR','None',#996,#12);
#12=ADVANCED_BREP_SHAPE_REPRESENTATION('',(#14),#986);
#13=STYLED_ITEM('',(#1005),#14);
#14=MANIFOLD_SOLID_BREP('Volumenk\X\F6rper1',#587);
#15=CIRCLE('',#592,1.5);
#16=CIRCLE('',#593,1.5);
#17=CIRCLE('',#596,0.75);
#18=CIRCLE('',#597,0.75);
#19=CIRCLE('',#600,0.577254653930526);
#20=CIRCLE('',#601,0.577254653930526);
#21=CIRCLE('',#603,2.7);
#22=CIRCLE('',#604,2.7);
#23=CIRCLE('',#607,0.75);
#24=CIRCLE('',#608,0.75);
#25=CIRCLE('',#612,1.25);
#26=CIRCLE('',#613,1.25);
#27=CIRCLE('',#618,1.25);
#28=CIRCLE('',#619,1.25);
#29=CIRCLE('',#623,0.75);
#30=CIRCLE('',#624,0.75);
#31=CIRCLE('',#627,2.7);
#32=CIRCLE('',#628,2.7);
#33=CIRCLE('',#630,0.577254653930525);
#34=CIRCLE('',#631,0.577254653930525);
#35=CIRCLE('',#634,0.75);
#36=CIRCLE('',#635,0.75);
#37=CIRCLE('',#638,1.5);
#38=CIRCLE('',#639,1.5);
#39=CYLINDRICAL_SURFACE('',#591,1.5);
#40=CYLINDRICAL_SURFACE('',#595,0.75);
#41=CYLINDRICAL_SURFACE('',#599,0.577254653930526);
#42=CYLINDRICAL_SURFACE('',#602,2.7);
#43=CYLINDRICAL_SURFACE('',#606,0.75);
#44=CYLINDRICAL_SURFACE('',#611,1.25);
#45=CYLINDRICAL_SURFACE('',#617,1.25);
#46=CYLINDRICAL_SURFACE('',#622,0.75);
#47=CYLINDRICAL_SURFACE('',#626,2.7);
#48=CYLINDRICAL_SURFACE('',#629,0.577254653930525);
#49=CYLINDRICAL_SURFACE('',#633,0.75);
#50=CYLINDRICAL_SURFACE('',#637,1.5);
#51=FACE_OUTER_BOUND('',#81,.T.);
#52=FACE_OUTER_BOUND('',#82,.T.);
#53=FACE_OUTER_BOUND('',#83,.T.);
#54=FACE_OUTER_BOUND('',#84,.T.);
#55=FACE_OUTER_BOUND('',#85,.T.);
#56=FACE_OUTER_BOUND('',#86,.T.);
#57=FACE_OUTER_BOUND('',#87,.T.);
#58=FACE_OUTER_BOUND('',#88,.T.);
#59=FACE_OUTER_BOUND('',#89,.T.);
#60=FACE_OUTER_BOUND('',#90,.T.);
#61=FACE_OUTER_BOUND('',#91,.T.);
#62=FACE_OUTER_BOUND('',#92,.T.);
#63=FACE_OUTER_BOUND('',#93,.T.);
#64=FACE_OUTER_BOUND('',#94,.T.);
#65=FACE_OUTER_BOUND('',#95,.T.);
#66=FACE_OUTER_BOUND('',#96,.T.);
#67=FACE_OUTER_BOUND('',#97,.T.);
#68=FACE_OUTER_BOUND('',#98,.T.);
#69=FACE_OUTER_BOUND('',#99,.T.);
#70=FACE_OUTER_BOUND('',#100,.T.);
#71=FACE_OUTER_BOUND('',#101,.T.);
#72=FACE_OUTER_BOUND('',#102,.T.);
#73=FACE_OUTER_BOUND('',#103,.T.);
#74=FACE_OUTER_BOUND('',#104,.T.);
#75=FACE_OUTER_BOUND('',#105,.T.);
#76=FACE_OUTER_BOUND('',#106,.T.);
#77=FACE_OUTER_BOUND('',#107,.T.);
#78=FACE_OUTER_BOUND('',#108,.T.);
#79=FACE_OUTER_BOUND('',#109,.T.);
#80=FACE_OUTER_BOUND('',#110,.T.);
#81=EDGE_LOOP('',(#371,#372,#373,#374));
#82=EDGE_LOOP('',(#375,#376,#377,#378));
#83=EDGE_LOOP('',(#379,#380,#381,#382));
#84=EDGE_LOOP('',(#383,#384,#385,#386));
#85=EDGE_LOOP('',(#387,#388,#389,#390));
#86=EDGE_LOOP('',(#391,#392,#393,#394));
#87=EDGE_LOOP('',(#395,#396,#397,#398));
#88=EDGE_LOOP('',(#399,#400,#401,#402));
#89=EDGE_LOOP('',(#403,#404,#405,#406));
#90=EDGE_LOOP('',(#407,#408,#409,#410));
#91=EDGE_LOOP('',(#411,#412,#413,#414));
#92=EDGE_LOOP('',(#415,#416,#417,#418));
#93=EDGE_LOOP('',(#419,#420,#421,#422));
#94=EDGE_LOOP('',(#423,#424,#425,#426));
#95=EDGE_LOOP('',(#427,#428,#429,#430));
#96=EDGE_LOOP('',(#431,#432,#433,#434));
#97=EDGE_LOOP('',(#435,#436,#437,#438));
#98=EDGE_LOOP('',(#439,#440,#441,#442));
#99=EDGE_LOOP('',(#443,#444,#445,#446));
#100=EDGE_LOOP('',(#447,#448,#449,#450));
#101=EDGE_LOOP('',(#451,#452,#453,#454));
#102=EDGE_LOOP('',(#455,#456,#457,#458));
#103=EDGE_LOOP('',(#459,#460,#461,#462));
#104=EDGE_LOOP('',(#463,#464,#465,#466));
#105=EDGE_LOOP('',(#467,#468,#469,#470));
#106=EDGE_LOOP('',(#471,#472,#473,#474));
#107=EDGE_LOOP('',(#475,#476,#477,#478));
#108=EDGE_LOOP('',(#479,#480,#481,#482));
#109=EDGE_LOOP('',(#483,#484,#485,#486,#487,#488,#489,#490,#491,#492,#493,
#494,#495,#496,#497,#498,#499,#500,#501,#502,#503,#504,#505,#506,#507,#508,
#509,#510));
#110=EDGE_LOOP('',(#511,#512,#513,#514,#515,#516,#517,#518,#519,#520,#521,
#522,#523,#524,#525,#526,#527,#528,#529,#530,#531,#532,#533,#534,#535,#536,
#537,#538));
#111=LINE('',#817,#171);
#112=LINE('',#819,#172);
#113=LINE('',#821,#173);
#114=LINE('',#822,#174);
#115=LINE('',#825,#175);
#116=LINE('',#827,#176);
#117=LINE('',#828,#177);
#118=LINE('',#833,#178);
#119=LINE('',#837,#179);
#120=LINE('',#839,#180);
#121=LINE('',#840,#181);
#122=LINE('',#845,#182);
#123=LINE('',#849,#183);
#124=LINE('',#851,#184);
#125=LINE('',#852,#185);
#126=LINE('',#857,#186);
#127=LINE('',#863,#187);
#128=LINE('',#867,#188);
#129=LINE('',#869,#189);
#130=LINE('',#870,#190);
#131=LINE('',#875,#191);
#132=LINE('',#879,#192);
#133=LINE('',#881,#193);
#134=LINE('',#882,#194);
#135=LINE('',#885,#195);
#136=LINE('',#887,#196);
#137=LINE('',#888,#197);
#138=LINE('',#893,#198);
#139=LINE('',#897,#199);
#140=LINE('',#899,#200);
#141=LINE('',#900,#201);
#142=LINE('',#903,#202);
#143=LINE('',#905,#203);
#144=LINE('',#906,#204);
#145=LINE('',#909,#205);
#146=LINE('',#911,#206);
#147=LINE('',#912,#207);
#148=LINE('',#917,#208);
#149=LINE('',#921,#209);
#150=LINE('',#923,#210);
#151=LINE('',#924,#211);
#152=LINE('',#927,#212);
#153=LINE('',#929,#213);
#154=LINE('',#930,#214);
#155=LINE('',#935,#215);
#156=LINE('',#939,#216);
#157=LINE('',#941,#217);
#158=LINE('',#942,#218);
#159=LINE('',#947,#219);
#160=LINE('',#953,#220);
#161=LINE('',#957,#221);
#162=LINE('',#959,#222);
#163=LINE('',#960,#223);
#164=LINE('',#965,#224);
#165=LINE('',#969,#225);
#166=LINE('',#971,#226);
#167=LINE('',#972,#227);
#168=LINE('',#977,#228);
#169=LINE('',#980,#229);
#170=LINE('',#981,#230);
#171=VECTOR('',#647,15.5);
#172=VECTOR('',#648,50.);
#173=VECTOR('',#649,15.5);
#174=VECTOR('',#650,50.);
#175=VECTOR('',#653,3.3819660112501);
#176=VECTOR('',#654,50.);
#177=VECTOR('',#655,3.3819660112501);
#178=VECTOR('',#660,50.);
#179=VECTOR('',#665,2.63196601125011);
#180=VECTOR('',#666,50.);
#181=VECTOR('',#667,2.63196601125011);
#182=VECTOR('',#672,50.);
#183=VECTOR('',#677,6.67274534606948);
#184=VECTOR('',#678,50.);
#185=VECTOR('',#679,6.67274534606948);
#186=VECTOR('',#684,50.);
#187=VECTOR('',#691,50.);
#188=VECTOR('',#696,5.56671842700025);
#189=VECTOR('',#697,50.);
#190=VECTOR('',#698,5.56671842700025);
#191=VECTOR('',#703,50.);
#192=VECTOR('',#708,7.21076951545859);
#193=VECTOR('',#709,50.);
#194=VECTOR('',#710,7.21076951545859);
#195=VECTOR('',#713,0.828460969082698);
#196=VECTOR('',#714,50.);
#197=VECTOR('',#715,0.828460969082698);
#198=VECTOR('',#720,50.);
#199=VECTOR('',#725,2.24946210746215);
#200=VECTOR('',#726,50.);
#201=VECTOR('',#727,2.24946210746215);
#202=VECTOR('',#730,29.);
#203=VECTOR('',#731,50.);
#204=VECTOR('',#732,29.);
#205=VECTOR('',#735,2.24946210746215);
#206=VECTOR('',#736,50.);
#207=VECTOR('',#737,2.24946210746215);
#208=VECTOR('',#742,50.);
#209=VECTOR('',#747,0.828460969082693);
#210=VECTOR('',#748,50.);
#211=VECTOR('',#749,0.828460969082693);
#212=VECTOR('',#752,7.21076951545859);
#213=VECTOR('',#753,50.);
#214=VECTOR('',#754,7.21076951545859);
#215=VECTOR('',#759,50.);
#216=VECTOR('',#764,5.56671842700025);
#217=VECTOR('',#765,50.);
#218=VECTOR('',#766,5.56671842700025);
#219=VECTOR('',#771,50.);
#220=VECTOR('',#778,50.);
#221=VECTOR('',#783,6.67274534606948);
#222=VECTOR('',#784,50.);
#223=VECTOR('',#785,6.67274534606948);
#224=VECTOR('',#790,50.);
#225=VECTOR('',#795,2.63196601125011);
#226=VECTOR('',#796,50.);
#227=VECTOR('',#797,2.63196601125011);
#228=VECTOR('',#802,50.);
#229=VECTOR('',#807,3.3819660112501);
#230=VECTOR('',#808,3.3819660112501);
#231=VERTEX_POINT('',#815);
#232=VERTEX_POINT('',#816);
#233=VERTEX_POINT('',#818);
#234=VERTEX_POINT('',#820);
#235=VERTEX_POINT('',#824);
#236=VERTEX_POINT('',#826);
#237=VERTEX_POINT('',#830);
#238=VERTEX_POINT('',#832);
#239=VERTEX_POINT('',#836);
#240=VERTEX_POINT('',#838);
#241=VERTEX_POINT('',#842);
#242=VERTEX_POINT('',#844);
#243=VERTEX_POINT('',#848);
#244=VERTEX_POINT('',#850);
#245=VERTEX_POINT('',#854);
#246=VERTEX_POINT('',#856);
#247=VERTEX_POINT('',#860);
#248=VERTEX_POINT('',#862);
#249=VERTEX_POINT('',#866);
#250=VERTEX_POINT('',#868);
#251=VERTEX_POINT('',#872);
#252=VERTEX_POINT('',#874);
#253=VERTEX_POINT('',#878);
#254=VERTEX_POINT('',#880);
#255=VERTEX_POINT('',#884);
#256=VERTEX_POINT('',#886);
#257=VERTEX_POINT('',#890);
#258=VERTEX_POINT('',#892);
#259=VERTEX_POINT('',#896);
#260=VERTEX_POINT('',#898);
#261=VERTEX_POINT('',#902);
#262=VERTEX_POINT('',#904);
#263=VERTEX_POINT('',#908);
#264=VERTEX_POINT('',#910);
#265=VERTEX_POINT('',#914);
#266=VERTEX_POINT('',#916);
#267=VERTEX_POINT('',#920);
#268=VERTEX_POINT('',#922);
#269=VERTEX_POINT('',#926);
#270=VERTEX_POINT('',#928);
#271=VERTEX_POINT('',#932);
#272=VERTEX_POINT('',#934);
#273=VERTEX_POINT('',#938);
#274=VERTEX_POINT('',#940);
#275=VERTEX_POINT('',#944);
#276=VERTEX_POINT('',#946);
#277=VERTEX_POINT('',#950);
#278=VERTEX_POINT('',#952);
#279=VERTEX_POINT('',#956);
#280=VERTEX_POINT('',#958);
#281=VERTEX_POINT('',#962);
#282=VERTEX_POINT('',#964);
#283=VERTEX_POINT('',#968);
#284=VERTEX_POINT('',#970);
#285=VERTEX_POINT('',#974);
#286=VERTEX_POINT('',#976);
#287=EDGE_CURVE('',#231,#232,#111,.T.);
#288=EDGE_CURVE('',#233,#232,#112,.T.);
#289=EDGE_CURVE('',#233,#234,#113,.T.);
#290=EDGE_CURVE('',#234,#231,#114,.T.);
#291=EDGE_CURVE('',#232,#235,#115,.T.);
#292=EDGE_CURVE('',#236,#235,#116,.T.);
#293=EDGE_CURVE('',#236,#233,#117,.T.);
#294=EDGE_CURVE('',#235,#237,#15,.T.);
#295=EDGE_CURVE('',#238,#237,#118,.T.);
#296=EDGE_CURVE('',#238,#236,#16,.T.);
#297=EDGE_CURVE('',#237,#239,#119,.T.);
#298=EDGE_CURVE('',#240,#239,#120,.T.);
#299=EDGE_CURVE('',#240,#238,#121,.T.);
#300=EDGE_CURVE('',#239,#241,#17,.T.);
#301=EDGE_CURVE('',#242,#241,#122,.T.);
#302=EDGE_CURVE('',#242,#240,#18,.T.);
#303=EDGE_CURVE('',#241,#243,#123,.T.);
#304=EDGE_CURVE('',#244,#243,#124,.T.);
#305=EDGE_CURVE('',#244,#242,#125,.T.);
#306=EDGE_CURVE('',#243,#245,#19,.T.);
#307=EDGE_CURVE('',#246,#245,#126,.T.);
#308=EDGE_CURVE('',#246,#244,#20,.T.);
#309=EDGE_CURVE('',#245,#247,#21,.T.);
#310=EDGE_CURVE('',#248,#247,#127,.T.);
#311=EDGE_CURVE('',#248,#246,#22,.T.);
#312=EDGE_CURVE('',#247,#249,#128,.T.);
#313=EDGE_CURVE('',#250,#249,#129,.T.);
#314=EDGE_CURVE('',#250,#248,#130,.T.);
#315=EDGE_CURVE('',#249,#251,#23,.T.);
#316=EDGE_CURVE('',#252,#251,#131,.T.);
#317=EDGE_CURVE('',#252,#250,#24,.T.);
#318=EDGE_CURVE('',#251,#253,#132,.T.);
#319=EDGE_CURVE('',#254,#253,#133,.T.);
#320=EDGE_CURVE('',#254,#252,#134,.T.);
#321=EDGE_CURVE('',#253,#255,#135,.T.);
#322=EDGE_CURVE('',#256,#255,#136,.T.);
#323=EDGE_CURVE('',#256,#254,#137,.T.);
#324=EDGE_CURVE('',#255,#257,#25,.T.);
#325=EDGE_CURVE('',#258,#257,#138,.T.);
#326=EDGE_CURVE('',#258,#256,#26,.T.);
#327=EDGE_CURVE('',#257,#259,#139,.T.);
#328=EDGE_CURVE('',#260,#259,#140,.T.);
#329=EDGE_CURVE('',#260,#258,#141,.T.);
#330=EDGE_CURVE('',#259,#261,#142,.T.);
#331=EDGE_CURVE('',#262,#261,#143,.T.);
#332=EDGE_CURVE('',#262,#260,#144,.T.);
#333=EDGE_CURVE('',#261,#263,#145,.T.);
#334=EDGE_CURVE('',#264,#263,#146,.T.);
#335=EDGE_CURVE('',#264,#262,#147,.T.);
#336=EDGE_CURVE('',#263,#265,#27,.T.);
#337=EDGE_CURVE('',#266,#265,#148,.T.);
#338=EDGE_CURVE('',#266,#264,#28,.T.);
#339=EDGE_CURVE('',#265,#267,#149,.T.);
#340=EDGE_CURVE('',#268,#267,#150,.T.);
#341=EDGE_CURVE('',#268,#266,#151,.T.);
#342=EDGE_CURVE('',#267,#269,#152,.T.);
#343=EDGE_CURVE('',#270,#269,#153,.T.);
#344=EDGE_CURVE('',#270,#268,#154,.T.);
#345=EDGE_CURVE('',#269,#271,#29,.T.);
#346=EDGE_CURVE('',#272,#271,#155,.T.);
#347=EDGE_CURVE('',#272,#270,#30,.T.);
#348=EDGE_CURVE('',#271,#273,#156,.T.);
#349=EDGE_CURVE('',#274,#273,#157,.T.);
#350=EDGE_CURVE('',#274,#272,#158,.T.);
#351=EDGE_CURVE('',#273,#275,#31,.T.);
#352=EDGE_CURVE('',#276,#275,#159,.T.);
#353=EDGE_CURVE('',#276,#274,#32,.T.);
#354=EDGE_CURVE('',#275,#277,#33,.T.);
#355=EDGE_CURVE('',#278,#277,#160,.T.);
#356=EDGE_CURVE('',#278,#276,#34,.T.);
#357=EDGE_CURVE('',#277,#279,#161,.T.);
#358=EDGE_CURVE('',#280,#279,#162,.T.);
#359=EDGE_CURVE('',#280,#278,#163,.T.);
#360=EDGE_CURVE('',#279,#281,#35,.T.);
#361=EDGE_CURVE('',#282,#281,#164,.T.);
#362=EDGE_CURVE('',#282,#280,#36,.T.);
#363=EDGE_CURVE('',#281,#283,#165,.T.);
#364=EDGE_CURVE('',#284,#283,#166,.T.);
#365=EDGE_CURVE('',#284,#282,#167,.T.);
#366=EDGE_CURVE('',#283,#285,#37,.T.);
#367=EDGE_CURVE('',#286,#285,#168,.T.);
#368=EDGE_CURVE('',#286,#284,#38,.T.);
#369=EDGE_CURVE('',#285,#231,#169,.T.);
#370=EDGE_CURVE('',#234,#286,#170,.T.);
#371=ORIENTED_EDGE('',*,*,#287,.T.);
#372=ORIENTED_EDGE('',*,*,#288,.F.);
#373=ORIENTED_EDGE('',*,*,#289,.T.);
#374=ORIENTED_EDGE('',*,*,#290,.T.);
#375=ORIENTED_EDGE('',*,*,#291,.T.);
#376=ORIENTED_EDGE('',*,*,#292,.F.);
#377=ORIENTED_EDGE('',*,*,#293,.T.);
#378=ORIENTED_EDGE('',*,*,#288,.T.);
#379=ORIENTED_EDGE('',*,*,#294,.T.);
#380=ORIENTED_EDGE('',*,*,#295,.F.);
#381=ORIENTED_EDGE('',*,*,#296,.T.);
#382=ORIENTED_EDGE('',*,*,#292,.T.);
#383=ORIENTED_EDGE('',*,*,#297,.T.);
#384=ORIENTED_EDGE('',*,*,#298,.F.);
#385=ORIENTED_EDGE('',*,*,#299,.T.);
#386=ORIENTED_EDGE('',*,*,#295,.T.);
#387=ORIENTED_EDGE('',*,*,#300,.T.);
#388=ORIENTED_EDGE('',*,*,#301,.F.);
#389=ORIENTED_EDGE('',*,*,#302,.T.);
#390=ORIENTED_EDGE('',*,*,#298,.T.);
#391=ORIENTED_EDGE('',*,*,#303,.T.);
#392=ORIENTED_EDGE('',*,*,#304,.F.);
#393=ORIENTED_EDGE('',*,*,#305,.T.);
#394=ORIENTED_EDGE('',*,*,#301,.T.);
#395=ORIENTED_EDGE('',*,*,#306,.T.);
#396=ORIENTED_EDGE('',*,*,#307,.F.);
#397=ORIENTED_EDGE('',*,*,#308,.T.);
#398=ORIENTED_EDGE('',*,*,#304,.T.);
#399=ORIENTED_EDGE('',*,*,#309,.T.);
#400=ORIENTED_EDGE('',*,*,#310,.F.);
#401=ORIENTED_EDGE('',*,*,#311,.T.);
#402=ORIENTED_EDGE('',*,*,#307,.T.);
#403=ORIENTED_EDGE('',*,*,#312,.T.);
#404=ORIENTED_EDGE('',*,*,#313,.F.);
#405=ORIENTED_EDGE('',*,*,#314,.T.);
#406=ORIENTED_EDGE('',*,*,#310,.T.);
#407=ORIENTED_EDGE('',*,*,#315,.T.);
#408=ORIENTED_EDGE('',*,*,#316,.F.);
#409=ORIENTED_EDGE('',*,*,#317,.T.);
#410=ORIENTED_EDGE('',*,*,#313,.T.);
#411=ORIENTED_EDGE('',*,*,#318,.T.);
#412=ORIENTED_EDGE('',*,*,#319,.F.);
#413=ORIENTED_EDGE('',*,*,#320,.T.);
#414=ORIENTED_EDGE('',*,*,#316,.T.);
#415=ORIENTED_EDGE('',*,*,#321,.T.);
#416=ORIENTED_EDGE('',*,*,#322,.F.);
#417=ORIENTED_EDGE('',*,*,#323,.T.);
#418=ORIENTED_EDGE('',*,*,#319,.T.);
#419=ORIENTED_EDGE('',*,*,#324,.T.);
#420=ORIENTED_EDGE('',*,*,#325,.F.);
#421=ORIENTED_EDGE('',*,*,#326,.T.);
#422=ORIENTED_EDGE('',*,*,#322,.T.);
#423=ORIENTED_EDGE('',*,*,#327,.T.);
#424=ORIENTED_EDGE('',*,*,#328,.F.);
#425=ORIENTED_EDGE('',*,*,#329,.T.);
#426=ORIENTED_EDGE('',*,*,#325,.T.);
#427=ORIENTED_EDGE('',*,*,#330,.T.);
#428=ORIENTED_EDGE('',*,*,#331,.F.);
#429=ORIENTED_EDGE('',*,*,#332,.T.);
#430=ORIENTED_EDGE('',*,*,#328,.T.);
#431=ORIENTED_EDGE('',*,*,#333,.T.);
#432=ORIENTED_EDGE('',*,*,#334,.F.);
#433=ORIENTED_EDGE('',*,*,#335,.T.);
#434=ORIENTED_EDGE('',*,*,#331,.T.);
#435=ORIENTED_EDGE('',*,*,#336,.T.);
#436=ORIENTED_EDGE('',*,*,#337,.F.);
#437=ORIENTED_EDGE('',*,*,#338,.T.);
#438=ORIENTED_EDGE('',*,*,#334,.T.);
#439=ORIENTED_EDGE('',*,*,#339,.T.);
#440=ORIENTED_EDGE('',*,*,#340,.F.);
#441=ORIENTED_EDGE('',*,*,#341,.T.);
#442=ORIENTED_EDGE('',*,*,#337,.T.);
#443=ORIENTED_EDGE('',*,*,#342,.T.);
#444=ORIENTED_EDGE('',*,*,#343,.F.);
#445=ORIENTED_EDGE('',*,*,#344,.T.);
#446=ORIENTED_EDGE('',*,*,#340,.T.);
#447=ORIENTED_EDGE('',*,*,#345,.T.);
#448=ORIENTED_EDGE('',*,*,#346,.F.);
#449=ORIENTED_EDGE('',*,*,#347,.T.);
#450=ORIENTED_EDGE('',*,*,#343,.T.);
#451=ORIENTED_EDGE('',*,*,#348,.T.);
#452=ORIENTED_EDGE('',*,*,#349,.F.);
#453=ORIENTED_EDGE('',*,*,#350,.T.);
#454=ORIENTED_EDGE('',*,*,#346,.T.);
#455=ORIENTED_EDGE('',*,*,#351,.T.);
#456=ORIENTED_EDGE('',*,*,#352,.F.);
#457=ORIENTED_EDGE('',*,*,#353,.T.);
#458=ORIENTED_EDGE('',*,*,#349,.T.);
#459=ORIENTED_EDGE('',*,*,#354,.T.);
#460=ORIENTED_EDGE('',*,*,#355,.F.);
#461=ORIENTED_EDGE('',*,*,#356,.T.);
#462=ORIENTED_EDGE('',*,*,#352,.T.);
#463=ORIENTED_EDGE('',*,*,#357,.T.);
#464=ORIENTED_EDGE('',*,*,#358,.F.);
#465=ORIENTED_EDGE('',*,*,#359,.T.);
#466=ORIENTED_EDGE('',*,*,#355,.T.);
#467=ORIENTED_EDGE('',*,*,#360,.T.);
#468=ORIENTED_EDGE('',*,*,#361,.F.);
#469=ORIENTED_EDGE('',*,*,#362,.T.);
#470=ORIENTED_EDGE('',*,*,#358,.T.);
#471=ORIENTED_EDGE('',*,*,#363,.T.);
#472=ORIENTED_EDGE('',*,*,#364,.F.);
#473=ORIENTED_EDGE('',*,*,#365,.T.);
#474=ORIENTED_EDGE('',*,*,#361,.T.);
#475=ORIENTED_EDGE('',*,*,#366,.T.);
#476=ORIENTED_EDGE('',*,*,#367,.F.);
#477=ORIENTED_EDGE('',*,*,#368,.T.);
#478=ORIENTED_EDGE('',*,*,#364,.T.);
#479=ORIENTED_EDGE('',*,*,#369,.T.);
#480=ORIENTED_EDGE('',*,*,#290,.F.);
#481=ORIENTED_EDGE('',*,*,#370,.T.);
#482=ORIENTED_EDGE('',*,*,#367,.T.);
#483=ORIENTED_EDGE('',*,*,#289,.F.);
#484=ORIENTED_EDGE('',*,*,#293,.F.);
#485=ORIENTED_EDGE('',*,*,#296,.F.);
#486=ORIENTED_EDGE('',*,*,#299,.F.);
#487=ORIENTED_EDGE('',*,*,#302,.F.);
#488=ORIENTED_EDGE('',*,*,#305,.F.);
#489=ORIENTED_EDGE('',*,*,#308,.F.);
#490=ORIENTED_EDGE('',*,*,#311,.F.);
#491=ORIENTED_EDGE('',*,*,#314,.F.);
#492=ORIENTED_EDGE('',*,*,#317,.F.);
#493=ORIENTED_EDGE('',*,*,#320,.F.);
#494=ORIENTED_EDGE('',*,*,#323,.F.);
#495=ORIENTED_EDGE('',*,*,#326,.F.);
#496=ORIENTED_EDGE('',*,*,#329,.F.);
#497=ORIENTED_EDGE('',*,*,#332,.F.);
#498=ORIENTED_EDGE('',*,*,#335,.F.);
#499=ORIENTED_EDGE('',*,*,#338,.F.);
#500=ORIENTED_EDGE('',*,*,#341,.F.);
#501=ORIENTED_EDGE('',*,*,#344,.F.);
#502=ORIENTED_EDGE('',*,*,#347,.F.);
#503=ORIENTED_EDGE('',*,*,#350,.F.);
#504=ORIENTED_EDGE('',*,*,#353,.F.);
#505=ORIENTED_EDGE('',*,*,#356,.F.);
#506=ORIENTED_EDGE('',*,*,#359,.F.);
#507=ORIENTED_EDGE('',*,*,#362,.F.);
#508=ORIENTED_EDGE('',*,*,#365,.F.);
#509=ORIENTED_EDGE('',*,*,#368,.F.);
#510=ORIENTED_EDGE('',*,*,#370,.F.);
#511=ORIENTED_EDGE('',*,*,#287,.F.);
#512=ORIENTED_EDGE('',*,*,#369,.F.);
#513=ORIENTED_EDGE('',*,*,#366,.F.);
#514=ORIENTED_EDGE('',*,*,#363,.F.);
#515=ORIENTED_EDGE('',*,*,#360,.F.);
#516=ORIENTED_EDGE('',*,*,#357,.F.);
#517=ORIENTED_EDGE('',*,*,#354,.F.);
#518=ORIENTED_EDGE('',*,*,#351,.F.);
#519=ORIENTED_EDGE('',*,*,#348,.F.);
#520=ORIENTED_EDGE('',*,*,#345,.F.);
#521=ORIENTED_EDGE('',*,*,#342,.F.);
#522=ORIENTED_EDGE('',*,*,#339,.F.);
#523=ORIENTED_EDGE('',*,*,#336,.F.);
#524=ORIENTED_EDGE('',*,*,#333,.F.);
#525=ORIENTED_EDGE('',*,*,#330,.F.);
#526=ORIENTED_EDGE('',*,*,#327,.F.);
#527=ORIENTED_EDGE('',*,*,#324,.F.);
#528=ORIENTED_EDGE('',*,*,#321,.F.);
#529=ORIENTED_EDGE('',*,*,#318,.F.);
#530=ORIENTED_EDGE('',*,*,#315,.F.);
#531=ORIENTED_EDGE('',*,*,#312,.F.);
#532=ORIENTED_EDGE('',*,*,#309,.F.);
#533=ORIENTED_EDGE('',*,*,#306,.F.);
#534=ORIENTED_EDGE('',*,*,#303,.F.);
#535=ORIENTED_EDGE('',*,*,#300,.F.);
#536=ORIENTED_EDGE('',*,*,#297,.F.);
#537=ORIENTED_EDGE('',*,*,#294,.F.);
#538=ORIENTED_EDGE('',*,*,#291,.F.);
#539=PLANE('',#589);
#540=PLANE('',#590);
#541=PLANE('',#594);
#542=PLANE('',#598);
#543=PLANE('',#605);
#544=PLANE('',#609);
#545=PLANE('',#610);
#546=PLANE('',#614);
#547=PLANE('',#615);
#548=PLANE('',#616);
#549=PLANE('',#620);
#550=PLANE('',#621);
#551=PLANE('',#625);
#552=PLANE('',#632);
#553=PLANE('',#636);
#554=PLANE('',#640);
#555=PLANE('',#641);
#556=PLANE('',#642);
#557=ADVANCED_FACE('',(#51),#539,.T.);
#558=ADVANCED_FACE('',(#52),#540,.T.);
#559=ADVANCED_FACE('',(#53),#39,.F.);
#560=ADVANCED_FACE('',(#54),#541,.T.);
#561=ADVANCED_FACE('',(#55),#40,.T.);
#562=ADVANCED_FACE('',(#56),#542,.T.);
#563=ADVANCED_FACE('',(#57),#41,.F.);
#564=ADVANCED_FACE('',(#58),#42,.T.);
#565=ADVANCED_FACE('',(#59),#543,.T.);
#566=ADVANCED_FACE('',(#60),#43,.T.);
#567=ADVANCED_FACE('',(#61),#544,.T.);
#568=ADVANCED_FACE('',(#62),#545,.T.);
#569=ADVANCED_FACE('',(#63),#44,.F.);
#570=ADVANCED_FACE('',(#64),#546,.T.);
#571=ADVANCED_FACE('',(#65),#547,.T.);
#572=ADVANCED_FACE('',(#66),#548,.T.);
#573=ADVANCED_FACE('',(#67),#45,.F.);
#574=ADVANCED_FACE('',(#68),#549,.T.);
#575=ADVANCED_FACE('',(#69),#550,.T.);
#576=ADVANCED_FACE('',(#70),#46,.T.);
#577=ADVANCED_FACE('',(#71),#551,.T.);
#578=ADVANCED_FACE('',(#72),#47,.T.);
#579=ADVANCED_FACE('',(#73),#48,.F.);
#580=ADVANCED_FACE('',(#74),#552,.T.);
#581=ADVANCED_FACE('',(#75),#49,.T.);
#582=ADVANCED_FACE('',(#76),#553,.T.);
#583=ADVANCED_FACE('',(#77),#50,.F.);
#584=ADVANCED_FACE('',(#78),#554,.T.);
#585=ADVANCED_FACE('',(#79),#555,.F.);
#586=ADVANCED_FACE('',(#80),#556,.T.);
#587=CLOSED_SHELL('',(#557,#558,#559,#560,#561,#562,#563,#564,#565,#566,
#567,#568,#569,#570,#571,#572,#573,#574,#575,#576,#577,#578,#579,#580,#581,
#582,#583,#584,#585,#586));
#588=AXIS2_PLACEMENT_3D('placement',#813,#643,#644);
#589=AXIS2_PLACEMENT_3D('',#814,#645,#646);
#590=AXIS2_PLACEMENT_3D('',#823,#651,#652);
#591=AXIS2_PLACEMENT_3D('',#829,#656,#657);
#592=AXIS2_PLACEMENT_3D('',#831,#658,#659);
#593=AXIS2_PLACEMENT_3D('',#834,#661,#662);
#594=AXIS2_PLACEMENT_3D('',#835,#663,#664);
#595=AXIS2_PLACEMENT_3D('',#841,#668,#669);
#596=AXIS2_PLACEMENT_3D('',#843,#670,#671);
#597=AXIS2_PLACEMENT_3D('',#846,#673,#674);
#598=AXIS2_PLACEMENT_3D('',#847,#675,#676);
#599=AXIS2_PLACEMENT_3D('',#853,#680,#681);
#600=AXIS2_PLACEMENT_3D('',#855,#682,#683);
#601=AXIS2_PLACEMENT_3D('',#858,#685,#686);
#602=AXIS2_PLACEMENT_3D('',#859,#687,#688);
#603=AXIS2_PLACEMENT_3D('',#861,#689,#690);
#604=AXIS2_PLACEMENT_3D('',#864,#692,#693);
#605=AXIS2_PLACEMENT_3D('',#865,#694,#695);
#606=AXIS2_PLACEMENT_3D('',#871,#699,#700);
#607=AXIS2_PLACEMENT_3D('',#873,#701,#702);
#608=AXIS2_PLACEMENT_3D('',#876,#704,#705);
#609=AXIS2_PLACEMENT_3D('',#877,#706,#707);
#610=AXIS2_PLACEMENT_3D('',#883,#711,#712);
#611=AXIS2_PLACEMENT_3D('',#889,#716,#717);
#612=AXIS2_PLACEMENT_3D('',#891,#718,#719);
#613=AXIS2_PLACEMENT_3D('',#894,#721,#722);
#614=AXIS2_PLACEMENT_3D('',#895,#723,#724);
#615=AXIS2_PLACEMENT_3D('',#901,#728,#729);
#616=AXIS2_PLACEMENT_3D('',#907,#733,#734);
#617=AXIS2_PLACEMENT_3D('',#913,#738,#739);
#618=AXIS2_PLACEMENT_3D('',#915,#740,#741);
#619=AXIS2_PLACEMENT_3D('',#918,#743,#744);
#620=AXIS2_PLACEMENT_3D('',#919,#745,#746);
#621=AXIS2_PLACEMENT_3D('',#925,#750,#751);
#622=AXIS2_PLACEMENT_3D('',#931,#755,#756);
#623=AXIS2_PLACEMENT_3D('',#933,#757,#758);
#624=AXIS2_PLACEMENT_3D('',#936,#760,#761);
#625=AXIS2_PLACEMENT_3D('',#937,#762,#763);
#626=AXIS2_PLACEMENT_3D('',#943,#767,#768);
#627=AXIS2_PLACEMENT_3D('',#945,#769,#770);
#628=AXIS2_PLACEMENT_3D('',#948,#772,#773);
#629=AXIS2_PLACEMENT_3D('',#949,#774,#775);
#630=AXIS2_PLACEMENT_3D('',#951,#776,#777);
#631=AXIS2_PLACEMENT_3D('',#954,#779,#780);
#632=AXIS2_PLACEMENT_3D('',#955,#781,#782);
#633=AXIS2_PLACEMENT_3D('',#961,#786,#787);
#634=AXIS2_PLACEMENT_3D('',#963,#788,#789);
#635=AXIS2_PLACEMENT_3D('',#966,#791,#792);
#636=AXIS2_PLACEMENT_3D('',#967,#793,#794);
#637=AXIS2_PLACEMENT_3D('',#973,#798,#799);
#638=AXIS2_PLACEMENT_3D('',#975,#800,#801);
#639=AXIS2_PLACEMENT_3D('',#978,#803,#804);
#640=AXIS2_PLACEMENT_3D('',#979,#805,#806);
#641=AXIS2_PLACEMENT_3D('',#982,#809,#810);
#642=AXIS2_PLACEMENT_3D('',#983,#811,#812);
#643=DIRECTION('axis',(0.,0.,1.));
#644=DIRECTION('refdir',(1.,0.,0.));
#645=DIRECTION('center_axis',(0.,1.,0.));
#646=DIRECTION('ref_axis',(0.,0.,1.));
#647=DIRECTION('',(1.,0.,0.));
#648=DIRECTION('',(0.,0.,1.));
#649=DIRECTION('',(-1.,-1.43254583822601E-16,0.));
#650=DIRECTION('',(0.,0.,1.));
#651=DIRECTION('center_axis',(-1.,3.28277404601939E-16,0.));
#652=DIRECTION('ref_axis',(0.,0.,1.));
#653=DIRECTION('',(3.28277404601939E-16,1.,0.));
#654=DIRECTION('',(0.,0.,1.));
#655=DIRECTION('',(-3.28277404601939E-16,-1.,0.));
#656=DIRECTION('center_axis',(0.,0.,1.));
#657=DIRECTION('ref_axis',(-0.666666666666668,0.745355992499929,0.));
#658=DIRECTION('center_axis',(0.,0.,1.));
#659=DIRECTION('ref_axis',(-0.666666666666668,0.745355992499929,0.));
#660=DIRECTION('',(0.,0.,1.));
#661=DIRECTION('center_axis',(0.,0.,-1.));
#662=DIRECTION('ref_axis',(-0.666666666666668,0.745355992499929,0.));
#663=DIRECTION('center_axis',(-1.,0.,0.));
#664=DIRECTION('ref_axis',(0.,0.,1.));
#665=DIRECTION('',(0.,1.,0.));
#666=DIRECTION('',(0.,0.,1.));
#667=DIRECTION('',(0.,-1.,0.));
#668=DIRECTION('center_axis',(0.,0.,1.));
#669=DIRECTION('ref_axis',(1.,0.,0.));
#670=DIRECTION('center_axis',(0.,0.,-1.));
#671=DIRECTION('ref_axis',(1.,0.,0.));
#672=DIRECTION('',(0.,0.,1.));
#673=DIRECTION('center_axis',(0.,0.,1.));
#674=DIRECTION('ref_axis',(1.,0.,0.));
#675=DIRECTION('center_axis',(1.,6.65526985997824E-16,0.));
#676=DIRECTION('ref_axis',(0.,0.,-1.));
#677=DIRECTION('',(6.65526985997824E-16,-1.,0.));
#678=DIRECTION('',(0.,0.,1.));
#679=DIRECTION('',(-6.65526985997824E-16,1.,0.));
#680=DIRECTION('center_axis',(0.,0.,1.));
#681=DIRECTION('ref_axis',(1.,0.,0.));
#682=DIRECTION('center_axis',(0.,0.,1.));
#683=DIRECTION('ref_axis',(1.,0.,0.));
#684=DIRECTION('',(0.,0.,1.));
#685=DIRECTION('center_axis',(0.,0.,-1.));
#686=DIRECTION('ref_axis',(1.,0.,0.));
#687=DIRECTION('center_axis',(0.,0.,1.));
#688=DIRECTION('ref_axis',(0.111111111111115,0.993807989999906,0.));
#689=DIRECTION('center_axis',(0.,0.,-1.));
#690=DIRECTION('ref_axis',(0.111111111111115,0.993807989999906,0.));
#691=DIRECTION('',(0.,0.,1.));
#692=DIRECTION('center_axis',(0.,0.,1.));
#693=DIRECTION('ref_axis',(0.111111111111115,0.993807989999906,0.));
#694=DIRECTION('center_axis',(-1.,0.,0.));
#695=DIRECTION('ref_axis',(0.,0.,1.));
#696=DIRECTION('',(0.,1.,0.));
#697=DIRECTION('',(0.,0.,1.));
#698=DIRECTION('',(0.,-1.,0.));
#699=DIRECTION('center_axis',(0.,0.,1.));
#700=DIRECTION('ref_axis',(1.,0.,0.));
#701=DIRECTION('center_axis',(0.,0.,-1.));
#702=DIRECTION('ref_axis',(1.,0.,0.));
#703=DIRECTION('',(0.,0.,1.));
#704=DIRECTION('center_axis',(0.,0.,1.));
#705=DIRECTION('ref_axis',(1.,0.,0.));
#706=DIRECTION('center_axis',(1.,0.,0.));
#707=DIRECTION('ref_axis',(0.,0.,-1.));
#708=DIRECTION('',(0.,-1.,0.));
#709=DIRECTION('',(0.,0.,1.));
#710=DIRECTION('',(0.,1.,0.));
#711=DIRECTION('center_axis',(0.500000000000029,-0.866025403784422,0.));
#712=DIRECTION('ref_axis',(0.,0.,-1.));
#713=DIRECTION('',(-0.866025403784422,-0.500000000000029,0.));
#714=DIRECTION('',(0.,0.,1.));
#715=DIRECTION('',(0.866025403784422,0.500000000000029,0.));
#716=DIRECTION('center_axis',(0.,0.,1.));
#717=DIRECTION('ref_axis',(-0.866025403784422,-0.500000000000029,0.));
#718=DIRECTION('center_axis',(0.,0.,1.));
#719=DIRECTION('ref_axis',(-0.866025403784422,-0.500000000000029,0.));
#720=DIRECTION('',(0.,0.,1.));
#721=DIRECTION('center_axis',(0.,0.,-1.));
#722=DIRECTION('ref_axis',(-0.866025403784422,-0.500000000000029,0.));
#723=DIRECTION('center_axis',(0.86602540378444,0.499999999999998,0.));
#724=DIRECTION('ref_axis',(0.,0.,-1.));
#725=DIRECTION('',(0.499999999999998,-0.86602540378444,0.));
#726=DIRECTION('',(0.,0.,1.));
#727=DIRECTION('',(-0.499999999999998,0.86602540378444,0.));
#728=DIRECTION('center_axis',(0.,-1.,0.));
#729=DIRECTION('ref_axis',(0.,0.,-1.));
#730=DIRECTION('',(-1.,0.,0.));
#731=DIRECTION('',(0.,0.,1.));
#732=DIRECTION('',(1.,0.,0.));
#733=DIRECTION('center_axis',(-0.86602540378444,0.499999999999997,0.));
#734=DIRECTION('ref_axis',(0.,0.,1.));
#735=DIRECTION('',(0.499999999999997,0.86602540378444,0.));
#736=DIRECTION('',(0.,0.,1.));
#737=DIRECTION('',(-0.499999999999997,-0.86602540378444,0.));
#738=DIRECTION('center_axis',(0.,0.,1.));
#739=DIRECTION('ref_axis',(0.540215157015149,0.841526936069843,0.));
#740=DIRECTION('center_axis',(0.,0.,1.));
#741=DIRECTION('ref_axis',(0.540215157015149,0.841526936069843,0.));
#742=DIRECTION('',(0.,0.,1.));
#743=DIRECTION('center_axis',(0.,0.,-1.));
#744=DIRECTION('ref_axis',(0.540215157015149,0.841526936069843,0.));
#745=DIRECTION('center_axis',(-0.50000000000003,-0.866025403784421,0.));
#746=DIRECTION('ref_axis',(0.,0.,1.));
#747=DIRECTION('',(-0.866025403784421,0.50000000000003,0.));
#748=DIRECTION('',(0.,0.,1.));
#749=DIRECTION('',(0.866025403784421,-0.50000000000003,0.));
#750=DIRECTION('center_axis',(-1.,-3.07934686372942E-16,0.));
#751=DIRECTION('ref_axis',(0.,0.,1.));
#752=DIRECTION('',(-3.07934686372942E-16,1.,0.));
#753=DIRECTION('',(0.,0.,1.));
#754=DIRECTION('',(3.07934686372942E-16,-1.,0.));
#755=DIRECTION('center_axis',(0.,0.,1.));
#756=DIRECTION('ref_axis',(1.,0.,0.));
#757=DIRECTION('center_axis',(0.,0.,-1.));
#758=DIRECTION('ref_axis',(1.,0.,0.));
#759=DIRECTION('',(0.,0.,1.));
#760=DIRECTION('center_axis',(0.,0.,1.));
#761=DIRECTION('ref_axis',(1.,0.,0.));
#762=DIRECTION('center_axis',(1.,3.98878814937089E-16,0.));
#763=DIRECTION('ref_axis',(0.,0.,-1.));
#764=DIRECTION('',(3.98878814937089E-16,-1.,0.));
#765=DIRECTION('',(0.,0.,1.));
#766=DIRECTION('',(-3.98878814937089E-16,1.,0.));
#767=DIRECTION('center_axis',(0.,0.,1.));
#768=DIRECTION('ref_axis',(0.87657068169057,0.481273144898539,0.));
#769=DIRECTION('center_axis',(0.,0.,-1.));
#770=DIRECTION('ref_axis',(0.87657068169057,0.481273144898539,0.));
#771=DIRECTION('',(0.,0.,1.));
#772=DIRECTION('center_axis',(0.,0.,1.));
#773=DIRECTION('ref_axis',(0.87657068169057,0.481273144898539,0.));
#774=DIRECTION('center_axis',(0.,0.,1.));
#775=DIRECTION('ref_axis',(0.87657068169057,0.481273144898539,0.));
#776=DIRECTION('center_axis',(0.,0.,1.));
#777=DIRECTION('ref_axis',(0.87657068169057,0.481273144898539,0.));
#778=DIRECTION('',(0.,0.,1.));
#779=DIRECTION('center_axis',(0.,0.,-1.));
#780=DIRECTION('ref_axis',(0.87657068169057,0.481273144898539,0.));
#781=DIRECTION('center_axis',(-1.,1.66381746499456E-16,0.));
#782=DIRECTION('ref_axis',(0.,0.,1.));
#783=DIRECTION('',(1.66381746499456E-16,1.,0.));
#784=DIRECTION('',(0.,0.,1.));
#785=DIRECTION('',(-1.66381746499456E-16,-1.,0.));
#786=DIRECTION('center_axis',(0.,0.,1.));
#787=DIRECTION('ref_axis',(1.,0.,0.));
#788=DIRECTION('center_axis',(0.,0.,-1.));
#789=DIRECTION('ref_axis',(1.,0.,0.));
#790=DIRECTION('',(0.,0.,1.));
#791=DIRECTION('center_axis',(0.,0.,1.));
#792=DIRECTION('ref_axis',(1.,0.,0.));
#793=DIRECTION('center_axis',(1.,-4.21822705870671E-16,0.));
#794=DIRECTION('ref_axis',(0.,0.,-1.));
#795=DIRECTION('',(-4.21822705870671E-16,-1.,0.));
#796=DIRECTION('',(0.,0.,1.));
#797=DIRECTION('',(4.21822705870671E-16,1.,0.));
#798=DIRECTION('center_axis',(0.,0.,1.));
#799=DIRECTION('ref_axis',(0.666666666666667,-0.74535599249993,0.));
#800=DIRECTION('center_axis',(0.,0.,1.));
#801=DIRECTION('ref_axis',(0.666666666666667,-0.74535599249993,0.));
#802=DIRECTION('',(0.,0.,1.));
#803=DIRECTION('center_axis',(0.,0.,-1.));
#804=DIRECTION('ref_axis',(0.666666666666667,-0.74535599249993,0.));
#805=DIRECTION('center_axis',(1.,0.,0.));
#806=DIRECTION('ref_axis',(0.,0.,-1.));
#807=DIRECTION('',(0.,-1.,0.));
#808=DIRECTION('',(0.,1.,0.));
#809=DIRECTION('center_axis',(0.,0.,1.));
#810=DIRECTION('ref_axis',(1.,0.,0.));
#811=DIRECTION('center_axis',(0.,0.,1.));
#812=DIRECTION('ref_axis',(1.,0.,0.));
#813=CARTESIAN_POINT('',(0.,0.,0.));
#814=CARTESIAN_POINT('Origin',(-1.36302526543692E-15,3.,0.));
#815=CARTESIAN_POINT('',(-7.75,3.,50.));
#816=CARTESIAN_POINT('',(7.75,3.,50.));
#817=CARTESIAN_POINT('',(7.75,3.,50.));
#818=CARTESIAN_POINT('',(7.75,3.,0.));
#819=CARTESIAN_POINT('',(7.75,3.,0.));
#820=CARTESIAN_POINT('',(-7.75,3.,0.));
#821=CARTESIAN_POINT('',(-1.36302526543692E-15,3.,0.));
#822=CARTESIAN_POINT('',(-7.75,3.,0.));
#823=CARTESIAN_POINT('Origin',(7.75,3.,0.));
#824=CARTESIAN_POINT('',(7.75,6.38196601125011,50.));
#825=CARTESIAN_POINT('',(7.75,6.38196601125011,50.));
#826=CARTESIAN_POINT('',(7.75,6.38196601125011,0.));
#827=CARTESIAN_POINT('',(7.75,6.38196601125011,0.));
#828=CARTESIAN_POINT('',(7.75,6.38196601125011,0.));
#829=CARTESIAN_POINT('Origin',(6.75,7.5,0.));
#830=CARTESIAN_POINT('',(7.75,8.61803398874989,50.));
#831=CARTESIAN_POINT('Origin',(6.75,7.5,50.));
#832=CARTESIAN_POINT('',(7.75,8.61803398874989,0.));
#833=CARTESIAN_POINT('',(7.75,8.61803398874989,0.));
#834=CARTESIAN_POINT('Origin',(6.75,7.5,0.));
#835=CARTESIAN_POINT('Origin',(7.75,8.61803398874989,0.));
#836=CARTESIAN_POINT('',(7.75,11.25,50.));
#837=CARTESIAN_POINT('',(7.75,11.25,50.));
#838=CARTESIAN_POINT('',(7.75,11.25,0.));
#839=CARTESIAN_POINT('',(7.75,11.25,0.));
#840=CARTESIAN_POINT('',(7.75,11.25,0.));
#841=CARTESIAN_POINT('Origin',(8.5,11.25,0.));
#842=CARTESIAN_POINT('',(9.25,11.25,50.));
#843=CARTESIAN_POINT('Origin',(8.5,11.25,50.));
#844=CARTESIAN_POINT('',(9.25,11.25,0.));
#845=CARTESIAN_POINT('',(9.25,11.25,0.));
#846=CARTESIAN_POINT('Origin',(8.5,11.25,0.));
#847=CARTESIAN_POINT('Origin',(9.25,11.25,0.));
#848=CARTESIAN_POINT('',(9.25000000000001,4.57725465393053,50.));
#849=CARTESIAN_POINT('',(9.25000000000001,4.57725465393053,50.));
#850=CARTESIAN_POINT('',(9.25000000000001,4.57725465393053,0.));
#851=CARTESIAN_POINT('',(9.25000000000001,4.57725465393053,0.));
#852=CARTESIAN_POINT('',(9.25000000000001,4.57725465393053,0.));
#853=CARTESIAN_POINT('Origin',(9.82725465393053,4.57725465393053,0.));
#854=CARTESIAN_POINT('',(10.3332591594355,4.29943749122607,50.));
#855=CARTESIAN_POINT('Origin',(9.82725465393053,4.57725465393053,50.));
#856=CARTESIAN_POINT('',(10.3332591594355,4.29943749122607,0.));
#857=CARTESIAN_POINT('',(10.3332591594355,4.29943749122607,0.));
#858=CARTESIAN_POINT('Origin',(9.82725465393053,4.57725465393053,0.));
#859=CARTESIAN_POINT('Origin',(12.7,3.00000000000001,0.));
#860=CARTESIAN_POINT('',(13.,5.68328157299976,50.));
#861=CARTESIAN_POINT('Origin',(12.7,3.00000000000001,50.));
#862=CARTESIAN_POINT('',(13.,5.68328157299976,0.));
#863=CARTESIAN_POINT('',(13.,5.68328157299976,0.));
#864=CARTESIAN_POINT('Origin',(12.7,3.00000000000001,0.));
#865=CARTESIAN_POINT('Origin',(13.,5.68328157299976,0.));
#866=CARTESIAN_POINT('',(13.,11.25,50.));
#867=CARTESIAN_POINT('',(13.,11.25,50.));
#868=CARTESIAN_POINT('',(13.,11.25,0.));
#869=CARTESIAN_POINT('',(13.,11.25,0.));
#870=CARTESIAN_POINT('',(13.,11.25,0.));
#871=CARTESIAN_POINT('Origin',(13.75,11.25,0.));
#872=CARTESIAN_POINT('',(14.5,11.25,50.));
#873=CARTESIAN_POINT('Origin',(13.75,11.25,50.));
#874=CARTESIAN_POINT('',(14.5,11.25,0.));
#875=CARTESIAN_POINT('',(14.5,11.25,0.));
#876=CARTESIAN_POINT('Origin',(13.75,11.25,0.));
#877=CARTESIAN_POINT('Origin',(14.5,11.25,0.));
#878=CARTESIAN_POINT('',(14.5,4.03923048454142,50.));
#879=CARTESIAN_POINT('',(14.5,4.03923048454142,50.));
#880=CARTESIAN_POINT('',(14.5,4.03923048454142,0.));
#881=CARTESIAN_POINT('',(14.5,4.03923048454142,0.));
#882=CARTESIAN_POINT('',(14.5,4.03923048454142,0.));
#883=CARTESIAN_POINT('Origin',(14.5,4.03923048454142,0.));
#884=CARTESIAN_POINT('',(13.7825317547305,3.62500000000005,50.));
#885=CARTESIAN_POINT('',(13.7825317547305,3.62500000000005,50.));
#886=CARTESIAN_POINT('',(13.7825317547305,3.62500000000005,0.));
#887=CARTESIAN_POINT('',(13.7825317547305,3.62500000000005,0.));
#888=CARTESIAN_POINT('',(13.7825317547305,3.62500000000005,0.));
#889=CARTESIAN_POINT('Origin',(12.7,3.00000000000001,0.));
#890=CARTESIAN_POINT('',(13.3752689462689,1.9480913299127,50.));
#891=CARTESIAN_POINT('Origin',(12.7,3.00000000000001,50.));
#892=CARTESIAN_POINT('',(13.3752689462689,1.9480913299127,0.));
#893=CARTESIAN_POINT('',(13.3752689462689,1.9480913299127,0.));
#894=CARTESIAN_POINT('Origin',(12.7,3.00000000000001,0.));
#895=CARTESIAN_POINT('Origin',(13.3752689462689,1.9480913299127,0.));
#896=CARTESIAN_POINT('',(14.5,0.,50.));
#897=CARTESIAN_POINT('',(14.5,0.,50.));
#898=CARTESIAN_POINT('',(14.5,0.,0.));
#899=CARTESIAN_POINT('',(14.5,0.,0.));
#900=CARTESIAN_POINT('',(14.5,0.,0.));
#901=CARTESIAN_POINT('Origin',(0.,0.,0.));
#902=CARTESIAN_POINT('',(-14.5,0.,50.));
#903=CARTESIAN_POINT('',(-14.5,0.,50.));
#904=CARTESIAN_POINT('',(-14.5,0.,0.));
#905=CARTESIAN_POINT('',(-14.5,0.,0.));
#906=CARTESIAN_POINT('',(-14.5,0.,0.));
#907=CARTESIAN_POINT('Origin',(-14.5,0.,0.));
#908=CARTESIAN_POINT('',(-13.3752689462689,1.94809132991271,50.));
#909=CARTESIAN_POINT('',(-13.3752689462689,1.94809132991271,50.));
#910=CARTESIAN_POINT('',(-13.3752689462689,1.94809132991271,0.));
#911=CARTESIAN_POINT('',(-13.3752689462689,1.94809132991271,0.));
#912=CARTESIAN_POINT('',(-13.3752689462689,1.94809132991271,0.));
#913=CARTESIAN_POINT('Origin',(-12.7,3.00000000000001,0.));
#914=CARTESIAN_POINT('',(-13.7825317547305,3.62500000000004,50.));
#915=CARTESIAN_POINT('Origin',(-12.7,3.00000000000001,50.));
#916=CARTESIAN_POINT('',(-13.7825317547305,3.62500000000004,0.));
#917=CARTESIAN_POINT('',(-13.7825317547305,3.62500000000004,0.));
#918=CARTESIAN_POINT('Origin',(-12.7,3.00000000000001,0.));
#919=CARTESIAN_POINT('Origin',(-13.7825317547305,3.62500000000004,0.));
#920=CARTESIAN_POINT('',(-14.5,4.03923048454141,50.));
#921=CARTESIAN_POINT('',(-14.5,4.03923048454141,50.));
#922=CARTESIAN_POINT('',(-14.5,4.03923048454141,0.));
#923=CARTESIAN_POINT('',(-14.5,4.03923048454141,0.));
#924=CARTESIAN_POINT('',(-14.5,4.03923048454141,0.));
#925=CARTESIAN_POINT('Origin',(-14.5,4.03923048454141,0.));
#926=CARTESIAN_POINT('',(-14.5,11.25,50.));
#927=CARTESIAN_POINT('',(-14.5,11.25,50.));
#928=CARTESIAN_POINT('',(-14.5,11.25,0.));
#929=CARTESIAN_POINT('',(-14.5,11.25,0.));
#930=CARTESIAN_POINT('',(-14.5,11.25,0.));
#931=CARTESIAN_POINT('Origin',(-13.75,11.25,0.));
#932=CARTESIAN_POINT('',(-13.,11.25,50.));
#933=CARTESIAN_POINT('Origin',(-13.75,11.25,50.));
#934=CARTESIAN_POINT('',(-13.,11.25,0.));
#935=CARTESIAN_POINT('',(-13.,11.25,0.));
#936=CARTESIAN_POINT('Origin',(-13.75,11.25,0.));
#937=CARTESIAN_POINT('Origin',(-13.,11.25,0.));
#938=CARTESIAN_POINT('',(-13.,5.68328157299976,50.));
#939=CARTESIAN_POINT('',(-13.,5.68328157299976,50.));
#940=CARTESIAN_POINT('',(-13.,5.68328157299976,0.));
#941=CARTESIAN_POINT('',(-13.,5.68328157299976,0.));
#942=CARTESIAN_POINT('',(-13.,5.68328157299976,0.));
#943=CARTESIAN_POINT('Origin',(-12.7,3.00000000000001,0.));
#944=CARTESIAN_POINT('',(-10.3332591594355,4.29943749122606,50.));
#945=CARTESIAN_POINT('Origin',(-12.7,3.00000000000001,50.));
#946=CARTESIAN_POINT('',(-10.3332591594355,4.29943749122606,0.));
#947=CARTESIAN_POINT('',(-10.3332591594355,4.29943749122606,0.));
#948=CARTESIAN_POINT('Origin',(-12.7,3.00000000000001,0.));
#949=CARTESIAN_POINT('Origin',(-9.82725465393052,4.57725465393053,0.));
#950=CARTESIAN_POINT('',(-9.25,4.57725465393053,50.));
#951=CARTESIAN_POINT('Origin',(-9.82725465393052,4.57725465393053,50.));
#952=CARTESIAN_POINT('',(-9.25,4.57725465393053,0.));
#953=CARTESIAN_POINT('',(-9.25,4.57725465393053,0.));
#954=CARTESIAN_POINT('Origin',(-9.82725465393052,4.57725465393053,0.));
#955=CARTESIAN_POINT('Origin',(-9.25,4.57725465393053,0.));
#956=CARTESIAN_POINT('',(-9.25,11.25,50.));
#957=CARTESIAN_POINT('',(-9.25,11.25,50.));
#958=CARTESIAN_POINT('',(-9.25,11.25,0.));
#959=CARTESIAN_POINT('',(-9.25,11.25,0.));
#960=CARTESIAN_POINT('',(-9.25,11.25,0.));
#961=CARTESIAN_POINT('Origin',(-8.5,11.25,0.));
#962=CARTESIAN_POINT('',(-7.75,11.25,50.));
#963=CARTESIAN_POINT('Origin',(-8.5,11.25,50.));
#964=CARTESIAN_POINT('',(-7.75,11.25,0.));
#965=CARTESIAN_POINT('',(-7.75,11.25,0.));
#966=CARTESIAN_POINT('Origin',(-8.5,11.25,0.));
#967=CARTESIAN_POINT('Origin',(-7.75,11.25,0.));
#968=CARTESIAN_POINT('',(-7.75,8.6180339887499,50.));
#969=CARTESIAN_POINT('',(-7.75,8.6180339887499,50.));
#970=CARTESIAN_POINT('',(-7.75,8.6180339887499,0.));
#971=CARTESIAN_POINT('',(-7.75,8.6180339887499,0.));
#972=CARTESIAN_POINT('',(-7.75,8.6180339887499,0.));
#973=CARTESIAN_POINT('Origin',(-6.75,7.5,0.));
#974=CARTESIAN_POINT('',(-7.75,6.38196601125011,50.));
#975=CARTESIAN_POINT('Origin',(-6.75,7.5,50.));
#976=CARTESIAN_POINT('',(-7.75,6.38196601125011,0.));
#977=CARTESIAN_POINT('',(-7.75,6.38196601125011,0.));
#978=CARTESIAN_POINT('Origin',(-6.75,7.5,0.));
#979=CARTESIAN_POINT('Origin',(-7.75,6.38196601125011,0.));
#980=CARTESIAN_POINT('',(-7.75,3.,50.));
#981=CARTESIAN_POINT('',(-7.75,3.,0.));
#982=CARTESIAN_POINT('Origin',(3.46944695195361E-16,4.96316288315436,0.));
#983=CARTESIAN_POINT('Origin',(2.08166817117217E-16,4.96316288315436,50.));
#984=UNCERTAINTY_MEASURE_WITH_UNIT(LENGTH_MEASURE(0.01),#988,
'DISTANCE_ACCURACY_VALUE',
'Maximum model space distance between geometric entities at asserted c
onnectivities');
#985=UNCERTAINTY_MEASURE_WITH_UNIT(LENGTH_MEASURE(1.E-6),#988,
'DISTANCE_ACCURACY_VALUE',
'Maximum model space distance between geometric entities at asserted c
onnectivities');
#986=(
GEOMETRIC_REPRESENTATION_CONTEXT(3)
GLOBAL_UNCERTAINTY_ASSIGNED_CONTEXT((#984))
GLOBAL_UNIT_ASSIGNED_CONTEXT((#988,#991,#989))
REPRESENTATION_CONTEXT('','3D')
);
#987=(
GEOMETRIC_REPRESENTATION_CONTEXT(3)
GLOBAL_UNCERTAINTY_ASSIGNED_CONTEXT((#985))
GLOBAL_UNIT_ASSIGNED_CONTEXT((#988,#991,#989))
REPRESENTATION_CONTEXT('','3D')
);
#988=(
LENGTH_UNIT()
NAMED_UNIT(*)
SI_UNIT(.MILLI.,.METRE.)
);
#989=(
NAMED_UNIT(*)
SI_UNIT($,.STERADIAN.)
SOLID_ANGLE_UNIT()
);
#990=DIMENSIONAL_EXPONENTS(0.,0.,0.,0.,0.,0.,0.);
#991=(
CONVERSION_BASED_UNIT('degree',#993)
NAMED_UNIT(#990)
PLANE_ANGLE_UNIT()
);
#992=(
NAMED_UNIT(*)
PLANE_ANGLE_UNIT()
SI_UNIT($,.RADIAN.)
);
#993=PLANE_ANGLE_MEASURE_WITH_UNIT(PLANE_ANGLE_MEASURE(0.01745329252),#992);
#994=SHAPE_DEFINITION_REPRESENTATION(#995,#996);
#995=PRODUCT_DEFINITION_SHAPE('',$,#998);
#996=SHAPE_REPRESENTATION('',(#588),#986);
#997=PRODUCT_DEFINITION_CONTEXT('part definition',#1002,'design');
#998=PRODUCT_DEFINITION('001015074','001015074',#999,#997);
#999=PRODUCT_DEFINITION_FORMATION('','01',#1004);
#1000=PRODUCT_RELATED_PRODUCT_CATEGORY('001015074','001015074',(#1004));
#1001=APPLICATION_PROTOCOL_DEFINITION('international standard',
'automotive_design',2009,#1002);
#1002=APPLICATION_CONTEXT(
'Core Data for Automotive Mechanical Design Process');
#1003=PRODUCT_CONTEXT('part definition',#1002,'mechanical');
#1004=PRODUCT('001015074','001015074',$,(#1003));
#1005=PRESENTATION_STYLE_ASSIGNMENT((#1006));
#1006=SURFACE_STYLE_USAGE(.BOTH.,#1007);
#1007=SURFACE_SIDE_STYLE('',(#1008));
#1008=SURFACE_STYLE_FILL_AREA(#1009);
#1009=FILL_AREA_STYLE('',(#1010));
#1010=FILL_AREA_STYLE_COLOUR('',#1011);
#1011=COLOUR_RGB('',0.63921568627451,0.63921568627451,0.686274509803922);
ENDSEC;
END-ISO-10303-21;
