ISO-10303-21;
HEADER;
FILE_DESCRIPTION(('FreeCAD Model'),'2;1');
FILE_NAME('/home/jh/Documents/EE-Projekte/kicad/my3d/VSMB10940.step',
  '2021-10-04T20:16:26',('Author'),(''),
  'Open CASCADE STEP processor 7.3','FreeCAD','Unknown');
FILE_SCHEMA(('AUTOMOTIVE_DESIGN { 1 0 10303 214 1 1 1 1 }'));
ENDSEC;
DATA;
#1 = APPLICATION_PROTOCOL_DEFINITION('international standard',
  'automotive_design',2000,#2);
#2 = APPLICATION_CONTEXT(
  'core data for automotive mechanical design processes');
#3 = SHAPE_DEFINITION_REPRESENTATION(#4,#10);
#4 = PRODUCT_DEFINITION_SHAPE('','',#5);
#5 = PRODUCT_DEFINITION('design','',#6,#9);
#6 = PRODUCT_DEFINITION_FORMATION('','',#7);
#7 = PRODUCT('cube','cube','',(#8));
#8 = PRODUCT_CONTEXT('',#2,'mechanical');
#9 = PRODUCT_DEFINITION_CONTEXT('part definition',#2,'design');
#10 = ADVANCED_BREP_SHAPE_REPRESENTATION('',(#11,#15),#165);
#11 = AXIS2_PLACEMENT_3D('',#12,#13,#14);
#12 = CARTESIAN_POINT('',(0.,0.,0.));
#13 = DIRECTION('',(0.,0.,1.));
#14 = DIRECTION('',(1.,0.,-0.));
#15 = MANIFOLD_SOLID_BREP('',#16);
#16 = CLOSED_SHELL('',(#17,#57,#97,#119,#141,#153));
#17 = ADVANCED_FACE('',(#18),#52,.F.);
#18 = FACE_BOUND('',#19,.F.);
#19 = EDGE_LOOP('',(#20,#30,#38,#46));
#20 = ORIENTED_EDGE('',*,*,#21,.F.);
#21 = EDGE_CURVE('',#22,#24,#26,.T.);
#22 = VERTEX_POINT('',#23);
#23 = CARTESIAN_POINT('',(0.,0.,0.));
#24 = VERTEX_POINT('',#25);
#25 = CARTESIAN_POINT('',(0.,0.,1.));
#26 = LINE('',#27,#28);
#27 = CARTESIAN_POINT('',(0.,0.,0.));
#28 = VECTOR('',#29,1.);
#29 = DIRECTION('',(0.,0.,1.));
#30 = ORIENTED_EDGE('',*,*,#31,.T.);
#31 = EDGE_CURVE('',#22,#32,#34,.T.);
#32 = VERTEX_POINT('',#33);
#33 = CARTESIAN_POINT('',(0.,1.,0.));
#34 = LINE('',#35,#36);
#35 = CARTESIAN_POINT('',(0.,0.,0.));
#36 = VECTOR('',#37,1.);
#37 = DIRECTION('',(0.,1.,0.));
#38 = ORIENTED_EDGE('',*,*,#39,.T.);
#39 = EDGE_CURVE('',#32,#40,#42,.T.);
#40 = VERTEX_POINT('',#41);
#41 = CARTESIAN_POINT('',(0.,1.,1.));
#42 = LINE('',#43,#44);
#43 = CARTESIAN_POINT('',(0.,1.,0.));
#44 = VECTOR('',#45,1.);
#45 = DIRECTION('',(0.,0.,1.));
#46 = ORIENTED_EDGE('',*,*,#47,.F.);
#47 = EDGE_CURVE('',#24,#40,#48,.T.);
#48 = LINE('',#49,#50);
#49 = CARTESIAN_POINT('',(0.,0.,1.));
#50 = VECTOR('',#51,1.);
#51 = DIRECTION('',(0.,1.,0.));
#52 = PLANE('',#53);
#53 = AXIS2_PLACEMENT_3D('',#54,#55,#56);
#54 = CARTESIAN_POINT('',(0.,0.,0.));
#55 = DIRECTION('',(1.,0.,0.));
#56 = DIRECTION('',(0.,0.,1.));
#57 = ADVANCED_FACE('',(#58),#92,.T.);
#58 = FACE_BOUND('',#59,.T.);
#59 = EDGE_LOOP('',(#60,#70,#78,#86));
#60 = ORIENTED_EDGE('',*,*,#61,.F.);
#61 = EDGE_CURVE('',#62,#64,#66,.T.);
#62 = VERTEX_POINT('',#63);
#63 = CARTESIAN_POINT('',(3.,0.,0.));
#64 = VERTEX_POINT('',#65);
#65 = CARTESIAN_POINT('',(3.,0.,1.));
#66 = LINE('',#67,#68);
#67 = CARTESIAN_POINT('',(3.,0.,0.));
#68 = VECTOR('',#69,1.);
#69 = DIRECTION('',(0.,0.,1.));
#70 = ORIENTED_EDGE('',*,*,#71,.T.);
#71 = EDGE_CURVE('',#62,#72,#74,.T.);
#72 = VERTEX_POINT('',#73);
#73 = CARTESIAN_POINT('',(3.,1.,0.));
#74 = LINE('',#75,#76);
#75 = CARTESIAN_POINT('',(3.,0.,0.));
#76 = VECTOR('',#77,1.);
#77 = DIRECTION('',(0.,1.,0.));
#78 = ORIENTED_EDGE('',*,*,#79,.T.);
#79 = EDGE_CURVE('',#72,#80,#82,.T.);
#80 = VERTEX_POINT('',#81);
#81 = CARTESIAN_POINT('',(3.,1.,1.));
#82 = LINE('',#83,#84);
#83 = CARTESIAN_POINT('',(3.,1.,0.));
#84 = VECTOR('',#85,1.);
#85 = DIRECTION('',(0.,0.,1.));
#86 = ORIENTED_EDGE('',*,*,#87,.F.);
#87 = EDGE_CURVE('',#64,#80,#88,.T.);
#88 = LINE('',#89,#90);
#89 = CARTESIAN_POINT('',(3.,0.,1.));
#90 = VECTOR('',#91,1.);
#91 = DIRECTION('',(0.,1.,0.));
#92 = PLANE('',#93);
#93 = AXIS2_PLACEMENT_3D('',#94,#95,#96);
#94 = CARTESIAN_POINT('',(3.,0.,0.));
#95 = DIRECTION('',(1.,0.,0.));
#96 = DIRECTION('',(0.,0.,1.));
#97 = ADVANCED_FACE('',(#98),#114,.F.);
#98 = FACE_BOUND('',#99,.F.);
#99 = EDGE_LOOP('',(#100,#106,#107,#113));
#100 = ORIENTED_EDGE('',*,*,#101,.F.);
#101 = EDGE_CURVE('',#22,#62,#102,.T.);
#102 = LINE('',#103,#104);
#103 = CARTESIAN_POINT('',(0.,0.,0.));
#104 = VECTOR('',#105,1.);
#105 = DIRECTION('',(1.,0.,0.));
#106 = ORIENTED_EDGE('',*,*,#21,.T.);
#107 = ORIENTED_EDGE('',*,*,#108,.T.);
#108 = EDGE_CURVE('',#24,#64,#109,.T.);
#109 = LINE('',#110,#111);
#110 = CARTESIAN_POINT('',(0.,0.,1.));
#111 = VECTOR('',#112,1.);
#112 = DIRECTION('',(1.,0.,0.));
#113 = ORIENTED_EDGE('',*,*,#61,.F.);
#114 = PLANE('',#115);
#115 = AXIS2_PLACEMENT_3D('',#116,#117,#118);
#116 = CARTESIAN_POINT('',(0.,0.,0.));
#117 = DIRECTION('',(0.,1.,0.));
#118 = DIRECTION('',(0.,0.,1.));
#119 = ADVANCED_FACE('',(#120),#136,.T.);
#120 = FACE_BOUND('',#121,.T.);
#121 = EDGE_LOOP('',(#122,#128,#129,#135));
#122 = ORIENTED_EDGE('',*,*,#123,.F.);
#123 = EDGE_CURVE('',#32,#72,#124,.T.);
#124 = LINE('',#125,#126);
#125 = CARTESIAN_POINT('',(0.,1.,0.));
#126 = VECTOR('',#127,1.);
#127 = DIRECTION('',(1.,0.,0.));
#128 = ORIENTED_EDGE('',*,*,#39,.T.);
#129 = ORIENTED_EDGE('',*,*,#130,.T.);
#130 = EDGE_CURVE('',#40,#80,#131,.T.);
#131 = LINE('',#132,#133);
#132 = CARTESIAN_POINT('',(0.,1.,1.));
#133 = VECTOR('',#134,1.);
#134 = DIRECTION('',(1.,0.,0.));
#135 = ORIENTED_EDGE('',*,*,#79,.F.);
#136 = PLANE('',#137);
#137 = AXIS2_PLACEMENT_3D('',#138,#139,#140);
#138 = CARTESIAN_POINT('',(0.,1.,0.));
#139 = DIRECTION('',(0.,1.,0.));
#140 = DIRECTION('',(0.,0.,1.));
#141 = ADVANCED_FACE('',(#142),#148,.F.);
#142 = FACE_BOUND('',#143,.F.);
#143 = EDGE_LOOP('',(#144,#145,#146,#147));
#144 = ORIENTED_EDGE('',*,*,#31,.F.);
#145 = ORIENTED_EDGE('',*,*,#101,.T.);
#146 = ORIENTED_EDGE('',*,*,#71,.T.);
#147 = ORIENTED_EDGE('',*,*,#123,.F.);
#148 = PLANE('',#149);
#149 = AXIS2_PLACEMENT_3D('',#150,#151,#152);
#150 = CARTESIAN_POINT('',(0.,0.,0.));
#151 = DIRECTION('',(0.,0.,1.));
#152 = DIRECTION('',(1.,0.,0.));
#153 = ADVANCED_FACE('',(#154),#160,.T.);
#154 = FACE_BOUND('',#155,.T.);
#155 = EDGE_LOOP('',(#156,#157,#158,#159));
#156 = ORIENTED_EDGE('',*,*,#47,.F.);
#157 = ORIENTED_EDGE('',*,*,#108,.T.);
#158 = ORIENTED_EDGE('',*,*,#87,.T.);
#159 = ORIENTED_EDGE('',*,*,#130,.F.);
#160 = PLANE('',#161);
#161 = AXIS2_PLACEMENT_3D('',#162,#163,#164);
#162 = CARTESIAN_POINT('',(0.,0.,1.));
#163 = DIRECTION('',(0.,0.,1.));
#164 = DIRECTION('',(1.,0.,0.));
#165 = ( GEOMETRIC_REPRESENTATION_CONTEXT(3) 
GLOBAL_UNCERTAINTY_ASSIGNED_CONTEXT((#169)) GLOBAL_UNIT_ASSIGNED_CONTEXT
((#166,#167,#168)) REPRESENTATION_CONTEXT('Context #1',
  '3D Context with UNIT and UNCERTAINTY') );
#166 = ( LENGTH_UNIT() NAMED_UNIT(*) SI_UNIT(.MILLI.,.METRE.) );
#167 = ( NAMED_UNIT(*) PLANE_ANGLE_UNIT() SI_UNIT($,.RADIAN.) );
#168 = ( NAMED_UNIT(*) SI_UNIT($,.STERADIAN.) SOLID_ANGLE_UNIT() );
#169 = UNCERTAINTY_MEASURE_WITH_UNIT(LENGTH_MEASURE(1.E-07),#166,
  'distance_accuracy_value','confusion accuracy');
#170 = PRODUCT_RELATED_PRODUCT_CATEGORY('part',$,(#7));
#171 = SHAPE_DEFINITION_REPRESENTATION(#172,#178);
#172 = PRODUCT_DEFINITION_SHAPE('','',#173);
#173 = PRODUCT_DEFINITION('design','',#174,#177);
#174 = PRODUCT_DEFINITION_FORMATION('','',#175);
#175 = PRODUCT('cylinder','cylinder','',(#176));
#176 = PRODUCT_CONTEXT('',#2,'mechanical');
#177 = PRODUCT_DEFINITION_CONTEXT('part definition',#2,'design');
#178 = ADVANCED_BREP_SHAPE_REPRESENTATION('',(#11,#179),#232);
#179 = MANIFOLD_SOLID_BREP('',#180);
#180 = CLOSED_SHELL('',(#181,#214,#223));
#181 = ADVANCED_FACE('',(#182),#209,.T.);
#182 = FACE_BOUND('',#183,.T.);
#183 = EDGE_LOOP('',(#184,#193,#201,#208));
#184 = ORIENTED_EDGE('',*,*,#185,.F.);
#185 = EDGE_CURVE('',#186,#186,#188,.T.);
#186 = VERTEX_POINT('',#187);
#187 = CARTESIAN_POINT('',(2.499,-2.446844304696E-16,0.999));
#188 = CIRCLE('',#189,0.999);
#189 = AXIS2_PLACEMENT_3D('',#190,#191,#192);
#190 = CARTESIAN_POINT('',(1.5,0.,0.999));
#191 = DIRECTION('',(0.,0.,1.));
#192 = DIRECTION('',(1.,0.,0.));
#193 = ORIENTED_EDGE('',*,*,#194,.F.);
#194 = EDGE_CURVE('',#195,#186,#197,.T.);
#195 = VERTEX_POINT('',#196);
#196 = CARTESIAN_POINT('',(2.499,-2.446844304696E-16,1.E-03));
#197 = LINE('',#198,#199);
#198 = CARTESIAN_POINT('',(2.499,-2.446844304696E-16,1.E-03));
#199 = VECTOR('',#200,1.);
#200 = DIRECTION('',(0.,0.,1.));
#201 = ORIENTED_EDGE('',*,*,#202,.T.);
#202 = EDGE_CURVE('',#195,#195,#203,.T.);
#203 = CIRCLE('',#204,0.999);
#204 = AXIS2_PLACEMENT_3D('',#205,#206,#207);
#205 = CARTESIAN_POINT('',(1.5,0.,1.E-03));
#206 = DIRECTION('',(0.,0.,1.));
#207 = DIRECTION('',(1.,0.,0.));
#208 = ORIENTED_EDGE('',*,*,#194,.T.);
#209 = CYLINDRICAL_SURFACE('',#210,0.999);
#210 = AXIS2_PLACEMENT_3D('',#211,#212,#213);
#211 = CARTESIAN_POINT('',(1.5,0.,1.E-03));
#212 = DIRECTION('',(0.,0.,1.));
#213 = DIRECTION('',(1.,0.,0.));
#214 = ADVANCED_FACE('',(#215),#218,.T.);
#215 = FACE_BOUND('',#216,.T.);
#216 = EDGE_LOOP('',(#217));
#217 = ORIENTED_EDGE('',*,*,#185,.T.);
#218 = PLANE('',#219);
#219 = AXIS2_PLACEMENT_3D('',#220,#221,#222);
#220 = CARTESIAN_POINT('',(1.5,0.,0.999));
#221 = DIRECTION('',(0.,0.,1.));
#222 = DIRECTION('',(1.,0.,0.));
#223 = ADVANCED_FACE('',(#224),#227,.F.);
#224 = FACE_BOUND('',#225,.T.);
#225 = EDGE_LOOP('',(#226));
#226 = ORIENTED_EDGE('',*,*,#202,.F.);
#227 = PLANE('',#228);
#228 = AXIS2_PLACEMENT_3D('',#229,#230,#231);
#229 = CARTESIAN_POINT('',(1.5,0.,1.E-03));
#230 = DIRECTION('',(0.,0.,1.));
#231 = DIRECTION('',(1.,0.,0.));
#232 = ( GEOMETRIC_REPRESENTATION_CONTEXT(3) 
GLOBAL_UNCERTAINTY_ASSIGNED_CONTEXT((#236)) GLOBAL_UNIT_ASSIGNED_CONTEXT
((#233,#234,#235)) REPRESENTATION_CONTEXT('Context #1',
  '3D Context with UNIT and UNCERTAINTY') );
#233 = ( LENGTH_UNIT() NAMED_UNIT(*) SI_UNIT(.MILLI.,.METRE.) );
#234 = ( NAMED_UNIT(*) PLANE_ANGLE_UNIT() SI_UNIT($,.RADIAN.) );
#235 = ( NAMED_UNIT(*) SI_UNIT($,.STERADIAN.) SOLID_ANGLE_UNIT() );
#236 = UNCERTAINTY_MEASURE_WITH_UNIT(LENGTH_MEASURE(1.E-07),#233,
  'distance_accuracy_value','confusion accuracy');
#237 = PRODUCT_RELATED_PRODUCT_CATEGORY('part',$,(#175));
#238 = SHAPE_DEFINITION_REPRESENTATION(#239,#245);
#239 = PRODUCT_DEFINITION_SHAPE('','',#240);
#240 = PRODUCT_DEFINITION('design','',#241,#244);
#241 = PRODUCT_DEFINITION_FORMATION('','',#242);
#242 = PRODUCT('cube003','cube003','',(#243));
#243 = PRODUCT_CONTEXT('',#2,'mechanical');
#244 = PRODUCT_DEFINITION_CONTEXT('part definition',#2,'design');
#245 = ADVANCED_BREP_SHAPE_REPRESENTATION('',(#11,#246),#396);
#246 = MANIFOLD_SOLID_BREP('',#247);
#247 = CLOSED_SHELL('',(#248,#288,#328,#350,#372,#384));
#248 = ADVANCED_FACE('',(#249),#283,.F.);
#249 = FACE_BOUND('',#250,.F.);
#250 = EDGE_LOOP('',(#251,#261,#269,#277));
#251 = ORIENTED_EDGE('',*,*,#252,.F.);
#252 = EDGE_CURVE('',#253,#255,#257,.T.);
#253 = VERTEX_POINT('',#254);
#254 = CARTESIAN_POINT('',(-1.E-03,1.E-03,-1.E-03));
#255 = VERTEX_POINT('',#256);
#256 = CARTESIAN_POINT('',(-1.E-03,1.E-03,1.001));
#257 = LINE('',#258,#259);
#258 = CARTESIAN_POINT('',(-1.E-03,1.E-03,-1.E-03));
#259 = VECTOR('',#260,1.);
#260 = DIRECTION('',(0.,0.,1.));
#261 = ORIENTED_EDGE('',*,*,#262,.T.);
#262 = EDGE_CURVE('',#253,#263,#265,.T.);
#263 = VERTEX_POINT('',#264);
#264 = CARTESIAN_POINT('',(-1.E-03,1.003,-1.E-03));
#265 = LINE('',#266,#267);
#266 = CARTESIAN_POINT('',(-1.E-03,1.E-03,-1.E-03));
#267 = VECTOR('',#268,1.);
#268 = DIRECTION('',(0.,1.,0.));
#269 = ORIENTED_EDGE('',*,*,#270,.T.);
#270 = EDGE_CURVE('',#263,#271,#273,.T.);
#271 = VERTEX_POINT('',#272);
#272 = CARTESIAN_POINT('',(-1.E-03,1.003,1.001));
#273 = LINE('',#274,#275);
#274 = CARTESIAN_POINT('',(-1.E-03,1.003,-1.E-03));
#275 = VECTOR('',#276,1.);
#276 = DIRECTION('',(0.,0.,1.));
#277 = ORIENTED_EDGE('',*,*,#278,.F.);
#278 = EDGE_CURVE('',#255,#271,#279,.T.);
#279 = LINE('',#280,#281);
#280 = CARTESIAN_POINT('',(-1.E-03,1.E-03,1.001));
#281 = VECTOR('',#282,1.);
#282 = DIRECTION('',(0.,1.,0.));
#283 = PLANE('',#284);
#284 = AXIS2_PLACEMENT_3D('',#285,#286,#287);
#285 = CARTESIAN_POINT('',(-1.E-03,1.E-03,-1.E-03));
#286 = DIRECTION('',(1.,0.,0.));
#287 = DIRECTION('',(0.,0.,1.));
#288 = ADVANCED_FACE('',(#289),#323,.T.);
#289 = FACE_BOUND('',#290,.T.);
#290 = EDGE_LOOP('',(#291,#301,#309,#317));
#291 = ORIENTED_EDGE('',*,*,#292,.F.);
#292 = EDGE_CURVE('',#293,#295,#297,.T.);
#293 = VERTEX_POINT('',#294);
#294 = CARTESIAN_POINT('',(0.1,1.E-03,-1.E-03));
#295 = VERTEX_POINT('',#296);
#296 = CARTESIAN_POINT('',(0.1,1.E-03,1.001));
#297 = LINE('',#298,#299);
#298 = CARTESIAN_POINT('',(0.1,1.E-03,-1.E-03));
#299 = VECTOR('',#300,1.);
#300 = DIRECTION('',(0.,0.,1.));
#301 = ORIENTED_EDGE('',*,*,#302,.T.);
#302 = EDGE_CURVE('',#293,#303,#305,.T.);
#303 = VERTEX_POINT('',#304);
#304 = CARTESIAN_POINT('',(0.1,1.003,-1.E-03));
#305 = LINE('',#306,#307);
#306 = CARTESIAN_POINT('',(0.1,1.E-03,-1.E-03));
#307 = VECTOR('',#308,1.);
#308 = DIRECTION('',(0.,1.,0.));
#309 = ORIENTED_EDGE('',*,*,#310,.T.);
#310 = EDGE_CURVE('',#303,#311,#313,.T.);
#311 = VERTEX_POINT('',#312);
#312 = CARTESIAN_POINT('',(0.1,1.003,1.001));
#313 = LINE('',#314,#315);
#314 = CARTESIAN_POINT('',(0.1,1.003,-1.E-03));
#315 = VECTOR('',#316,1.);
#316 = DIRECTION('',(0.,0.,1.));
#317 = ORIENTED_EDGE('',*,*,#318,.F.);
#318 = EDGE_CURVE('',#295,#311,#319,.T.);
#319 = LINE('',#320,#321);
#320 = CARTESIAN_POINT('',(0.1,1.E-03,1.001));
#321 = VECTOR('',#322,1.);
#322 = DIRECTION('',(0.,1.,0.));
#323 = PLANE('',#324);
#324 = AXIS2_PLACEMENT_3D('',#325,#326,#327);
#325 = CARTESIAN_POINT('',(0.1,1.E-03,-1.E-03));
#326 = DIRECTION('',(1.,0.,0.));
#327 = DIRECTION('',(0.,0.,1.));
#328 = ADVANCED_FACE('',(#329),#345,.F.);
#329 = FACE_BOUND('',#330,.F.);
#330 = EDGE_LOOP('',(#331,#337,#338,#344));
#331 = ORIENTED_EDGE('',*,*,#332,.F.);
#332 = EDGE_CURVE('',#253,#293,#333,.T.);
#333 = LINE('',#334,#335);
#334 = CARTESIAN_POINT('',(-1.E-03,1.E-03,-1.E-03));
#335 = VECTOR('',#336,1.);
#336 = DIRECTION('',(1.,0.,0.));
#337 = ORIENTED_EDGE('',*,*,#252,.T.);
#338 = ORIENTED_EDGE('',*,*,#339,.T.);
#339 = EDGE_CURVE('',#255,#295,#340,.T.);
#340 = LINE('',#341,#342);
#341 = CARTESIAN_POINT('',(-1.E-03,1.E-03,1.001));
#342 = VECTOR('',#343,1.);
#343 = DIRECTION('',(1.,0.,0.));
#344 = ORIENTED_EDGE('',*,*,#292,.F.);
#345 = PLANE('',#346);
#346 = AXIS2_PLACEMENT_3D('',#347,#348,#349);
#347 = CARTESIAN_POINT('',(-1.E-03,1.E-03,-1.E-03));
#348 = DIRECTION('',(0.,1.,0.));
#349 = DIRECTION('',(0.,0.,1.));
#350 = ADVANCED_FACE('',(#351),#367,.T.);
#351 = FACE_BOUND('',#352,.T.);
#352 = EDGE_LOOP('',(#353,#359,#360,#366));
#353 = ORIENTED_EDGE('',*,*,#354,.F.);
#354 = EDGE_CURVE('',#263,#303,#355,.T.);
#355 = LINE('',#356,#357);
#356 = CARTESIAN_POINT('',(-1.E-03,1.003,-1.E-03));
#357 = VECTOR('',#358,1.);
#358 = DIRECTION('',(1.,0.,0.));
#359 = ORIENTED_EDGE('',*,*,#270,.T.);
#360 = ORIENTED_EDGE('',*,*,#361,.T.);
#361 = EDGE_CURVE('',#271,#311,#362,.T.);
#362 = LINE('',#363,#364);
#363 = CARTESIAN_POINT('',(-1.E-03,1.003,1.001));
#364 = VECTOR('',#365,1.);
#365 = DIRECTION('',(1.,0.,0.));
#366 = ORIENTED_EDGE('',*,*,#310,.F.);
#367 = PLANE('',#368);
#368 = AXIS2_PLACEMENT_3D('',#369,#370,#371);
#369 = CARTESIAN_POINT('',(-1.E-03,1.003,-1.E-03));
#370 = DIRECTION('',(0.,1.,0.));
#371 = DIRECTION('',(0.,0.,1.));
#372 = ADVANCED_FACE('',(#373),#379,.F.);
#373 = FACE_BOUND('',#374,.F.);
#374 = EDGE_LOOP('',(#375,#376,#377,#378));
#375 = ORIENTED_EDGE('',*,*,#262,.F.);
#376 = ORIENTED_EDGE('',*,*,#332,.T.);
#377 = ORIENTED_EDGE('',*,*,#302,.T.);
#378 = ORIENTED_EDGE('',*,*,#354,.F.);
#379 = PLANE('',#380);
#380 = AXIS2_PLACEMENT_3D('',#381,#382,#383);
#381 = CARTESIAN_POINT('',(-1.E-03,1.E-03,-1.E-03));
#382 = DIRECTION('',(0.,0.,1.));
#383 = DIRECTION('',(1.,0.,0.));
#384 = ADVANCED_FACE('',(#385),#391,.T.);
#385 = FACE_BOUND('',#386,.T.);
#386 = EDGE_LOOP('',(#387,#388,#389,#390));
#387 = ORIENTED_EDGE('',*,*,#278,.F.);
#388 = ORIENTED_EDGE('',*,*,#339,.T.);
#389 = ORIENTED_EDGE('',*,*,#318,.T.);
#390 = ORIENTED_EDGE('',*,*,#361,.F.);
#391 = PLANE('',#392);
#392 = AXIS2_PLACEMENT_3D('',#393,#394,#395);
#393 = CARTESIAN_POINT('',(-1.E-03,1.E-03,1.001));
#394 = DIRECTION('',(0.,0.,1.));
#395 = DIRECTION('',(1.,0.,0.));
#396 = ( GEOMETRIC_REPRESENTATION_CONTEXT(3) 
GLOBAL_UNCERTAINTY_ASSIGNED_CONTEXT((#400)) GLOBAL_UNIT_ASSIGNED_CONTEXT
((#397,#398,#399)) REPRESENTATION_CONTEXT('Context #1',
  '3D Context with UNIT and UNCERTAINTY') );
#397 = ( LENGTH_UNIT() NAMED_UNIT(*) SI_UNIT(.MILLI.,.METRE.) );
#398 = ( NAMED_UNIT(*) PLANE_ANGLE_UNIT() SI_UNIT($,.RADIAN.) );
#399 = ( NAMED_UNIT(*) SI_UNIT($,.STERADIAN.) SOLID_ANGLE_UNIT() );
#400 = UNCERTAINTY_MEASURE_WITH_UNIT(LENGTH_MEASURE(1.E-07),#397,
  'distance_accuracy_value','confusion accuracy');
#401 = PRODUCT_RELATED_PRODUCT_CATEGORY('part',$,(#242));
#402 = SHAPE_DEFINITION_REPRESENTATION(#403,#409);
#403 = PRODUCT_DEFINITION_SHAPE('','',#404);
#404 = PRODUCT_DEFINITION('design','',#405,#408);
#405 = PRODUCT_DEFINITION_FORMATION('','',#406);
#406 = PRODUCT('cube004','cube004','',(#407));
#407 = PRODUCT_CONTEXT('',#2,'mechanical');
#408 = PRODUCT_DEFINITION_CONTEXT('part definition',#2,'design');
#409 = ADVANCED_BREP_SHAPE_REPRESENTATION('',(#11,#410),#560);
#410 = MANIFOLD_SOLID_BREP('',#411);
#411 = CLOSED_SHELL('',(#412,#452,#492,#514,#536,#548));
#412 = ADVANCED_FACE('',(#413),#447,.F.);
#413 = FACE_BOUND('',#414,.F.);
#414 = EDGE_LOOP('',(#415,#425,#433,#441));
#415 = ORIENTED_EDGE('',*,*,#416,.F.);
#416 = EDGE_CURVE('',#417,#419,#421,.T.);
#417 = VERTEX_POINT('',#418);
#418 = CARTESIAN_POINT('',(-1.E-03,0.901,-1.E-03));
#419 = VERTEX_POINT('',#420);
#420 = CARTESIAN_POINT('',(-1.E-03,0.901,1.001));
#421 = LINE('',#422,#423);
#422 = CARTESIAN_POINT('',(-1.E-03,0.901,-1.E-03));
#423 = VECTOR('',#424,1.);
#424 = DIRECTION('',(0.,0.,1.));
#425 = ORIENTED_EDGE('',*,*,#426,.T.);
#426 = EDGE_CURVE('',#417,#427,#429,.T.);
#427 = VERTEX_POINT('',#428);
#428 = CARTESIAN_POINT('',(-1.E-03,1.001,-1.E-03));
#429 = LINE('',#430,#431);
#430 = CARTESIAN_POINT('',(-1.E-03,0.901,-1.E-03));
#431 = VECTOR('',#432,1.);
#432 = DIRECTION('',(0.,1.,0.));
#433 = ORIENTED_EDGE('',*,*,#434,.T.);
#434 = EDGE_CURVE('',#427,#435,#437,.T.);
#435 = VERTEX_POINT('',#436);
#436 = CARTESIAN_POINT('',(-1.E-03,1.001,1.001));
#437 = LINE('',#438,#439);
#438 = CARTESIAN_POINT('',(-1.E-03,1.001,-1.E-03));
#439 = VECTOR('',#440,1.);
#440 = DIRECTION('',(0.,0.,1.));
#441 = ORIENTED_EDGE('',*,*,#442,.F.);
#442 = EDGE_CURVE('',#419,#435,#443,.T.);
#443 = LINE('',#444,#445);
#444 = CARTESIAN_POINT('',(-1.E-03,0.901,1.001));
#445 = VECTOR('',#446,1.);
#446 = DIRECTION('',(0.,1.,0.));
#447 = PLANE('',#448);
#448 = AXIS2_PLACEMENT_3D('',#449,#450,#451);
#449 = CARTESIAN_POINT('',(-1.E-03,0.901,-1.E-03));
#450 = DIRECTION('',(1.,0.,0.));
#451 = DIRECTION('',(0.,0.,1.));
#452 = ADVANCED_FACE('',(#453),#487,.T.);
#453 = FACE_BOUND('',#454,.T.);
#454 = EDGE_LOOP('',(#455,#465,#473,#481));
#455 = ORIENTED_EDGE('',*,*,#456,.F.);
#456 = EDGE_CURVE('',#457,#459,#461,.T.);
#457 = VERTEX_POINT('',#458);
#458 = CARTESIAN_POINT('',(0.401,0.901,-1.E-03));
#459 = VERTEX_POINT('',#460);
#460 = CARTESIAN_POINT('',(0.401,0.901,1.001));
#461 = LINE('',#462,#463);
#462 = CARTESIAN_POINT('',(0.401,0.901,-1.E-03));
#463 = VECTOR('',#464,1.);
#464 = DIRECTION('',(0.,0.,1.));
#465 = ORIENTED_EDGE('',*,*,#466,.T.);
#466 = EDGE_CURVE('',#457,#467,#469,.T.);
#467 = VERTEX_POINT('',#468);
#468 = CARTESIAN_POINT('',(0.401,1.001,-1.E-03));
#469 = LINE('',#470,#471);
#470 = CARTESIAN_POINT('',(0.401,0.901,-1.E-03));
#471 = VECTOR('',#472,1.);
#472 = DIRECTION('',(0.,1.,0.));
#473 = ORIENTED_EDGE('',*,*,#474,.T.);
#474 = EDGE_CURVE('',#467,#475,#477,.T.);
#475 = VERTEX_POINT('',#476);
#476 = CARTESIAN_POINT('',(0.401,1.001,1.001));
#477 = LINE('',#478,#479);
#478 = CARTESIAN_POINT('',(0.401,1.001,-1.E-03));
#479 = VECTOR('',#480,1.);
#480 = DIRECTION('',(0.,0.,1.));
#481 = ORIENTED_EDGE('',*,*,#482,.F.);
#482 = EDGE_CURVE('',#459,#475,#483,.T.);
#483 = LINE('',#484,#485);
#484 = CARTESIAN_POINT('',(0.401,0.901,1.001));
#485 = VECTOR('',#486,1.);
#486 = DIRECTION('',(0.,1.,0.));
#487 = PLANE('',#488);
#488 = AXIS2_PLACEMENT_3D('',#489,#490,#491);
#489 = CARTESIAN_POINT('',(0.401,0.901,-1.E-03));
#490 = DIRECTION('',(1.,0.,0.));
#491 = DIRECTION('',(0.,0.,1.));
#492 = ADVANCED_FACE('',(#493),#509,.F.);
#493 = FACE_BOUND('',#494,.F.);
#494 = EDGE_LOOP('',(#495,#501,#502,#508));
#495 = ORIENTED_EDGE('',*,*,#496,.F.);
#496 = EDGE_CURVE('',#417,#457,#497,.T.);
#497 = LINE('',#498,#499);
#498 = CARTESIAN_POINT('',(-1.E-03,0.901,-1.E-03));
#499 = VECTOR('',#500,1.);
#500 = DIRECTION('',(1.,0.,0.));
#501 = ORIENTED_EDGE('',*,*,#416,.T.);
#502 = ORIENTED_EDGE('',*,*,#503,.T.);
#503 = EDGE_CURVE('',#419,#459,#504,.T.);
#504 = LINE('',#505,#506);
#505 = CARTESIAN_POINT('',(-1.E-03,0.901,1.001));
#506 = VECTOR('',#507,1.);
#507 = DIRECTION('',(1.,0.,0.));
#508 = ORIENTED_EDGE('',*,*,#456,.F.);
#509 = PLANE('',#510);
#510 = AXIS2_PLACEMENT_3D('',#511,#512,#513);
#511 = CARTESIAN_POINT('',(-1.E-03,0.901,-1.E-03));
#512 = DIRECTION('',(0.,1.,0.));
#513 = DIRECTION('',(0.,0.,1.));
#514 = ADVANCED_FACE('',(#515),#531,.T.);
#515 = FACE_BOUND('',#516,.T.);
#516 = EDGE_LOOP('',(#517,#523,#524,#530));
#517 = ORIENTED_EDGE('',*,*,#518,.F.);
#518 = EDGE_CURVE('',#427,#467,#519,.T.);
#519 = LINE('',#520,#521);
#520 = CARTESIAN_POINT('',(-1.E-03,1.001,-1.E-03));
#521 = VECTOR('',#522,1.);
#522 = DIRECTION('',(1.,0.,0.));
#523 = ORIENTED_EDGE('',*,*,#434,.T.);
#524 = ORIENTED_EDGE('',*,*,#525,.T.);
#525 = EDGE_CURVE('',#435,#475,#526,.T.);
#526 = LINE('',#527,#528);
#527 = CARTESIAN_POINT('',(-1.E-03,1.001,1.001));
#528 = VECTOR('',#529,1.);
#529 = DIRECTION('',(1.,0.,0.));
#530 = ORIENTED_EDGE('',*,*,#474,.F.);
#531 = PLANE('',#532);
#532 = AXIS2_PLACEMENT_3D('',#533,#534,#535);
#533 = CARTESIAN_POINT('',(-1.E-03,1.001,-1.E-03));
#534 = DIRECTION('',(0.,1.,0.));
#535 = DIRECTION('',(0.,0.,1.));
#536 = ADVANCED_FACE('',(#537),#543,.F.);
#537 = FACE_BOUND('',#538,.F.);
#538 = EDGE_LOOP('',(#539,#540,#541,#542));
#539 = ORIENTED_EDGE('',*,*,#426,.F.);
#540 = ORIENTED_EDGE('',*,*,#496,.T.);
#541 = ORIENTED_EDGE('',*,*,#466,.T.);
#542 = ORIENTED_EDGE('',*,*,#518,.F.);
#543 = PLANE('',#544);
#544 = AXIS2_PLACEMENT_3D('',#545,#546,#547);
#545 = CARTESIAN_POINT('',(-1.E-03,0.901,-1.E-03));
#546 = DIRECTION('',(0.,0.,1.));
#547 = DIRECTION('',(1.,0.,0.));
#548 = ADVANCED_FACE('',(#549),#555,.T.);
#549 = FACE_BOUND('',#550,.T.);
#550 = EDGE_LOOP('',(#551,#552,#553,#554));
#551 = ORIENTED_EDGE('',*,*,#442,.F.);
#552 = ORIENTED_EDGE('',*,*,#503,.T.);
#553 = ORIENTED_EDGE('',*,*,#482,.T.);
#554 = ORIENTED_EDGE('',*,*,#525,.F.);
#555 = PLANE('',#556);
#556 = AXIS2_PLACEMENT_3D('',#557,#558,#559);
#557 = CARTESIAN_POINT('',(-1.E-03,0.901,1.001));
#558 = DIRECTION('',(0.,0.,1.));
#559 = DIRECTION('',(1.,0.,0.));
#560 = ( GEOMETRIC_REPRESENTATION_CONTEXT(3) 
GLOBAL_UNCERTAINTY_ASSIGNED_CONTEXT((#564)) GLOBAL_UNIT_ASSIGNED_CONTEXT
((#561,#562,#563)) REPRESENTATION_CONTEXT('Context #1',
  '3D Context with UNIT and UNCERTAINTY') );
#561 = ( LENGTH_UNIT() NAMED_UNIT(*) SI_UNIT(.MILLI.,.METRE.) );
#562 = ( NAMED_UNIT(*) PLANE_ANGLE_UNIT() SI_UNIT($,.RADIAN.) );
#563 = ( NAMED_UNIT(*) SI_UNIT($,.STERADIAN.) SOLID_ANGLE_UNIT() );
#564 = UNCERTAINTY_MEASURE_WITH_UNIT(LENGTH_MEASURE(2.E-07),#561,
  'distance_accuracy_value','confusion accuracy');
#565 = PRODUCT_RELATED_PRODUCT_CATEGORY('part',$,(#406));
#566 = SHAPE_DEFINITION_REPRESENTATION(#567,#573);
#567 = PRODUCT_DEFINITION_SHAPE('','',#568);
#568 = PRODUCT_DEFINITION('design','',#569,#572);
#569 = PRODUCT_DEFINITION_FORMATION('','',#570);
#570 = PRODUCT('cube002','cube002','',(#571));
#571 = PRODUCT_CONTEXT('',#2,'mechanical');
#572 = PRODUCT_DEFINITION_CONTEXT('part definition',#2,'design');
#573 = ADVANCED_BREP_SHAPE_REPRESENTATION('',(#11,#574),#724);
#574 = MANIFOLD_SOLID_BREP('',#575);
#575 = CLOSED_SHELL('',(#576,#616,#656,#678,#700,#712));
#576 = ADVANCED_FACE('',(#577),#611,.F.);
#577 = FACE_BOUND('',#578,.F.);
#578 = EDGE_LOOP('',(#579,#589,#597,#605));
#579 = ORIENTED_EDGE('',*,*,#580,.F.);
#580 = EDGE_CURVE('',#581,#583,#585,.T.);
#581 = VERTEX_POINT('',#582);
#582 = CARTESIAN_POINT('',(-1.E-03,-1.E-03,-1.E-03));
#583 = VERTEX_POINT('',#584);
#584 = CARTESIAN_POINT('',(-1.E-03,-1.E-03,1.001));
#585 = LINE('',#586,#587);
#586 = CARTESIAN_POINT('',(-1.E-03,-1.E-03,-1.E-03));
#587 = VECTOR('',#588,1.);
#588 = DIRECTION('',(0.,0.,1.));
#589 = ORIENTED_EDGE('',*,*,#590,.T.);
#590 = EDGE_CURVE('',#581,#591,#593,.T.);
#591 = VERTEX_POINT('',#592);
#592 = CARTESIAN_POINT('',(-1.E-03,9.9E-02,-1.E-03));
#593 = LINE('',#594,#595);
#594 = CARTESIAN_POINT('',(-1.E-03,-1.E-03,-1.E-03));
#595 = VECTOR('',#596,1.);
#596 = DIRECTION('',(0.,1.,0.));
#597 = ORIENTED_EDGE('',*,*,#598,.T.);
#598 = EDGE_CURVE('',#591,#599,#601,.T.);
#599 = VERTEX_POINT('',#600);
#600 = CARTESIAN_POINT('',(-1.E-03,9.9E-02,1.001));
#601 = LINE('',#602,#603);
#602 = CARTESIAN_POINT('',(-1.E-03,9.9E-02,-1.E-03));
#603 = VECTOR('',#604,1.);
#604 = DIRECTION('',(0.,0.,1.));
#605 = ORIENTED_EDGE('',*,*,#606,.F.);
#606 = EDGE_CURVE('',#583,#599,#607,.T.);
#607 = LINE('',#608,#609);
#608 = CARTESIAN_POINT('',(-1.E-03,-1.E-03,1.001));
#609 = VECTOR('',#610,1.);
#610 = DIRECTION('',(0.,1.,0.));
#611 = PLANE('',#612);
#612 = AXIS2_PLACEMENT_3D('',#613,#614,#615);
#613 = CARTESIAN_POINT('',(-1.E-03,-1.E-03,-1.E-03));
#614 = DIRECTION('',(1.,0.,0.));
#615 = DIRECTION('',(0.,0.,1.));
#616 = ADVANCED_FACE('',(#617),#651,.T.);
#617 = FACE_BOUND('',#618,.T.);
#618 = EDGE_LOOP('',(#619,#629,#637,#645));
#619 = ORIENTED_EDGE('',*,*,#620,.F.);
#620 = EDGE_CURVE('',#621,#623,#625,.T.);
#621 = VERTEX_POINT('',#622);
#622 = CARTESIAN_POINT('',(0.401,-1.E-03,-1.E-03));
#623 = VERTEX_POINT('',#624);
#624 = CARTESIAN_POINT('',(0.401,-1.E-03,1.001));
#625 = LINE('',#626,#627);
#626 = CARTESIAN_POINT('',(0.401,-1.E-03,-1.E-03));
#627 = VECTOR('',#628,1.);
#628 = DIRECTION('',(0.,0.,1.));
#629 = ORIENTED_EDGE('',*,*,#630,.T.);
#630 = EDGE_CURVE('',#621,#631,#633,.T.);
#631 = VERTEX_POINT('',#632);
#632 = CARTESIAN_POINT('',(0.401,9.9E-02,-1.E-03));
#633 = LINE('',#634,#635);
#634 = CARTESIAN_POINT('',(0.401,-1.E-03,-1.E-03));
#635 = VECTOR('',#636,1.);
#636 = DIRECTION('',(0.,1.,0.));
#637 = ORIENTED_EDGE('',*,*,#638,.T.);
#638 = EDGE_CURVE('',#631,#639,#641,.T.);
#639 = VERTEX_POINT('',#640);
#640 = CARTESIAN_POINT('',(0.401,9.9E-02,1.001));
#641 = LINE('',#642,#643);
#642 = CARTESIAN_POINT('',(0.401,9.9E-02,-1.E-03));
#643 = VECTOR('',#644,1.);
#644 = DIRECTION('',(0.,0.,1.));
#645 = ORIENTED_EDGE('',*,*,#646,.F.);
#646 = EDGE_CURVE('',#623,#639,#647,.T.);
#647 = LINE('',#648,#649);
#648 = CARTESIAN_POINT('',(0.401,-1.E-03,1.001));
#649 = VECTOR('',#650,1.);
#650 = DIRECTION('',(0.,1.,0.));
#651 = PLANE('',#652);
#652 = AXIS2_PLACEMENT_3D('',#653,#654,#655);
#653 = CARTESIAN_POINT('',(0.401,-1.E-03,-1.E-03));
#654 = DIRECTION('',(1.,0.,0.));
#655 = DIRECTION('',(0.,0.,1.));
#656 = ADVANCED_FACE('',(#657),#673,.F.);
#657 = FACE_BOUND('',#658,.F.);
#658 = EDGE_LOOP('',(#659,#665,#666,#672));
#659 = ORIENTED_EDGE('',*,*,#660,.F.);
#660 = EDGE_CURVE('',#581,#621,#661,.T.);
#661 = LINE('',#662,#663);
#662 = CARTESIAN_POINT('',(-1.E-03,-1.E-03,-1.E-03));
#663 = VECTOR('',#664,1.);
#664 = DIRECTION('',(1.,0.,0.));
#665 = ORIENTED_EDGE('',*,*,#580,.T.);
#666 = ORIENTED_EDGE('',*,*,#667,.T.);
#667 = EDGE_CURVE('',#583,#623,#668,.T.);
#668 = LINE('',#669,#670);
#669 = CARTESIAN_POINT('',(-1.E-03,-1.E-03,1.001));
#670 = VECTOR('',#671,1.);
#671 = DIRECTION('',(1.,0.,0.));
#672 = ORIENTED_EDGE('',*,*,#620,.F.);
#673 = PLANE('',#674);
#674 = AXIS2_PLACEMENT_3D('',#675,#676,#677);
#675 = CARTESIAN_POINT('',(-1.E-03,-1.E-03,-1.E-03));
#676 = DIRECTION('',(0.,1.,0.));
#677 = DIRECTION('',(0.,0.,1.));
#678 = ADVANCED_FACE('',(#679),#695,.T.);
#679 = FACE_BOUND('',#680,.T.);
#680 = EDGE_LOOP('',(#681,#687,#688,#694));
#681 = ORIENTED_EDGE('',*,*,#682,.F.);
#682 = EDGE_CURVE('',#591,#631,#683,.T.);
#683 = LINE('',#684,#685);
#684 = CARTESIAN_POINT('',(-1.E-03,9.9E-02,-1.E-03));
#685 = VECTOR('',#686,1.);
#686 = DIRECTION('',(1.,0.,0.));
#687 = ORIENTED_EDGE('',*,*,#598,.T.);
#688 = ORIENTED_EDGE('',*,*,#689,.T.);
#689 = EDGE_CURVE('',#599,#639,#690,.T.);
#690 = LINE('',#691,#692);
#691 = CARTESIAN_POINT('',(-1.E-03,9.9E-02,1.001));
#692 = VECTOR('',#693,1.);
#693 = DIRECTION('',(1.,0.,0.));
#694 = ORIENTED_EDGE('',*,*,#638,.F.);
#695 = PLANE('',#696);
#696 = AXIS2_PLACEMENT_3D('',#697,#698,#699);
#697 = CARTESIAN_POINT('',(-1.E-03,9.9E-02,-1.E-03));
#698 = DIRECTION('',(0.,1.,0.));
#699 = DIRECTION('',(0.,0.,1.));
#700 = ADVANCED_FACE('',(#701),#707,.F.);
#701 = FACE_BOUND('',#702,.F.);
#702 = EDGE_LOOP('',(#703,#704,#705,#706));
#703 = ORIENTED_EDGE('',*,*,#590,.F.);
#704 = ORIENTED_EDGE('',*,*,#660,.T.);
#705 = ORIENTED_EDGE('',*,*,#630,.T.);
#706 = ORIENTED_EDGE('',*,*,#682,.F.);
#707 = PLANE('',#708);
#708 = AXIS2_PLACEMENT_3D('',#709,#710,#711);
#709 = CARTESIAN_POINT('',(-1.E-03,-1.E-03,-1.E-03));
#710 = DIRECTION('',(0.,0.,1.));
#711 = DIRECTION('',(1.,0.,0.));
#712 = ADVANCED_FACE('',(#713),#719,.T.);
#713 = FACE_BOUND('',#714,.T.);
#714 = EDGE_LOOP('',(#715,#716,#717,#718));
#715 = ORIENTED_EDGE('',*,*,#606,.F.);
#716 = ORIENTED_EDGE('',*,*,#667,.T.);
#717 = ORIENTED_EDGE('',*,*,#646,.T.);
#718 = ORIENTED_EDGE('',*,*,#689,.F.);
#719 = PLANE('',#720);
#720 = AXIS2_PLACEMENT_3D('',#721,#722,#723);
#721 = CARTESIAN_POINT('',(-1.E-03,-1.E-03,1.001));
#722 = DIRECTION('',(0.,0.,1.));
#723 = DIRECTION('',(1.,0.,0.));
#724 = ( GEOMETRIC_REPRESENTATION_CONTEXT(3) 
GLOBAL_UNCERTAINTY_ASSIGNED_CONTEXT((#728)) GLOBAL_UNIT_ASSIGNED_CONTEXT
((#725,#726,#727)) REPRESENTATION_CONTEXT('Context #1',
  '3D Context with UNIT and UNCERTAINTY') );
#725 = ( LENGTH_UNIT() NAMED_UNIT(*) SI_UNIT(.MILLI.,.METRE.) );
#726 = ( NAMED_UNIT(*) PLANE_ANGLE_UNIT() SI_UNIT($,.RADIAN.) );
#727 = ( NAMED_UNIT(*) SI_UNIT($,.STERADIAN.) SOLID_ANGLE_UNIT() );
#728 = UNCERTAINTY_MEASURE_WITH_UNIT(LENGTH_MEASURE(1.E-07),#725,
  'distance_accuracy_value','confusion accuracy');
#729 = PRODUCT_RELATED_PRODUCT_CATEGORY('part',$,(#570));
#730 = SHAPE_DEFINITION_REPRESENTATION(#731,#737);
#731 = PRODUCT_DEFINITION_SHAPE('','',#732);
#732 = PRODUCT_DEFINITION('design','',#733,#736);
#733 = PRODUCT_DEFINITION_FORMATION('','',#734);
#734 = PRODUCT('cube005','cube005','',(#735));
#735 = PRODUCT_CONTEXT('',#2,'mechanical');
#736 = PRODUCT_DEFINITION_CONTEXT('part definition',#2,'design');
#737 = ADVANCED_BREP_SHAPE_REPRESENTATION('',(#11,#738),#888);
#738 = MANIFOLD_SOLID_BREP('',#739);
#739 = CLOSED_SHELL('',(#740,#780,#820,#842,#864,#876));
#740 = ADVANCED_FACE('',(#741),#775,.F.);
#741 = FACE_BOUND('',#742,.F.);
#742 = EDGE_LOOP('',(#743,#753,#761,#769));
#743 = ORIENTED_EDGE('',*,*,#744,.F.);
#744 = EDGE_CURVE('',#745,#747,#749,.T.);
#745 = VERTEX_POINT('',#746);
#746 = CARTESIAN_POINT('',(-1.E-03,-1.E-03,-1.E-03));
#747 = VERTEX_POINT('',#748);
#748 = CARTESIAN_POINT('',(-1.E-03,-1.E-03,1.001));
#749 = LINE('',#750,#751);
#750 = CARTESIAN_POINT('',(-1.E-03,-1.E-03,-1.E-03));
#751 = VECTOR('',#752,1.);
#752 = DIRECTION('',(0.,0.,1.));
#753 = ORIENTED_EDGE('',*,*,#754,.T.);
#754 = EDGE_CURVE('',#745,#755,#757,.T.);
#755 = VERTEX_POINT('',#756);
#756 = CARTESIAN_POINT('',(-1.E-03,9.9E-02,-1.E-03));
#757 = LINE('',#758,#759);
#758 = CARTESIAN_POINT('',(-1.E-03,-1.E-03,-1.E-03));
#759 = VECTOR('',#760,1.);
#760 = DIRECTION('',(0.,1.,0.));
#761 = ORIENTED_EDGE('',*,*,#762,.T.);
#762 = EDGE_CURVE('',#755,#763,#765,.T.);
#763 = VERTEX_POINT('',#764);
#764 = CARTESIAN_POINT('',(-1.E-03,9.9E-02,1.001));
#765 = LINE('',#766,#767);
#766 = CARTESIAN_POINT('',(-1.E-03,9.9E-02,-1.E-03));
#767 = VECTOR('',#768,1.);
#768 = DIRECTION('',(0.,0.,1.));
#769 = ORIENTED_EDGE('',*,*,#770,.F.);
#770 = EDGE_CURVE('',#747,#763,#771,.T.);
#771 = LINE('',#772,#773);
#772 = CARTESIAN_POINT('',(-1.E-03,-1.E-03,1.001));
#773 = VECTOR('',#774,1.);
#774 = DIRECTION('',(0.,1.,0.));
#775 = PLANE('',#776);
#776 = AXIS2_PLACEMENT_3D('',#777,#778,#779);
#777 = CARTESIAN_POINT('',(-1.E-03,-1.E-03,-1.E-03));
#778 = DIRECTION('',(1.,0.,0.));
#779 = DIRECTION('',(0.,0.,1.));
#780 = ADVANCED_FACE('',(#781),#815,.T.);
#781 = FACE_BOUND('',#782,.T.);
#782 = EDGE_LOOP('',(#783,#793,#801,#809));
#783 = ORIENTED_EDGE('',*,*,#784,.F.);
#784 = EDGE_CURVE('',#785,#787,#789,.T.);
#785 = VERTEX_POINT('',#786);
#786 = CARTESIAN_POINT('',(0.401,-1.E-03,-1.E-03));
#787 = VERTEX_POINT('',#788);
#788 = CARTESIAN_POINT('',(0.401,-1.E-03,1.001));
#789 = LINE('',#790,#791);
#790 = CARTESIAN_POINT('',(0.401,-1.E-03,-1.E-03));
#791 = VECTOR('',#792,1.);
#792 = DIRECTION('',(0.,0.,1.));
#793 = ORIENTED_EDGE('',*,*,#794,.T.);
#794 = EDGE_CURVE('',#785,#795,#797,.T.);
#795 = VERTEX_POINT('',#796);
#796 = CARTESIAN_POINT('',(0.401,9.9E-02,-1.E-03));
#797 = LINE('',#798,#799);
#798 = CARTESIAN_POINT('',(0.401,-1.E-03,-1.E-03));
#799 = VECTOR('',#800,1.);
#800 = DIRECTION('',(0.,1.,0.));
#801 = ORIENTED_EDGE('',*,*,#802,.T.);
#802 = EDGE_CURVE('',#795,#803,#805,.T.);
#803 = VERTEX_POINT('',#804);
#804 = CARTESIAN_POINT('',(0.401,9.9E-02,1.001));
#805 = LINE('',#806,#807);
#806 = CARTESIAN_POINT('',(0.401,9.9E-02,-1.E-03));
#807 = VECTOR('',#808,1.);
#808 = DIRECTION('',(0.,0.,1.));
#809 = ORIENTED_EDGE('',*,*,#810,.F.);
#810 = EDGE_CURVE('',#787,#803,#811,.T.);
#811 = LINE('',#812,#813);
#812 = CARTESIAN_POINT('',(0.401,-1.E-03,1.001));
#813 = VECTOR('',#814,1.);
#814 = DIRECTION('',(0.,1.,0.));
#815 = PLANE('',#816);
#816 = AXIS2_PLACEMENT_3D('',#817,#818,#819);
#817 = CARTESIAN_POINT('',(0.401,-1.E-03,-1.E-03));
#818 = DIRECTION('',(1.,0.,0.));
#819 = DIRECTION('',(0.,0.,1.));
#820 = ADVANCED_FACE('',(#821),#837,.F.);
#821 = FACE_BOUND('',#822,.F.);
#822 = EDGE_LOOP('',(#823,#829,#830,#836));
#823 = ORIENTED_EDGE('',*,*,#824,.F.);
#824 = EDGE_CURVE('',#745,#785,#825,.T.);
#825 = LINE('',#826,#827);
#826 = CARTESIAN_POINT('',(-1.E-03,-1.E-03,-1.E-03));
#827 = VECTOR('',#828,1.);
#828 = DIRECTION('',(1.,0.,0.));
#829 = ORIENTED_EDGE('',*,*,#744,.T.);
#830 = ORIENTED_EDGE('',*,*,#831,.T.);
#831 = EDGE_CURVE('',#747,#787,#832,.T.);
#832 = LINE('',#833,#834);
#833 = CARTESIAN_POINT('',(-1.E-03,-1.E-03,1.001));
#834 = VECTOR('',#835,1.);
#835 = DIRECTION('',(1.,0.,0.));
#836 = ORIENTED_EDGE('',*,*,#784,.F.);
#837 = PLANE('',#838);
#838 = AXIS2_PLACEMENT_3D('',#839,#840,#841);
#839 = CARTESIAN_POINT('',(-1.E-03,-1.E-03,-1.E-03));
#840 = DIRECTION('',(0.,1.,0.));
#841 = DIRECTION('',(0.,0.,1.));
#842 = ADVANCED_FACE('',(#843),#859,.T.);
#843 = FACE_BOUND('',#844,.T.);
#844 = EDGE_LOOP('',(#845,#851,#852,#858));
#845 = ORIENTED_EDGE('',*,*,#846,.F.);
#846 = EDGE_CURVE('',#755,#795,#847,.T.);
#847 = LINE('',#848,#849);
#848 = CARTESIAN_POINT('',(-1.E-03,9.9E-02,-1.E-03));
#849 = VECTOR('',#850,1.);
#850 = DIRECTION('',(1.,0.,0.));
#851 = ORIENTED_EDGE('',*,*,#762,.T.);
#852 = ORIENTED_EDGE('',*,*,#853,.T.);
#853 = EDGE_CURVE('',#763,#803,#854,.T.);
#854 = LINE('',#855,#856);
#855 = CARTESIAN_POINT('',(-1.E-03,9.9E-02,1.001));
#856 = VECTOR('',#857,1.);
#857 = DIRECTION('',(1.,0.,0.));
#858 = ORIENTED_EDGE('',*,*,#802,.F.);
#859 = PLANE('',#860);
#860 = AXIS2_PLACEMENT_3D('',#861,#862,#863);
#861 = CARTESIAN_POINT('',(-1.E-03,9.9E-02,-1.E-03));
#862 = DIRECTION('',(0.,1.,0.));
#863 = DIRECTION('',(0.,0.,1.));
#864 = ADVANCED_FACE('',(#865),#871,.F.);
#865 = FACE_BOUND('',#866,.F.);
#866 = EDGE_LOOP('',(#867,#868,#869,#870));
#867 = ORIENTED_EDGE('',*,*,#754,.F.);
#868 = ORIENTED_EDGE('',*,*,#824,.T.);
#869 = ORIENTED_EDGE('',*,*,#794,.T.);
#870 = ORIENTED_EDGE('',*,*,#846,.F.);
#871 = PLANE('',#872);
#872 = AXIS2_PLACEMENT_3D('',#873,#874,#875);
#873 = CARTESIAN_POINT('',(-1.E-03,-1.E-03,-1.E-03));
#874 = DIRECTION('',(0.,0.,1.));
#875 = DIRECTION('',(1.,0.,0.));
#876 = ADVANCED_FACE('',(#877),#883,.T.);
#877 = FACE_BOUND('',#878,.T.);
#878 = EDGE_LOOP('',(#879,#880,#881,#882));
#879 = ORIENTED_EDGE('',*,*,#770,.F.);
#880 = ORIENTED_EDGE('',*,*,#831,.T.);
#881 = ORIENTED_EDGE('',*,*,#810,.T.);
#882 = ORIENTED_EDGE('',*,*,#853,.F.);
#883 = PLANE('',#884);
#884 = AXIS2_PLACEMENT_3D('',#885,#886,#887);
#885 = CARTESIAN_POINT('',(-1.E-03,-1.E-03,1.001));
#886 = DIRECTION('',(0.,0.,1.));
#887 = DIRECTION('',(1.,0.,0.));
#888 = ( GEOMETRIC_REPRESENTATION_CONTEXT(3) 
GLOBAL_UNCERTAINTY_ASSIGNED_CONTEXT((#892)) GLOBAL_UNIT_ASSIGNED_CONTEXT
((#889,#890,#891)) REPRESENTATION_CONTEXT('Context #1',
  '3D Context with UNIT and UNCERTAINTY') );
#889 = ( LENGTH_UNIT() NAMED_UNIT(*) SI_UNIT(.MILLI.,.METRE.) );
#890 = ( NAMED_UNIT(*) PLANE_ANGLE_UNIT() SI_UNIT($,.RADIAN.) );
#891 = ( NAMED_UNIT(*) SI_UNIT($,.STERADIAN.) SOLID_ANGLE_UNIT() );
#892 = UNCERTAINTY_MEASURE_WITH_UNIT(LENGTH_MEASURE(1.E-07),#889,
  'distance_accuracy_value','confusion accuracy');
#893 = PRODUCT_RELATED_PRODUCT_CATEGORY('part',$,(#734));
#894 = SHAPE_DEFINITION_REPRESENTATION(#895,#901);
#895 = PRODUCT_DEFINITION_SHAPE('','',#896);
#896 = PRODUCT_DEFINITION('design','',#897,#900);
#897 = PRODUCT_DEFINITION_FORMATION('','',#898);
#898 = PRODUCT('Matrix_Union','Matrix_Union','',(#899));
#899 = PRODUCT_CONTEXT('',#2,'mechanical');
#900 = PRODUCT_DEFINITION_CONTEXT('part definition',#2,'design');
#901 = ADVANCED_BREP_SHAPE_REPRESENTATION('',(#11,#902),#1550);
#902 = MANIFOLD_SOLID_BREP('',#903);
#903 = CLOSED_SHELL('',(#904,#944,#975,#1006,#1037,#1068,#1092,#1116,
    #1147,#1171,#1202,#1226,#1243,#1274,#1296,#1320,#1344,#1375,#1392,
    #1409,#1426,#1438,#1469,#1495,#1521,#1538));
#904 = ADVANCED_FACE('',(#905),#939,.F.);
#905 = FACE_BOUND('',#906,.F.);
#906 = EDGE_LOOP('',(#907,#917,#925,#933));
#907 = ORIENTED_EDGE('',*,*,#908,.F.);
#908 = EDGE_CURVE('',#909,#911,#913,.T.);
#909 = VERTEX_POINT('',#910);
#910 = CARTESIAN_POINT('',(3.001,9.9E-02,-1.E-03));
#911 = VERTEX_POINT('',#912);
#912 = CARTESIAN_POINT('',(3.001,9.9E-02,1.001));
#913 = LINE('',#914,#915);
#914 = CARTESIAN_POINT('',(3.001,9.9E-02,-1.E-03));
#915 = VECTOR('',#916,1.);
#916 = DIRECTION('',(0.,0.,1.));
#917 = ORIENTED_EDGE('',*,*,#918,.T.);
#918 = EDGE_CURVE('',#909,#919,#921,.T.);
#919 = VERTEX_POINT('',#920);
#920 = CARTESIAN_POINT('',(3.001,-1.E-03,-1.E-03));
#921 = LINE('',#922,#923);
#922 = CARTESIAN_POINT('',(3.001,9.9E-02,-1.E-03));
#923 = VECTOR('',#924,1.);
#924 = DIRECTION('',(-1.224646799147E-16,-1.,0.));
#925 = ORIENTED_EDGE('',*,*,#926,.T.);
#926 = EDGE_CURVE('',#919,#927,#929,.T.);
#927 = VERTEX_POINT('',#928);
#928 = CARTESIAN_POINT('',(3.001,-1.E-03,1.001));
#929 = LINE('',#930,#931);
#930 = CARTESIAN_POINT('',(3.001,-1.E-03,-1.E-03));
#931 = VECTOR('',#932,1.);
#932 = DIRECTION('',(0.,0.,1.));
#933 = ORIENTED_EDGE('',*,*,#934,.F.);
#934 = EDGE_CURVE('',#911,#927,#935,.T.);
#935 = LINE('',#936,#937);
#936 = CARTESIAN_POINT('',(3.001,9.9E-02,1.001));
#937 = VECTOR('',#938,1.);
#938 = DIRECTION('',(-1.224646799147E-16,-1.,0.));
#939 = PLANE('',#940);
#940 = AXIS2_PLACEMENT_3D('',#941,#942,#943);
#941 = CARTESIAN_POINT('',(3.001,9.9E-02,-1.E-03));
#942 = DIRECTION('',(-1.,1.224646799147E-16,0.));
#943 = DIRECTION('',(0.,0.,1.));
#944 = ADVANCED_FACE('',(#945),#970,.F.);
#945 = FACE_BOUND('',#946,.F.);
#946 = EDGE_LOOP('',(#947,#955,#963,#969));
#947 = ORIENTED_EDGE('',*,*,#948,.F.);
#948 = EDGE_CURVE('',#949,#911,#951,.T.);
#949 = VERTEX_POINT('',#950);
#950 = CARTESIAN_POINT('',(3.001,0.901,1.001));
#951 = LINE('',#952,#953);
#952 = CARTESIAN_POINT('',(3.001,0.999,1.001));
#953 = VECTOR('',#954,1.);
#954 = DIRECTION('',(-1.224646799147E-16,-1.,0.));
#955 = ORIENTED_EDGE('',*,*,#956,.F.);
#956 = EDGE_CURVE('',#957,#949,#959,.T.);
#957 = VERTEX_POINT('',#958);
#958 = CARTESIAN_POINT('',(3.001,0.901,-1.E-03));
#959 = LINE('',#960,#961);
#960 = CARTESIAN_POINT('',(3.001,0.901,-1.E-03));
#961 = VECTOR('',#962,1.);
#962 = DIRECTION('',(0.,0.,1.));
#963 = ORIENTED_EDGE('',*,*,#964,.T.);
#964 = EDGE_CURVE('',#957,#909,#965,.T.);
#965 = LINE('',#966,#967);
#966 = CARTESIAN_POINT('',(3.001,0.999,-1.E-03));
#967 = VECTOR('',#968,1.);
#968 = DIRECTION('',(-1.224646799147E-16,-1.,0.));
#969 = ORIENTED_EDGE('',*,*,#908,.T.);
#970 = PLANE('',#971);
#971 = AXIS2_PLACEMENT_3D('',#972,#973,#974);
#972 = CARTESIAN_POINT('',(3.001,0.999,-1.E-03));
#973 = DIRECTION('',(-1.,1.224646799147E-16,0.));
#974 = DIRECTION('',(0.,0.,1.));
#975 = ADVANCED_FACE('',(#976),#1001,.T.);
#976 = FACE_BOUND('',#977,.T.);
#977 = EDGE_LOOP('',(#978,#986,#987,#995));
#978 = ORIENTED_EDGE('',*,*,#979,.F.);
#979 = EDGE_CURVE('',#927,#980,#982,.T.);
#980 = VERTEX_POINT('',#981);
#981 = CARTESIAN_POINT('',(2.9,-1.E-03,1.001));
#982 = LINE('',#983,#984);
#983 = CARTESIAN_POINT('',(3.001,-1.E-03,1.001));
#984 = VECTOR('',#985,1.);
#985 = DIRECTION('',(-1.,1.224646799147E-16,0.));
#986 = ORIENTED_EDGE('',*,*,#934,.F.);
#987 = ORIENTED_EDGE('',*,*,#988,.T.);
#988 = EDGE_CURVE('',#911,#989,#991,.T.);
#989 = VERTEX_POINT('',#990);
#990 = CARTESIAN_POINT('',(2.9,9.9E-02,1.001));
#991 = LINE('',#992,#993);
#992 = CARTESIAN_POINT('',(3.001,9.9E-02,1.001));
#993 = VECTOR('',#994,1.);
#994 = DIRECTION('',(-1.,1.224646799147E-16,0.));
#995 = ORIENTED_EDGE('',*,*,#996,.T.);
#996 = EDGE_CURVE('',#989,#980,#997,.T.);
#997 = LINE('',#998,#999);
#998 = CARTESIAN_POINT('',(2.9,0.999,1.001));
#999 = VECTOR('',#1000,1.);
#1000 = DIRECTION('',(-1.224646799147E-16,-1.,0.));
#1001 = PLANE('',#1002);
#1002 = AXIS2_PLACEMENT_3D('',#1003,#1004,#1005);
#1003 = CARTESIAN_POINT('',(3.001,9.9E-02,1.001));
#1004 = DIRECTION('',(0.,0.,1.));
#1005 = DIRECTION('',(-1.,1.224646799147E-16,0.));
#1006 = ADVANCED_FACE('',(#1007),#1032,.F.);
#1007 = FACE_BOUND('',#1008,.F.);
#1008 = EDGE_LOOP('',(#1009,#1017,#1018,#1026));
#1009 = ORIENTED_EDGE('',*,*,#1010,.F.);
#1010 = EDGE_CURVE('',#927,#1011,#1013,.T.);
#1011 = VERTEX_POINT('',#1012);
#1012 = CARTESIAN_POINT('',(3.001,-3.E-03,1.001));
#1013 = LINE('',#1014,#1015);
#1014 = CARTESIAN_POINT('',(3.001,0.999,1.001));
#1015 = VECTOR('',#1016,1.);
#1016 = DIRECTION('',(-1.224646799147E-16,-1.,0.));
#1017 = ORIENTED_EDGE('',*,*,#926,.F.);
#1018 = ORIENTED_EDGE('',*,*,#1019,.T.);
#1019 = EDGE_CURVE('',#919,#1020,#1022,.T.);
#1020 = VERTEX_POINT('',#1021);
#1021 = CARTESIAN_POINT('',(3.001,-3.E-03,-1.E-03));
#1022 = LINE('',#1023,#1024);
#1023 = CARTESIAN_POINT('',(3.001,0.999,-1.E-03));
#1024 = VECTOR('',#1025,1.);
#1025 = DIRECTION('',(-1.224646799147E-16,-1.,0.));
#1026 = ORIENTED_EDGE('',*,*,#1027,.T.);
#1027 = EDGE_CURVE('',#1020,#1011,#1028,.T.);
#1028 = LINE('',#1029,#1030);
#1029 = CARTESIAN_POINT('',(3.001,-3.E-03,-1.E-03));
#1030 = VECTOR('',#1031,1.);
#1031 = DIRECTION('',(0.,0.,1.));
#1032 = PLANE('',#1033);
#1033 = AXIS2_PLACEMENT_3D('',#1034,#1035,#1036);
#1034 = CARTESIAN_POINT('',(3.001,0.999,-1.E-03));
#1035 = DIRECTION('',(-1.,1.224646799147E-16,0.));
#1036 = DIRECTION('',(0.,0.,1.));
#1037 = ADVANCED_FACE('',(#1038),#1063,.F.);
#1038 = FACE_BOUND('',#1039,.F.);
#1039 = EDGE_LOOP('',(#1040,#1048,#1049,#1057));
#1040 = ORIENTED_EDGE('',*,*,#1041,.F.);
#1041 = EDGE_CURVE('',#919,#1042,#1044,.T.);
#1042 = VERTEX_POINT('',#1043);
#1043 = CARTESIAN_POINT('',(2.9,-1.E-03,-1.E-03));
#1044 = LINE('',#1045,#1046);
#1045 = CARTESIAN_POINT('',(3.001,-1.E-03,-1.E-03));
#1046 = VECTOR('',#1047,1.);
#1047 = DIRECTION('',(-1.,1.224646799147E-16,0.));
#1048 = ORIENTED_EDGE('',*,*,#918,.F.);
#1049 = ORIENTED_EDGE('',*,*,#1050,.T.);
#1050 = EDGE_CURVE('',#909,#1051,#1053,.T.);
#1051 = VERTEX_POINT('',#1052);
#1052 = CARTESIAN_POINT('',(2.9,9.9E-02,-1.E-03));
#1053 = LINE('',#1054,#1055);
#1054 = CARTESIAN_POINT('',(3.001,9.9E-02,-1.E-03));
#1055 = VECTOR('',#1056,1.);
#1056 = DIRECTION('',(-1.,1.224646799147E-16,0.));
#1057 = ORIENTED_EDGE('',*,*,#1058,.T.);
#1058 = EDGE_CURVE('',#1051,#1042,#1059,.T.);
#1059 = LINE('',#1060,#1061);
#1060 = CARTESIAN_POINT('',(2.9,0.999,-1.E-03));
#1061 = VECTOR('',#1062,1.);
#1062 = DIRECTION('',(-1.224646799147E-16,-1.,0.));
#1063 = PLANE('',#1064);
#1064 = AXIS2_PLACEMENT_3D('',#1065,#1066,#1067);
#1065 = CARTESIAN_POINT('',(3.001,9.9E-02,-1.E-03));
#1066 = DIRECTION('',(0.,0.,1.));
#1067 = DIRECTION('',(-1.,1.224646799147E-16,0.));
#1068 = ADVANCED_FACE('',(#1069),#1087,.T.);
#1069 = FACE_BOUND('',#1070,.T.);
#1070 = EDGE_LOOP('',(#1071,#1072,#1080,#1086));
#1071 = ORIENTED_EDGE('',*,*,#948,.F.);
#1072 = ORIENTED_EDGE('',*,*,#1073,.T.);
#1073 = EDGE_CURVE('',#949,#1074,#1076,.T.);
#1074 = VERTEX_POINT('',#1075);
#1075 = CARTESIAN_POINT('',(2.9,0.901,1.001));
#1076 = LINE('',#1077,#1078);
#1077 = CARTESIAN_POINT('',(3.001,0.901,1.001));
#1078 = VECTOR('',#1079,1.);
#1079 = DIRECTION('',(-1.,1.224646799147E-16,0.));
#1080 = ORIENTED_EDGE('',*,*,#1081,.T.);
#1081 = EDGE_CURVE('',#1074,#989,#1082,.T.);
#1082 = LINE('',#1083,#1084);
#1083 = CARTESIAN_POINT('',(2.9,0.999,1.001));
#1084 = VECTOR('',#1085,1.);
#1085 = DIRECTION('',(-1.224646799147E-16,-1.,0.));
#1086 = ORIENTED_EDGE('',*,*,#988,.F.);
#1087 = PLANE('',#1088);
#1088 = AXIS2_PLACEMENT_3D('',#1089,#1090,#1091);
#1089 = CARTESIAN_POINT('',(3.001,0.999,1.001));
#1090 = DIRECTION('',(0.,0.,1.));
#1091 = DIRECTION('',(-1.,1.224646799147E-16,0.));
#1092 = ADVANCED_FACE('',(#1093),#1111,.F.);
#1093 = FACE_BOUND('',#1094,.F.);
#1094 = EDGE_LOOP('',(#1095,#1096,#1104,#1110));
#1095 = ORIENTED_EDGE('',*,*,#964,.F.);
#1096 = ORIENTED_EDGE('',*,*,#1097,.T.);
#1097 = EDGE_CURVE('',#957,#1098,#1100,.T.);
#1098 = VERTEX_POINT('',#1099);
#1099 = CARTESIAN_POINT('',(2.9,0.901,-1.E-03));
#1100 = LINE('',#1101,#1102);
#1101 = CARTESIAN_POINT('',(3.001,0.901,-1.E-03));
#1102 = VECTOR('',#1103,1.);
#1103 = DIRECTION('',(-1.,1.224646799147E-16,0.));
#1104 = ORIENTED_EDGE('',*,*,#1105,.T.);
#1105 = EDGE_CURVE('',#1098,#1051,#1106,.T.);
#1106 = LINE('',#1107,#1108);
#1107 = CARTESIAN_POINT('',(2.9,0.999,-1.E-03));
#1108 = VECTOR('',#1109,1.);
#1109 = DIRECTION('',(-1.224646799147E-16,-1.,0.));
#1110 = ORIENTED_EDGE('',*,*,#1050,.F.);
#1111 = PLANE('',#1112);
#1112 = AXIS2_PLACEMENT_3D('',#1113,#1114,#1115);
#1113 = CARTESIAN_POINT('',(3.001,0.999,-1.E-03));
#1114 = DIRECTION('',(0.,0.,1.));
#1115 = DIRECTION('',(-1.,1.224646799147E-16,0.));
#1116 = ADVANCED_FACE('',(#1117),#1142,.F.);
#1117 = FACE_BOUND('',#1118,.F.);
#1118 = EDGE_LOOP('',(#1119,#1127,#1135,#1141));
#1119 = ORIENTED_EDGE('',*,*,#1120,.F.);
#1120 = EDGE_CURVE('',#1121,#949,#1123,.T.);
#1121 = VERTEX_POINT('',#1122);
#1122 = CARTESIAN_POINT('',(3.001,0.999,1.001));
#1123 = LINE('',#1124,#1125);
#1124 = CARTESIAN_POINT('',(3.001,1.001,1.001));
#1125 = VECTOR('',#1126,1.);
#1126 = DIRECTION('',(-1.224646799147E-16,-1.,0.));
#1127 = ORIENTED_EDGE('',*,*,#1128,.F.);
#1128 = EDGE_CURVE('',#1129,#1121,#1131,.T.);
#1129 = VERTEX_POINT('',#1130);
#1130 = CARTESIAN_POINT('',(3.001,0.999,-1.E-03));
#1131 = LINE('',#1132,#1133);
#1132 = CARTESIAN_POINT('',(3.001,0.999,-1.E-03));
#1133 = VECTOR('',#1134,1.);
#1134 = DIRECTION('',(0.,0.,1.));
#1135 = ORIENTED_EDGE('',*,*,#1136,.T.);
#1136 = EDGE_CURVE('',#1129,#957,#1137,.T.);
#1137 = LINE('',#1138,#1139);
#1138 = CARTESIAN_POINT('',(3.001,1.001,-1.E-03));
#1139 = VECTOR('',#1140,1.);
#1140 = DIRECTION('',(-1.224646799147E-16,-1.,0.));
#1141 = ORIENTED_EDGE('',*,*,#956,.T.);
#1142 = PLANE('',#1143);
#1143 = AXIS2_PLACEMENT_3D('',#1144,#1145,#1146);
#1144 = CARTESIAN_POINT('',(3.001,1.001,-1.E-03));
#1145 = DIRECTION('',(-1.,1.224646799147E-16,0.));
#1146 = DIRECTION('',(0.,0.,1.));
#1147 = ADVANCED_FACE('',(#1148),#1166,.T.);
#1148 = FACE_BOUND('',#1149,.T.);
#1149 = EDGE_LOOP('',(#1150,#1151,#1152,#1160));
#1150 = ORIENTED_EDGE('',*,*,#1010,.F.);
#1151 = ORIENTED_EDGE('',*,*,#979,.T.);
#1152 = ORIENTED_EDGE('',*,*,#1153,.T.);
#1153 = EDGE_CURVE('',#980,#1154,#1156,.T.);
#1154 = VERTEX_POINT('',#1155);
#1155 = CARTESIAN_POINT('',(2.9,-3.E-03,1.001));
#1156 = LINE('',#1157,#1158);
#1157 = CARTESIAN_POINT('',(2.9,0.999,1.001));
#1158 = VECTOR('',#1159,1.);
#1159 = DIRECTION('',(-1.224646799147E-16,-1.,0.));
#1160 = ORIENTED_EDGE('',*,*,#1161,.F.);
#1161 = EDGE_CURVE('',#1011,#1154,#1162,.T.);
#1162 = LINE('',#1163,#1164);
#1163 = CARTESIAN_POINT('',(3.001,-3.E-03,1.001));
#1164 = VECTOR('',#1165,1.);
#1165 = DIRECTION('',(-1.,1.224646799147E-16,0.));
#1166 = PLANE('',#1167);
#1167 = AXIS2_PLACEMENT_3D('',#1168,#1169,#1170);
#1168 = CARTESIAN_POINT('',(3.001,0.999,1.001));
#1169 = DIRECTION('',(0.,0.,1.));
#1170 = DIRECTION('',(-1.,1.224646799147E-16,0.));
#1171 = ADVANCED_FACE('',(#1172),#1197,.T.);
#1172 = FACE_BOUND('',#1173,.T.);
#1173 = EDGE_LOOP('',(#1174,#1182,#1183,#1191));
#1174 = ORIENTED_EDGE('',*,*,#1175,.F.);
#1175 = EDGE_CURVE('',#980,#1176,#1178,.T.);
#1176 = VERTEX_POINT('',#1177);
#1177 = CARTESIAN_POINT('',(2.599,-1.E-03,1.001));
#1178 = LINE('',#1179,#1180);
#1179 = CARTESIAN_POINT('',(3.001,-1.E-03,1.001));
#1180 = VECTOR('',#1181,1.);
#1181 = DIRECTION('',(-1.,1.224646799147E-16,0.));
#1182 = ORIENTED_EDGE('',*,*,#996,.F.);
#1183 = ORIENTED_EDGE('',*,*,#1184,.T.);
#1184 = EDGE_CURVE('',#989,#1185,#1187,.T.);
#1185 = VERTEX_POINT('',#1186);
#1186 = CARTESIAN_POINT('',(2.599,9.9E-02,1.001));
#1187 = LINE('',#1188,#1189);
#1188 = CARTESIAN_POINT('',(3.001,9.9E-02,1.001));
#1189 = VECTOR('',#1190,1.);
#1190 = DIRECTION('',(-1.,1.224646799147E-16,0.));
#1191 = ORIENTED_EDGE('',*,*,#1192,.T.);
#1192 = EDGE_CURVE('',#1185,#1176,#1193,.T.);
#1193 = LINE('',#1194,#1195);
#1194 = CARTESIAN_POINT('',(2.599,9.9E-02,1.001));
#1195 = VECTOR('',#1196,1.);
#1196 = DIRECTION('',(-1.224646799147E-16,-1.,0.));
#1197 = PLANE('',#1198);
#1198 = AXIS2_PLACEMENT_3D('',#1199,#1200,#1201);
#1199 = CARTESIAN_POINT('',(3.001,9.9E-02,1.001));
#1200 = DIRECTION('',(0.,0.,1.));
#1201 = DIRECTION('',(-1.,1.224646799147E-16,0.));
#1202 = ADVANCED_FACE('',(#1203),#1221,.T.);
#1203 = FACE_BOUND('',#1204,.T.);
#1204 = EDGE_LOOP('',(#1205,#1213,#1214,#1215));
#1205 = ORIENTED_EDGE('',*,*,#1206,.F.);
#1206 = EDGE_CURVE('',#1020,#1207,#1209,.T.);
#1207 = VERTEX_POINT('',#1208);
#1208 = CARTESIAN_POINT('',(2.9,-3.E-03,-1.E-03));
#1209 = LINE('',#1210,#1211);
#1210 = CARTESIAN_POINT('',(3.001,-3.E-03,-1.E-03));
#1211 = VECTOR('',#1212,1.);
#1212 = DIRECTION('',(-1.,1.224646799147E-16,0.));
#1213 = ORIENTED_EDGE('',*,*,#1027,.T.);
#1214 = ORIENTED_EDGE('',*,*,#1161,.T.);
#1215 = ORIENTED_EDGE('',*,*,#1216,.F.);
#1216 = EDGE_CURVE('',#1207,#1154,#1217,.T.);
#1217 = LINE('',#1218,#1219);
#1218 = CARTESIAN_POINT('',(2.9,-3.E-03,-1.E-03));
#1219 = VECTOR('',#1220,1.);
#1220 = DIRECTION('',(0.,0.,1.));
#1221 = PLANE('',#1222);
#1222 = AXIS2_PLACEMENT_3D('',#1223,#1224,#1225);
#1223 = CARTESIAN_POINT('',(3.001,-3.E-03,-1.E-03));
#1224 = DIRECTION('',(-1.224646799147E-16,-1.,0.));
#1225 = DIRECTION('',(0.,0.,1.));
#1226 = ADVANCED_FACE('',(#1227),#1238,.F.);
#1227 = FACE_BOUND('',#1228,.F.);
#1228 = EDGE_LOOP('',(#1229,#1230,#1231,#1237));
#1229 = ORIENTED_EDGE('',*,*,#1019,.F.);
#1230 = ORIENTED_EDGE('',*,*,#1041,.T.);
#1231 = ORIENTED_EDGE('',*,*,#1232,.T.);
#1232 = EDGE_CURVE('',#1042,#1207,#1233,.T.);
#1233 = LINE('',#1234,#1235);
#1234 = CARTESIAN_POINT('',(2.9,0.999,-1.E-03));
#1235 = VECTOR('',#1236,1.);
#1236 = DIRECTION('',(-1.224646799147E-16,-1.,0.));
#1237 = ORIENTED_EDGE('',*,*,#1206,.F.);
#1238 = PLANE('',#1239);
#1239 = AXIS2_PLACEMENT_3D('',#1240,#1241,#1242);
#1240 = CARTESIAN_POINT('',(3.001,0.999,-1.E-03));
#1241 = DIRECTION('',(0.,0.,1.));
#1242 = DIRECTION('',(-1.,1.224646799147E-16,0.));
#1243 = ADVANCED_FACE('',(#1244),#1269,.F.);
#1244 = FACE_BOUND('',#1245,.F.);
#1245 = EDGE_LOOP('',(#1246,#1254,#1255,#1263));
#1246 = ORIENTED_EDGE('',*,*,#1247,.F.);
#1247 = EDGE_CURVE('',#1042,#1248,#1250,.T.);
#1248 = VERTEX_POINT('',#1249);
#1249 = CARTESIAN_POINT('',(2.599,-1.E-03,-1.E-03));
#1250 = LINE('',#1251,#1252);
#1251 = CARTESIAN_POINT('',(3.001,-1.E-03,-1.E-03));
#1252 = VECTOR('',#1253,1.);
#1253 = DIRECTION('',(-1.,1.224646799147E-16,0.));
#1254 = ORIENTED_EDGE('',*,*,#1058,.F.);
#1255 = ORIENTED_EDGE('',*,*,#1256,.T.);
#1256 = EDGE_CURVE('',#1051,#1257,#1259,.T.);
#1257 = VERTEX_POINT('',#1258);
#1258 = CARTESIAN_POINT('',(2.599,9.9E-02,-1.E-03));
#1259 = LINE('',#1260,#1261);
#1260 = CARTESIAN_POINT('',(3.001,9.9E-02,-1.E-03));
#1261 = VECTOR('',#1262,1.);
#1262 = DIRECTION('',(-1.,1.224646799147E-16,0.));
#1263 = ORIENTED_EDGE('',*,*,#1264,.T.);
#1264 = EDGE_CURVE('',#1257,#1248,#1265,.T.);
#1265 = LINE('',#1266,#1267);
#1266 = CARTESIAN_POINT('',(2.599,9.9E-02,-1.E-03));
#1267 = VECTOR('',#1268,1.);
#1268 = DIRECTION('',(-1.224646799147E-16,-1.,0.));
#1269 = PLANE('',#1270);
#1270 = AXIS2_PLACEMENT_3D('',#1271,#1272,#1273);
#1271 = CARTESIAN_POINT('',(3.001,9.9E-02,-1.E-03));
#1272 = DIRECTION('',(0.,0.,1.));
#1273 = DIRECTION('',(-1.,1.224646799147E-16,0.));
#1274 = ADVANCED_FACE('',(#1275),#1291,.T.);
#1275 = FACE_BOUND('',#1276,.T.);
#1276 = EDGE_LOOP('',(#1277,#1278,#1284,#1285));
#1277 = ORIENTED_EDGE('',*,*,#1081,.F.);
#1278 = ORIENTED_EDGE('',*,*,#1279,.T.);
#1279 = EDGE_CURVE('',#1074,#1098,#1280,.T.);
#1280 = LINE('',#1281,#1282);
#1281 = CARTESIAN_POINT('',(2.9,0.901,-1.E-03));
#1282 = VECTOR('',#1283,1.);
#1283 = DIRECTION('',(-0.,0.,-1.));
#1284 = ORIENTED_EDGE('',*,*,#1105,.T.);
#1285 = ORIENTED_EDGE('',*,*,#1286,.F.);
#1286 = EDGE_CURVE('',#989,#1051,#1287,.T.);
#1287 = LINE('',#1288,#1289);
#1288 = CARTESIAN_POINT('',(2.9,9.9E-02,-1.E-03));
#1289 = VECTOR('',#1290,1.);
#1290 = DIRECTION('',(-0.,0.,-1.));
#1291 = PLANE('',#1292);
#1292 = AXIS2_PLACEMENT_3D('',#1293,#1294,#1295);
#1293 = CARTESIAN_POINT('',(2.9,0.999,-1.E-03));
#1294 = DIRECTION('',(-1.,1.224646799147E-16,0.));
#1295 = DIRECTION('',(0.,0.,1.));
#1296 = ADVANCED_FACE('',(#1297),#1315,.T.);
#1297 = FACE_BOUND('',#1298,.T.);
#1298 = EDGE_LOOP('',(#1299,#1300,#1308,#1314));
#1299 = ORIENTED_EDGE('',*,*,#1120,.F.);
#1300 = ORIENTED_EDGE('',*,*,#1301,.T.);
#1301 = EDGE_CURVE('',#1121,#1302,#1304,.T.);
#1302 = VERTEX_POINT('',#1303);
#1303 = CARTESIAN_POINT('',(2.9,0.999,1.001));
#1304 = LINE('',#1305,#1306);
#1305 = CARTESIAN_POINT('',(3.001,0.999,1.001));
#1306 = VECTOR('',#1307,1.);
#1307 = DIRECTION('',(-1.,1.224646799147E-16,0.));
#1308 = ORIENTED_EDGE('',*,*,#1309,.T.);
#1309 = EDGE_CURVE('',#1302,#1074,#1310,.T.);
#1310 = LINE('',#1311,#1312);
#1311 = CARTESIAN_POINT('',(2.9,0.999,1.001));
#1312 = VECTOR('',#1313,1.);
#1313 = DIRECTION('',(-1.224646799147E-16,-1.,0.));
#1314 = ORIENTED_EDGE('',*,*,#1073,.F.);
#1315 = PLANE('',#1316);
#1316 = AXIS2_PLACEMENT_3D('',#1317,#1318,#1319);
#1317 = CARTESIAN_POINT('',(3.001,1.001,1.001));
#1318 = DIRECTION('',(0.,0.,1.));
#1319 = DIRECTION('',(-1.,1.224646799147E-16,0.));
#1320 = ADVANCED_FACE('',(#1321),#1339,.F.);
#1321 = FACE_BOUND('',#1322,.F.);
#1322 = EDGE_LOOP('',(#1323,#1324,#1332,#1338));
#1323 = ORIENTED_EDGE('',*,*,#1136,.F.);
#1324 = ORIENTED_EDGE('',*,*,#1325,.T.);
#1325 = EDGE_CURVE('',#1129,#1326,#1328,.T.);
#1326 = VERTEX_POINT('',#1327);
#1327 = CARTESIAN_POINT('',(2.9,0.999,-1.E-03));
#1328 = LINE('',#1329,#1330);
#1329 = CARTESIAN_POINT('',(3.001,0.999,-1.E-03));
#1330 = VECTOR('',#1331,1.);
#1331 = DIRECTION('',(-1.,1.224646799147E-16,0.));
#1332 = ORIENTED_EDGE('',*,*,#1333,.T.);
#1333 = EDGE_CURVE('',#1326,#1098,#1334,.T.);
#1334 = LINE('',#1335,#1336);
#1335 = CARTESIAN_POINT('',(2.9,0.999,-1.E-03));
#1336 = VECTOR('',#1337,1.);
#1337 = DIRECTION('',(-1.224646799147E-16,-1.,0.));
#1338 = ORIENTED_EDGE('',*,*,#1097,.F.);
#1339 = PLANE('',#1340);
#1340 = AXIS2_PLACEMENT_3D('',#1341,#1342,#1343);
#1341 = CARTESIAN_POINT('',(3.001,1.001,-1.E-03));
#1342 = DIRECTION('',(0.,0.,1.));
#1343 = DIRECTION('',(-1.,1.224646799147E-16,0.));
#1344 = ADVANCED_FACE('',(#1345),#1370,.F.);
#1345 = FACE_BOUND('',#1346,.F.);
#1346 = EDGE_LOOP('',(#1347,#1355,#1363,#1369));
#1347 = ORIENTED_EDGE('',*,*,#1348,.F.);
#1348 = EDGE_CURVE('',#1349,#1121,#1351,.T.);
#1349 = VERTEX_POINT('',#1350);
#1350 = CARTESIAN_POINT('',(3.001,1.001,1.001));
#1351 = LINE('',#1352,#1353);
#1352 = CARTESIAN_POINT('',(3.001,1.001,1.001));
#1353 = VECTOR('',#1354,1.);
#1354 = DIRECTION('',(-1.224646799147E-16,-1.,0.));
#1355 = ORIENTED_EDGE('',*,*,#1356,.F.);
#1356 = EDGE_CURVE('',#1357,#1349,#1359,.T.);
#1357 = VERTEX_POINT('',#1358);
#1358 = CARTESIAN_POINT('',(3.001,1.001,-1.E-03));
#1359 = LINE('',#1360,#1361);
#1360 = CARTESIAN_POINT('',(3.001,1.001,-1.E-03));
#1361 = VECTOR('',#1362,1.);
#1362 = DIRECTION('',(0.,0.,1.));
#1363 = ORIENTED_EDGE('',*,*,#1364,.T.);
#1364 = EDGE_CURVE('',#1357,#1129,#1365,.T.);
#1365 = LINE('',#1366,#1367);
#1366 = CARTESIAN_POINT('',(3.001,1.001,-1.E-03));
#1367 = VECTOR('',#1368,1.);
#1368 = DIRECTION('',(-1.224646799147E-16,-1.,0.));
#1369 = ORIENTED_EDGE('',*,*,#1128,.T.);
#1370 = PLANE('',#1371);
#1371 = AXIS2_PLACEMENT_3D('',#1372,#1373,#1374);
#1372 = CARTESIAN_POINT('',(3.001,1.001,-1.E-03));
#1373 = DIRECTION('',(-1.,1.224646799147E-16,0.));
#1374 = DIRECTION('',(0.,0.,1.));
#1375 = ADVANCED_FACE('',(#1376),#1387,.T.);
#1376 = FACE_BOUND('',#1377,.T.);
#1377 = EDGE_LOOP('',(#1378,#1379,#1385,#1386));
#1378 = ORIENTED_EDGE('',*,*,#1153,.F.);
#1379 = ORIENTED_EDGE('',*,*,#1380,.T.);
#1380 = EDGE_CURVE('',#980,#1042,#1381,.T.);
#1381 = LINE('',#1382,#1383);
#1382 = CARTESIAN_POINT('',(2.9,-1.E-03,-1.E-03));
#1383 = VECTOR('',#1384,1.);
#1384 = DIRECTION('',(-0.,0.,-1.));
#1385 = ORIENTED_EDGE('',*,*,#1232,.T.);
#1386 = ORIENTED_EDGE('',*,*,#1216,.T.);
#1387 = PLANE('',#1388);
#1388 = AXIS2_PLACEMENT_3D('',#1389,#1390,#1391);
#1389 = CARTESIAN_POINT('',(2.9,0.999,-1.E-03));
#1390 = DIRECTION('',(-1.,1.224646799147E-16,0.));
#1391 = DIRECTION('',(0.,0.,1.));
#1392 = ADVANCED_FACE('',(#1393),#1404,.T.);
#1393 = FACE_BOUND('',#1394,.T.);
#1394 = EDGE_LOOP('',(#1395,#1396,#1397,#1398));
#1395 = ORIENTED_EDGE('',*,*,#1247,.F.);
#1396 = ORIENTED_EDGE('',*,*,#1380,.F.);
#1397 = ORIENTED_EDGE('',*,*,#1175,.T.);
#1398 = ORIENTED_EDGE('',*,*,#1399,.F.);
#1399 = EDGE_CURVE('',#1248,#1176,#1400,.T.);
#1400 = LINE('',#1401,#1402);
#1401 = CARTESIAN_POINT('',(2.599,-1.E-03,-1.E-03));
#1402 = VECTOR('',#1403,1.);
#1403 = DIRECTION('',(0.,0.,1.));
#1404 = PLANE('',#1405);
#1405 = AXIS2_PLACEMENT_3D('',#1406,#1407,#1408);
#1406 = CARTESIAN_POINT('',(3.001,-1.E-03,-1.E-03));
#1407 = DIRECTION('',(-1.224646799147E-16,-1.,0.));
#1408 = DIRECTION('',(0.,0.,1.));
#1409 = ADVANCED_FACE('',(#1410),#1421,.T.);
#1410 = FACE_BOUND('',#1411,.T.);
#1411 = EDGE_LOOP('',(#1412,#1418,#1419,#1420));
#1412 = ORIENTED_EDGE('',*,*,#1413,.F.);
#1413 = EDGE_CURVE('',#1257,#1185,#1414,.T.);
#1414 = LINE('',#1415,#1416);
#1415 = CARTESIAN_POINT('',(2.599,9.9E-02,-1.E-03));
#1416 = VECTOR('',#1417,1.);
#1417 = DIRECTION('',(0.,0.,1.));
#1418 = ORIENTED_EDGE('',*,*,#1264,.T.);
#1419 = ORIENTED_EDGE('',*,*,#1399,.T.);
#1420 = ORIENTED_EDGE('',*,*,#1192,.F.);
#1421 = PLANE('',#1422);
#1422 = AXIS2_PLACEMENT_3D('',#1423,#1424,#1425);
#1423 = CARTESIAN_POINT('',(2.599,9.9E-02,-1.E-03));
#1424 = DIRECTION('',(-1.,1.224646799147E-16,0.));
#1425 = DIRECTION('',(0.,0.,1.));
#1426 = ADVANCED_FACE('',(#1427),#1433,.F.);
#1427 = FACE_BOUND('',#1428,.F.);
#1428 = EDGE_LOOP('',(#1429,#1430,#1431,#1432));
#1429 = ORIENTED_EDGE('',*,*,#1256,.F.);
#1430 = ORIENTED_EDGE('',*,*,#1286,.F.);
#1431 = ORIENTED_EDGE('',*,*,#1184,.T.);
#1432 = ORIENTED_EDGE('',*,*,#1413,.F.);
#1433 = PLANE('',#1434);
#1434 = AXIS2_PLACEMENT_3D('',#1435,#1436,#1437);
#1435 = CARTESIAN_POINT('',(3.001,9.9E-02,-1.E-03));
#1436 = DIRECTION('',(-1.224646799147E-16,-1.,0.));
#1437 = DIRECTION('',(0.,0.,1.));
#1438 = ADVANCED_FACE('',(#1439),#1464,.T.);
#1439 = FACE_BOUND('',#1440,.T.);
#1440 = EDGE_LOOP('',(#1441,#1449,#1450,#1458));
#1441 = ORIENTED_EDGE('',*,*,#1442,.F.);
#1442 = EDGE_CURVE('',#1098,#1443,#1445,.T.);
#1443 = VERTEX_POINT('',#1444);
#1444 = CARTESIAN_POINT('',(2.599,0.901,-1.E-03));
#1445 = LINE('',#1446,#1447);
#1446 = CARTESIAN_POINT('',(3.001,0.901,-1.E-03));
#1447 = VECTOR('',#1448,1.);
#1448 = DIRECTION('',(-1.,1.224646799147E-16,0.));
#1449 = ORIENTED_EDGE('',*,*,#1279,.F.);
#1450 = ORIENTED_EDGE('',*,*,#1451,.T.);
#1451 = EDGE_CURVE('',#1074,#1452,#1454,.T.);
#1452 = VERTEX_POINT('',#1453);
#1453 = CARTESIAN_POINT('',(2.599,0.901,1.001));
#1454 = LINE('',#1455,#1456);
#1455 = CARTESIAN_POINT('',(3.001,0.901,1.001));
#1456 = VECTOR('',#1457,1.);
#1457 = DIRECTION('',(-1.,1.224646799147E-16,0.));
#1458 = ORIENTED_EDGE('',*,*,#1459,.F.);
#1459 = EDGE_CURVE('',#1443,#1452,#1460,.T.);
#1460 = LINE('',#1461,#1462);
#1461 = CARTESIAN_POINT('',(2.599,0.901,-1.E-03));
#1462 = VECTOR('',#1463,1.);
#1463 = DIRECTION('',(0.,0.,1.));
#1464 = PLANE('',#1465);
#1465 = AXIS2_PLACEMENT_3D('',#1466,#1467,#1468);
#1466 = CARTESIAN_POINT('',(3.001,0.901,-1.E-03));
#1467 = DIRECTION('',(-1.224646799147E-16,-1.,0.));
#1468 = DIRECTION('',(0.,0.,1.));
#1469 = ADVANCED_FACE('',(#1470),#1490,.T.);
#1470 = FACE_BOUND('',#1471,.T.);
#1471 = EDGE_LOOP('',(#1472,#1473,#1481,#1487,#1488,#1489));
#1472 = ORIENTED_EDGE('',*,*,#1348,.F.);
#1473 = ORIENTED_EDGE('',*,*,#1474,.T.);
#1474 = EDGE_CURVE('',#1349,#1475,#1477,.T.);
#1475 = VERTEX_POINT('',#1476);
#1476 = CARTESIAN_POINT('',(2.599,1.001,1.001));
#1477 = LINE('',#1478,#1479);
#1478 = CARTESIAN_POINT('',(3.001,1.001,1.001));
#1479 = VECTOR('',#1480,1.);
#1480 = DIRECTION('',(-1.,1.224646799147E-16,0.));
#1481 = ORIENTED_EDGE('',*,*,#1482,.T.);
#1482 = EDGE_CURVE('',#1475,#1452,#1483,.T.);
#1483 = LINE('',#1484,#1485);
#1484 = CARTESIAN_POINT('',(2.599,1.001,1.001));
#1485 = VECTOR('',#1486,1.);
#1486 = DIRECTION('',(-1.224646799147E-16,-1.,0.));
#1487 = ORIENTED_EDGE('',*,*,#1451,.F.);
#1488 = ORIENTED_EDGE('',*,*,#1309,.F.);
#1489 = ORIENTED_EDGE('',*,*,#1301,.F.);
#1490 = PLANE('',#1491);
#1491 = AXIS2_PLACEMENT_3D('',#1492,#1493,#1494);
#1492 = CARTESIAN_POINT('',(3.001,1.001,1.001));
#1493 = DIRECTION('',(0.,0.,1.));
#1494 = DIRECTION('',(-1.,1.224646799147E-16,0.));
#1495 = ADVANCED_FACE('',(#1496),#1516,.F.);
#1496 = FACE_BOUND('',#1497,.F.);
#1497 = EDGE_LOOP('',(#1498,#1499,#1507,#1513,#1514,#1515));
#1498 = ORIENTED_EDGE('',*,*,#1364,.F.);
#1499 = ORIENTED_EDGE('',*,*,#1500,.T.);
#1500 = EDGE_CURVE('',#1357,#1501,#1503,.T.);
#1501 = VERTEX_POINT('',#1502);
#1502 = CARTESIAN_POINT('',(2.599,1.001,-1.E-03));
#1503 = LINE('',#1504,#1505);
#1504 = CARTESIAN_POINT('',(3.001,1.001,-1.E-03));
#1505 = VECTOR('',#1506,1.);
#1506 = DIRECTION('',(-1.,1.224646799147E-16,0.));
#1507 = ORIENTED_EDGE('',*,*,#1508,.T.);
#1508 = EDGE_CURVE('',#1501,#1443,#1509,.T.);
#1509 = LINE('',#1510,#1511);
#1510 = CARTESIAN_POINT('',(2.599,1.001,-1.E-03));
#1511 = VECTOR('',#1512,1.);
#1512 = DIRECTION('',(-1.224646799147E-16,-1.,0.));
#1513 = ORIENTED_EDGE('',*,*,#1442,.F.);
#1514 = ORIENTED_EDGE('',*,*,#1333,.F.);
#1515 = ORIENTED_EDGE('',*,*,#1325,.F.);
#1516 = PLANE('',#1517);
#1517 = AXIS2_PLACEMENT_3D('',#1518,#1519,#1520);
#1518 = CARTESIAN_POINT('',(3.001,1.001,-1.E-03));
#1519 = DIRECTION('',(0.,0.,1.));
#1520 = DIRECTION('',(-1.,1.224646799147E-16,0.));
#1521 = ADVANCED_FACE('',(#1522),#1533,.F.);
#1522 = FACE_BOUND('',#1523,.F.);
#1523 = EDGE_LOOP('',(#1524,#1525,#1526,#1527));
#1524 = ORIENTED_EDGE('',*,*,#1500,.F.);
#1525 = ORIENTED_EDGE('',*,*,#1356,.T.);
#1526 = ORIENTED_EDGE('',*,*,#1474,.T.);
#1527 = ORIENTED_EDGE('',*,*,#1528,.F.);
#1528 = EDGE_CURVE('',#1501,#1475,#1529,.T.);
#1529 = LINE('',#1530,#1531);
#1530 = CARTESIAN_POINT('',(2.599,1.001,-1.E-03));
#1531 = VECTOR('',#1532,1.);
#1532 = DIRECTION('',(0.,0.,1.));
#1533 = PLANE('',#1534);
#1534 = AXIS2_PLACEMENT_3D('',#1535,#1536,#1537);
#1535 = CARTESIAN_POINT('',(3.001,1.001,-1.E-03));
#1536 = DIRECTION('',(-1.224646799147E-16,-1.,0.));
#1537 = DIRECTION('',(0.,0.,1.));
#1538 = ADVANCED_FACE('',(#1539),#1545,.T.);
#1539 = FACE_BOUND('',#1540,.T.);
#1540 = EDGE_LOOP('',(#1541,#1542,#1543,#1544));
#1541 = ORIENTED_EDGE('',*,*,#1528,.F.);
#1542 = ORIENTED_EDGE('',*,*,#1508,.T.);
#1543 = ORIENTED_EDGE('',*,*,#1459,.T.);
#1544 = ORIENTED_EDGE('',*,*,#1482,.F.);
#1545 = PLANE('',#1546);
#1546 = AXIS2_PLACEMENT_3D('',#1547,#1548,#1549);
#1547 = CARTESIAN_POINT('',(2.599,1.001,-1.E-03));
#1548 = DIRECTION('',(-1.,1.224646799147E-16,0.));
#1549 = DIRECTION('',(0.,0.,1.));
#1550 = ( GEOMETRIC_REPRESENTATION_CONTEXT(3) 
GLOBAL_UNCERTAINTY_ASSIGNED_CONTEXT((#1554)) 
GLOBAL_UNIT_ASSIGNED_CONTEXT((#1551,#1552,#1553)) REPRESENTATION_CONTEXT
('Context #1','3D Context with UNIT and UNCERTAINTY') );
#1551 = ( LENGTH_UNIT() NAMED_UNIT(*) SI_UNIT(.MILLI.,.METRE.) );
#1552 = ( NAMED_UNIT(*) PLANE_ANGLE_UNIT() SI_UNIT($,.RADIAN.) );
#1553 = ( NAMED_UNIT(*) SI_UNIT($,.STERADIAN.) SOLID_ANGLE_UNIT() );
#1554 = UNCERTAINTY_MEASURE_WITH_UNIT(LENGTH_MEASURE(1.E-07),#1551,
  'distance_accuracy_value','confusion accuracy');
#1555 = PRODUCT_RELATED_PRODUCT_CATEGORY('part',$,(#898));
#1556 = SHAPE_DEFINITION_REPRESENTATION(#1557,#1563);
#1557 = PRODUCT_DEFINITION_SHAPE('','',#1558);
#1558 = PRODUCT_DEFINITION('design','',#1559,#1562);
#1559 = PRODUCT_DEFINITION_FORMATION('','',#1560);
#1560 = PRODUCT('cube001','cube001','',(#1561));
#1561 = PRODUCT_CONTEXT('',#2,'mechanical');
#1562 = PRODUCT_DEFINITION_CONTEXT('part definition',#2,'design');
#1563 = ADVANCED_BREP_SHAPE_REPRESENTATION('',(#11,#1564),#1714);
#1564 = MANIFOLD_SOLID_BREP('',#1565);
#1565 = CLOSED_SHELL('',(#1566,#1606,#1646,#1668,#1690,#1702));
#1566 = ADVANCED_FACE('',(#1567),#1601,.F.);
#1567 = FACE_BOUND('',#1568,.F.);
#1568 = EDGE_LOOP('',(#1569,#1579,#1587,#1595));
#1569 = ORIENTED_EDGE('',*,*,#1570,.F.);
#1570 = EDGE_CURVE('',#1571,#1573,#1575,.T.);
#1571 = VERTEX_POINT('',#1572);
#1572 = CARTESIAN_POINT('',(-1.E-03,0.901,-1.E-03));
#1573 = VERTEX_POINT('',#1574);
#1574 = CARTESIAN_POINT('',(-1.E-03,0.901,1.001));
#1575 = LINE('',#1576,#1577);
#1576 = CARTESIAN_POINT('',(-1.E-03,0.901,-1.E-03));
#1577 = VECTOR('',#1578,1.);
#1578 = DIRECTION('',(0.,0.,1.));
#1579 = ORIENTED_EDGE('',*,*,#1580,.T.);
#1580 = EDGE_CURVE('',#1571,#1581,#1583,.T.);
#1581 = VERTEX_POINT('',#1582);
#1582 = CARTESIAN_POINT('',(-1.E-03,1.001,-1.E-03));
#1583 = LINE('',#1584,#1585);
#1584 = CARTESIAN_POINT('',(-1.E-03,0.901,-1.E-03));
#1585 = VECTOR('',#1586,1.);
#1586 = DIRECTION('',(0.,1.,0.));
#1587 = ORIENTED_EDGE('',*,*,#1588,.T.);
#1588 = EDGE_CURVE('',#1581,#1589,#1591,.T.);
#1589 = VERTEX_POINT('',#1590);
#1590 = CARTESIAN_POINT('',(-1.E-03,1.001,1.001));
#1591 = LINE('',#1592,#1593);
#1592 = CARTESIAN_POINT('',(-1.E-03,1.001,-1.E-03));
#1593 = VECTOR('',#1594,1.);
#1594 = DIRECTION('',(0.,0.,1.));
#1595 = ORIENTED_EDGE('',*,*,#1596,.F.);
#1596 = EDGE_CURVE('',#1573,#1589,#1597,.T.);
#1597 = LINE('',#1598,#1599);
#1598 = CARTESIAN_POINT('',(-1.E-03,0.901,1.001));
#1599 = VECTOR('',#1600,1.);
#1600 = DIRECTION('',(0.,1.,0.));
#1601 = PLANE('',#1602);
#1602 = AXIS2_PLACEMENT_3D('',#1603,#1604,#1605);
#1603 = CARTESIAN_POINT('',(-1.E-03,0.901,-1.E-03));
#1604 = DIRECTION('',(1.,0.,0.));
#1605 = DIRECTION('',(0.,0.,1.));
#1606 = ADVANCED_FACE('',(#1607),#1641,.T.);
#1607 = FACE_BOUND('',#1608,.T.);
#1608 = EDGE_LOOP('',(#1609,#1619,#1627,#1635));
#1609 = ORIENTED_EDGE('',*,*,#1610,.F.);
#1610 = EDGE_CURVE('',#1611,#1613,#1615,.T.);
#1611 = VERTEX_POINT('',#1612);
#1612 = CARTESIAN_POINT('',(0.401,0.901,-1.E-03));
#1613 = VERTEX_POINT('',#1614);
#1614 = CARTESIAN_POINT('',(0.401,0.901,1.001));
#1615 = LINE('',#1616,#1617);
#1616 = CARTESIAN_POINT('',(0.401,0.901,-1.E-03));
#1617 = VECTOR('',#1618,1.);
#1618 = DIRECTION('',(0.,0.,1.));
#1619 = ORIENTED_EDGE('',*,*,#1620,.T.);
#1620 = EDGE_CURVE('',#1611,#1621,#1623,.T.);
#1621 = VERTEX_POINT('',#1622);
#1622 = CARTESIAN_POINT('',(0.401,1.001,-1.E-03));
#1623 = LINE('',#1624,#1625);
#1624 = CARTESIAN_POINT('',(0.401,0.901,-1.E-03));
#1625 = VECTOR('',#1626,1.);
#1626 = DIRECTION('',(0.,1.,0.));
#1627 = ORIENTED_EDGE('',*,*,#1628,.T.);
#1628 = EDGE_CURVE('',#1621,#1629,#1631,.T.);
#1629 = VERTEX_POINT('',#1630);
#1630 = CARTESIAN_POINT('',(0.401,1.001,1.001));
#1631 = LINE('',#1632,#1633);
#1632 = CARTESIAN_POINT('',(0.401,1.001,-1.E-03));
#1633 = VECTOR('',#1634,1.);
#1634 = DIRECTION('',(0.,0.,1.));
#1635 = ORIENTED_EDGE('',*,*,#1636,.F.);
#1636 = EDGE_CURVE('',#1613,#1629,#1637,.T.);
#1637 = LINE('',#1638,#1639);
#1638 = CARTESIAN_POINT('',(0.401,0.901,1.001));
#1639 = VECTOR('',#1640,1.);
#1640 = DIRECTION('',(0.,1.,0.));
#1641 = PLANE('',#1642);
#1642 = AXIS2_PLACEMENT_3D('',#1643,#1644,#1645);
#1643 = CARTESIAN_POINT('',(0.401,0.901,-1.E-03));
#1644 = DIRECTION('',(1.,0.,0.));
#1645 = DIRECTION('',(0.,0.,1.));
#1646 = ADVANCED_FACE('',(#1647),#1663,.F.);
#1647 = FACE_BOUND('',#1648,.F.);
#1648 = EDGE_LOOP('',(#1649,#1655,#1656,#1662));
#1649 = ORIENTED_EDGE('',*,*,#1650,.F.);
#1650 = EDGE_CURVE('',#1571,#1611,#1651,.T.);
#1651 = LINE('',#1652,#1653);
#1652 = CARTESIAN_POINT('',(-1.E-03,0.901,-1.E-03));
#1653 = VECTOR('',#1654,1.);
#1654 = DIRECTION('',(1.,0.,0.));
#1655 = ORIENTED_EDGE('',*,*,#1570,.T.);
#1656 = ORIENTED_EDGE('',*,*,#1657,.T.);
#1657 = EDGE_CURVE('',#1573,#1613,#1658,.T.);
#1658 = LINE('',#1659,#1660);
#1659 = CARTESIAN_POINT('',(-1.E-03,0.901,1.001));
#1660 = VECTOR('',#1661,1.);
#1661 = DIRECTION('',(1.,0.,0.));
#1662 = ORIENTED_EDGE('',*,*,#1610,.F.);
#1663 = PLANE('',#1664);
#1664 = AXIS2_PLACEMENT_3D('',#1665,#1666,#1667);
#1665 = CARTESIAN_POINT('',(-1.E-03,0.901,-1.E-03));
#1666 = DIRECTION('',(0.,1.,0.));
#1667 = DIRECTION('',(0.,0.,1.));
#1668 = ADVANCED_FACE('',(#1669),#1685,.T.);
#1669 = FACE_BOUND('',#1670,.T.);
#1670 = EDGE_LOOP('',(#1671,#1677,#1678,#1684));
#1671 = ORIENTED_EDGE('',*,*,#1672,.F.);
#1672 = EDGE_CURVE('',#1581,#1621,#1673,.T.);
#1673 = LINE('',#1674,#1675);
#1674 = CARTESIAN_POINT('',(-1.E-03,1.001,-1.E-03));
#1675 = VECTOR('',#1676,1.);
#1676 = DIRECTION('',(1.,0.,0.));
#1677 = ORIENTED_EDGE('',*,*,#1588,.T.);
#1678 = ORIENTED_EDGE('',*,*,#1679,.T.);
#1679 = EDGE_CURVE('',#1589,#1629,#1680,.T.);
#1680 = LINE('',#1681,#1682);
#1681 = CARTESIAN_POINT('',(-1.E-03,1.001,1.001));
#1682 = VECTOR('',#1683,1.);
#1683 = DIRECTION('',(1.,0.,0.));
#1684 = ORIENTED_EDGE('',*,*,#1628,.F.);
#1685 = PLANE('',#1686);
#1686 = AXIS2_PLACEMENT_3D('',#1687,#1688,#1689);
#1687 = CARTESIAN_POINT('',(-1.E-03,1.001,-1.E-03));
#1688 = DIRECTION('',(0.,1.,0.));
#1689 = DIRECTION('',(0.,0.,1.));
#1690 = ADVANCED_FACE('',(#1691),#1697,.F.);
#1691 = FACE_BOUND('',#1692,.F.);
#1692 = EDGE_LOOP('',(#1693,#1694,#1695,#1696));
#1693 = ORIENTED_EDGE('',*,*,#1580,.F.);
#1694 = ORIENTED_EDGE('',*,*,#1650,.T.);
#1695 = ORIENTED_EDGE('',*,*,#1620,.T.);
#1696 = ORIENTED_EDGE('',*,*,#1672,.F.);
#1697 = PLANE('',#1698);
#1698 = AXIS2_PLACEMENT_3D('',#1699,#1700,#1701);
#1699 = CARTESIAN_POINT('',(-1.E-03,0.901,-1.E-03));
#1700 = DIRECTION('',(0.,0.,1.));
#1701 = DIRECTION('',(1.,0.,0.));
#1702 = ADVANCED_FACE('',(#1703),#1709,.T.);
#1703 = FACE_BOUND('',#1704,.T.);
#1704 = EDGE_LOOP('',(#1705,#1706,#1707,#1708));
#1705 = ORIENTED_EDGE('',*,*,#1596,.F.);
#1706 = ORIENTED_EDGE('',*,*,#1657,.T.);
#1707 = ORIENTED_EDGE('',*,*,#1636,.T.);
#1708 = ORIENTED_EDGE('',*,*,#1679,.F.);
#1709 = PLANE('',#1710);
#1710 = AXIS2_PLACEMENT_3D('',#1711,#1712,#1713);
#1711 = CARTESIAN_POINT('',(-1.E-03,0.901,1.001));
#1712 = DIRECTION('',(0.,0.,1.));
#1713 = DIRECTION('',(1.,0.,0.));
#1714 = ( GEOMETRIC_REPRESENTATION_CONTEXT(3) 
GLOBAL_UNCERTAINTY_ASSIGNED_CONTEXT((#1718)) 
GLOBAL_UNIT_ASSIGNED_CONTEXT((#1715,#1716,#1717)) REPRESENTATION_CONTEXT
('Context #1','3D Context with UNIT and UNCERTAINTY') );
#1715 = ( LENGTH_UNIT() NAMED_UNIT(*) SI_UNIT(.MILLI.,.METRE.) );
#1716 = ( NAMED_UNIT(*) PLANE_ANGLE_UNIT() SI_UNIT($,.RADIAN.) );
#1717 = ( NAMED_UNIT(*) SI_UNIT($,.STERADIAN.) SOLID_ANGLE_UNIT() );
#1718 = UNCERTAINTY_MEASURE_WITH_UNIT(LENGTH_MEASURE(1.E-07),#1715,
  'distance_accuracy_value','confusion accuracy');
#1719 = PRODUCT_RELATED_PRODUCT_CATEGORY('part',$,(#1560));
#1720 = SHAPE_DEFINITION_REPRESENTATION(#1721,#1727);
#1721 = PRODUCT_DEFINITION_SHAPE('','',#1722);
#1722 = PRODUCT_DEFINITION('design','',#1723,#1726);
#1723 = PRODUCT_DEFINITION_FORMATION('','',#1724);
#1724 = PRODUCT('cube006','cube006','',(#1725));
#1725 = PRODUCT_CONTEXT('',#2,'mechanical');
#1726 = PRODUCT_DEFINITION_CONTEXT('part definition',#2,'design');
#1727 = ADVANCED_BREP_SHAPE_REPRESENTATION('',(#11,#1728),#1878);
#1728 = MANIFOLD_SOLID_BREP('',#1729);
#1729 = CLOSED_SHELL('',(#1730,#1770,#1810,#1832,#1854,#1866));
#1730 = ADVANCED_FACE('',(#1731),#1765,.F.);
#1731 = FACE_BOUND('',#1732,.F.);
#1732 = EDGE_LOOP('',(#1733,#1743,#1751,#1759));
#1733 = ORIENTED_EDGE('',*,*,#1734,.F.);
#1734 = EDGE_CURVE('',#1735,#1737,#1739,.T.);
#1735 = VERTEX_POINT('',#1736);
#1736 = CARTESIAN_POINT('',(-1.E-03,1.E-03,-1.E-03));
#1737 = VERTEX_POINT('',#1738);
#1738 = CARTESIAN_POINT('',(-1.E-03,1.E-03,1.001));
#1739 = LINE('',#1740,#1741);
#1740 = CARTESIAN_POINT('',(-1.E-03,1.E-03,-1.E-03));
#1741 = VECTOR('',#1742,1.);
#1742 = DIRECTION('',(0.,0.,1.));
#1743 = ORIENTED_EDGE('',*,*,#1744,.T.);
#1744 = EDGE_CURVE('',#1735,#1745,#1747,.T.);
#1745 = VERTEX_POINT('',#1746);
#1746 = CARTESIAN_POINT('',(-1.E-03,1.003,-1.E-03));
#1747 = LINE('',#1748,#1749);
#1748 = CARTESIAN_POINT('',(-1.E-03,1.E-03,-1.E-03));
#1749 = VECTOR('',#1750,1.);
#1750 = DIRECTION('',(0.,1.,0.));
#1751 = ORIENTED_EDGE('',*,*,#1752,.T.);
#1752 = EDGE_CURVE('',#1745,#1753,#1755,.T.);
#1753 = VERTEX_POINT('',#1754);
#1754 = CARTESIAN_POINT('',(-1.E-03,1.003,1.001));
#1755 = LINE('',#1756,#1757);
#1756 = CARTESIAN_POINT('',(-1.E-03,1.003,-1.E-03));
#1757 = VECTOR('',#1758,1.);
#1758 = DIRECTION('',(0.,0.,1.));
#1759 = ORIENTED_EDGE('',*,*,#1760,.F.);
#1760 = EDGE_CURVE('',#1737,#1753,#1761,.T.);
#1761 = LINE('',#1762,#1763);
#1762 = CARTESIAN_POINT('',(-1.E-03,1.E-03,1.001));
#1763 = VECTOR('',#1764,1.);
#1764 = DIRECTION('',(0.,1.,0.));
#1765 = PLANE('',#1766);
#1766 = AXIS2_PLACEMENT_3D('',#1767,#1768,#1769);
#1767 = CARTESIAN_POINT('',(-1.E-03,1.E-03,-1.E-03));
#1768 = DIRECTION('',(1.,0.,0.));
#1769 = DIRECTION('',(0.,0.,1.));
#1770 = ADVANCED_FACE('',(#1771),#1805,.T.);
#1771 = FACE_BOUND('',#1772,.T.);
#1772 = EDGE_LOOP('',(#1773,#1783,#1791,#1799));
#1773 = ORIENTED_EDGE('',*,*,#1774,.F.);
#1774 = EDGE_CURVE('',#1775,#1777,#1779,.T.);
#1775 = VERTEX_POINT('',#1776);
#1776 = CARTESIAN_POINT('',(0.1,1.E-03,-1.E-03));
#1777 = VERTEX_POINT('',#1778);
#1778 = CARTESIAN_POINT('',(0.1,1.E-03,1.001));
#1779 = LINE('',#1780,#1781);
#1780 = CARTESIAN_POINT('',(0.1,1.E-03,-1.E-03));
#1781 = VECTOR('',#1782,1.);
#1782 = DIRECTION('',(0.,0.,1.));
#1783 = ORIENTED_EDGE('',*,*,#1784,.T.);
#1784 = EDGE_CURVE('',#1775,#1785,#1787,.T.);
#1785 = VERTEX_POINT('',#1786);
#1786 = CARTESIAN_POINT('',(0.1,1.003,-1.E-03));
#1787 = LINE('',#1788,#1789);
#1788 = CARTESIAN_POINT('',(0.1,1.E-03,-1.E-03));
#1789 = VECTOR('',#1790,1.);
#1790 = DIRECTION('',(0.,1.,0.));
#1791 = ORIENTED_EDGE('',*,*,#1792,.T.);
#1792 = EDGE_CURVE('',#1785,#1793,#1795,.T.);
#1793 = VERTEX_POINT('',#1794);
#1794 = CARTESIAN_POINT('',(0.1,1.003,1.001));
#1795 = LINE('',#1796,#1797);
#1796 = CARTESIAN_POINT('',(0.1,1.003,-1.E-03));
#1797 = VECTOR('',#1798,1.);
#1798 = DIRECTION('',(0.,0.,1.));
#1799 = ORIENTED_EDGE('',*,*,#1800,.F.);
#1800 = EDGE_CURVE('',#1777,#1793,#1801,.T.);
#1801 = LINE('',#1802,#1803);
#1802 = CARTESIAN_POINT('',(0.1,1.E-03,1.001));
#1803 = VECTOR('',#1804,1.);
#1804 = DIRECTION('',(0.,1.,0.));
#1805 = PLANE('',#1806);
#1806 = AXIS2_PLACEMENT_3D('',#1807,#1808,#1809);
#1807 = CARTESIAN_POINT('',(0.1,1.E-03,-1.E-03));
#1808 = DIRECTION('',(1.,0.,0.));
#1809 = DIRECTION('',(0.,0.,1.));
#1810 = ADVANCED_FACE('',(#1811),#1827,.F.);
#1811 = FACE_BOUND('',#1812,.F.);
#1812 = EDGE_LOOP('',(#1813,#1819,#1820,#1826));
#1813 = ORIENTED_EDGE('',*,*,#1814,.F.);
#1814 = EDGE_CURVE('',#1735,#1775,#1815,.T.);
#1815 = LINE('',#1816,#1817);
#1816 = CARTESIAN_POINT('',(-1.E-03,1.E-03,-1.E-03));
#1817 = VECTOR('',#1818,1.);
#1818 = DIRECTION('',(1.,0.,0.));
#1819 = ORIENTED_EDGE('',*,*,#1734,.T.);
#1820 = ORIENTED_EDGE('',*,*,#1821,.T.);
#1821 = EDGE_CURVE('',#1737,#1777,#1822,.T.);
#1822 = LINE('',#1823,#1824);
#1823 = CARTESIAN_POINT('',(-1.E-03,1.E-03,1.001));
#1824 = VECTOR('',#1825,1.);
#1825 = DIRECTION('',(1.,0.,0.));
#1826 = ORIENTED_EDGE('',*,*,#1774,.F.);
#1827 = PLANE('',#1828);
#1828 = AXIS2_PLACEMENT_3D('',#1829,#1830,#1831);
#1829 = CARTESIAN_POINT('',(-1.E-03,1.E-03,-1.E-03));
#1830 = DIRECTION('',(0.,1.,0.));
#1831 = DIRECTION('',(0.,0.,1.));
#1832 = ADVANCED_FACE('',(#1833),#1849,.T.);
#1833 = FACE_BOUND('',#1834,.T.);
#1834 = EDGE_LOOP('',(#1835,#1841,#1842,#1848));
#1835 = ORIENTED_EDGE('',*,*,#1836,.F.);
#1836 = EDGE_CURVE('',#1745,#1785,#1837,.T.);
#1837 = LINE('',#1838,#1839);
#1838 = CARTESIAN_POINT('',(-1.E-03,1.003,-1.E-03));
#1839 = VECTOR('',#1840,1.);
#1840 = DIRECTION('',(1.,0.,0.));
#1841 = ORIENTED_EDGE('',*,*,#1752,.T.);
#1842 = ORIENTED_EDGE('',*,*,#1843,.T.);
#1843 = EDGE_CURVE('',#1753,#1793,#1844,.T.);
#1844 = LINE('',#1845,#1846);
#1845 = CARTESIAN_POINT('',(-1.E-03,1.003,1.001));
#1846 = VECTOR('',#1847,1.);
#1847 = DIRECTION('',(1.,0.,0.));
#1848 = ORIENTED_EDGE('',*,*,#1792,.F.);
#1849 = PLANE('',#1850);
#1850 = AXIS2_PLACEMENT_3D('',#1851,#1852,#1853);
#1851 = CARTESIAN_POINT('',(-1.E-03,1.003,-1.E-03));
#1852 = DIRECTION('',(0.,1.,0.));
#1853 = DIRECTION('',(0.,0.,1.));
#1854 = ADVANCED_FACE('',(#1855),#1861,.F.);
#1855 = FACE_BOUND('',#1856,.F.);
#1856 = EDGE_LOOP('',(#1857,#1858,#1859,#1860));
#1857 = ORIENTED_EDGE('',*,*,#1744,.F.);
#1858 = ORIENTED_EDGE('',*,*,#1814,.T.);
#1859 = ORIENTED_EDGE('',*,*,#1784,.T.);
#1860 = ORIENTED_EDGE('',*,*,#1836,.F.);
#1861 = PLANE('',#1862);
#1862 = AXIS2_PLACEMENT_3D('',#1863,#1864,#1865);
#1863 = CARTESIAN_POINT('',(-1.E-03,1.E-03,-1.E-03));
#1864 = DIRECTION('',(0.,0.,1.));
#1865 = DIRECTION('',(1.,0.,0.));
#1866 = ADVANCED_FACE('',(#1867),#1873,.T.);
#1867 = FACE_BOUND('',#1868,.T.);
#1868 = EDGE_LOOP('',(#1869,#1870,#1871,#1872));
#1869 = ORIENTED_EDGE('',*,*,#1760,.F.);
#1870 = ORIENTED_EDGE('',*,*,#1821,.T.);
#1871 = ORIENTED_EDGE('',*,*,#1800,.T.);
#1872 = ORIENTED_EDGE('',*,*,#1843,.F.);
#1873 = PLANE('',#1874);
#1874 = AXIS2_PLACEMENT_3D('',#1875,#1876,#1877);
#1875 = CARTESIAN_POINT('',(-1.E-03,1.E-03,1.001));
#1876 = DIRECTION('',(0.,0.,1.));
#1877 = DIRECTION('',(1.,0.,0.));
#1878 = ( GEOMETRIC_REPRESENTATION_CONTEXT(3) 
GLOBAL_UNCERTAINTY_ASSIGNED_CONTEXT((#1882)) 
GLOBAL_UNIT_ASSIGNED_CONTEXT((#1879,#1880,#1881)) REPRESENTATION_CONTEXT
('Context #1','3D Context with UNIT and UNCERTAINTY') );
#1879 = ( LENGTH_UNIT() NAMED_UNIT(*) SI_UNIT(.MILLI.,.METRE.) );
#1880 = ( NAMED_UNIT(*) PLANE_ANGLE_UNIT() SI_UNIT($,.RADIAN.) );
#1881 = ( NAMED_UNIT(*) SI_UNIT($,.STERADIAN.) SOLID_ANGLE_UNIT() );
#1882 = UNCERTAINTY_MEASURE_WITH_UNIT(LENGTH_MEASURE(2.E-07),#1879,
  'distance_accuracy_value','confusion accuracy');
#1883 = PRODUCT_RELATED_PRODUCT_CATEGORY('part',$,(#1724));
#1884 = MECHANICAL_DESIGN_GEOMETRIC_PRESENTATION_REPRESENTATION('',(
    #1885),#888);
#1885 = STYLED_ITEM('color',(#1886),#738);
#1886 = PRESENTATION_STYLE_ASSIGNMENT((#1887,#1893));
#1887 = SURFACE_STYLE_USAGE(.BOTH.,#1888);
#1888 = SURFACE_SIDE_STYLE('',(#1889));
#1889 = SURFACE_STYLE_FILL_AREA(#1890);
#1890 = FILL_AREA_STYLE('',(#1891));
#1891 = FILL_AREA_STYLE_COLOUR('',#1892);
#1892 = COLOUR_RGB('',0.800000011921,0.800000011921,0.800000011921);
#1893 = CURVE_STYLE('',#1894,POSITIVE_LENGTH_MEASURE(0.1),#1892);
#1894 = DRAUGHTING_PRE_DEFINED_CURVE_FONT('continuous');
#1895 = MECHANICAL_DESIGN_GEOMETRIC_PRESENTATION_REPRESENTATION('',(
    #1896),#396);
#1896 = STYLED_ITEM('color',(#1897),#246);
#1897 = PRESENTATION_STYLE_ASSIGNMENT((#1898,#1904));
#1898 = SURFACE_STYLE_USAGE(.BOTH.,#1899);
#1899 = SURFACE_SIDE_STYLE('',(#1900));
#1900 = SURFACE_STYLE_FILL_AREA(#1901);
#1901 = FILL_AREA_STYLE('',(#1902));
#1902 = FILL_AREA_STYLE_COLOUR('',#1903);
#1903 = COLOUR_RGB('',0.699999988079,0.699999988079,0.699999988079);
#1904 = CURVE_STYLE('',#1905,POSITIVE_LENGTH_MEASURE(0.1),#1903);
#1905 = DRAUGHTING_PRE_DEFINED_CURVE_FONT('continuous');
#1906 = MECHANICAL_DESIGN_GEOMETRIC_PRESENTATION_REPRESENTATION('',(
    #1907),#1714);
#1907 = STYLED_ITEM('color',(#1908),#1564);
#1908 = PRESENTATION_STYLE_ASSIGNMENT((#1909,#1914));
#1909 = SURFACE_STYLE_USAGE(.BOTH.,#1910);
#1910 = SURFACE_SIDE_STYLE('',(#1911));
#1911 = SURFACE_STYLE_FILL_AREA(#1912);
#1912 = FILL_AREA_STYLE('',(#1913));
#1913 = FILL_AREA_STYLE_COLOUR('',#1903);
#1914 = CURVE_STYLE('',#1915,POSITIVE_LENGTH_MEASURE(0.1),#1903);
#1915 = DRAUGHTING_PRE_DEFINED_CURVE_FONT('continuous');
#1916 = MECHANICAL_DESIGN_GEOMETRIC_PRESENTATION_REPRESENTATION('',(
    #1917),#1878);
#1917 = STYLED_ITEM('color',(#1918),#1728);
#1918 = PRESENTATION_STYLE_ASSIGNMENT((#1919,#1924));
#1919 = SURFACE_STYLE_USAGE(.BOTH.,#1920);
#1920 = SURFACE_SIDE_STYLE('',(#1921));
#1921 = SURFACE_STYLE_FILL_AREA(#1922);
#1922 = FILL_AREA_STYLE('',(#1923));
#1923 = FILL_AREA_STYLE_COLOUR('',#1892);
#1924 = CURVE_STYLE('',#1925,POSITIVE_LENGTH_MEASURE(0.1),#1892);
#1925 = DRAUGHTING_PRE_DEFINED_CURVE_FONT('continuous');
#1926 = MECHANICAL_DESIGN_GEOMETRIC_PRESENTATION_REPRESENTATION('',(
    #1927),#232);
#1927 = STYLED_ITEM('color',(#1928),#179);
#1928 = PRESENTATION_STYLE_ASSIGNMENT((#1929,#1935));
#1929 = SURFACE_STYLE_USAGE(.BOTH.,#1930);
#1930 = SURFACE_SIDE_STYLE('',(#1931));
#1931 = SURFACE_STYLE_FILL_AREA(#1932);
#1932 = FILL_AREA_STYLE('',(#1933));
#1933 = FILL_AREA_STYLE_COLOUR('',#1934);
#1934 = COLOUR_RGB('',0.800000011921,0.800000011921,0.);
#1935 = CURVE_STYLE('',#1936,POSITIVE_LENGTH_MEASURE(0.1),#1934);
#1936 = DRAUGHTING_PRE_DEFINED_CURVE_FONT('continuous');
#1937 = MECHANICAL_DESIGN_GEOMETRIC_PRESENTATION_REPRESENTATION('',(
    #1938,#1945,#1952,#1959,#1966,#1973,#1980,#1987,#1994,#2001,#2008,
    #2015,#2022,#2029,#2036,#2043,#2050,#2057,#2064,#2071,#2078,#2085,
    #2092,#2099,#2106,#2113),#1550);
#1938 = STYLED_ITEM('color',(#1939),#904);
#1939 = PRESENTATION_STYLE_ASSIGNMENT((#1940));
#1940 = SURFACE_STYLE_USAGE(.BOTH.,#1941);
#1941 = SURFACE_SIDE_STYLE('',(#1942));
#1942 = SURFACE_STYLE_FILL_AREA(#1943);
#1943 = FILL_AREA_STYLE('',(#1944));
#1944 = FILL_AREA_STYLE_COLOUR('',#1892);
#1945 = STYLED_ITEM('color',(#1946),#944);
#1946 = PRESENTATION_STYLE_ASSIGNMENT((#1947));
#1947 = SURFACE_STYLE_USAGE(.BOTH.,#1948);
#1948 = SURFACE_SIDE_STYLE('',(#1949));
#1949 = SURFACE_STYLE_FILL_AREA(#1950);
#1950 = FILL_AREA_STYLE('',(#1951));
#1951 = FILL_AREA_STYLE_COLOUR('',#1892);
#1952 = STYLED_ITEM('color',(#1953),#975);
#1953 = PRESENTATION_STYLE_ASSIGNMENT((#1954));
#1954 = SURFACE_STYLE_USAGE(.BOTH.,#1955);
#1955 = SURFACE_SIDE_STYLE('',(#1956));
#1956 = SURFACE_STYLE_FILL_AREA(#1957);
#1957 = FILL_AREA_STYLE('',(#1958));
#1958 = FILL_AREA_STYLE_COLOUR('',#1892);
#1959 = STYLED_ITEM('color',(#1960),#1006);
#1960 = PRESENTATION_STYLE_ASSIGNMENT((#1961));
#1961 = SURFACE_STYLE_USAGE(.BOTH.,#1962);
#1962 = SURFACE_SIDE_STYLE('',(#1963));
#1963 = SURFACE_STYLE_FILL_AREA(#1964);
#1964 = FILL_AREA_STYLE('',(#1965));
#1965 = FILL_AREA_STYLE_COLOUR('',#1892);
#1966 = STYLED_ITEM('color',(#1967),#1037);
#1967 = PRESENTATION_STYLE_ASSIGNMENT((#1968));
#1968 = SURFACE_STYLE_USAGE(.BOTH.,#1969);
#1969 = SURFACE_SIDE_STYLE('',(#1970));
#1970 = SURFACE_STYLE_FILL_AREA(#1971);
#1971 = FILL_AREA_STYLE('',(#1972));
#1972 = FILL_AREA_STYLE_COLOUR('',#1892);
#1973 = STYLED_ITEM('color',(#1974),#1068);
#1974 = PRESENTATION_STYLE_ASSIGNMENT((#1975));
#1975 = SURFACE_STYLE_USAGE(.BOTH.,#1976);
#1976 = SURFACE_SIDE_STYLE('',(#1977));
#1977 = SURFACE_STYLE_FILL_AREA(#1978);
#1978 = FILL_AREA_STYLE('',(#1979));
#1979 = FILL_AREA_STYLE_COLOUR('',#1892);
#1980 = STYLED_ITEM('color',(#1981),#1092);
#1981 = PRESENTATION_STYLE_ASSIGNMENT((#1982));
#1982 = SURFACE_STYLE_USAGE(.BOTH.,#1983);
#1983 = SURFACE_SIDE_STYLE('',(#1984));
#1984 = SURFACE_STYLE_FILL_AREA(#1985);
#1985 = FILL_AREA_STYLE('',(#1986));
#1986 = FILL_AREA_STYLE_COLOUR('',#1892);
#1987 = STYLED_ITEM('color',(#1988),#1116);
#1988 = PRESENTATION_STYLE_ASSIGNMENT((#1989));
#1989 = SURFACE_STYLE_USAGE(.BOTH.,#1990);
#1990 = SURFACE_SIDE_STYLE('',(#1991));
#1991 = SURFACE_STYLE_FILL_AREA(#1992);
#1992 = FILL_AREA_STYLE('',(#1993));
#1993 = FILL_AREA_STYLE_COLOUR('',#1892);
#1994 = STYLED_ITEM('color',(#1995),#1147);
#1995 = PRESENTATION_STYLE_ASSIGNMENT((#1996));
#1996 = SURFACE_STYLE_USAGE(.BOTH.,#1997);
#1997 = SURFACE_SIDE_STYLE('',(#1998));
#1998 = SURFACE_STYLE_FILL_AREA(#1999);
#1999 = FILL_AREA_STYLE('',(#2000));
#2000 = FILL_AREA_STYLE_COLOUR('',#1892);
#2001 = STYLED_ITEM('color',(#2002),#1171);
#2002 = PRESENTATION_STYLE_ASSIGNMENT((#2003));
#2003 = SURFACE_STYLE_USAGE(.BOTH.,#2004);
#2004 = SURFACE_SIDE_STYLE('',(#2005));
#2005 = SURFACE_STYLE_FILL_AREA(#2006);
#2006 = FILL_AREA_STYLE('',(#2007));
#2007 = FILL_AREA_STYLE_COLOUR('',#1892);
#2008 = STYLED_ITEM('color',(#2009),#1202);
#2009 = PRESENTATION_STYLE_ASSIGNMENT((#2010));
#2010 = SURFACE_STYLE_USAGE(.BOTH.,#2011);
#2011 = SURFACE_SIDE_STYLE('',(#2012));
#2012 = SURFACE_STYLE_FILL_AREA(#2013);
#2013 = FILL_AREA_STYLE('',(#2014));
#2014 = FILL_AREA_STYLE_COLOUR('',#1892);
#2015 = STYLED_ITEM('color',(#2016),#1226);
#2016 = PRESENTATION_STYLE_ASSIGNMENT((#2017));
#2017 = SURFACE_STYLE_USAGE(.BOTH.,#2018);
#2018 = SURFACE_SIDE_STYLE('',(#2019));
#2019 = SURFACE_STYLE_FILL_AREA(#2020);
#2020 = FILL_AREA_STYLE('',(#2021));
#2021 = FILL_AREA_STYLE_COLOUR('',#1892);
#2022 = STYLED_ITEM('color',(#2023),#1243);
#2023 = PRESENTATION_STYLE_ASSIGNMENT((#2024));
#2024 = SURFACE_STYLE_USAGE(.BOTH.,#2025);
#2025 = SURFACE_SIDE_STYLE('',(#2026));
#2026 = SURFACE_STYLE_FILL_AREA(#2027);
#2027 = FILL_AREA_STYLE('',(#2028));
#2028 = FILL_AREA_STYLE_COLOUR('',#1892);
#2029 = STYLED_ITEM('color',(#2030),#1274);
#2030 = PRESENTATION_STYLE_ASSIGNMENT((#2031));
#2031 = SURFACE_STYLE_USAGE(.BOTH.,#2032);
#2032 = SURFACE_SIDE_STYLE('',(#2033));
#2033 = SURFACE_STYLE_FILL_AREA(#2034);
#2034 = FILL_AREA_STYLE('',(#2035));
#2035 = FILL_AREA_STYLE_COLOUR('',#1892);
#2036 = STYLED_ITEM('color',(#2037),#1296);
#2037 = PRESENTATION_STYLE_ASSIGNMENT((#2038));
#2038 = SURFACE_STYLE_USAGE(.BOTH.,#2039);
#2039 = SURFACE_SIDE_STYLE('',(#2040));
#2040 = SURFACE_STYLE_FILL_AREA(#2041);
#2041 = FILL_AREA_STYLE('',(#2042));
#2042 = FILL_AREA_STYLE_COLOUR('',#1892);
#2043 = STYLED_ITEM('color',(#2044),#1320);
#2044 = PRESENTATION_STYLE_ASSIGNMENT((#2045));
#2045 = SURFACE_STYLE_USAGE(.BOTH.,#2046);
#2046 = SURFACE_SIDE_STYLE('',(#2047));
#2047 = SURFACE_STYLE_FILL_AREA(#2048);
#2048 = FILL_AREA_STYLE('',(#2049));
#2049 = FILL_AREA_STYLE_COLOUR('',#1892);
#2050 = STYLED_ITEM('color',(#2051),#1344);
#2051 = PRESENTATION_STYLE_ASSIGNMENT((#2052));
#2052 = SURFACE_STYLE_USAGE(.BOTH.,#2053);
#2053 = SURFACE_SIDE_STYLE('',(#2054));
#2054 = SURFACE_STYLE_FILL_AREA(#2055);
#2055 = FILL_AREA_STYLE('',(#2056));
#2056 = FILL_AREA_STYLE_COLOUR('',#1892);
#2057 = STYLED_ITEM('color',(#2058),#1375);
#2058 = PRESENTATION_STYLE_ASSIGNMENT((#2059));
#2059 = SURFACE_STYLE_USAGE(.BOTH.,#2060);
#2060 = SURFACE_SIDE_STYLE('',(#2061));
#2061 = SURFACE_STYLE_FILL_AREA(#2062);
#2062 = FILL_AREA_STYLE('',(#2063));
#2063 = FILL_AREA_STYLE_COLOUR('',#1892);
#2064 = STYLED_ITEM('color',(#2065),#1392);
#2065 = PRESENTATION_STYLE_ASSIGNMENT((#2066));
#2066 = SURFACE_STYLE_USAGE(.BOTH.,#2067);
#2067 = SURFACE_SIDE_STYLE('',(#2068));
#2068 = SURFACE_STYLE_FILL_AREA(#2069);
#2069 = FILL_AREA_STYLE('',(#2070));
#2070 = FILL_AREA_STYLE_COLOUR('',#1892);
#2071 = STYLED_ITEM('color',(#2072),#1409);
#2072 = PRESENTATION_STYLE_ASSIGNMENT((#2073));
#2073 = SURFACE_STYLE_USAGE(.BOTH.,#2074);
#2074 = SURFACE_SIDE_STYLE('',(#2075));
#2075 = SURFACE_STYLE_FILL_AREA(#2076);
#2076 = FILL_AREA_STYLE('',(#2077));
#2077 = FILL_AREA_STYLE_COLOUR('',#1892);
#2078 = STYLED_ITEM('color',(#2079),#1426);
#2079 = PRESENTATION_STYLE_ASSIGNMENT((#2080));
#2080 = SURFACE_STYLE_USAGE(.BOTH.,#2081);
#2081 = SURFACE_SIDE_STYLE('',(#2082));
#2082 = SURFACE_STYLE_FILL_AREA(#2083);
#2083 = FILL_AREA_STYLE('',(#2084));
#2084 = FILL_AREA_STYLE_COLOUR('',#1892);
#2085 = STYLED_ITEM('color',(#2086),#1438);
#2086 = PRESENTATION_STYLE_ASSIGNMENT((#2087));
#2087 = SURFACE_STYLE_USAGE(.BOTH.,#2088);
#2088 = SURFACE_SIDE_STYLE('',(#2089));
#2089 = SURFACE_STYLE_FILL_AREA(#2090);
#2090 = FILL_AREA_STYLE('',(#2091));
#2091 = FILL_AREA_STYLE_COLOUR('',#1892);
#2092 = STYLED_ITEM('color',(#2093),#1469);
#2093 = PRESENTATION_STYLE_ASSIGNMENT((#2094));
#2094 = SURFACE_STYLE_USAGE(.BOTH.,#2095);
#2095 = SURFACE_SIDE_STYLE('',(#2096));
#2096 = SURFACE_STYLE_FILL_AREA(#2097);
#2097 = FILL_AREA_STYLE('',(#2098));
#2098 = FILL_AREA_STYLE_COLOUR('',#1892);
#2099 = STYLED_ITEM('color',(#2100),#1495);
#2100 = PRESENTATION_STYLE_ASSIGNMENT((#2101));
#2101 = SURFACE_STYLE_USAGE(.BOTH.,#2102);
#2102 = SURFACE_SIDE_STYLE('',(#2103));
#2103 = SURFACE_STYLE_FILL_AREA(#2104);
#2104 = FILL_AREA_STYLE('',(#2105));
#2105 = FILL_AREA_STYLE_COLOUR('',#1892);
#2106 = STYLED_ITEM('color',(#2107),#1521);
#2107 = PRESENTATION_STYLE_ASSIGNMENT((#2108));
#2108 = SURFACE_STYLE_USAGE(.BOTH.,#2109);
#2109 = SURFACE_SIDE_STYLE('',(#2110));
#2110 = SURFACE_STYLE_FILL_AREA(#2111);
#2111 = FILL_AREA_STYLE('',(#2112));
#2112 = FILL_AREA_STYLE_COLOUR('',#1892);
#2113 = STYLED_ITEM('color',(#2114),#1538);
#2114 = PRESENTATION_STYLE_ASSIGNMENT((#2115));
#2115 = SURFACE_STYLE_USAGE(.BOTH.,#2116);
#2116 = SURFACE_SIDE_STYLE('',(#2117));
#2117 = SURFACE_STYLE_FILL_AREA(#2118);
#2118 = FILL_AREA_STYLE('',(#2119));
#2119 = FILL_AREA_STYLE_COLOUR('',#1892);
#2120 = MECHANICAL_DESIGN_GEOMETRIC_PRESENTATION_REPRESENTATION('',(
    #2121),#724);
#2121 = STYLED_ITEM('color',(#2122),#574);
#2122 = PRESENTATION_STYLE_ASSIGNMENT((#2123,#2128));
#2123 = SURFACE_STYLE_USAGE(.BOTH.,#2124);
#2124 = SURFACE_SIDE_STYLE('',(#2125));
#2125 = SURFACE_STYLE_FILL_AREA(#2126);
#2126 = FILL_AREA_STYLE('',(#2127));
#2127 = FILL_AREA_STYLE_COLOUR('',#1903);
#2128 = CURVE_STYLE('',#2129,POSITIVE_LENGTH_MEASURE(0.1),#1903);
#2129 = DRAUGHTING_PRE_DEFINED_CURVE_FONT('continuous');
#2130 = MECHANICAL_DESIGN_GEOMETRIC_PRESENTATION_REPRESENTATION('',(
    #2131),#165);
#2131 = STYLED_ITEM('color',(#2132),#15);
#2132 = PRESENTATION_STYLE_ASSIGNMENT((#2133,#2139));
#2133 = SURFACE_STYLE_USAGE(.BOTH.,#2134);
#2134 = SURFACE_SIDE_STYLE('',(#2135));
#2135 = SURFACE_STYLE_FILL_AREA(#2136);
#2136 = FILL_AREA_STYLE('',(#2137));
#2137 = FILL_AREA_STYLE_COLOUR('',#2138);
#2138 = DRAUGHTING_PRE_DEFINED_COLOUR('white');
#2139 = CURVE_STYLE('',#2140,POSITIVE_LENGTH_MEASURE(0.1),#2138);
#2140 = DRAUGHTING_PRE_DEFINED_CURVE_FONT('continuous');
#2141 = MECHANICAL_DESIGN_GEOMETRIC_PRESENTATION_REPRESENTATION('',(
    #2142),#560);
#2142 = STYLED_ITEM('color',(#2143),#410);
#2143 = PRESENTATION_STYLE_ASSIGNMENT((#2144,#2149));
#2144 = SURFACE_STYLE_USAGE(.BOTH.,#2145);
#2145 = SURFACE_SIDE_STYLE('',(#2146));
#2146 = SURFACE_STYLE_FILL_AREA(#2147);
#2147 = FILL_AREA_STYLE('',(#2148));
#2148 = FILL_AREA_STYLE_COLOUR('',#1892);
#2149 = CURVE_STYLE('',#2150,POSITIVE_LENGTH_MEASURE(0.1),#1892);
#2150 = DRAUGHTING_PRE_DEFINED_CURVE_FONT('continuous');
ENDSEC;
END-ISO-10303-21;
