(footprint "0697H031502"
	(version 20240108)
	(generator "pcbnew")
	(generator_version "8.0")
	(layer "F.Cu")
	(descr "0697H0315-02-2")
	(tags "Fuse")
	(property "Reference" "F**"
		(at 2.54 -2.95 0)
		(layer "F.SilkS")
		(uuid "66055286-dd5b-4e61-aa91-60475f87e1e0")
		(effects
			(font
				(size 1 1)
				(thickness 0.15)
			)
		)
	)
	(property "Value" "0697H031502"
		(at 2.54 0 0)
		(layer "F.SilkS")
		(hide yes)
		(uuid "b82b2ed8-4418-4717-8e94-ade79b73cb34")
		(effects
			(font
				(size 1.27 1.27)
				(thickness 0.254)
			)
		)
	)
	(property "Footprint" ""
		(at 0 0 0)
		(layer "F.Fab")
		(hide yes)
		(uuid "913ff9af-e37f-419a-83b9-cb2c87fc7a30")
		(effects
			(font
				(size 1.27 1.27)
				(thickness 0.15)
			)
		)
	)
	(property "Datasheet" ""
		(at 0 0 0)
		(layer "F.Fab")
		(hide yes)
		(uuid "aa79c676-ec85-496e-bf57-cec784f00ff0")
		(effects
			(font
				(size 1.27 1.27)
				(thickness 0.15)
			)
		)
	)
	(property "Description" ""
		(at 0 0 0)
		(layer "F.Fab")
		(hide yes)
		(uuid "caf6b342-48df-4eab-aa9c-747a7f1cd4fd")
		(effects
			(font
				(size 1.27 1.27)
				(thickness 0.15)
			)
		)
	)
	(attr through_hole)
	(fp_line
		(start -1.635 -2)
		(end 6.715 -2)
		(stroke
			(width 0.2)
			(type solid)
		)
		(layer "F.SilkS")
		(uuid "f40c2b49-c166-430f-9afb-dc20094a053c")
	)
	(fp_line
		(start -1.635 2)
		(end -1.635 -2)
		(stroke
			(width 0.2)
			(type solid)
		)
		(layer "F.SilkS")
		(uuid "afd9ff15-4e67-40c2-aebb-4a0c3bfd7026")
	)
	(fp_line
		(start 6.715 -2)
		(end 6.715 2)
		(stroke
			(width 0.2)
			(type solid)
		)
		(layer "F.SilkS")
		(uuid "a4f2c10f-7318-4da6-b0e8-1ce9c21121f7")
	)
	(fp_line
		(start 6.715 2)
		(end -1.635 2)
		(stroke
			(width 0.2)
			(type solid)
		)
		(layer "F.SilkS")
		(uuid "bfb20d0b-0291-4b6e-b94c-c2d7acd3d615")
	)
	(fp_line
		(start -2.635 -3)
		(end 7.715 -3)
		(stroke
			(width 0.1)
			(type solid)
		)
		(layer "F.CrtYd")
		(uuid "9920968a-5c7e-4fe8-977c-6843d841ffec")
	)
	(fp_line
		(start -2.635 3)
		(end -2.635 -3)
		(stroke
			(width 0.1)
			(type solid)
		)
		(layer "F.CrtYd")
		(uuid "adfe387a-c923-48f4-89d2-663d2e9b7a91")
	)
	(fp_line
		(start 7.715 -3)
		(end 7.715 3)
		(stroke
			(width 0.1)
			(type solid)
		)
		(layer "F.CrtYd")
		(uuid "0391ee7e-ba96-4c59-91ba-c04539fa0171")
	)
	(fp_line
		(start 7.715 3)
		(end -2.635 3)
		(stroke
			(width 0.1)
			(type solid)
		)
		(layer "F.CrtYd")
		(uuid "57285d30-7d51-45e3-bea6-e52a159dc0b0")
	)
	(fp_line
		(start -1.635 -2)
		(end -1.635 2)
		(stroke
			(width 0.1)
			(type solid)
		)
		(layer "F.Fab")
		(uuid "92fa48bf-fc7e-484f-a83f-1ed15c5cf228")
	)
	(fp_line
		(start -1.635 2)
		(end 6.715 2)
		(stroke
			(width 0.1)
			(type solid)
		)
		(layer "F.Fab")
		(uuid "272c9953-924a-4deb-af57-6c065b363113")
	)
	(fp_line
		(start 6.715 -2)
		(end -1.635 -2)
		(stroke
			(width 0.1)
			(type solid)
		)
		(layer "F.Fab")
		(uuid "e151e0ab-eb30-4e5c-8e88-7e6811655255")
	)
	(fp_line
		(start 6.715 2)
		(end 6.715 -2)
		(stroke
			(width 0.1)
			(type solid)
		)
		(layer "F.Fab")
		(uuid "ae0ca4ed-4373-4988-9b79-cd8f808402b8")
	)
	(fp_text user "${REFERENCE}"
		(at 2.54 0 0)
		(layer "F.Fab")
		(uuid "a36f9aba-3542-4c14-b2e6-6321fa2c54fc")
		(effects
			(font
				(size 1.27 1.27)
				(thickness 0.254)
			)
		)
	)
	(pad "1" thru_hole circle
		(at 0 0)
		(size 1.3 1.3)
		(drill 0.8)
		(layers "*.Cu" "*.Mask")
		(remove_unused_layers no)
		(uuid "16d93bc3-ab92-4d84-a261-80c4dc3c9fb3")
	)
	(pad "2" thru_hole circle
		(at 5.08 0)
		(size 1.3 1.3)
		(drill 0.8)
		(layers "*.Cu" "*.Mask")
		(remove_unused_layers no)
		(uuid "2739a447-2120-41cc-b297-e8f4e28cf92a")
	)
	(model "${KIMYEXT}/SamacSys_Parts.3dshapes/0697H0250-02.stp"
		(offset
			(xyz 0 0 0)
		)
		(scale
			(xyz 1 1 1)
		)
		(rotate
			(xyz 0 0 0)
		)
	)
)
