(footprint "07510062" (version 20211014) (generator pcbnew)
  (layer "F.Cu")
  (tedit 60B69CB3)
  (descr "0751.0062-2")
  (tags "Undefined or Miscellaneous")
  (attr through_hole)
  (fp_text reference "F**" (at 0 -2.5) (layer "F.SilkS")
    (effects (font (size 1.27 1.27) (thickness 0.254)))
    (tstamp 43070e9b-ee13-4c95-bb23-4678b2ce2836)
  )
  (fp_text value "07510062" (at 0 -2.5) (layer "F.SilkS") hide
    (effects (font (size 1.27 1.27) (thickness 0.254)))
    (tstamp 6fe6ad9c-1960-49d9-9c0a-effceac8732f)
  )
  (fp_text user "${REFERENCE}" (at 0 -2.5) (layer "F.Fab")
    (effects (font (size 1.27 1.27) (thickness 0.254)))
    (tstamp aee41ff5-58b7-46ce-8a36-7217c8fed677)
  )
  (fp_line (start 1.5 -5.5) (end 2.6 -5.5) (layer "F.SilkS") (width 0.1) (tstamp 1ddacb7a-68ad-4b92-a8a9-a6d2401ae1c8))
  (fp_line (start -2.6 -5.5) (end -2.6 0.5) (layer "F.SilkS") (width 0.1) (tstamp 32c300cd-85f1-45c7-ad2e-3ddc441f8237))
  (fp_line (start -1.5 -5.5) (end -2.6 -5.5) (layer "F.SilkS") (width 0.1) (tstamp 58025242-0601-45de-9266-ecb338f743cf))
  (fp_line (start 2.6 -5.5) (end 2.6 0.5) (layer "F.SilkS") (width 0.1) (tstamp 6f79331e-cf6d-4bfa-a6e9-06a8ba56a311))
  (fp_line (start -2.6 0.5) (end -1.5 0.5) (layer "F.SilkS") (width 0.1) (tstamp b2d6a67a-7b45-4634-a81b-9861ae8ddaa1))
  (fp_line (start 2.6 0.5) (end 1.5 0.5) (layer "F.SilkS") (width 0.1) (tstamp ff4ff838-69d3-4e35-80c7-9fc5dc409699))
  (fp_line (start -3.6 2.05) (end -3.6 -7.05) (layer "F.CrtYd") (width 0.1) (tstamp 14376960-47d8-4fb5-b6af-b843ef8e46bc))
  (fp_line (start 3.6 2.05) (end -3.6 2.05) (layer "F.CrtYd") (width 0.1) (tstamp 2b29fe4f-d213-4675-bd20-d6e29cefc6f1))
  (fp_line (start 3.6 -7.05) (end 3.6 2.05) (layer "F.CrtYd") (width 0.1) (tstamp 396ded3d-d1a6-40a8-9c61-d68465d0f15e))
  (fp_line (start -3.6 -7.05) (end 3.6 -7.05) (layer "F.CrtYd") (width 0.1) (tstamp 7343dd16-8182-4468-a045-5828b5db1ef7))
  (fp_line (start -2.6 0.5) (end -2.6 -5.5) (layer "F.Fab") (width 0.2) (tstamp 4abf1093-6ff8-4a83-b960-acfd0a8a725a))
  (fp_line (start 2.6 -5.5) (end 2.6 0.5) (layer "F.Fab") (width 0.2) (tstamp 64c6b001-40e1-4964-a3b3-bc71e7188dc2))
  (fp_line (start 2.6 0.5) (end -2.6 0.5) (layer "F.Fab") (width 0.2) (tstamp cf1ce0dd-70f4-4013-96ef-a5c2d42aaaf6))
  (fp_line (start -2.6 -5.5) (end 2.6 -5.5) (layer "F.Fab") (width 0.2) (tstamp e95c8ba7-a012-4982-b02d-54f408fc450c))
  (pad "1" thru_hole circle (at 0 0) (size 2.1 2.1) (drill 1.3) (layers *.Cu *.Mask) (tstamp 8769041e-88f4-490d-b8a7-582fe2b1c427))
  (pad "2" thru_hole circle (at 0 -5) (size 2.1 2.1) (drill 1.3) (layers *.Cu *.Mask) (tstamp 7b9fd890-5591-4db8-bf05-0d3cc572b8ca))
  (model "${KIMYEXT}/SamacSys_Parts.3dshapes/0751.0062.stp"
    (offset (xyz 0 2.5 0))
    (scale (xyz 1 1 1))
    (rotate (xyz -90 0 90))
  )
)
