(module 10029449001RLF (layer F.Cu) (tedit 615B262C)
  (descr 10029449-001RLF_1)
  (tags Connector)
  (fp_text reference J** (at 0.3 -5.8) (layer F.SilkS)
    (effects (font (size 1 1) (thickness 0.15)))
  )
  (fp_text value 10029449001RLF (at 0 0) (layer F.SilkS) hide
    (effects (font (size 1.27 1.27) (thickness 0.254)))
  )
  (fp_line (start -7.751 -3.4) (end 7.249 -3.4) (layer F.Fab) (width 0.2))
  (fp_line (start 7.249 -3.4) (end 7.249 5.6) (layer F.Fab) (width 0.2))
  (fp_line (start 7.249 5.6) (end -7.751 5.6) (layer F.Fab) (width 0.2))
  (fp_line (start -7.751 5.6) (end -7.751 -3.4) (layer F.Fab) (width 0.2))
  (fp_line (start -9.848 -6.6) (end 9.848 -6.6) (layer F.CrtYd) (width 0.1))
  (fp_line (start 9.848 -6.6) (end 9.848 6.6) (layer F.CrtYd) (width 0.1))
  (fp_line (start 9.848 6.6) (end -9.848 6.6) (layer F.CrtYd) (width 0.1))
  (fp_line (start -9.848 6.6) (end -9.848 -6.6) (layer F.CrtYd) (width 0.1))
  (fp_line (start 4.649 -5.5) (end 4.649 -5.5) (layer F.SilkS) (width 0.3))
  (fp_line (start 4.649 -5.6) (end 4.649 -5.6) (layer F.SilkS) (width 0.3))
  (fp_text user %R (at 0 0) (layer F.Fab)
    (effects (font (size 1.27 1.27) (thickness 0.254)))
  )
  (fp_arc (start 4.6495 -5.55) (end 4.649 -5.5) (angle -180) (layer F.SilkS) (width 0.3))
  (fp_arc (start 4.6495 -5.55) (end 4.649 -5.6) (angle -180) (layer F.SilkS) (width 0.3))
  (pad 1 smd rect (at 4.499 -3.85) (size 0.3 1.9) (layers F.Cu F.Paste F.Mask))
  (pad 2 smd rect (at 3.999 -3.85) (size 0.3 1.9) (layers F.Cu F.Paste F.Mask))
  (pad 3 smd rect (at 3.499 -3.85) (size 0.3 1.9) (layers F.Cu F.Paste F.Mask))
  (pad 4 smd rect (at 2.999 -3.85) (size 0.3 1.9) (layers F.Cu F.Paste F.Mask))
  (pad 5 smd rect (at 2.499 -3.85) (size 0.3 1.9) (layers F.Cu F.Paste F.Mask))
  (pad 6 smd rect (at 1.999 -3.85) (size 0.3 1.9) (layers F.Cu F.Paste F.Mask))
  (pad 7 smd rect (at 1.499 -3.85) (size 0.3 1.9) (layers F.Cu F.Paste F.Mask))
  (pad 8 smd rect (at 0.999 -3.85) (size 0.3 1.9) (layers F.Cu F.Paste F.Mask))
  (pad 9 smd rect (at 0.499 -3.85) (size 0.3 1.9) (layers F.Cu F.Paste F.Mask))
  (pad 10 smd rect (at -0.001 -3.85) (size 0.3 1.9) (layers F.Cu F.Paste F.Mask))
  (pad 11 smd rect (at -0.501 -3.85) (size 0.3 1.9) (layers F.Cu F.Paste F.Mask))
  (pad 12 smd rect (at -1.001 -3.85) (size 0.3 1.9) (layers F.Cu F.Paste F.Mask))
  (pad 13 smd rect (at -1.501 -3.85) (size 0.3 1.9) (layers F.Cu F.Paste F.Mask))
  (pad 14 smd rect (at -2.001 -3.85) (size 0.3 1.9) (layers F.Cu F.Paste F.Mask))
  (pad 15 smd rect (at -2.501 -3.85) (size 0.3 1.9) (layers F.Cu F.Paste F.Mask))
  (pad 16 smd rect (at -3.001 -3.85) (size 0.3 1.9) (layers F.Cu F.Paste F.Mask))
  (pad 17 smd rect (at -3.501 -3.85) (size 0.3 1.9) (layers F.Cu F.Paste F.Mask))
  (pad 18 smd rect (at -4.001 -3.85) (size 0.3 1.9) (layers F.Cu F.Paste F.Mask))
  (pad 19 smd rect (at -4.501 -3.85) (size 0.3 1.9) (layers F.Cu F.Paste F.Mask))
  (pad SH thru_hole circle (at -7.501 -2.85) (size 1.995 1.995) (drill 1.33) (layers *.Cu *.Mask))
  (pad SH thru_hole circle (at 6.999 -2.85) (size 1.995 1.995) (drill 1.33) (layers *.Cu *.Mask))
  (pad SH thru_hole circle (at -8.101 2.05) (size 1.995 1.995) (drill 1.33) (layers *.Cu *.Mask))
  (pad SH thru_hole circle (at 7.599 2.05) (size 1.995 1.995) (drill 1.33) (layers *.Cu *.Mask))
  (model ${KIMYEXT}/SamacSys_Parts.3dshapes/10029449-001RLF.stp
    (offset (xyz -0.2499999962453774 2.700000007133864 3.249999951189851))
    (scale (xyz 1 1 1))
    (rotate (xyz -90 0 0))
  )
)
