(module 3224X1502E (layer F.Cu) (tedit 5FB3139B)
  (descr 3224X_1)
  (tags "Variable Resistor")
  (attr smd)
  (fp_text reference VR** (at -0.25 0) (layer F.SilkS)
    (effects (font (size 1.27 1.27) (thickness 0.254)))
  )
  (fp_text value 3224X1502E (at -0.25 0) (layer F.SilkS) hide
    (effects (font (size 1.27 1.27) (thickness 0.254)))
  )
  (fp_line (start -3.9 -1.2) (end -3.9 -1.2) (layer F.SilkS) (width 0.2))
  (fp_line (start -3.9 -1.4) (end -3.9 -1.4) (layer F.SilkS) (width 0.2))
  (fp_line (start -1.75 -0.4) (end -1.75 0.4) (layer F.SilkS) (width 0.1))
  (fp_line (start 1.75 2.4) (end 1.75 1.2) (layer F.SilkS) (width 0.1))
  (fp_line (start -1.75 2.4) (end 1.75 2.4) (layer F.SilkS) (width 0.1))
  (fp_line (start -1.75 1.6) (end -1.75 2.4) (layer F.SilkS) (width 0.1))
  (fp_line (start 1.75 -2.4) (end 1.75 -1.2) (layer F.SilkS) (width 0.1))
  (fp_line (start -1.75 -2.4) (end 1.75 -2.4) (layer F.SilkS) (width 0.1))
  (fp_line (start -1.75 -2) (end -1.75 -2.4) (layer F.SilkS) (width 0.1))
  (fp_line (start -4.5 2.9) (end -4.5 -2.9) (layer F.CrtYd) (width 0.1))
  (fp_line (start 4 2.9) (end -4.5 2.9) (layer F.CrtYd) (width 0.1))
  (fp_line (start 4 -2.9) (end 4 2.9) (layer F.CrtYd) (width 0.1))
  (fp_line (start -4.5 -2.9) (end 4 -2.9) (layer F.CrtYd) (width 0.1))
  (fp_line (start -1.75 2.4) (end -1.75 -2.4) (layer F.Fab) (width 0.2))
  (fp_line (start 1.75 2.4) (end -1.75 2.4) (layer F.Fab) (width 0.2))
  (fp_line (start 1.75 -2.4) (end 1.75 2.4) (layer F.Fab) (width 0.2))
  (fp_line (start -1.75 -2.4) (end 1.75 -2.4) (layer F.Fab) (width 0.2))
  (fp_text user %R (at -0.25 0) (layer F.Fab)
    (effects (font (size 1.27 1.27) (thickness 0.254)))
  )
  (fp_arc (start -3.9 -1.3) (end -3.9 -1.4) (angle 180) (layer F.SilkS) (width 0.2))
  (fp_arc (start -3.9 -1.3) (end -3.9 -1.2) (angle 180) (layer F.SilkS) (width 0.2))
  (pad 1 smd rect (at -2.55 -1.25 90) (size 1.3 1.9) (layers F.Cu F.Paste F.Mask))
  (pad 2 smd rect (at 2.55 0) (size 1.9 2) (layers F.Cu F.Paste F.Mask))
  (pad 3 smd rect (at -2.55 1.25 90) (size 1.3 1.9) (layers F.Cu F.Paste F.Mask))
  (model ${KIMYEXT}/SamacSys_Parts.3dshapes/3224X-1-203E.stp
    (at (xyz 0 0 0))
    (scale (xyz 1 1 1))
    (rotate (xyz 0 0 0))
  )
)
