(module 3224W1201G (layer F.Cu) (tedit 5EA1E0CC)
  (descr 3224W-1-201G-2)
  (tags "Variable Resistor")
  (attr smd)
  (fp_text reference RV** (at 0.25 -3.4) (layer F.SilkS)
    (effects (font (size 1.27 1.27) (thickness 0.254)))
  )
  (fp_text value 3224W1201G (at 0.625 0) (layer F.SilkS) hide
    (effects (font (size 1.27 1.27) (thickness 0.254)))
  )
  (fp_line (start -1.75 2.4) (end 1.75 2.4) (layer F.Fab) (width 0.2))
  (fp_line (start 1.75 2.4) (end 1.75 -2.4) (layer F.Fab) (width 0.2))
  (fp_line (start 1.75 -2.4) (end -1.75 -2.4) (layer F.Fab) (width 0.2))
  (fp_line (start -1.75 -2.4) (end -1.75 2.4) (layer F.Fab) (width 0.2))
  (fp_line (start 1.75 -2.4) (end -1.75 -2.4) (layer F.SilkS) (width 0.1))
  (fp_line (start -1.75 -2.4) (end -1.75 -2.4) (layer F.SilkS) (width 0.1))
  (fp_line (start -1.75 -2.4) (end 1.75 -2.4) (layer F.SilkS) (width 0.1))
  (fp_line (start 1.75 -2.4) (end 1.75 -2.4) (layer F.SilkS) (width 0.1))
  (fp_line (start -1.75 2.4) (end 1.75 2.4) (layer F.SilkS) (width 0.1))
  (fp_line (start 1.75 2.4) (end 1.75 2.4) (layer F.SilkS) (width 0.1))
  (fp_line (start 1.75 2.4) (end -1.75 2.4) (layer F.SilkS) (width 0.1))
  (fp_line (start -1.75 2.4) (end -1.75 2.4) (layer F.SilkS) (width 0.1))
  (fp_line (start -2.65 -2.8) (end 2.8 -2.8) (layer F.CrtYd) (width 0.1))
  (fp_line (start 2.8 -2.8) (end 2.8 2.8) (layer F.CrtYd) (width 0.1))
  (fp_line (start 2.8 2.8) (end -2.65 2.8) (layer F.CrtYd) (width 0.1))
  (fp_line (start -2.65 2.8) (end -2.65 -2.8) (layer F.CrtYd) (width 0.1))
  (fp_line (start -1.75 -2.4) (end -1.75 -2.4) (layer F.SilkS) (width 0.1))
  (fp_line (start -1.75 -2.4) (end -1.75 -1.5) (layer F.SilkS) (width 0.1))
  (fp_line (start -1.75 -1.5) (end -1.75 -1.5) (layer F.SilkS) (width 0.1))
  (fp_line (start -1.75 -1.5) (end -1.75 -2.4) (layer F.SilkS) (width 0.1))
  (fp_line (start -1.75 1.5) (end -1.75 1.5) (layer F.SilkS) (width 0.1))
  (fp_line (start -1.75 1.5) (end -1.75 2.4) (layer F.SilkS) (width 0.1))
  (fp_line (start -1.75 2.4) (end -1.75 2.4) (layer F.SilkS) (width 0.1))
  (fp_line (start -1.75 2.4) (end -1.75 1.5) (layer F.SilkS) (width 0.1))
  (pad 1 smd rect (at 1.45 1.25 90) (size 1.3 1.6) (layers F.Cu F.Paste F.Mask))
  (pad 2 smd rect (at -1.45 0) (size 1.6 2) (layers F.Cu F.Paste F.Mask))
  (pad 3 smd rect (at 1.45 -1.25 90) (size 1.3 1.6) (layers F.Cu F.Paste F.Mask))
  (model ${KIMYEXT}/SamacSys_Parts.3dshapes/3224W-1-201G.stp
    (at (xyz 0 0 0))
    (scale (xyz 1 1 1))
    (rotate (xyz 0 0 0))
  )
)
