(module 691321100004 (layer F.Cu) (tedit 5F9F16CA)
  (descr 691321100004-1)
  (tags Connector)
  (fp_text reference J** (at 5 -6.5) (layer F.SilkS)
    (effects (font (size 1 1) (thickness 0.15)))
  )
  (fp_text value 691321100004 (at 5.25 -0.8) (layer F.SilkS) hide
    (effects (font (size 1.27 1.27) (thickness 0.254)))
  )
  (fp_line (start -3.45 3.8) (end -3.45 -5.4) (layer F.CrtYd) (width 0.1))
  (fp_line (start 13.95 3.8) (end -3.45 3.8) (layer F.CrtYd) (width 0.1))
  (fp_line (start 13.95 -5.4) (end 13.95 3.8) (layer F.CrtYd) (width 0.1))
  (fp_line (start -3.45 -5.4) (end 13.95 -5.4) (layer F.CrtYd) (width 0.1))
  (fp_line (start -2.45 2.8) (end -2.45 -4.4) (layer F.SilkS) (width 0.1))
  (fp_line (start 12.95 2.8) (end -2.45 2.8) (layer F.SilkS) (width 0.1))
  (fp_line (start 12.95 -4.4) (end 12.95 2.8) (layer F.SilkS) (width 0.1))
  (fp_line (start -2.45 -4.4) (end 12.95 -4.4) (layer F.SilkS) (width 0.1))
  (fp_line (start -2.45 2.8) (end -2.45 -4.4) (layer F.Fab) (width 0.2))
  (fp_line (start 12.95 2.8) (end -2.45 2.8) (layer F.Fab) (width 0.2))
  (fp_line (start 12.95 -4.4) (end 12.95 2.8) (layer F.Fab) (width 0.2))
  (fp_line (start -2.45 -4.4) (end 12.95 -4.4) (layer F.Fab) (width 0.2))
  (fp_text user %R (at 5 -6.5) (layer F.Fab)
    (effects (font (size 1 1) (thickness 0.15)))
  )
  (pad 1 thru_hole circle (at 0 0) (size 2.1 2.1) (drill 1.4) (layers *.Cu *.Mask))
  (pad 2 thru_hole circle (at 3.5 0) (size 2.1 2.1) (drill 1.4) (layers *.Cu *.Mask))
  (pad 3 thru_hole circle (at 7 0) (size 2.1 2.1) (drill 1.4) (layers *.Cu *.Mask))
  (pad 4 thru_hole circle (at 10.5 0) (size 2.1 2.1) (drill 1.4) (layers *.Cu *.Mask))
  (model ${KIMYEXT}/SamacSys_Parts.3dshapes/691321100004.stp
    (at (xyz 0 0 0))
    (scale (xyz 1 1 1))
    (rotate (xyz 0 0 0))
  )
)
