(module 875075561008_WCAP-PSLC_ (layer F.Cu) (tedit 5E878107)
  (descr "875075155010 (WCAP-PSLC)")
  (tags "Capacitor Polarised")
  (attr smd)
  (fp_text reference C** (at -0.347 -0.038) (layer F.SilkS)
    (effects (font (size 1.27 1.27) (thickness 0.254)))
  )
  (fp_text value "875075561008(WCAP-PSLC)" (at -0.347 -0.038) (layer F.SilkS) hide
    (effects (font (size 1.27 1.27) (thickness 0.254)))
  )
  (fp_text user %R (at -0.347 -0.038) (layer F.Fab)
    (effects (font (size 1.27 1.27) (thickness 0.254)))
  )
  (fp_line (start -5.15 -5.15) (end 5.15 -5.15) (layer F.Fab) (width 0.2))
  (fp_line (start 5.15 -5.15) (end 5.15 5.15) (layer F.Fab) (width 0.2))
  (fp_line (start 5.15 5.15) (end -5.15 5.15) (layer F.Fab) (width 0.2))
  (fp_line (start -5.15 5.15) (end -5.15 -5.15) (layer F.Fab) (width 0.2))
  (fp_line (start -5.15 -5.15) (end 5.15 -5.15) (layer F.SilkS) (width 0.2))
  (fp_line (start 5.15 5.15) (end -5.15 5.15) (layer F.SilkS) (width 0.2))
  (fp_line (start -5.15 5.15) (end -5.15 1.331) (layer F.SilkS) (width 0.2))
  (fp_line (start -5.15 -5.15) (end -5.15 -1.331) (layer F.SilkS) (width 0.2))
  (fp_line (start 5.15 5.15) (end 5.15 1.331) (layer F.SilkS) (width 0.2))
  (fp_line (start 5.15 -5.15) (end 5.15 -1.331) (layer F.SilkS) (width 0.2))
  (fp_circle (center -7.256 -0.051) (end -7.256 0.028) (layer F.SilkS) (width 0.2))
  (pad 1 smd rect (at -4.35 0 90) (size 1.9 4.4) (layers F.Cu F.Paste F.Mask))
  (pad 2 smd rect (at 4.35 0 90) (size 1.9 4.4) (layers F.Cu F.Paste F.Mask))
  (model ${KISYS3DMOD}/Capacitor_SMD.3dshapes/CP_Elec_10x14.3.wrl
    (at (xyz 0 0 0))
    (scale (xyz 1 1 1))
    (rotate (xyz 0 0 0))
  )
)
