(footprint "CAPC6050X240N" (version 20211014) (generator pcbnew)
  (layer "F.Cu")
  (tedit 0)
  (descr "SIZE CODE 2220")
  (tags "Capacitor")
  (attr smd)
  (fp_text reference "C**" (at 0 0) (layer "F.SilkS")
    (effects (font (size 1 1) (thickness 0.15)))
    (tstamp f5596a14-f0cd-43a1-9415-98d56be76824)
  )
  (fp_text value "CAPC6050X240N" (at 0 0) (layer "F.SilkS") hide
    (effects (font (size 1.27 1.27) (thickness 0.254)))
    (tstamp 95de5dd7-dc9e-4e26-8c23-41b951babe02)
  )
  (fp_text user "${REFERENCE}" (at 0 0) (layer "F.Fab")
    (effects (font (size 1.27 1.27) (thickness 0.254)))
    (tstamp 9d7f12be-cde0-49a1-bbf2-9778e08c9560)
  )
  (fp_line (start 0 -2.4) (end 0 2.4) (layer "F.SilkS") (width 0.2) (tstamp 2de39c04-debb-4b82-890a-d9ec8fd0d8e0))
  (fp_line (start -4.01 -2.86) (end 4.01 -2.86) (layer "F.CrtYd") (width 0.05) (tstamp 56ca61cb-06bd-4760-97e7-7aa46f0ed4e7))
  (fp_line (start 4.01 -2.86) (end 4.01 2.86) (layer "F.CrtYd") (width 0.05) (tstamp 7266232e-537b-4b6c-9ff0-5c35a1f3a433))
  (fp_line (start 4.01 2.86) (end -4.01 2.86) (layer "F.CrtYd") (width 0.05) (tstamp 992dd02a-c802-4a58-802c-c564a45a88c5))
  (fp_line (start -4.01 2.86) (end -4.01 -2.86) (layer "F.CrtYd") (width 0.05) (tstamp f68249ab-f85f-41ab-ab62-1301fc4a6fe4))
  (fp_line (start 3 -2.5) (end 3 2.5) (layer "F.Fab") (width 0.1) (tstamp 175584d5-9dd7-4097-856b-f25de6fd7214))
  (fp_line (start 3 2.5) (end -3 2.5) (layer "F.Fab") (width 0.1) (tstamp 85a6763c-e127-456d-9638-713d5d3ad050))
  (fp_line (start -3 -2.5) (end 3 -2.5) (layer "F.Fab") (width 0.1) (tstamp cce2d5e2-bbae-4ee2-9a42-8902298b0cce))
  (fp_line (start -3 2.5) (end -3 -2.5) (layer "F.Fab") (width 0.1) (tstamp d04df5ab-cffa-4f63-87d7-c8b8bf8f8c02))
  (pad "1" smd rect (at -2.97 0) (size 2.1 4.6) (layers "F.Cu" "F.Paste" "F.Mask") (tstamp 5af77f9d-475c-4aba-9a4b-279d577ce5af))
  (pad "2" smd rect (at 2.97 0) (size 2.1 4.6) (layers "F.Cu" "F.Paste" "F.Mask") (tstamp 841a9016-c49f-4276-a983-3a824e24dd7c))
  (model "${KIMYEXT}/SamacSys_Parts.3dshapes/LDEDD3470KA5N00.stp"
    (offset (xyz -3.13 -2.7 0))
    (scale (xyz 1 1 1))
    (rotate (xyz -90 0 0))
  )
)
