(module CAPPM3528X210N (layer F.Cu) (tedit 5EA1F05D)
  (descr "CASE B")
  (tags "Capacitor Polarised")
  (attr smd)
  (fp_text reference C** (at 0 0) (layer F.SilkS)
    (effects (font (size 1.27 1.27) (thickness 0.254)))
  )
  (fp_text value CAPPM3528X210N (at 0 0) (layer F.SilkS) hide
    (effects (font (size 1.27 1.27) (thickness 0.254)))
  )
  (fp_text user %R (at 0 0) (layer F.Fab)
    (effects (font (size 1.27 1.27) (thickness 0.254)))
  )
  (fp_line (start -2.6 -1.75) (end 2.6 -1.75) (layer F.CrtYd) (width 0.05))
  (fp_line (start 2.6 -1.75) (end 2.6 1.75) (layer F.CrtYd) (width 0.05))
  (fp_line (start 2.6 1.75) (end -2.6 1.75) (layer F.CrtYd) (width 0.05))
  (fp_line (start -2.6 1.75) (end -2.6 -1.75) (layer F.CrtYd) (width 0.05))
  (fp_line (start -1.75 -1.425) (end 1.75 -1.425) (layer F.Fab) (width 0.1))
  (fp_line (start 1.75 -1.425) (end 1.75 1.425) (layer F.Fab) (width 0.1))
  (fp_line (start 1.75 1.425) (end -1.75 1.425) (layer F.Fab) (width 0.1))
  (fp_line (start -1.75 1.425) (end -1.75 -1.425) (layer F.Fab) (width 0.1))
  (fp_line (start -1.75 -0.525) (end -0.85 -1.425) (layer F.Fab) (width 0.1))
  (fp_line (start 1.75 -1.425) (end -2.35 -1.425) (layer F.SilkS) (width 0.2))
  (fp_line (start -1.75 1.425) (end 1.75 1.425) (layer F.SilkS) (width 0.2))
  (pad 1 smd rect (at -1.45 0) (size 1.8 2.3) (layers F.Cu F.Paste F.Mask))
  (pad 2 smd rect (at 1.45 0) (size 1.8 2.3) (layers F.Cu F.Paste F.Mask))
  (model ${KIMYEXT}/SamacSys_Parts.3dshapes/TCJB106M025R0090.stp
    (at (xyz 0 0 0))
    (scale (xyz 1 1 1))
    (rotate (xyz 0 0 0))
  )
)
