(module DIP781W56P254L1918H533Q14N (layer F.Cu) (tedit 608319F2)
  (descr "14-lead Plastic Dual In-Line (P) - 300 mil Body [PDIP]_1")
  (tags "Integrated Circuit")
  (fp_text reference IC** (at 0 0) (layer F.SilkS)
    (effects (font (size 1.27 1.27) (thickness 0.254)))
  )
  (fp_text value DIP781W56P254L1918H533Q14N (at 0 0) (layer F.SilkS) hide
    (effects (font (size 1.27 1.27) (thickness 0.254)))
  )
  (fp_line (start -3.683 9.842) (end 3.683 9.842) (layer F.SilkS) (width 0.2))
  (fp_line (start -4.485 -9.842) (end 3.683 -9.842) (layer F.SilkS) (width 0.2))
  (fp_line (start -3.683 -8.572) (end -2.413 -9.842) (layer F.Fab) (width 0.1))
  (fp_line (start -3.683 9.842) (end -3.683 -9.842) (layer F.Fab) (width 0.1))
  (fp_line (start 3.683 9.842) (end -3.683 9.842) (layer F.Fab) (width 0.1))
  (fp_line (start 3.683 -9.842) (end 3.683 9.842) (layer F.Fab) (width 0.1))
  (fp_line (start -3.683 -9.842) (end 3.683 -9.842) (layer F.Fab) (width 0.1))
  (fp_line (start -4.957 10.092) (end -4.957 -10.092) (layer F.CrtYd) (width 0.05))
  (fp_line (start 4.957 10.092) (end -4.957 10.092) (layer F.CrtYd) (width 0.05))
  (fp_line (start 4.957 -10.092) (end 4.957 10.092) (layer F.CrtYd) (width 0.05))
  (fp_line (start -4.957 -10.092) (end 4.957 -10.092) (layer F.CrtYd) (width 0.05))
  (fp_text user %R (at 0 0) (layer F.Fab)
    (effects (font (size 1.27 1.27) (thickness 0.254)))
  )
  (pad 1 thru_hole rect (at -3.905 -7.62) (size 1.159 1.159) (drill 0.759) (layers *.Cu *.Mask))
  (pad 2 thru_hole circle (at -3.905 -5.08) (size 1.159 1.159) (drill 0.759) (layers *.Cu *.Mask))
  (pad 3 thru_hole circle (at -3.905 -2.54) (size 1.159 1.159) (drill 0.759) (layers *.Cu *.Mask))
  (pad 4 thru_hole circle (at -3.905 0) (size 1.159 1.159) (drill 0.759) (layers *.Cu *.Mask))
  (pad 5 thru_hole circle (at -3.905 2.54) (size 1.159 1.159) (drill 0.759) (layers *.Cu *.Mask))
  (pad 6 thru_hole circle (at -3.905 5.08) (size 1.159 1.159) (drill 0.759) (layers *.Cu *.Mask))
  (pad 7 thru_hole circle (at -3.905 7.62) (size 1.159 1.159) (drill 0.759) (layers *.Cu *.Mask))
  (pad 8 thru_hole circle (at 3.905 7.62) (size 1.159 1.159) (drill 0.759) (layers *.Cu *.Mask))
  (pad 9 thru_hole circle (at 3.905 5.08) (size 1.159 1.159) (drill 0.759) (layers *.Cu *.Mask))
  (pad 10 thru_hole circle (at 3.905 2.54) (size 1.159 1.159) (drill 0.759) (layers *.Cu *.Mask))
  (pad 11 thru_hole circle (at 3.905 0) (size 1.159 1.159) (drill 0.759) (layers *.Cu *.Mask))
  (pad 12 thru_hole circle (at 3.905 -2.54) (size 1.159 1.159) (drill 0.759) (layers *.Cu *.Mask))
  (pad 13 thru_hole circle (at 3.905 -5.08) (size 1.159 1.159) (drill 0.759) (layers *.Cu *.Mask))
  (pad 14 thru_hole circle (at 3.905 -7.62) (size 1.159 1.159) (drill 0.759) (layers *.Cu *.Mask))
  (model ${KIMYEXT}/SamacSys_Parts.3dshapes/MCP2221A-I_P.stp
    (at (xyz 0 0 0))
    (scale (xyz 1 1 1))
    (rotate (xyz 0 0 0))
  )
)
