(footprint "INDPM6060X470N"
	(version 20240108)
	(generator "pcbnew")
	(generator_version "8.0")
	(layer "F.Cu")
	(descr "6x6x4.7mm-3")
	(tags "Inductor")
	(property "Reference" "L**"
		(at 0 0 90)
		(layer "F.SilkS")
		(uuid "d9bd1945-fae0-472a-8eb7-93297ab52432")
		(effects
			(font
				(size 1 1)
				(thickness 0.15)
			)
		)
	)
	(property "Value" "INDPM6060X470N"
		(at 0 0 0)
		(layer "F.SilkS")
		(hide yes)
		(uuid "63089913-9bb2-44a6-88c8-a379e3da9910")
		(effects
			(font
				(size 1.27 1.27)
				(thickness 0.254)
			)
		)
	)
	(property "Footprint" ""
		(at 0 0 0)
		(layer "F.Fab")
		(hide yes)
		(uuid "510d104d-8b6c-4fed-a311-27678ee427d3")
		(effects
			(font
				(size 1.27 1.27)
				(thickness 0.15)
			)
		)
	)
	(property "Datasheet" ""
		(at 0 0 0)
		(layer "F.Fab")
		(hide yes)
		(uuid "debf87db-2362-4593-abf7-b7166c14f0fb")
		(effects
			(font
				(size 1.27 1.27)
				(thickness 0.15)
			)
		)
	)
	(property "Description" ""
		(at 0 0 0)
		(layer "F.Fab")
		(hide yes)
		(uuid "ce87a148-f9b5-4c97-9c6f-45b37f739e06")
		(effects
			(font
				(size 1.27 1.27)
				(thickness 0.15)
			)
		)
	)
	(attr smd)
	(fp_line
		(start -3 3.2)
		(end 3 3.2)
		(stroke
			(width 0.2)
			(type solid)
		)
		(layer "F.SilkS")
		(uuid "d05d8a21-a4b1-4c54-8719-b3ec9f770fcb")
	)
	(fp_line
		(start 3 -3.2)
		(end -3 -3.2)
		(stroke
			(width 0.2)
			(type solid)
		)
		(layer "F.SilkS")
		(uuid "9c58c972-17ad-43bf-af47-894114db7efe")
	)
	(fp_line
		(start -3.85 -3.35)
		(end 3.85 -3.35)
		(stroke
			(width 0.05)
			(type solid)
		)
		(layer "F.CrtYd")
		(uuid "76e30967-653d-4a20-a1b0-fbd6fa4e5c0c")
	)
	(fp_line
		(start -3.85 3.35)
		(end -3.85 -3.35)
		(stroke
			(width 0.05)
			(type solid)
		)
		(layer "F.CrtYd")
		(uuid "84401866-32b8-4295-ac24-f096365aef4a")
	)
	(fp_line
		(start 3.85 -3.35)
		(end 3.85 3.35)
		(stroke
			(width 0.05)
			(type solid)
		)
		(layer "F.CrtYd")
		(uuid "66f89f81-3190-45a7-8310-50d88298016b")
	)
	(fp_line
		(start 3.85 3.35)
		(end -3.85 3.35)
		(stroke
			(width 0.05)
			(type solid)
		)
		(layer "F.CrtYd")
		(uuid "a1e67f37-7216-48be-96a4-5912d69f6322")
	)
	(fp_line
		(start -3 -3)
		(end 3 -3)
		(stroke
			(width 0.1)
			(type solid)
		)
		(layer "F.Fab")
		(uuid "7392fc32-8c09-4f95-9f12-89d9e2a79669")
	)
	(fp_line
		(start -3 3)
		(end -3 -3)
		(stroke
			(width 0.1)
			(type solid)
		)
		(layer "F.Fab")
		(uuid "c5699736-57ee-4f96-85a5-8c90b192fa51")
	)
	(fp_line
		(start 3 -3)
		(end 3 3)
		(stroke
			(width 0.1)
			(type solid)
		)
		(layer "F.Fab")
		(uuid "72e08586-cfcb-4978-bd8c-7f2d1ab93d74")
	)
	(fp_line
		(start 3 3)
		(end -3 3)
		(stroke
			(width 0.1)
			(type solid)
		)
		(layer "F.Fab")
		(uuid "7e111034-e75d-4900-89fa-ddad029fb52e")
	)
	(fp_text user "${REFERENCE}"
		(at 0 0 0)
		(layer "F.Fab")
		(uuid "6d0677b9-d03c-4770-be3e-36c9cb4dd3fb")
		(effects
			(font
				(size 1.27 1.27)
				(thickness 0.254)
			)
		)
	)
	(pad "1" smd rect
		(at -2.5 0)
		(size 3.2 6.1)
		(layers "F.Cu" "F.Paste" "F.Mask")
		(uuid "387820ee-65a6-4809-a2d2-9832ea233069")
	)
	(pad "2" smd rect
		(at 2.5 0)
		(size 3.2 6.1)
		(layers "F.Cu" "F.Paste" "F.Mask")
		(uuid "3a156b9f-7f10-46f0-ba16-8d8bd21dd904")
	)
	(model "${KIMYEXT}/SamacSys_Parts.3dshapes/SRN6045HA-470M.stp"
		(offset
			(xyz 0 0 0)
		)
		(scale
			(xyz 1 1 1)
		)
		(rotate
			(xyz 0 0 0)
		)
	)
)
