(footprint "INDPM120120X600N" (version 20211014) (generator pcbnew)
  (layer "F.Cu")
  (tedit 0)
  (descr "12x12 (1260)")
  (tags "Inductor")
  (attr smd)
  (fp_text reference "L**" (at 0 0) (layer "F.SilkS")
    (effects (font (size 1.27 1.27) (thickness 0.254)))
    (tstamp 7a2481d7-4bf1-4ac6-8258-8ece1756d050)
  )
  (fp_text value "INDPM120120X600N" (at 0 0) (layer "F.SilkS") hide
    (effects (font (size 1.27 1.27) (thickness 0.254)))
    (tstamp 02468f21-4f1e-4b6c-b806-0630e5c32b89)
  )
  (fp_text user "${REFERENCE}" (at 0 0) (layer "F.Fab")
    (effects (font (size 1.27 1.27) (thickness 0.254)))
    (tstamp 1c50d309-d2dd-4838-9f01-7292e8e69cc9)
  )
  (fp_line (start 6 -6) (end -6 -6) (layer "F.SilkS") (width 0.2) (tstamp 67d3a148-606e-4bf3-a04d-fd0cda080e3e))
  (fp_line (start -6 6) (end 6 6) (layer "F.SilkS") (width 0.2) (tstamp 7ee67190-5d43-4633-8275-86c3e3e8bb7a))
  (fp_line (start -7 6.5) (end -7 -6.5) (layer "F.CrtYd") (width 0.05) (tstamp 2bf37fa9-dfd7-422d-9eb9-30c93693f1e0))
  (fp_line (start -7 -6.5) (end 7 -6.5) (layer "F.CrtYd") (width 0.05) (tstamp 6a171808-079e-4ba4-871c-257458aef0e4))
  (fp_line (start 7 6.5) (end -7 6.5) (layer "F.CrtYd") (width 0.05) (tstamp bdd36f60-83da-4fc5-a8ff-8284f31d8f72))
  (fp_line (start 7 -6.5) (end 7 6.5) (layer "F.CrtYd") (width 0.05) (tstamp d53eefee-a6de-413b-9f99-ea52dd2f28fb))
  (fp_line (start -6 6) (end -6 -6) (layer "F.Fab") (width 0.1) (tstamp 0d877d04-a94c-4a2b-87c7-58eb8c279f4f))
  (fp_line (start -6 -6) (end 6 -6) (layer "F.Fab") (width 0.1) (tstamp 6348cfdc-8b10-4a85-ab00-f3bd762efe97))
  (fp_line (start 6 6) (end -6 6) (layer "F.Fab") (width 0.1) (tstamp 8a1cf7ff-9b72-4e58-a442-e0431281117e))
  (fp_line (start 6 -6) (end 6 6) (layer "F.Fab") (width 0.1) (tstamp ed70b0eb-0106-41bd-83ef-0522188f1ab6))
  (pad "1" smd rect (at -5.1 0) (size 3.3 5.1) (layers "F.Cu" "F.Paste" "F.Mask") (tstamp 76b02776-ca39-450e-b18d-9534f3c7553d))
  (pad "2" smd rect (at 5.1 0) (size 3.3 5.1) (layers "F.Cu" "F.Paste" "F.Mask") (tstamp 4b5ef589-7df1-497d-80db-f0b6019e7f5a))
  (model "${KIMYEXT}/SamacSys_Parts.3dshapes/7447706102.stp"
    (offset (xyz 0 0 0))
    (scale (xyz 1 1 1))
    (rotate (xyz 0 0 0))
  )
)
