PCBNEW-LibModule-V1  2023-02-02 13:32:35
# encoding utf-8
Units mm
$INDEX
TO170P457X1022X2306-5P
$EndINDEX
$MODULE TO170P457X1022X2306-5P
Po 0 0 0 15 63dbbb73 00000000 ~~
Li TO170P457X1022X2306-5P
Cd T Package 5-Lead Plastic TO-200 (Standard)
Kw Integrated Circuit
Sc 0
At STD
AR 
Op 0 0 0
T0 0 0 1.27 1.27 0 0.254 N V 21 N "IC**"
T1 0 0 1.27 1.27 0 0.254 N I 21 N "TO170P457X1022X2306-5P"
DS -2.12 -9.686 8.921 -9.686 0.05 24
DS 8.921 -9.686 8.921 1.248 0.05 24
DS 8.921 1.248 -2.12 1.248 0.05 24
DS -2.12 1.248 -2.12 -9.686 0.05 24
DS -1.87 -9.436 8.671 -9.436 0.1 24
DS 8.671 -9.436 8.671 -4.864 0.1 24
DS 8.671 -4.864 -1.87 -4.864 0.1 24
DS -1.87 -4.864 -1.87 -9.436 0.1 24
DS -1.87 -8.586 -1.02 -9.436 0.1 24
DS 8.67 -4.864 8.67 -9.436 0.2 21
DS 8.67 -9.436 -1.87 -9.436 0.2 21
DS -1.87 -9.436 -1.87 0 0.2 21
$PAD
Po 0 0
Sh "1" R 1.995 1.995 0 0 900
Dr 1.33 0 0
At STD N 00E0FFFF
Ne 0 ""
$EndPAD
$PAD
Po 3.4 0
Sh "3" C 1.995 1.995 0 0 900
Dr 1.33 0 0
At STD N 00E0FFFF
Ne 0 ""
$EndPAD
$PAD
Po 6.8 0
Sh "5" C 1.995 1.995 0 0 900
Dr 1.33 0 0
At STD N 00E0FFFF
Ne 0 ""
$EndPAD
$PAD
Po 1.7 -4.191
Sh "2" C 1.995 1.995 0 0 900
Dr 1.33 0 0
At STD N 00E0FFFF
Ne 0 ""
$EndPAD
$PAD
Po 5.1 -4.191
Sh "4" C 1.995 1.995 0 0 900
Dr 1.33 0 0
At STD N 00E0FFFF
Ne 0 ""
$EndPAD
$EndMODULE TO170P457X1022X2306-5P
$EndLIBRARY
