(module NL4MDH (layer F.Cu) (tedit 5F9C265A)
  (descr NL4MD-H-3)
  (tags Connector)
  (fp_text reference J** (at 6.35 10.965) (layer F.SilkS)
    (effects (font (size 1.27 1.27) (thickness 0.254)))
  )
  (fp_text value NL4MDH (at 6.35 10.965) (layer F.SilkS) hide
    (effects (font (size 1.27 1.27) (thickness 0.254)))
  )
  (fp_line (start -6.65 1.07) (end 19.35 1.07) (layer F.Fab) (width 0.2))
  (fp_line (start 19.35 1.07) (end 19.35 24.77) (layer F.Fab) (width 0.2))
  (fp_line (start 19.35 24.77) (end -6.65 24.77) (layer F.Fab) (width 0.2))
  (fp_line (start -6.65 24.77) (end -6.65 1.07) (layer F.Fab) (width 0.2))
  (fp_line (start -5.65 24.77) (end 18.35 24.77) (layer F.Fab) (width 0.2))
  (fp_line (start 18.35 24.77) (end 18.35 27.27) (layer F.Fab) (width 0.2))
  (fp_line (start 18.35 27.27) (end -5.65 27.27) (layer F.Fab) (width 0.2))
  (fp_line (start -5.65 27.27) (end -5.65 24.77) (layer F.Fab) (width 0.2))
  (fp_line (start -7.65 -6.34) (end 20.35 -6.34) (layer F.CrtYd) (width 0.1))
  (fp_line (start 20.35 -6.34) (end 20.35 28.27) (layer F.CrtYd) (width 0.1))
  (fp_line (start 20.35 28.27) (end -7.65 28.27) (layer F.CrtYd) (width 0.1))
  (fp_line (start -7.65 28.27) (end -7.65 -6.34) (layer F.CrtYd) (width 0.1))
  (fp_line (start -1.15 1.07) (end -6.65 1.07) (layer F.SilkS) (width 0.1))
  (fp_line (start -6.65 1.07) (end -6.65 24.77) (layer F.SilkS) (width 0.1))
  (fp_line (start -6.65 24.77) (end 19.35 24.77) (layer F.SilkS) (width 0.1))
  (fp_line (start 19.35 24.77) (end 19.35 1.07) (layer F.SilkS) (width 0.1))
  (fp_line (start 19.35 1.07) (end 14.35 1.07) (layer F.SilkS) (width 0.1))
  (fp_text user %R (at 6.35 10.965) (layer F.Fab)
    (effects (font (size 1.27 1.27) (thickness 0.254)))
  )
  (pad A1 thru_hole rect (at 0 0) (size 1.8 1.8) (drill 1.2) (layers *.Cu *.Mask))
  (pad A2 thru_hole rect (at 12.7 0) (size 1.8 1.8) (drill 1.2) (layers *.Cu *.Mask))
  (pad B1 thru_hole circle (at 6.35 0) (size 1.8 1.8) (drill 1.2) (layers *.Cu *.Mask))
  (pad B2 thru_hole circle (at 9.53 -4.44) (size 1.8 1.8) (drill 1.2) (layers *.Cu *.Mask))
  (model ${KIMY3D}/nl4md-h-3.stp
    (offset (xyz 6.3 -20.3 15.5))
    (scale (xyz 1 1 1))
    (rotate (xyz -90 0 0))
  )
)
