(footprint "RJE398880400" (version 20211014) (generator pcbnew)
  (layer "F.Cu")
  (tedit 0)
  (descr "RJE398880400-2")
  (tags "Connector")
  (attr through_hole)
  (fp_text reference "J**" (at -0.05 -7.043) (layer "F.SilkS")
    (effects (font (size 1.27 1.27) (thickness 0.254)))
    (tstamp 95196512-62e4-476f-8a8f-bd0a6da36bf3)
  )
  (fp_text value "RJE398880400" (at -53.55 0.577) (layer "F.SilkS") hide
    (effects (font (size 1.27 1.27) (thickness 0.254)))
    (tstamp 61ac3b0c-11ae-47f7-85cf-f259ec19d308)
  )
  (fp_text user "${REFERENCE}" (at -0.05 -7.043) (layer "F.Fab")
    (effects (font (size 1.27 1.27) (thickness 0.254)))
    (tstamp ce6bacff-fd0d-49e9-8515-2e6e08ce90ee)
  )
  (fp_line (start -57.17 -15.24) (end 57.07 -15.24) (layer "F.SilkS") (width 0.1) (tstamp 2f5bd515-0162-4a83-ab9d-e8b861f341d2))
  (fp_line (start 57.07 0) (end -57.17 0) (layer "F.SilkS") (width 0.1) (tstamp 38f2f72d-d11f-48bd-b0e2-a06087756e77))
  (fp_line (start -58.295 -16.24) (end 58.195 -16.24) (layer "F.CrtYd") (width 0.1) (tstamp 52b18eb3-01e5-4e27-8e5d-3c7721680b46))
  (fp_line (start 58.195 2.154) (end -58.295 2.154) (layer "F.CrtYd") (width 0.1) (tstamp 6fd20095-4441-4a7f-a2f4-ebe11aa9bfd0))
  (fp_line (start 58.195 -16.24) (end 58.195 2.154) (layer "F.CrtYd") (width 0.1) (tstamp a8050ffa-db36-46bd-baaa-d1f4b2b62103))
  (fp_line (start -58.295 2.154) (end -58.295 -16.24) (layer "F.CrtYd") (width 0.1) (tstamp ebf4b762-5b0e-4df5-bf89-287e413c081c))
  (fp_line (start 57.07 0) (end -57.17 0) (layer "F.Fab") (width 0.2) (tstamp 498ad470-e0a2-4ff5-9b7a-f548cd35c145))
  (fp_line (start -57.17 0) (end -57.17 -15.24) (layer "F.Fab") (width 0.2) (tstamp 6ffb4c70-fb5a-40e4-b928-423504983e00))
  (fp_line (start 57.07 -15.24) (end 57.07 0) (layer "F.Fab") (width 0.2) (tstamp 7847d12f-520e-4ceb-9c1d-521a2c2b88fd))
  (fp_line (start -57.17 -15.24) (end 57.07 -15.24) (layer "F.Fab") (width 0.2) (tstamp a06a4021-1ece-4692-b683-043d4c0e7403))
  (pad "" np_thru_hole circle (at -55.645 -5.08) (size 3.3 3.3) (drill 3.3) (layers *.Cu *.Mask) (tstamp 78f4235e-14ba-4112-b827-bb7b5a6fbe55))
  (pad "" np_thru_hole circle (at 55.545 -5.08) (size 3.3 3.3) (drill 3.3) (layers *.Cu *.Mask) (tstamp b6d76952-274d-4a03-a9af-4555d78b29a1))
  (pad "" np_thru_hole circle (at -0.05 -5.08) (size 3.3 3.3) (drill 3.3) (layers *.Cu *.Mask) (tstamp dda12f25-7bff-498d-9ff8-64172acb9923))
  (pad "1" thru_hole circle (at 53.5 -7.62) (size 1.462 1.462) (drill 0.94) (layers *.Cu *.Mask) (tstamp 45cea056-e888-43d8-be19-ff29682a2ae4))
  (pad "2" thru_hole circle (at 52.48 -9.4) (size 1.462 1.462) (drill 0.94) (layers *.Cu *.Mask) (tstamp feef77e9-3e2f-4654-b4ab-243641872cf4))
  (pad "3" thru_hole circle (at 51.46 -7.62) (size 1.462 1.462) (drill 0.94) (layers *.Cu *.Mask) (tstamp 4c5b708b-9ba1-48fc-8d99-b6fe563eb339))
  (pad "4" thru_hole circle (at 50.44 -9.4) (size 1.462 1.462) (drill 0.94) (layers *.Cu *.Mask) (tstamp 02db9983-a8b0-4a2f-96f9-b1cbc85c192d))
  (pad "5" thru_hole circle (at 49.42 -7.62) (size 1.462 1.462) (drill 0.94) (layers *.Cu *.Mask) (tstamp 3e7e1240-1bc2-4ff6-b8d4-d0a1468846cc))
  (pad "6" thru_hole circle (at 48.4 -9.4) (size 1.462 1.462) (drill 0.94) (layers *.Cu *.Mask) (tstamp 5a574a62-931b-4b29-bd83-f8eb06aa20fc))
  (pad "7" thru_hole circle (at 47.38 -7.62) (size 1.462 1.462) (drill 0.94) (layers *.Cu *.Mask) (tstamp 49fd9599-9756-4bc7-a1a9-84eb11efbec6))
  (pad "8" thru_hole circle (at 46.36 -9.4) (size 1.462 1.462) (drill 0.94) (layers *.Cu *.Mask) (tstamp 7d84ef4a-e25e-4e16-a814-88cfbefc2187))
  (pad "9" thru_hole circle (at 39.22 -7.62) (size 1.462 1.462) (drill 0.94) (layers *.Cu *.Mask) (tstamp 977bab11-f474-487f-a72a-63d254fd25fb))
  (pad "10" thru_hole circle (at 38.2 -9.4) (size 1.462 1.462) (drill 0.94) (layers *.Cu *.Mask) (tstamp 93de5ae0-3b38-4757-92f5-e04bcb60a412))
  (pad "11" thru_hole circle (at 37.18 -7.62) (size 1.462 1.462) (drill 0.94) (layers *.Cu *.Mask) (tstamp e64dca63-591a-4aca-a2e2-c75d03a0f5de))
  (pad "12" thru_hole circle (at 36.16 -9.4) (size 1.462 1.462) (drill 0.94) (layers *.Cu *.Mask) (tstamp 67f89ad6-792d-4615-9d96-f70ca49f9bb7))
  (pad "13" thru_hole circle (at 35.14 -7.62) (size 1.462 1.462) (drill 0.94) (layers *.Cu *.Mask) (tstamp db33e465-645e-4f27-bf76-678dc0d281b9))
  (pad "14" thru_hole circle (at 34.12 -9.4) (size 1.462 1.462) (drill 0.94) (layers *.Cu *.Mask) (tstamp e3084f74-34b1-431a-a3e8-8303f8fcf0c3))
  (pad "15" thru_hole circle (at 33.1 -7.62) (size 1.462 1.462) (drill 0.94) (layers *.Cu *.Mask) (tstamp e06637f7-7a17-4455-940c-d014b9a19cb3))
  (pad "16" thru_hole circle (at 32.08 -9.4) (size 1.462 1.462) (drill 0.94) (layers *.Cu *.Mask) (tstamp 02397a5a-32cd-4a24-b3d6-12b76b895d65))
  (pad "17" thru_hole circle (at 24.94 -7.62) (size 1.462 1.462) (drill 0.94) (layers *.Cu *.Mask) (tstamp 37e900b8-7c29-4f5f-affa-bf481c9e6b3f))
  (pad "18" thru_hole circle (at 23.92 -9.4) (size 1.462 1.462) (drill 0.94) (layers *.Cu *.Mask) (tstamp 04670d11-e719-45f0-9748-0c77e0acc7c4))
  (pad "19" thru_hole circle (at 22.9 -7.62) (size 1.462 1.462) (drill 0.94) (layers *.Cu *.Mask) (tstamp bb0acfe4-dde5-425e-88d3-5faa80634af1))
  (pad "20" thru_hole circle (at 21.88 -9.4) (size 1.462 1.462) (drill 0.94) (layers *.Cu *.Mask) (tstamp 32e1ff6a-b5c5-4401-88fa-10eab1ea6dbe))
  (pad "21" thru_hole circle (at 20.86 -7.62) (size 1.462 1.462) (drill 0.94) (layers *.Cu *.Mask) (tstamp a02689dc-c9af-401d-9ac5-b7cb0541edbf))
  (pad "22" thru_hole circle (at 19.84 -9.4) (size 1.462 1.462) (drill 0.94) (layers *.Cu *.Mask) (tstamp 699cae1d-9307-4bdc-9dde-22d4e625fa3b))
  (pad "23" thru_hole circle (at 18.82 -7.62) (size 1.462 1.462) (drill 0.94) (layers *.Cu *.Mask) (tstamp 49374139-c94c-4d42-a041-47c1a1b59e87))
  (pad "24" thru_hole circle (at 17.8 -9.4) (size 1.462 1.462) (drill 0.94) (layers *.Cu *.Mask) (tstamp 94da9b33-bda8-462d-8cb2-c91aa48e81fb))
  (pad "25" thru_hole circle (at 10.66 -7.62) (size 1.462 1.462) (drill 0.94) (layers *.Cu *.Mask) (tstamp a97e4817-5ee0-481d-a063-b320f1af50d8))
  (pad "26" thru_hole circle (at 9.64 -9.4) (size 1.462 1.462) (drill 0.94) (layers *.Cu *.Mask) (tstamp 70b56ea0-e835-4f21-aaad-f74e1633bb26))
  (pad "27" thru_hole circle (at 8.62 -7.62) (size 1.462 1.462) (drill 0.94) (layers *.Cu *.Mask) (tstamp 073c7983-ba03-41d0-8a45-b5fe56845e3c))
  (pad "28" thru_hole circle (at 7.6 -9.4) (size 1.462 1.462) (drill 0.94) (layers *.Cu *.Mask) (tstamp 1c845f80-f27c-43fd-9c9d-8f1af5f537f5))
  (pad "29" thru_hole circle (at 6.58 -7.62) (size 1.462 1.462) (drill 0.94) (layers *.Cu *.Mask) (tstamp e6516bbd-014f-487d-9892-3407e00fa788))
  (pad "30" thru_hole circle (at 5.56 -9.4) (size 1.462 1.462) (drill 0.94) (layers *.Cu *.Mask) (tstamp 609fc506-8393-4adf-bc50-795848c9bd0a))
  (pad "31" thru_hole circle (at 4.54 -7.62) (size 1.462 1.462) (drill 0.94) (layers *.Cu *.Mask) (tstamp 6677d551-9214-4209-8b03-4716b6757c43))
  (pad "32" thru_hole circle (at 3.52 -9.4) (size 1.462 1.462) (drill 0.94) (layers *.Cu *.Mask) (tstamp 563ba831-bb4e-4f60-863f-e42973042ebf))
  (pad "33" thru_hole circle (at -3.62 -7.62) (size 1.462 1.462) (drill 0.94) (layers *.Cu *.Mask) (tstamp 61752047-6f66-4b05-ab82-28ed53d02eac))
  (pad "34" thru_hole circle (at -4.64 -9.4) (size 1.462 1.462) (drill 0.94) (layers *.Cu *.Mask) (tstamp 16f46211-3c20-4a56-8341-5238144a8251))
  (pad "35" thru_hole circle (at -5.66 -7.62) (size 1.462 1.462) (drill 0.94) (layers *.Cu *.Mask) (tstamp 8d868119-f8e8-40fc-b31f-881ccb1b5aa4))
  (pad "36" thru_hole circle (at -6.68 -9.4) (size 1.462 1.462) (drill 0.94) (layers *.Cu *.Mask) (tstamp 37b3b967-9743-4d2a-b548-d3d8a4385d34))
  (pad "37" thru_hole circle (at -7.7 -7.62) (size 1.462 1.462) (drill 0.94) (layers *.Cu *.Mask) (tstamp bc261f27-21bf-4aab-9924-2ff280149f8f))
  (pad "38" thru_hole circle (at -8.72 -9.4) (size 1.462 1.462) (drill 0.94) (layers *.Cu *.Mask) (tstamp 9e3c1a44-d66c-4856-ba01-fc4d78fb52aa))
  (pad "39" thru_hole circle (at -9.74 -7.62) (size 1.462 1.462) (drill 0.94) (layers *.Cu *.Mask) (tstamp b48d6af3-d614-42a4-976e-f1c0ba912c49))
  (pad "40" thru_hole circle (at -10.76 -9.4) (size 1.462 1.462) (drill 0.94) (layers *.Cu *.Mask) (tstamp 76118812-843b-4380-ae6b-7a41e715a336))
  (pad "41" thru_hole circle (at -17.9 -7.62) (size 1.462 1.462) (drill 0.94) (layers *.Cu *.Mask) (tstamp 072e9e5a-5ff1-4c7c-8091-bcc091cb7d5c))
  (pad "42" thru_hole circle (at -18.92 -9.4) (size 1.462 1.462) (drill 0.94) (layers *.Cu *.Mask) (tstamp 958c85a4-6426-4fb1-bc8e-707a1f62cd87))
  (pad "43" thru_hole circle (at -19.94 -7.62) (size 1.462 1.462) (drill 0.94) (layers *.Cu *.Mask) (tstamp bf7f81e8-8241-41ab-b60d-1add9645f805))
  (pad "44" thru_hole circle (at -20.96 -9.4) (size 1.462 1.462) (drill 0.94) (layers *.Cu *.Mask) (tstamp 58a739fe-b9ad-4b1e-8f22-25e7316af0d3))
  (pad "45" thru_hole circle (at -21.98 -7.62) (size 1.462 1.462) (drill 0.94) (layers *.Cu *.Mask) (tstamp a995ede3-919f-46e0-9871-cc029ba1c68d))
  (pad "46" thru_hole circle (at -23 -9.4) (size 1.462 1.462) (drill 0.94) (layers *.Cu *.Mask) (tstamp 3964654e-524f-48a5-afa4-a279b6a62150))
  (pad "47" thru_hole circle (at -24.02 -7.62) (size 1.462 1.462) (drill 0.94) (layers *.Cu *.Mask) (tstamp fb9be331-c4b4-414b-8405-9d5a90e293f4))
  (pad "48" thru_hole circle (at -25.04 -9.4) (size 1.462 1.462) (drill 0.94) (layers *.Cu *.Mask) (tstamp 87457296-71b9-43ab-9e36-1027a7ee13b0))
  (pad "49" thru_hole circle (at -32.18 -7.62) (size 1.462 1.462) (drill 0.94) (layers *.Cu *.Mask) (tstamp cc114527-3ab1-4597-89a0-de782d2d940b))
  (pad "50" thru_hole circle (at -33.2 -9.4) (size 1.462 1.462) (drill 0.94) (layers *.Cu *.Mask) (tstamp b09e0f07-b871-4b37-8839-ddb5d9cde93f))
  (pad "51" thru_hole circle (at -34.22 -7.62) (size 1.462 1.462) (drill 0.94) (layers *.Cu *.Mask) (tstamp d2ffeb18-fce7-40bf-8bd9-d89594e81e64))
  (pad "52" thru_hole circle (at -35.24 -9.4) (size 1.462 1.462) (drill 0.94) (layers *.Cu *.Mask) (tstamp 9313af62-4a95-4ae9-a9f3-d47b963ac102))
  (pad "53" thru_hole circle (at -36.26 -7.62) (size 1.462 1.462) (drill 0.94) (layers *.Cu *.Mask) (tstamp 62e7434b-8f8d-4310-92a7-2213892535c6))
  (pad "54" thru_hole circle (at -37.28 -9.4) (size 1.462 1.462) (drill 0.94) (layers *.Cu *.Mask) (tstamp c860890d-0177-439b-9154-2ece35cf37c9))
  (pad "55" thru_hole circle (at -38.3 -7.62) (size 1.462 1.462) (drill 0.94) (layers *.Cu *.Mask) (tstamp 4463a357-cad1-48f0-aa0d-2fb149e6bf2b))
  (pad "56" thru_hole circle (at -39.32 -9.4) (size 1.462 1.462) (drill 0.94) (layers *.Cu *.Mask) (tstamp 79874fff-1733-4032-b774-430be141a1b8))
  (pad "57" thru_hole circle (at -46.46 -7.62) (size 1.462 1.462) (drill 0.94) (layers *.Cu *.Mask) (tstamp 96d5d1a8-b38f-43c1-a7e3-5b8f89ea2c2c))
  (pad "58" thru_hole circle (at -47.48 -9.4) (size 1.462 1.462) (drill 0.94) (layers *.Cu *.Mask) (tstamp 010a3463-581f-4b5c-889c-91f65f0a28a7))
  (pad "59" thru_hole circle (at -48.5 -7.62) (size 1.462 1.462) (drill 0.94) (layers *.Cu *.Mask) (tstamp c829733e-cf5f-495c-970c-36478fa6fece))
  (pad "60" thru_hole circle (at -49.52 -9.4) (size 1.462 1.462) (drill 0.94) (layers *.Cu *.Mask) (tstamp f9b6217e-0586-4aa9-973d-aece252626bf))
  (pad "61" thru_hole circle (at -50.54 -7.62) (size 1.462 1.462) (drill 0.94) (layers *.Cu *.Mask) (tstamp c8d6a66e-135c-4ea9-b16c-5461a6e71561))
  (pad "62" thru_hole circle (at -51.56 -9.4) (size 1.462 1.462) (drill 0.94) (layers *.Cu *.Mask) (tstamp 07b9fcba-8f36-4b32-81cc-081a998fd58a))
  (pad "63" thru_hole circle (at -52.58 -7.62) (size 1.462 1.462) (drill 0.94) (layers *.Cu *.Mask) (tstamp 05f059f8-c79c-4ca1-8648-8728d1a85d7a))
  (pad "64" thru_hole circle (at -53.6 -9.4) (size 1.462 1.462) (drill 0.94) (layers *.Cu *.Mask) (tstamp 19d276c8-9904-4619-a6fa-d9093ba855dc))
  (model "${KIMYEXT}/SamacSys_Parts.3dshapes/RJE398880400.step"
    (offset (xyz -57.2 0 0))
    (scale (xyz 1 1 1))
    (rotate (xyz -90 0 0))
  )
)
