(module RJHSE3384 (layer F.Cu) (tedit 5EDE9B83)
  (descr RJHSE-3384-2)
  (tags Connector)
  (fp_text reference J** (at 0 -6.795) (layer F.SilkS)
    (effects (font (size 1.27 1.27) (thickness 0.254)))
  )
  (fp_text value RJHSE3384 (at 0 -6.795) (layer F.SilkS) hide
    (effects (font (size 1.27 1.27) (thickness 0.254)))
  )
  (fp_line (start 8.255 -13.59) (end 8.255 -9.54) (layer F.SilkS) (width 0.1))
  (fp_line (start -8.255 -13.59) (end 8.255 -13.59) (layer F.SilkS) (width 0.1))
  (fp_line (start -8.255 -9.54) (end -8.255 -13.59) (layer F.SilkS) (width 0.1))
  (fp_line (start 8.255 0) (end 8.255 -5.04) (layer F.SilkS) (width 0.1))
  (fp_line (start -8.255 0) (end 8.255 0) (layer F.SilkS) (width 0.1))
  (fp_line (start -8.255 -5.04) (end -8.255 0) (layer F.SilkS) (width 0.1))
  (fp_line (start -10.345 1) (end -10.345 -14.59) (layer F.CrtYd) (width 0.1))
  (fp_line (start 10.345 1) (end -10.345 1) (layer F.CrtYd) (width 0.1))
  (fp_line (start 10.345 -14.59) (end 10.345 1) (layer F.CrtYd) (width 0.1))
  (fp_line (start -10.345 -14.59) (end 10.345 -14.59) (layer F.CrtYd) (width 0.1))
  (fp_line (start -8.255 0) (end -8.255 -13.59) (layer F.Fab) (width 0.2))
  (fp_line (start 8.255 0) (end -8.255 0) (layer F.Fab) (width 0.2))
  (fp_line (start 8.255 -13.59) (end 8.255 0) (layer F.Fab) (width 0.2))
  (fp_line (start -8.255 -13.59) (end 8.255 -13.59) (layer F.Fab) (width 0.2))
  (fp_text user %R (at 0 -6.795) (layer F.Fab)
    (effects (font (size 1.27 1.27) (thickness 0.254)))
  )
  (pad 1 thru_hole rect (at 3.57 -5.97) (size 1.462 1.462) (drill 0.94) (layers *.Cu *.Mask))
  (pad 2 thru_hole circle (at 2.55 -3.43) (size 1.462 1.462) (drill 0.94) (layers *.Cu *.Mask))
  (pad 3 thru_hole circle (at 1.53 -5.97) (size 1.462 1.462) (drill 0.94) (layers *.Cu *.Mask))
  (pad 4 thru_hole circle (at 0.51 -3.43) (size 1.462 1.462) (drill 0.94) (layers *.Cu *.Mask))
  (pad 5 thru_hole circle (at -0.51 -5.97) (size 1.462 1.462) (drill 0.94) (layers *.Cu *.Mask))
  (pad 6 thru_hole circle (at -1.53 -3.43) (size 1.462 1.462) (drill 0.94) (layers *.Cu *.Mask))
  (pad 7 thru_hole circle (at -2.55 -5.97) (size 1.462 1.462) (drill 0.94) (layers *.Cu *.Mask))
  (pad 8 thru_hole circle (at -3.57 -3.43) (size 1.462 1.462) (drill 0.94) (layers *.Cu *.Mask))
  (pad 9 thru_hole circle (at 6.86 -8.38) (size 1.462 1.462) (drill 0.94) (layers *.Cu *.Mask))
  (pad 10 thru_hole circle (at 4.57 -8.38) (size 1.462 1.462) (drill 0.94) (layers *.Cu *.Mask))
  (pad 11 thru_hole circle (at -4.57 -8.38) (size 1.462 1.462) (drill 0.94) (layers *.Cu *.Mask))
  (pad 12 thru_hole circle (at -6.86 -8.38) (size 1.462 1.462) (drill 0.94) (layers *.Cu *.Mask))
  (pad MH1 thru_hole circle (at -8.13 -6.78) (size 2.43 2.43) (drill 1.62) (layers *.Cu *.Mask))
  (pad MH2 thru_hole circle (at 8.13 -6.78) (size 2.43 2.43) (drill 1.62) (layers *.Cu *.Mask))
  (pad MH3 np_thru_hole circle (at -6.35 -2.54) (size 3.3 3.3) (drill 3.3) (layers *.Cu *.Mask))
  (pad MH4 np_thru_hole circle (at 6.35 -2.54) (size 3.3 3.3) (drill 3.3) (layers *.Cu *.Mask))
  (model ${KIMYEXT}/SamacSys_Parts.3dshapes/RJHSE-3380.stp
    (at (xyz 0 0 0))
    (scale (xyz 1 1 1))
    (rotate (xyz 0 0 0))
  )
)
