(footprint "SON50P300X300X100-11N" (version 20211014) (generator pcbnew)
  (layer "F.Cu")
  (tedit 0)
  (descr "VSON (10) ")
  (tags "Undefined or Miscellaneous")
  (attr smd)
  (fp_text reference "U**" (at 0 -2.25) (layer "F.SilkS")
    (effects (font (size 1 1) (thickness 0.15)))
    (tstamp 9cd67ae7-726e-413a-9562-4cdb5194f95b)
  )
  (fp_text value "SON50P300X300X100-11N" (at 0 0) (layer "F.SilkS") hide
    (effects (font (size 1.27 1.27) (thickness 0.254)))
    (tstamp 825a299a-8216-4ef3-9227-e8a5a45a7e71)
  )
  (fp_text user "${REFERENCE}" (at 0 0) (layer "F.Fab")
    (effects (font (size 1.27 1.27) (thickness 0.254)))
    (tstamp c3913eeb-7ad7-41a2-b441-1accc5ae84c4)
  )
  (fp_circle (center -1.925 -1.65) (end -1.925 -1.525) (layer "F.SilkS") (width 0.25) (fill none) (tstamp be885461-9108-499b-b98c-418c4ec34e04))
  (fp_line (start -2.15 -1.825) (end 2.15 -1.825) (layer "F.CrtYd") (width 0.05) (tstamp 93345a5a-6bee-4ba9-b972-c6f0086983bc))
  (fp_line (start -2.15 1.825) (end -2.15 -1.825) (layer "F.CrtYd") (width 0.05) (tstamp b5bfa122-358e-46ca-9bcf-14e649eaf5c1))
  (fp_line (start 2.15 -1.825) (end 2.15 1.825) (layer "F.CrtYd") (width 0.05) (tstamp c0e428fe-a59e-474e-aa44-8448626277fa))
  (fp_line (start 2.15 1.825) (end -2.15 1.825) (layer "F.CrtYd") (width 0.05) (tstamp dd7a422b-54a8-41c8-aac2-b1b6e736c607))
  (fp_line (start -1.5 -1.5) (end 1.5 -1.5) (layer "F.Fab") (width 0.1) (tstamp 7a3eeecd-7b88-43c3-84b3-7771b3ae0351))
  (fp_line (start -1.5 -0.75) (end -0.75 -1.5) (layer "F.Fab") (width 0.1) (tstamp 9cb4a62d-ce66-4e62-bb85-94e7671a2ad7))
  (fp_line (start 1.5 -1.5) (end 1.5 1.5) (layer "F.Fab") (width 0.1) (tstamp edec41ef-1125-4e20-8f61-fa80db1394a4))
  (fp_line (start -1.5 1.5) (end -1.5 -1.5) (layer "F.Fab") (width 0.1) (tstamp f25aeef6-4357-4020-8f91-a90fbcbbc306))
  (fp_line (start 1.5 1.5) (end -1.5 1.5) (layer "F.Fab") (width 0.1) (tstamp f6e6550e-646a-44c6-a096-4f12b30f6d86))
  (pad "1" smd rect (at -1.5 -1 90) (size 0.3 0.85) (layers "F.Cu" "F.Paste" "F.Mask") (tstamp bd7dac80-c02f-4278-938e-7d8e46fa932d))
  (pad "2" smd rect (at -1.5 -0.5 90) (size 0.3 0.85) (layers "F.Cu" "F.Paste" "F.Mask") (tstamp f66f62ee-89d2-4d89-b9a0-df496d0e4b28))
  (pad "3" smd rect (at -1.5 0 90) (size 0.3 0.85) (layers "F.Cu" "F.Paste" "F.Mask") (tstamp 4c436f7d-45d5-40d0-9e30-984bed05459b))
  (pad "4" smd rect (at -1.5 0.5 90) (size 0.3 0.85) (layers "F.Cu" "F.Paste" "F.Mask") (tstamp 9de3bc6b-6fc4-4c90-97d9-665291611e64))
  (pad "5" smd rect (at -1.5 1 90) (size 0.3 0.85) (layers "F.Cu" "F.Paste" "F.Mask") (tstamp 06a05780-8022-43ef-93bb-669ce144c34b))
  (pad "6" smd rect (at 1.5 1 90) (size 0.3 0.85) (layers "F.Cu" "F.Paste" "F.Mask") (tstamp c359feff-10a1-40de-915d-c7d3c233f9b3))
  (pad "7" smd rect (at 1.5 0.5 90) (size 0.3 0.85) (layers "F.Cu" "F.Paste" "F.Mask") (tstamp 8e190c77-c804-4258-8da4-19f96ed488c8))
  (pad "8" smd rect (at 1.5 0 90) (size 0.3 0.85) (layers "F.Cu" "F.Paste" "F.Mask") (tstamp 60e6b55c-e43e-4459-9900-634377ea773a))
  (pad "9" smd rect (at 1.5 -0.5 90) (size 0.3 0.85) (layers "F.Cu" "F.Paste" "F.Mask") (tstamp b44fd264-98c9-4825-a86f-bd0a894bc16c))
  (pad "10" smd rect (at 1.5 -1 90) (size 0.3 0.85) (layers "F.Cu" "F.Paste" "F.Mask") (tstamp fba0204b-f86f-47dc-aac1-15ee4bbf6a95))
  (pad "11" smd rect (at 0 0) (size 1.75 2.5) (layers "F.Cu" "F.Paste" "F.Mask") (tstamp b1e6b0cb-3750-48fd-a319-c07f57a73ce2))
  (model "J:\\Documents\\EE-Projekte\\kicad\\myext\\SamacSys_Parts.3dshapes\\OPA1622IDRCR.stp"
    (offset (xyz 0 0 0))
    (scale (xyz 1 1 1))
    (rotate (xyz 0 0 0))
  )
)
