(module "TDS04SGNNTR04" (layer F.Cu)
  (descr "TDS04SGNNTR04-2")
  (tags "Switch")
  (attr smd)
  (fp_text reference S** (at 0.000 -0) (layer F.SilkS)
    (effects (font (size 1.27 1.27) (thickness 0.254)))
  )
  (fp_text user %R (at 0.000 -0) (layer F.Fab)
    (effects (font (size 1.27 1.27) (thickness 0.254)))
  )
  (fp_text value "TDS04SGNNTR04" (at 0.000 -0) (layer F.SilkS) hide
    (effects (font (size 1.27 1.27) (thickness 0.254)))
  )
  (fp_line (start -5.66 3.5) (end 5.66 3.5) (layer F.Fab) (width 0.1))
  (fp_line (start 5.66 3.5) (end 5.66 -3.5) (layer F.Fab) (width 0.1))
  (fp_line (start 5.66 -3.5) (end -5.66 -3.5) (layer F.Fab) (width 0.1))
  (fp_line (start -5.66 -3.5) (end -5.66 3.5) (layer F.Fab) (width 0.1))
  (fp_line (start -5.66 3.5) (end 5.66 3.5) (layer F.SilkS) (width 0.2))
  (fp_line (start 5.66 3.5) (end 5.66 -3.5) (layer F.SilkS) (width 0.2))
  (fp_line (start 5.66 -3.5) (end -5.66 -3.5) (layer F.SilkS) (width 0.2))
  (fp_line (start -5.66 -3.5) (end -5.66 3.5) (layer F.SilkS) (width 0.2))
  (fp_line (start -6.66 -6.4) (end 6.66 -6.4) (layer F.CrtYd) (width 0.1))
  (fp_line (start 6.66 -6.4) (end 6.66 6.4) (layer F.CrtYd) (width 0.1))
  (fp_line (start 6.66 6.4) (end -6.66 6.4) (layer F.CrtYd) (width 0.1))
  (fp_line (start -6.66 6.4) (end -6.66 -6.4) (layer F.CrtYd) (width 0.1))
  (fp_line (start -3.9 -6) (end -3.9 -6) (layer F.SilkS) (width 0.2))
  (fp_line (start -3.8 -6) (end -3.8 -6) (layer F.SilkS) (width 0.2))
  (fp_line (start -3.9 -6) (end -3.9 -6) (layer F.SilkS) (width 0.2))
  (fp_arc (start -3.85 -6) (end -3.900 -6) (angle -180) (layer F.SilkS) (width 0.2))
  (fp_arc (start -3.85 -6) (end -3.800 -6) (angle -180) (layer F.SilkS) (width 0.2))
  (fp_arc (start -3.85 -6) (end -3.900 -6) (angle -180) (layer F.SilkS) (width 0.2))
  (pad 1 smd rect (at -3.810 -4.75 0) (size 1.100 1.300) (layers F.Cu F.Paste F.Mask))
  (pad 2 smd rect (at -1.270 -4.75 0) (size 1.100 1.300) (layers F.Cu F.Paste F.Mask))
  (pad 3 smd rect (at 1.270 -4.75 0) (size 1.100 1.300) (layers F.Cu F.Paste F.Mask))
  (pad 4 smd rect (at 3.810 -4.75 0) (size 1.100 1.300) (layers F.Cu F.Paste F.Mask))
  (pad 5 smd rect (at 3.810 4.75 0) (size 1.100 1.300) (layers F.Cu F.Paste F.Mask))
  (pad 6 smd rect (at -3.810 4.75 0) (size 1.100 1.300) (layers F.Cu F.Paste F.Mask))
)
