(footprint "TO170P457X1022X2306-5P" (version 20211014) (generator pcbnew)
  (layer "F.Cu")
  (tedit 0)
  (descr "T Package 5-Lead Plastic TO-200 (Standard)")
  (tags "Integrated Circuit")
  (attr through_hole)
  (fp_text reference "IC**" (at 3.5 2.5) (layer "F.SilkS")
    (effects (font (size 1.27 1.27) (thickness 0.254)))
    (tstamp a95ab379-a658-4a52-b589-2b4739f52da3)
  )
  (fp_text value "TO170P457X1022X2306-5P" (at 0 0) (layer "F.SilkS") hide
    (effects (font (size 1.27 1.27) (thickness 0.254)))
    (tstamp 084b0572-701f-4e43-a258-017bc002a23f)
  )
  (fp_text user "${REFERENCE}" (at 0 0) (layer "F.Fab")
    (effects (font (size 1.27 1.27) (thickness 0.254)))
    (tstamp 2e68e8e2-160f-4087-830c-d627604b021a)
  )
  (fp_line (start 8.67 -9.436) (end -1.87 -9.436) (layer "F.SilkS") (width 0.2) (tstamp 59ca1ebb-54cd-46d8-8fbb-f5c6a6bc4500))
  (fp_line (start -1.87 -9.436) (end -1.87 0) (layer "F.SilkS") (width 0.2) (tstamp b7aeeaa3-b6be-4fd6-b529-1be490dd0249))
  (fp_line (start 8.67 -4.864) (end 8.67 -9.436) (layer "F.SilkS") (width 0.2) (tstamp f1eb764c-105a-4c99-bd92-bdcc5ad26b4f))
  (fp_line (start -2.12 1.248) (end -2.12 -9.686) (layer "F.CrtYd") (width 0.05) (tstamp 550ab0de-4bf1-49d6-9cf1-69edf763883c))
  (fp_line (start -2.12 -9.686) (end 8.921 -9.686) (layer "F.CrtYd") (width 0.05) (tstamp cdaf0d74-69eb-4c73-a820-467f106f6265))
  (fp_line (start 8.921 1.248) (end -2.12 1.248) (layer "F.CrtYd") (width 0.05) (tstamp e5a2c4e1-4ac8-4b49-8b27-ad95c57ba429))
  (fp_line (start 8.921 -9.686) (end 8.921 1.248) (layer "F.CrtYd") (width 0.05) (tstamp eff85d74-3a18-4ae6-9ad8-3b0c7edf1ac0))
  (fp_line (start -1.87 -4.864) (end -1.87 -9.436) (layer "F.Fab") (width 0.1) (tstamp 6c1dbabe-6529-4145-8efe-47d922053811))
  (fp_line (start 8.671 -9.436) (end 8.671 -4.864) (layer "F.Fab") (width 0.1) (tstamp 8b9a57a9-8989-4a9b-9626-4236cc585335))
  (fp_line (start -1.87 -8.586) (end -1.02 -9.436) (layer "F.Fab") (width 0.1) (tstamp 95507645-c860-4f8f-9c62-2f5ae6ddb4b4))
  (fp_line (start -1.87 -9.436) (end 8.671 -9.436) (layer "F.Fab") (width 0.1) (tstamp d3940131-3d77-4c34-a69e-487307055361))
  (fp_line (start 8.671 -4.864) (end -1.87 -4.864) (layer "F.Fab") (width 0.1) (tstamp ea1efe70-854e-4821-8f6d-4c7b69ba819f))
  (pad "1" thru_hole rect (at 0 0) (size 1.995 1.995) (drill 1.33) (layers *.Cu *.Mask) (tstamp f610748b-6500-4785-931b-4f40bd2afb7c))
  (pad "2" thru_hole circle (at 1.7 -4.191) (size 1.995 1.995) (drill 1.33) (layers *.Cu *.Mask) (tstamp 1b35d745-414d-4d55-8991-54e004c17e54))
  (pad "3" thru_hole circle (at 3.4 0) (size 1.995 1.995) (drill 1.33) (layers *.Cu *.Mask) (tstamp e89e6ab6-f5b7-4568-929b-4dfc7d9240e6))
  (pad "4" thru_hole circle (at 5.1 -4.191) (size 1.995 1.995) (drill 1.33) (layers *.Cu *.Mask) (tstamp 036641cc-c677-42c1-9c26-acd0a4c2a91d))
  (pad "5" thru_hole circle (at 6.8 0) (size 1.995 1.995) (drill 1.33) (layers *.Cu *.Mask) (tstamp 69a3da19-ebb5-453c-9ee2-d733a3f4fa36))
  (model "${KIMYEXT}/SamacSys_Parts.3dshapes/LT1528CT#PBF.stp"
    (offset (xyz 0 0 0))
    (scale (xyz 1 1 1))
    (rotate (xyz 0 0 0))
  )
)
