(module YFF15PC0G435MT000N (layer F.Cu) (tedit 5EA1DFC0)
  (descr YFF15PC0G435MT000N-1)
  (tags Filter)
  (attr smd)
  (fp_text reference C** (at 0 -1.1) (layer F.SilkS)
    (effects (font (size 1 1) (thickness 0.2)))
  )
  (fp_text value YFF15PC0G435MT000N (at -0.3 2.5) (layer F.SilkS) hide
    (effects (font (size 1.27 1.27) (thickness 0.254)))
  )
  (fp_line (start -0.525 -0.325) (end 0.525 -0.325) (layer F.Fab) (width 0.2))
  (fp_line (start 0.525 -0.325) (end 0.525 0.325) (layer F.Fab) (width 0.2))
  (fp_line (start 0.525 0.325) (end -0.525 0.325) (layer F.Fab) (width 0.2))
  (fp_line (start -0.525 0.325) (end -0.525 -0.325) (layer F.Fab) (width 0.2))
  (fp_line (start -0.8 -0.55) (end 0.8 -0.55) (layer F.CrtYd) (width 0.1))
  (fp_line (start 0.8 -0.55) (end 0.8 0.55) (layer F.CrtYd) (width 0.1))
  (fp_line (start 0.8 0.55) (end -0.8 0.55) (layer F.CrtYd) (width 0.1))
  (fp_line (start -0.8 0.5) (end -0.8 -0.55) (layer F.CrtYd) (width 0.1))
  (fp_line (start -0.8 -0.55) (end 0.8 -0.55) (layer F.CrtYd) (width 0.1))
  (fp_line (start 0.8 -0.55) (end 0.8 0.55) (layer F.CrtYd) (width 0.1))
  (fp_line (start 0.8 0.55) (end -0.8 0.55) (layer F.CrtYd) (width 0.1))
  (fp_line (start -0.8 0.55) (end -0.8 -0.55) (layer F.CrtYd) (width 0.1))
  (pad 1 smd rect (at -0.5 0) (size 0.3 0.6) (layers F.Cu F.Paste F.Mask))
  (pad 2 smd rect (at 0 0.25) (size 0.19 0.25) (layers F.Cu F.Paste F.Mask))
  (pad 3 smd rect (at 0.5 0) (size 0.3 0.6) (layers F.Cu F.Paste F.Mask))
  (pad 2 smd rect (at 0 -0.25) (size 0.19 0.25) (layers F.Cu F.Paste F.Mask))
  (model ${KIMYEXT}/SamacSys_Parts.3dshapes/YFF15PC0G435MT000N.stp
    (at (xyz 0 0 0))
    (scale (xyz 1 1 1))
    (rotate (xyz 0 0 0))
  )
)
