(footprint "Cosmos" (version 20211014) (generator pcbnew)
  (layer "F.Cu")
  (tedit 0)
  (attr smd)
  (fp_text reference "ADC**" (at 0 5.5 unlocked) (layer "F.SilkS")
    (effects (font (size 1 1) (thickness 0.15)))
    (tstamp 6b629811-01be-4005-b914-28a98b580e00)
  )
  (fp_text value "Cosmos" (at 0.5 2.5 unlocked) (layer "F.Fab")
    (effects (font (size 1 1) (thickness 0.15)))
    (tstamp 0b11d390-0ec0-4912-b0a1-791187d4b6a4)
  )
  (fp_line (start -52 -30.5) (end -52 30.5) (layer "F.SilkS") (width 0.15) (tstamp 2b5f034c-d9ea-4ca8-bfda-8eef988dddd7))
  (fp_line (start -44.25 -30.5) (end 44.25 30.5) (layer "F.SilkS") (width 0.15) (tstamp 5be87233-abde-4e8f-b7d9-9859b6cbd4be))
  (fp_line (start 44.25 -30.5) (end -44.25 30.5) (layer "F.SilkS") (width 0.15) (tstamp 6a6e7af9-e51f-41ff-919d-f830674cddf4))
  (fp_line (start -52 -30.5) (end 52 -30.5) (layer "F.SilkS") (width 0.15) (tstamp 79e6bf5b-9d1c-45a0-a15d-670a2fcce37f))
  (fp_line (start 52 -30.5) (end 52 30.5) (layer "F.SilkS") (width 0.15) (tstamp 9673df48-e6c8-4979-861c-d151ab98090f))
  (fp_line (start -52 30.5) (end 52 30.5) (layer "F.SilkS") (width 0.15) (tstamp dd49644c-8013-417a-aa6b-5815cbcbcbc9))
  (fp_line (start 52 -30.5) (end -52 -30.5) (layer "F.CrtYd") (width 0.12) (tstamp 3675da77-bd44-4271-800f-339921fff7d1))
  (fp_line (start -52 -30.5) (end -52 30.5) (layer "F.CrtYd") (width 0.12) (tstamp 99477ea5-2031-49b4-a594-565bee6d3dee))
  (fp_line (start 52 30.5) (end 52 -30.5) (layer "F.CrtYd") (width 0.12) (tstamp b340656b-ed4d-4855-bb4a-d265cf2fa54c))
  (fp_line (start -52 30.5) (end 52 30.5) (layer "F.CrtYd") (width 0.12) (tstamp df3cfec3-c49b-477f-88ce-003ac06bccef))
  (pad "GND" thru_hole circle (at -43 20) (size 8.6 8.6) (drill 4.3) (layers *.Cu *.Mask) (tstamp 3625f350-b88f-429a-a0b3-4cf21559834c))
  (pad "GND" thru_hole circle (at 43 -20) (size 8.6 8.6) (drill 4.3) (layers *.Cu *.Mask) (tstamp 68ef92d6-0cea-43a2-8ff3-f61281263e97))
  (pad "GND" thru_hole circle (at -43 -20) (size 8.6 8.6) (drill 4.3) (layers *.Cu *.Mask) (tstamp 90b0e50f-0415-4421-a597-3e5cdc4a061e))
  (pad "GND" thru_hole circle (at 43 20) (size 8.6 8.6) (drill 4.3) (layers *.Cu *.Mask) (tstamp ae0558c7-a33d-4c70-96a3-488bf9f21e2b))
  (model "${KIMY3D}/Cosmos.step"
    (offset (xyz -52 -30.5 5.5))
    (scale (xyz 1 1 1))
    (rotate (xyz 0 0 0))
  )
)
