(module MAX16043 (layer F.Cu) (tedit 60F5DBCC)
  (fp_text reference REF** (at 0 0.5) (layer F.SilkS)
    (effects (font (size 1 1) (thickness 0.15)))
  )
  (fp_text value MAX16043 (at 0 -0.5) (layer F.Fab)
    (effects (font (size 1 1) (thickness 0.15)))
  )
)
