(footprint "SK129_18.1_STS" (version 20211014) (generator pcbnew)
  (layer "F.Cu")
  (tedit 0)
  (attr through_hole)
  (fp_text reference "REF**" (at 0 -0.5 unlocked) (layer "F.SilkS")
    (effects (font (size 1 1) (thickness 0.15)))
    (tstamp fd2a67ce-ea55-47a3-91d4-cff57d2583d2)
  )
  (fp_text value "SK129_18.1_STS" (at 0 1 unlocked) (layer "F.Fab")
    (effects (font (size 1 1) (thickness 0.15)))
    (tstamp 1983ea14-bb95-48f6-b537-13756256ebaa)
  )
  (fp_line (start 0 25) (end 0 0) (layer "F.SilkS") (width 0.15) (tstamp 11b22ff9-472f-4e9a-a3fa-cfcd730cdfb7))
  (fp_line (start 0 0) (end 42 0) (layer "F.SilkS") (width 0.15) (tstamp 31a47563-0f2a-4203-99ca-9ca039b300a6))
  (fp_line (start 42 25) (end 42 0) (layer "F.SilkS") (width 0.15) (tstamp 64954261-6ee0-455e-b19f-8993940f8371))
  (fp_line (start 0 25) (end 42 25) (layer "F.SilkS") (width 0.15) (tstamp fc42ffaa-0277-4cef-9094-cc0a720feaa0))
  (fp_line (start 42.5 25.5) (end 29 25.5) (layer "F.CrtYd") (width 0.12) (tstamp 2b9251a8-22bf-4bdc-a082-b94a38755c47))
  (fp_line (start 29 25.5) (end 29 13.5) (layer "F.CrtYd") (width 0.12) (tstamp 3188fbf2-7937-44f9-851b-ee5cc7fc5b5f))
  (fp_line (start 29 13.5) (end 12 13.5) (layer "F.CrtYd") (width 0.12) (tstamp 43c00c8a-b9fb-4fbb-8913-0cb59b938be8))
  (fp_line (start 42.5 -0.5) (end 42.5 25.5) (layer "F.CrtYd") (width 0.12) (tstamp 57c0e37c-6b11-459c-a204-5eb59f64cce7))
  (fp_line (start -0.5 -0.5) (end 42.5 -0.5) (layer "F.CrtYd") (width 0.12) (tstamp 5ad19697-c8c4-48a5-af0b-4cdf75ecea0e))
  (fp_line (start 12 25.5) (end -0.5 25.5) (layer "F.CrtYd") (width 0.12) (tstamp 760cf73c-6cca-4726-9d29-d6d8f9d9e611))
  (fp_line (start 12 13.5) (end 12 25.5) (layer "F.CrtYd") (width 0.12) (tstamp 9977c62b-1db4-4e68-9ce2-573374b7964b))
  (fp_line (start -0.5 25.5) (end -0.5 -0.5) (layer "F.CrtYd") (width 0.12) (tstamp c7d47e7b-6647-4d87-96b5-e813398a15c7))
  (pad "1" thru_hole circle (at 7.3 12.5) (size 6 6) (drill 2.7) (layers *.Cu *.Mask) (tstamp 3640be09-1c9e-45de-802b-ff756a4df0c9))
  (pad "2" thru_hole circle (at 32.7 12.5) (size 6 6) (drill 2.7) (layers *.Cu *.Mask) (tstamp d36a7598-732f-4dcd-9568-917c39595862))
  (model "${KIMY3D}/sk_129_38.1_sts.stp"
    (offset (xyz -1 -25 0))
    (scale (xyz 1 1 1))
    (rotate (xyz 0 0 0))
  )
)
