(module SO-6_4.4x3.6mm_P1.27mm_5pin (layer F.Cu) (tedit 5D6AB9DB)
  (fp_text reference REF** (at 0 -3) (layer F.SilkS)
    (effects (font (size 1 1) (thickness 0.15)))
  )
  (fp_text value SO-6_4.4x3.6mm_P1.27mm_5pin (at 0 3) (layer F.Fab)
    (effects (font (size 1 1) (thickness 0.15)))
  )
  (fp_line (start -2.4 -1.7) (end -4.1 -1.7) (layer F.SilkS) (width 0.12))
  (fp_line (start 2.4 1.7) (end 2.4 2) (layer F.SilkS) (width 0.12))
  (fp_line (start 2.4 2) (end -2.4 2) (layer F.SilkS) (width 0.12))
  (fp_line (start -2.4 2) (end -2.4 1.7) (layer F.SilkS) (width 0.12))
  (fp_line (start -2.4 -1.7) (end -2.4 -2) (layer F.SilkS) (width 0.12))
  (fp_line (start -2.2 -1) (end -1.4 -1.8) (layer F.Fab) (width 0.12))
  (fp_line (start -2.4 -2) (end 2.4 -2) (layer F.SilkS) (width 0.12))
  (fp_text user %R (at 0 -0.065) (layer F.Fab)
    (effects (font (size 1 1) (thickness 0.15)))
  )
  (fp_line (start -2.2 1.8) (end -2.2 -1) (layer F.Fab) (width 0.12))
  (fp_line (start 2.2 -1.8) (end 2.2 1.8) (layer F.Fab) (width 0.12))
  (fp_line (start -4.4 -2.05) (end 4.4 -2.05) (layer F.CrtYd) (width 0.05))
  (fp_line (start 2.4 -2) (end 2.4 -1.7) (layer F.SilkS) (width 0.12))
  (fp_line (start 4.4 2.05) (end -4.4 2.05) (layer F.CrtYd) (width 0.05))
  (fp_line (start -4.4 -2.05) (end -4.4 2.05) (layer F.CrtYd) (width 0.05))
  (fp_line (start 4.4 2.05) (end 4.4 -2.05) (layer F.CrtYd) (width 0.05))
  (fp_line (start 2.2 1.8) (end -2.2 1.8) (layer F.Fab) (width 0.12))
  (fp_line (start -1.4 -1.8) (end 2.2 -1.8) (layer F.Fab) (width 0.12))
  (pad 4 smd rect (at 3.15 1.27) (size 2 0.64) (layers F.Cu F.Paste F.Mask))
  (pad 5 smd rect (at 3.15 0) (size 2 0.64) (layers F.Cu F.Paste F.Mask))
  (pad 3 smd rect (at -3.15 1.27) (size 2 0.64) (layers F.Cu F.Paste F.Mask))
  (pad 1 smd rect (at -3.15 -1.27) (size 2 0.64) (layers F.Cu F.Paste F.Mask))
  (pad 6 smd rect (at 3.15 -1.27) (size 2 0.64) (layers F.Cu F.Paste F.Mask))
)
