(footprint "TP3" (version 20211014) (generator pcbnew)
  (layer "F.Cu")
  (tedit 0)
  (attr smd)
  (fp_text reference "REF**" (at 0 0 unlocked) (layer "F.SilkS")
    (effects (font (size 1 1) (thickness 0.15)))
    (tstamp 176f9747-b63a-4efb-8e2a-acdf03c4b198)
  )
  (fp_text value "TP3" (at 0 1 unlocked) (layer "F.Fab")
    (effects (font (size 1 1) (thickness 0.15)))
    (tstamp 9f69d814-0443-4701-91ee-f911b0096c11)
  )
  (pad "1" thru_hole circle (at 0 -2.165064) (size 0.8 0.8) (drill 0.4) (layers *.Cu *.Mask) (tstamp 2ef8f4e2-520c-4d0b-aae2-3fdf4d5b3f84))
  (pad "2" thru_hole circle (at 2.5 2.165064) (size 0.8 0.8) (drill 0.4) (layers *.Cu *.Mask) (tstamp c993891d-207a-4c9f-a5a3-959f74aafdd7))
  (pad "3" thru_hole circle (at -2.5 2.165064) (size 0.8 0.8) (drill 0.4) (layers *.Cu *.Mask) (tstamp a3e998d6-3474-467b-81b4-bc6e12896b5b))
)
