ISO-10303-21;
HEADER;
/* Generated by software containing ST-Developer
 * from STEP Tools, Inc. (www.steptools.com) 
 */
/* OPTION: using custom schema-name function */

FILE_DESCRIPTION(
/* description */ (''),
/* implementation_level */ '2;1');

FILE_NAME(
/* name */ '100102297ugm000_b.stp',
/* time_stamp */ '2016-11-15T11:10:43+01:00',
/* author */ (''),
/* organization */ (''),
/* preprocessor_version */ 'ST-DEVELOPER v16',
/* originating_system */ 'SIEMENS PLM Software NX 10.0',
/* authorisation */ '');

FILE_SCHEMA (('AUTOMOTIVE_DESIGN { 1 0 10303 214 3 1 1 1 }'));
ENDSEC;

DATA;
#10=PROPERTY_DEFINITION_REPRESENTATION(#14,#12);
#11=PROPERTY_DEFINITION_REPRESENTATION(#15,#13);
#12=REPRESENTATION('',(#16),#1836);
#13=REPRESENTATION('',(#17),#1836);
#14=PROPERTY_DEFINITION('pmi validation property','',#21);
#15=PROPERTY_DEFINITION('pmi validation property','',#21);
#16=VALUE_REPRESENTATION_ITEM('number of annotations',COUNT_MEASURE(0.));
#17=VALUE_REPRESENTATION_ITEM('number of views',COUNT_MEASURE(0.));
#18=SHAPE_REPRESENTATION_RELATIONSHIP('None',
'relationship between 100102297ugm000_b-None and 100102297ugm000_b-Non
e',#30,#19);
#19=ADVANCED_BREP_SHAPE_REPRESENTATION('100102297ugm000_b-None',(#83),#1836);
#20=SHAPE_DEFINITION_REPRESENTATION(#21,#30);
#21=PRODUCT_DEFINITION_SHAPE('','',#22);
#22=PRODUCT_DEFINITION(' ','',#24,#23);
#23=PRODUCT_DEFINITION_CONTEXT('part definition',#29,'design');
#24=PRODUCT_DEFINITION_FORMATION_WITH_SPECIFIED_SOURCE(' ',' ',#26,
 .NOT_KNOWN.);
#25=PRODUCT_RELATED_PRODUCT_CATEGORY('part','',(#26));
#26=PRODUCT('100102297ugm000_b','100102297ugm000_b',' ',(#27));
#27=PRODUCT_CONTEXT(' ',#29,'mechanical');
#28=APPLICATION_PROTOCOL_DEFINITION('international standard',
'automotive_design',2010,#29);
#29=APPLICATION_CONTEXT(
'core data for automotive mechanical design processes');
#30=SHAPE_REPRESENTATION('100102297ugm000_b-None',(#1177),#1836);
#31=OVER_RIDING_STYLED_ITEM('',(#40),#137,#38);
#32=OVER_RIDING_STYLED_ITEM('',(#41),#138,#38);
#33=OVER_RIDING_STYLED_ITEM('',(#42),#139,#38);
#34=OVER_RIDING_STYLED_ITEM('',(#43),#140,#38);
#35=OVER_RIDING_STYLED_ITEM('',(#44),#141,#38);
#36=OVER_RIDING_STYLED_ITEM('',(#45),#142,#38);
#37=PRESENTATION_LAYER_ASSIGNMENT('1','Layer 1',(#83));
#38=STYLED_ITEM('',(#39),#83);
#39=PRESENTATION_STYLE_ASSIGNMENT((#46));
#40=PRESENTATION_STYLE_ASSIGNMENT((#47));
#41=PRESENTATION_STYLE_ASSIGNMENT((#48));
#42=PRESENTATION_STYLE_ASSIGNMENT((#49));
#43=PRESENTATION_STYLE_ASSIGNMENT((#50));
#44=PRESENTATION_STYLE_ASSIGNMENT((#51));
#45=PRESENTATION_STYLE_ASSIGNMENT((#52));
#46=SURFACE_STYLE_USAGE(.BOTH.,#53);
#47=SURFACE_STYLE_USAGE(.BOTH.,#54);
#48=SURFACE_STYLE_USAGE(.BOTH.,#55);
#49=SURFACE_STYLE_USAGE(.BOTH.,#56);
#50=SURFACE_STYLE_USAGE(.BOTH.,#57);
#51=SURFACE_STYLE_USAGE(.BOTH.,#58);
#52=SURFACE_STYLE_USAGE(.BOTH.,#59);
#53=SURFACE_SIDE_STYLE('',(#60));
#54=SURFACE_SIDE_STYLE('',(#61));
#55=SURFACE_SIDE_STYLE('',(#62));
#56=SURFACE_SIDE_STYLE('',(#63));
#57=SURFACE_SIDE_STYLE('',(#64));
#58=SURFACE_SIDE_STYLE('',(#65));
#59=SURFACE_SIDE_STYLE('',(#66));
#60=SURFACE_STYLE_FILL_AREA(#67);
#61=SURFACE_STYLE_FILL_AREA(#68);
#62=SURFACE_STYLE_FILL_AREA(#69);
#63=SURFACE_STYLE_FILL_AREA(#70);
#64=SURFACE_STYLE_FILL_AREA(#71);
#65=SURFACE_STYLE_FILL_AREA(#72);
#66=SURFACE_STYLE_FILL_AREA(#73);
#67=FILL_AREA_STYLE('',(#74));
#68=FILL_AREA_STYLE('',(#75));
#69=FILL_AREA_STYLE('',(#76));
#70=FILL_AREA_STYLE('',(#77));
#71=FILL_AREA_STYLE('',(#78));
#72=FILL_AREA_STYLE('',(#79));
#73=FILL_AREA_STYLE('',(#80));
#74=FILL_AREA_STYLE_COLOUR('',#81);
#75=FILL_AREA_STYLE_COLOUR('',#82);
#76=FILL_AREA_STYLE_COLOUR('',#82);
#77=FILL_AREA_STYLE_COLOUR('',#82);
#78=FILL_AREA_STYLE_COLOUR('',#82);
#79=FILL_AREA_STYLE_COLOUR('',#82);
#80=FILL_AREA_STYLE_COLOUR('',#82);
#81=COLOUR_RGB('GOLDEN_ORANGE',1.,0.65999847409781,0.);
#82=COLOUR_RGB('LIGHT_BLUE',0.,0.65999847409781,1.);
#83=MANIFOLD_SOLID_BREP('',#84);
#84=CLOSED_SHELL('',(#126,#127,#128,#129,#130,#131,#132,#133,#134,#135,
#136,#137,#138,#139,#140,#141,#142,#143,#144,#145,#146,#147,#148,#149,#150,
#151,#152,#153,#154,#155,#156,#157,#158,#159,#160,#161,#162,#163,#164,#165,
#166,#167,#168,#169,#170,#171,#172,#173,#174,#175,#176,#177,#178,#179,#180,
#181,#182,#183,#184,#185,#186));
#85=CYLINDRICAL_SURFACE('',#1192,0.400000000000001);
#86=CYLINDRICAL_SURFACE('',#1196,0.400000000000001);
#87=CYLINDRICAL_SURFACE('',#1200,0.400000000000002);
#88=CYLINDRICAL_SURFACE('',#1203,1.425);
#89=CYLINDRICAL_SURFACE('',#1210,1.42500000000001);
#90=FACE_BOUND('',#305,.T.);
#91=FACE_BOUND('',#306,.T.);
#92=FACE_BOUND('',#308,.T.);
#93=FACE_BOUND('',#309,.T.);
#94=FACE_BOUND('',#311,.T.);
#95=FACE_BOUND('',#312,.T.);
#96=FACE_BOUND('',#313,.T.);
#97=FACE_BOUND('',#314,.T.);
#98=FACE_BOUND('',#317,.T.);
#99=FACE_BOUND('',#318,.T.);
#100=FACE_BOUND('',#320,.T.);
#101=FACE_BOUND('',#321,.T.);
#102=FACE_BOUND('',#322,.T.);
#103=FACE_BOUND('',#323,.T.);
#104=FACE_BOUND('',#326,.T.);
#105=FACE_BOUND('',#327,.T.);
#106=FACE_BOUND('',#328,.T.);
#107=FACE_BOUND('',#329,.T.);
#108=FACE_BOUND('',#334,.T.);
#109=FACE_BOUND('',#335,.T.);
#110=FACE_BOUND('',#341,.T.);
#111=FACE_BOUND('',#342,.T.);
#112=FACE_BOUND('',#360,.T.);
#113=FACE_BOUND('',#361,.T.);
#114=FACE_BOUND('',#362,.T.);
#115=FACE_BOUND('',#363,.T.);
#116=CIRCLE('',#1189,0.400000000000001);
#117=CIRCLE('',#1191,0.400000000000001);
#118=CIRCLE('',#1193,0.400000000000002);
#119=CIRCLE('',#1195,0.400000000000004);
#120=CIRCLE('',#1197,0.400000000000002);
#121=CIRCLE('',#1199,0.400000000000002);
#122=CIRCLE('',#1201,1.42500000000001);
#123=CIRCLE('',#1202,1.425);
#124=CIRCLE('',#1208,1.42500000000001);
#125=CIRCLE('',#1209,1.42500000000001);
#126=ADVANCED_FACE('',(#243),#187,.F.);
#127=ADVANCED_FACE('',(#244),#188,.F.);
#128=ADVANCED_FACE('',(#245),#189,.F.);
#129=ADVANCED_FACE('',(#246),#190,.F.);
#130=ADVANCED_FACE('',(#247),#191,.F.);
#131=ADVANCED_FACE('',(#248),#192,.F.);
#132=ADVANCED_FACE('',(#249),#193,.F.);
#133=ADVANCED_FACE('',(#250),#194,.F.);
#134=ADVANCED_FACE('',(#251),#195,.F.);
#135=ADVANCED_FACE('',(#252),#196,.F.);
#136=ADVANCED_FACE('',(#253),#197,.F.);
#137=ADVANCED_FACE('',(#254),#198,.T.);
#138=ADVANCED_FACE('',(#90,#91),#85,.T.);
#139=ADVANCED_FACE('',(#255),#199,.T.);
#140=ADVANCED_FACE('',(#92,#93),#86,.T.);
#141=ADVANCED_FACE('',(#256),#200,.T.);
#142=ADVANCED_FACE('',(#94,#95),#87,.T.);
#143=ADVANCED_FACE('',(#96,#97),#88,.F.);
#144=ADVANCED_FACE('',(#257),#201,.F.);
#145=ADVANCED_FACE('',(#258),#202,.T.);
#146=ADVANCED_FACE('',(#98,#99),#203,.T.);
#147=ADVANCED_FACE('',(#259),#204,.T.);
#148=ADVANCED_FACE('',(#100,#101),#89,.F.);
#149=ADVANCED_FACE('',(#102,#103),#205,.T.);
#150=ADVANCED_FACE('',(#260),#206,.T.);
#151=ADVANCED_FACE('',(#261),#207,.T.);
#152=ADVANCED_FACE('',(#104,#105,#106,#107),#208,.T.);
#153=ADVANCED_FACE('',(#262),#209,.T.);
#154=ADVANCED_FACE('',(#263),#210,.T.);
#155=ADVANCED_FACE('',(#264),#211,.F.);
#156=ADVANCED_FACE('',(#265),#212,.F.);
#157=ADVANCED_FACE('',(#108,#109),#213,.F.);
#158=ADVANCED_FACE('',(#266),#214,.F.);
#159=ADVANCED_FACE('',(#267),#215,.T.);
#160=ADVANCED_FACE('',(#268),#216,.F.);
#161=ADVANCED_FACE('',(#269),#217,.T.);
#162=ADVANCED_FACE('',(#270),#218,.F.);
#163=ADVANCED_FACE('',(#110,#111),#219,.F.);
#164=ADVANCED_FACE('',(#271),#220,.F.);
#165=ADVANCED_FACE('',(#272),#221,.T.);
#166=ADVANCED_FACE('',(#273),#222,.T.);
#167=ADVANCED_FACE('',(#274),#223,.T.);
#168=ADVANCED_FACE('',(#275),#224,.T.);
#169=ADVANCED_FACE('',(#276),#225,.T.);
#170=ADVANCED_FACE('',(#277),#226,.T.);
#171=ADVANCED_FACE('',(#278),#227,.T.);
#172=ADVANCED_FACE('',(#279),#228,.T.);
#173=ADVANCED_FACE('',(#280),#229,.T.);
#174=ADVANCED_FACE('',(#281),#230,.T.);
#175=ADVANCED_FACE('',(#282),#231,.T.);
#176=ADVANCED_FACE('',(#283),#232,.T.);
#177=ADVANCED_FACE('',(#284),#233,.T.);
#178=ADVANCED_FACE('',(#285),#234,.T.);
#179=ADVANCED_FACE('',(#286),#235,.T.);
#180=ADVANCED_FACE('',(#287),#236,.T.);
#181=ADVANCED_FACE('',(#112,#113,#114,#115),#237,.T.);
#182=ADVANCED_FACE('',(#288),#238,.F.);
#183=ADVANCED_FACE('',(#289),#239,.F.);
#184=ADVANCED_FACE('',(#290),#240,.F.);
#185=ADVANCED_FACE('',(#291),#241,.F.);
#186=ADVANCED_FACE('',(#292),#242,.F.);
#187=PLANE('',#1178);
#188=PLANE('',#1179);
#189=PLANE('',#1180);
#190=PLANE('',#1181);
#191=PLANE('',#1182);
#192=PLANE('',#1183);
#193=PLANE('',#1184);
#194=PLANE('',#1185);
#195=PLANE('',#1186);
#196=PLANE('',#1187);
#197=PLANE('',#1188);
#198=PLANE('',#1190);
#199=PLANE('',#1194);
#200=PLANE('',#1198);
#201=PLANE('',#1204);
#202=PLANE('',#1205);
#203=PLANE('',#1206);
#204=PLANE('',#1207);
#205=PLANE('',#1211);
#206=PLANE('',#1212);
#207=PLANE('',#1213);
#208=PLANE('',#1214);
#209=PLANE('',#1215);
#210=PLANE('',#1216);
#211=PLANE('',#1217);
#212=PLANE('',#1218);
#213=PLANE('',#1219);
#214=PLANE('',#1220);
#215=PLANE('',#1221);
#216=PLANE('',#1222);
#217=PLANE('',#1223);
#218=PLANE('',#1224);
#219=PLANE('',#1225);
#220=PLANE('',#1226);
#221=PLANE('',#1227);
#222=PLANE('',#1228);
#223=PLANE('',#1229);
#224=PLANE('',#1230);
#225=PLANE('',#1231);
#226=PLANE('',#1232);
#227=PLANE('',#1233);
#228=PLANE('',#1234);
#229=PLANE('',#1235);
#230=PLANE('',#1236);
#231=PLANE('',#1237);
#232=PLANE('',#1238);
#233=PLANE('',#1239);
#234=PLANE('',#1240);
#235=PLANE('',#1241);
#236=PLANE('',#1242);
#237=PLANE('',#1243);
#238=PLANE('',#1244);
#239=PLANE('',#1245);
#240=PLANE('',#1246);
#241=PLANE('',#1247);
#242=PLANE('',#1248);
#243=FACE_OUTER_BOUND('',#293,.T.);
#244=FACE_OUTER_BOUND('',#294,.T.);
#245=FACE_OUTER_BOUND('',#295,.T.);
#246=FACE_OUTER_BOUND('',#296,.T.);
#247=FACE_OUTER_BOUND('',#297,.T.);
#248=FACE_OUTER_BOUND('',#298,.T.);
#249=FACE_OUTER_BOUND('',#299,.T.);
#250=FACE_OUTER_BOUND('',#300,.T.);
#251=FACE_OUTER_BOUND('',#301,.T.);
#252=FACE_OUTER_BOUND('',#302,.T.);
#253=FACE_OUTER_BOUND('',#303,.T.);
#254=FACE_OUTER_BOUND('',#304,.T.);
#255=FACE_OUTER_BOUND('',#307,.T.);
#256=FACE_OUTER_BOUND('',#310,.T.);
#257=FACE_OUTER_BOUND('',#315,.T.);
#258=FACE_OUTER_BOUND('',#316,.T.);
#259=FACE_OUTER_BOUND('',#319,.T.);
#260=FACE_OUTER_BOUND('',#324,.T.);
#261=FACE_OUTER_BOUND('',#325,.T.);
#262=FACE_OUTER_BOUND('',#330,.T.);
#263=FACE_OUTER_BOUND('',#331,.T.);
#264=FACE_OUTER_BOUND('',#332,.T.);
#265=FACE_OUTER_BOUND('',#333,.T.);
#266=FACE_OUTER_BOUND('',#336,.T.);
#267=FACE_OUTER_BOUND('',#337,.T.);
#268=FACE_OUTER_BOUND('',#338,.T.);
#269=FACE_OUTER_BOUND('',#339,.T.);
#270=FACE_OUTER_BOUND('',#340,.T.);
#271=FACE_OUTER_BOUND('',#343,.T.);
#272=FACE_OUTER_BOUND('',#344,.T.);
#273=FACE_OUTER_BOUND('',#345,.T.);
#274=FACE_OUTER_BOUND('',#346,.T.);
#275=FACE_OUTER_BOUND('',#347,.T.);
#276=FACE_OUTER_BOUND('',#348,.T.);
#277=FACE_OUTER_BOUND('',#349,.T.);
#278=FACE_OUTER_BOUND('',#350,.T.);
#279=FACE_OUTER_BOUND('',#351,.T.);
#280=FACE_OUTER_BOUND('',#352,.T.);
#281=FACE_OUTER_BOUND('',#353,.T.);
#282=FACE_OUTER_BOUND('',#354,.T.);
#283=FACE_OUTER_BOUND('',#355,.T.);
#284=FACE_OUTER_BOUND('',#356,.T.);
#285=FACE_OUTER_BOUND('',#357,.T.);
#286=FACE_OUTER_BOUND('',#358,.T.);
#287=FACE_OUTER_BOUND('',#359,.T.);
#288=FACE_OUTER_BOUND('',#364,.T.);
#289=FACE_OUTER_BOUND('',#365,.T.);
#290=FACE_OUTER_BOUND('',#366,.T.);
#291=FACE_OUTER_BOUND('',#367,.T.);
#292=FACE_OUTER_BOUND('',#368,.T.);
#293=EDGE_LOOP('',(#369,#370,#371,#372));
#294=EDGE_LOOP('',(#373,#374,#375,#376));
#295=EDGE_LOOP('',(#377,#378,#379,#380));
#296=EDGE_LOOP('',(#381,#382,#383,#384));
#297=EDGE_LOOP('',(#385,#386,#387,#388));
#298=EDGE_LOOP('',(#389,#390,#391,#392));
#299=EDGE_LOOP('',(#393,#394,#395,#396));
#300=EDGE_LOOP('',(#397,#398,#399,#400));
#301=EDGE_LOOP('',(#401,#402,#403,#404));
#302=EDGE_LOOP('',(#405,#406,#407,#408));
#303=EDGE_LOOP('',(#409,#410,#411,#412));
#304=EDGE_LOOP('',(#413));
#305=EDGE_LOOP('',(#414));
#306=EDGE_LOOP('',(#415));
#307=EDGE_LOOP('',(#416));
#308=EDGE_LOOP('',(#417));
#309=EDGE_LOOP('',(#418));
#310=EDGE_LOOP('',(#419));
#311=EDGE_LOOP('',(#420));
#312=EDGE_LOOP('',(#421));
#313=EDGE_LOOP('',(#422));
#314=EDGE_LOOP('',(#423));
#315=EDGE_LOOP('',(#424,#425,#426,#427));
#316=EDGE_LOOP('',(#428,#429,#430,#431,#432,#433,#434,#435));
#317=EDGE_LOOP('',(#436));
#318=EDGE_LOOP('',(#437,#438,#439,#440));
#319=EDGE_LOOP('',(#441,#442,#443,#444));
#320=EDGE_LOOP('',(#445));
#321=EDGE_LOOP('',(#446));
#322=EDGE_LOOP('',(#447));
#323=EDGE_LOOP('',(#448,#449,#450,#451));
#324=EDGE_LOOP('',(#452,#453,#454,#455));
#325=EDGE_LOOP('',(#456,#457,#458,#459,#460,#461,#462,#463));
#326=EDGE_LOOP('',(#464));
#327=EDGE_LOOP('',(#465));
#328=EDGE_LOOP('',(#466));
#329=EDGE_LOOP('',(#467,#468,#469,#470));
#330=EDGE_LOOP('',(#471,#472,#473,#474,#475,#476,#477,#478));
#331=EDGE_LOOP('',(#479,#480,#481,#482,#483,#484,#485,#486));
#332=EDGE_LOOP('',(#487,#488,#489,#490));
#333=EDGE_LOOP('',(#491,#492,#493,#494));
#334=EDGE_LOOP('',(#495));
#335=EDGE_LOOP('',(#496,#497,#498,#499,#500,#501));
#336=EDGE_LOOP('',(#502,#503,#504,#505));
#337=EDGE_LOOP('',(#506,#507,#508,#509));
#338=EDGE_LOOP('',(#510,#511,#512,#513));
#339=EDGE_LOOP('',(#514,#515,#516,#517,#518,#519,#520,#521,#522,#523));
#340=EDGE_LOOP('',(#524,#525,#526,#527));
#341=EDGE_LOOP('',(#528));
#342=EDGE_LOOP('',(#529,#530,#531,#532,#533,#534));
#343=EDGE_LOOP('',(#535,#536,#537,#538));
#344=EDGE_LOOP('',(#539,#540,#541,#542,#543,#544,#545,#546,#547,#548,#549,
#550,#551,#552));
#345=EDGE_LOOP('',(#553,#554,#555,#556,#557,#558,#559,#560));
#346=EDGE_LOOP('',(#561,#562,#563,#564));
#347=EDGE_LOOP('',(#565,#566,#567,#568));
#348=EDGE_LOOP('',(#569,#570,#571,#572));
#349=EDGE_LOOP('',(#573,#574,#575,#576,#577,#578,#579,#580));
#350=EDGE_LOOP('',(#581,#582,#583,#584));
#351=EDGE_LOOP('',(#585,#586,#587,#588));
#352=EDGE_LOOP('',(#589,#590,#591,#592));
#353=EDGE_LOOP('',(#593,#594,#595,#596));
#354=EDGE_LOOP('',(#597,#598,#599,#600));
#355=EDGE_LOOP('',(#601,#602,#603,#604));
#356=EDGE_LOOP('',(#605,#606,#607,#608));
#357=EDGE_LOOP('',(#609,#610,#611,#612));
#358=EDGE_LOOP('',(#613,#614,#615,#616));
#359=EDGE_LOOP('',(#617,#618,#619,#620));
#360=EDGE_LOOP('',(#621,#622,#623,#624));
#361=EDGE_LOOP('',(#625,#626,#627,#628));
#362=EDGE_LOOP('',(#629,#630,#631,#632));
#363=EDGE_LOOP('',(#633,#634,#635,#636,#637,#638,#639,#640));
#364=EDGE_LOOP('',(#641,#642,#643,#644));
#365=EDGE_LOOP('',(#645,#646,#647,#648));
#366=EDGE_LOOP('',(#649,#650,#651,#652));
#367=EDGE_LOOP('',(#653,#654,#655,#656));
#368=EDGE_LOOP('',(#657,#658,#659,#660));
#369=ORIENTED_EDGE('',*,*,#759,.T.);
#370=ORIENTED_EDGE('',*,*,#760,.F.);
#371=ORIENTED_EDGE('',*,*,#761,.F.);
#372=ORIENTED_EDGE('',*,*,#762,.F.);
#373=ORIENTED_EDGE('',*,*,#763,.F.);
#374=ORIENTED_EDGE('',*,*,#764,.F.);
#375=ORIENTED_EDGE('',*,*,#759,.F.);
#376=ORIENTED_EDGE('',*,*,#765,.F.);
#377=ORIENTED_EDGE('',*,*,#766,.F.);
#378=ORIENTED_EDGE('',*,*,#765,.T.);
#379=ORIENTED_EDGE('',*,*,#762,.T.);
#380=ORIENTED_EDGE('',*,*,#767,.T.);
#381=ORIENTED_EDGE('',*,*,#761,.T.);
#382=ORIENTED_EDGE('',*,*,#768,.F.);
#383=ORIENTED_EDGE('',*,*,#769,.F.);
#384=ORIENTED_EDGE('',*,*,#767,.F.);
#385=ORIENTED_EDGE('',*,*,#760,.T.);
#386=ORIENTED_EDGE('',*,*,#764,.T.);
#387=ORIENTED_EDGE('',*,*,#770,.F.);
#388=ORIENTED_EDGE('',*,*,#768,.T.);
#389=ORIENTED_EDGE('',*,*,#771,.T.);
#390=ORIENTED_EDGE('',*,*,#772,.F.);
#391=ORIENTED_EDGE('',*,*,#773,.F.);
#392=ORIENTED_EDGE('',*,*,#774,.F.);
#393=ORIENTED_EDGE('',*,*,#775,.F.);
#394=ORIENTED_EDGE('',*,*,#776,.F.);
#395=ORIENTED_EDGE('',*,*,#771,.F.);
#396=ORIENTED_EDGE('',*,*,#777,.F.);
#397=ORIENTED_EDGE('',*,*,#778,.F.);
#398=ORIENTED_EDGE('',*,*,#777,.T.);
#399=ORIENTED_EDGE('',*,*,#774,.T.);
#400=ORIENTED_EDGE('',*,*,#779,.T.);
#401=ORIENTED_EDGE('',*,*,#773,.T.);
#402=ORIENTED_EDGE('',*,*,#780,.F.);
#403=ORIENTED_EDGE('',*,*,#781,.F.);
#404=ORIENTED_EDGE('',*,*,#779,.F.);
#405=ORIENTED_EDGE('',*,*,#772,.T.);
#406=ORIENTED_EDGE('',*,*,#776,.T.);
#407=ORIENTED_EDGE('',*,*,#782,.F.);
#408=ORIENTED_EDGE('',*,*,#780,.T.);
#409=ORIENTED_EDGE('',*,*,#783,.F.);
#410=ORIENTED_EDGE('',*,*,#784,.F.);
#411=ORIENTED_EDGE('',*,*,#785,.F.);
#412=ORIENTED_EDGE('',*,*,#786,.F.);
#413=ORIENTED_EDGE('',*,*,#787,.F.);
#414=ORIENTED_EDGE('',*,*,#788,.F.);
#415=ORIENTED_EDGE('',*,*,#787,.T.);
#416=ORIENTED_EDGE('',*,*,#789,.F.);
#417=ORIENTED_EDGE('',*,*,#790,.F.);
#418=ORIENTED_EDGE('',*,*,#789,.T.);
#419=ORIENTED_EDGE('',*,*,#791,.F.);
#420=ORIENTED_EDGE('',*,*,#792,.F.);
#421=ORIENTED_EDGE('',*,*,#791,.T.);
#422=ORIENTED_EDGE('',*,*,#793,.T.);
#423=ORIENTED_EDGE('',*,*,#794,.F.);
#424=ORIENTED_EDGE('',*,*,#795,.T.);
#425=ORIENTED_EDGE('',*,*,#796,.F.);
#426=ORIENTED_EDGE('',*,*,#797,.F.);
#427=ORIENTED_EDGE('',*,*,#798,.F.);
#428=ORIENTED_EDGE('',*,*,#799,.T.);
#429=ORIENTED_EDGE('',*,*,#800,.T.);
#430=ORIENTED_EDGE('',*,*,#801,.F.);
#431=ORIENTED_EDGE('',*,*,#802,.T.);
#432=ORIENTED_EDGE('',*,*,#803,.T.);
#433=ORIENTED_EDGE('',*,*,#804,.T.);
#434=ORIENTED_EDGE('',*,*,#805,.F.);
#435=ORIENTED_EDGE('',*,*,#797,.T.);
#436=ORIENTED_EDGE('',*,*,#794,.T.);
#437=ORIENTED_EDGE('',*,*,#806,.T.);
#438=ORIENTED_EDGE('',*,*,#807,.T.);
#439=ORIENTED_EDGE('',*,*,#808,.T.);
#440=ORIENTED_EDGE('',*,*,#803,.F.);
#441=ORIENTED_EDGE('',*,*,#809,.T.);
#442=ORIENTED_EDGE('',*,*,#810,.T.);
#443=ORIENTED_EDGE('',*,*,#811,.T.);
#444=ORIENTED_EDGE('',*,*,#807,.F.);
#445=ORIENTED_EDGE('',*,*,#812,.T.);
#446=ORIENTED_EDGE('',*,*,#813,.F.);
#447=ORIENTED_EDGE('',*,*,#813,.T.);
#448=ORIENTED_EDGE('',*,*,#814,.T.);
#449=ORIENTED_EDGE('',*,*,#815,.T.);
#450=ORIENTED_EDGE('',*,*,#816,.T.);
#451=ORIENTED_EDGE('',*,*,#817,.F.);
#452=ORIENTED_EDGE('',*,*,#818,.T.);
#453=ORIENTED_EDGE('',*,*,#817,.T.);
#454=ORIENTED_EDGE('',*,*,#819,.T.);
#455=ORIENTED_EDGE('',*,*,#820,.T.);
#456=ORIENTED_EDGE('',*,*,#818,.F.);
#457=ORIENTED_EDGE('',*,*,#821,.F.);
#458=ORIENTED_EDGE('',*,*,#809,.F.);
#459=ORIENTED_EDGE('',*,*,#806,.F.);
#460=ORIENTED_EDGE('',*,*,#802,.F.);
#461=ORIENTED_EDGE('',*,*,#822,.F.);
#462=ORIENTED_EDGE('',*,*,#823,.F.);
#463=ORIENTED_EDGE('',*,*,#814,.F.);
#464=ORIENTED_EDGE('',*,*,#788,.T.);
#465=ORIENTED_EDGE('',*,*,#790,.T.);
#466=ORIENTED_EDGE('',*,*,#792,.T.);
#467=ORIENTED_EDGE('',*,*,#821,.T.);
#468=ORIENTED_EDGE('',*,*,#820,.F.);
#469=ORIENTED_EDGE('',*,*,#824,.T.);
#470=ORIENTED_EDGE('',*,*,#810,.F.);
#471=ORIENTED_EDGE('',*,*,#824,.F.);
#472=ORIENTED_EDGE('',*,*,#819,.F.);
#473=ORIENTED_EDGE('',*,*,#816,.F.);
#474=ORIENTED_EDGE('',*,*,#825,.F.);
#475=ORIENTED_EDGE('',*,*,#826,.F.);
#476=ORIENTED_EDGE('',*,*,#804,.F.);
#477=ORIENTED_EDGE('',*,*,#808,.F.);
#478=ORIENTED_EDGE('',*,*,#811,.F.);
#479=ORIENTED_EDGE('',*,*,#827,.T.);
#480=ORIENTED_EDGE('',*,*,#828,.T.);
#481=ORIENTED_EDGE('',*,*,#829,.T.);
#482=ORIENTED_EDGE('',*,*,#825,.T.);
#483=ORIENTED_EDGE('',*,*,#815,.F.);
#484=ORIENTED_EDGE('',*,*,#823,.T.);
#485=ORIENTED_EDGE('',*,*,#830,.T.);
#486=ORIENTED_EDGE('',*,*,#785,.T.);
#487=ORIENTED_EDGE('',*,*,#828,.F.);
#488=ORIENTED_EDGE('',*,*,#831,.F.);
#489=ORIENTED_EDGE('',*,*,#832,.F.);
#490=ORIENTED_EDGE('',*,*,#833,.F.);
#491=ORIENTED_EDGE('',*,*,#832,.T.);
#492=ORIENTED_EDGE('',*,*,#834,.F.);
#493=ORIENTED_EDGE('',*,*,#835,.F.);
#494=ORIENTED_EDGE('',*,*,#836,.F.);
#495=ORIENTED_EDGE('',*,*,#812,.F.);
#496=ORIENTED_EDGE('',*,*,#837,.F.);
#497=ORIENTED_EDGE('',*,*,#834,.T.);
#498=ORIENTED_EDGE('',*,*,#831,.T.);
#499=ORIENTED_EDGE('',*,*,#827,.F.);
#500=ORIENTED_EDGE('',*,*,#784,.T.);
#501=ORIENTED_EDGE('',*,*,#838,.T.);
#502=ORIENTED_EDGE('',*,*,#839,.F.);
#503=ORIENTED_EDGE('',*,*,#838,.F.);
#504=ORIENTED_EDGE('',*,*,#783,.T.);
#505=ORIENTED_EDGE('',*,*,#840,.F.);
#506=ORIENTED_EDGE('',*,*,#841,.T.);
#507=ORIENTED_EDGE('',*,*,#842,.T.);
#508=ORIENTED_EDGE('',*,*,#843,.F.);
#509=ORIENTED_EDGE('',*,*,#844,.T.);
#510=ORIENTED_EDGE('',*,*,#845,.F.);
#511=ORIENTED_EDGE('',*,*,#846,.F.);
#512=ORIENTED_EDGE('',*,*,#847,.F.);
#513=ORIENTED_EDGE('',*,*,#848,.F.);
#514=ORIENTED_EDGE('',*,*,#848,.T.);
#515=ORIENTED_EDGE('',*,*,#849,.T.);
#516=ORIENTED_EDGE('',*,*,#843,.T.);
#517=ORIENTED_EDGE('',*,*,#850,.T.);
#518=ORIENTED_EDGE('',*,*,#840,.T.);
#519=ORIENTED_EDGE('',*,*,#786,.T.);
#520=ORIENTED_EDGE('',*,*,#830,.F.);
#521=ORIENTED_EDGE('',*,*,#822,.T.);
#522=ORIENTED_EDGE('',*,*,#801,.T.);
#523=ORIENTED_EDGE('',*,*,#851,.T.);
#524=ORIENTED_EDGE('',*,*,#800,.F.);
#525=ORIENTED_EDGE('',*,*,#852,.F.);
#526=ORIENTED_EDGE('',*,*,#845,.T.);
#527=ORIENTED_EDGE('',*,*,#851,.F.);
#528=ORIENTED_EDGE('',*,*,#793,.F.);
#529=ORIENTED_EDGE('',*,*,#799,.F.);
#530=ORIENTED_EDGE('',*,*,#796,.T.);
#531=ORIENTED_EDGE('',*,*,#853,.T.);
#532=ORIENTED_EDGE('',*,*,#854,.F.);
#533=ORIENTED_EDGE('',*,*,#846,.T.);
#534=ORIENTED_EDGE('',*,*,#852,.T.);
#535=ORIENTED_EDGE('',*,*,#855,.F.);
#536=ORIENTED_EDGE('',*,*,#853,.F.);
#537=ORIENTED_EDGE('',*,*,#795,.F.);
#538=ORIENTED_EDGE('',*,*,#856,.F.);
#539=ORIENTED_EDGE('',*,*,#856,.T.);
#540=ORIENTED_EDGE('',*,*,#798,.T.);
#541=ORIENTED_EDGE('',*,*,#805,.T.);
#542=ORIENTED_EDGE('',*,*,#826,.T.);
#543=ORIENTED_EDGE('',*,*,#829,.F.);
#544=ORIENTED_EDGE('',*,*,#833,.T.);
#545=ORIENTED_EDGE('',*,*,#836,.T.);
#546=ORIENTED_EDGE('',*,*,#857,.T.);
#547=ORIENTED_EDGE('',*,*,#858,.T.);
#548=ORIENTED_EDGE('',*,*,#859,.T.);
#549=ORIENTED_EDGE('',*,*,#860,.T.);
#550=ORIENTED_EDGE('',*,*,#861,.T.);
#551=ORIENTED_EDGE('',*,*,#862,.T.);
#552=ORIENTED_EDGE('',*,*,#863,.T.);
#553=ORIENTED_EDGE('',*,*,#864,.T.);
#554=ORIENTED_EDGE('',*,*,#865,.F.);
#555=ORIENTED_EDGE('',*,*,#857,.F.);
#556=ORIENTED_EDGE('',*,*,#835,.T.);
#557=ORIENTED_EDGE('',*,*,#837,.T.);
#558=ORIENTED_EDGE('',*,*,#839,.T.);
#559=ORIENTED_EDGE('',*,*,#850,.F.);
#560=ORIENTED_EDGE('',*,*,#842,.F.);
#561=ORIENTED_EDGE('',*,*,#866,.F.);
#562=ORIENTED_EDGE('',*,*,#867,.F.);
#563=ORIENTED_EDGE('',*,*,#868,.T.);
#564=ORIENTED_EDGE('',*,*,#864,.F.);
#565=ORIENTED_EDGE('',*,*,#869,.F.);
#566=ORIENTED_EDGE('',*,*,#870,.F.);
#567=ORIENTED_EDGE('',*,*,#866,.T.);
#568=ORIENTED_EDGE('',*,*,#841,.F.);
#569=ORIENTED_EDGE('',*,*,#871,.F.);
#570=ORIENTED_EDGE('',*,*,#872,.F.);
#571=ORIENTED_EDGE('',*,*,#869,.T.);
#572=ORIENTED_EDGE('',*,*,#873,.F.);
#573=ORIENTED_EDGE('',*,*,#873,.T.);
#574=ORIENTED_EDGE('',*,*,#844,.F.);
#575=ORIENTED_EDGE('',*,*,#849,.F.);
#576=ORIENTED_EDGE('',*,*,#847,.T.);
#577=ORIENTED_EDGE('',*,*,#854,.T.);
#578=ORIENTED_EDGE('',*,*,#855,.T.);
#579=ORIENTED_EDGE('',*,*,#863,.F.);
#580=ORIENTED_EDGE('',*,*,#874,.T.);
#581=ORIENTED_EDGE('',*,*,#875,.T.);
#582=ORIENTED_EDGE('',*,*,#874,.F.);
#583=ORIENTED_EDGE('',*,*,#862,.F.);
#584=ORIENTED_EDGE('',*,*,#876,.T.);
#585=ORIENTED_EDGE('',*,*,#877,.T.);
#586=ORIENTED_EDGE('',*,*,#876,.F.);
#587=ORIENTED_EDGE('',*,*,#861,.F.);
#588=ORIENTED_EDGE('',*,*,#878,.T.);
#589=ORIENTED_EDGE('',*,*,#879,.T.);
#590=ORIENTED_EDGE('',*,*,#878,.F.);
#591=ORIENTED_EDGE('',*,*,#860,.F.);
#592=ORIENTED_EDGE('',*,*,#880,.T.);
#593=ORIENTED_EDGE('',*,*,#881,.T.);
#594=ORIENTED_EDGE('',*,*,#880,.F.);
#595=ORIENTED_EDGE('',*,*,#859,.F.);
#596=ORIENTED_EDGE('',*,*,#882,.T.);
#597=ORIENTED_EDGE('',*,*,#883,.T.);
#598=ORIENTED_EDGE('',*,*,#882,.F.);
#599=ORIENTED_EDGE('',*,*,#858,.F.);
#600=ORIENTED_EDGE('',*,*,#865,.T.);
#601=ORIENTED_EDGE('',*,*,#884,.T.);
#602=ORIENTED_EDGE('',*,*,#883,.F.);
#603=ORIENTED_EDGE('',*,*,#868,.F.);
#604=ORIENTED_EDGE('',*,*,#885,.F.);
#605=ORIENTED_EDGE('',*,*,#884,.F.);
#606=ORIENTED_EDGE('',*,*,#886,.F.);
#607=ORIENTED_EDGE('',*,*,#887,.T.);
#608=ORIENTED_EDGE('',*,*,#881,.F.);
#609=ORIENTED_EDGE('',*,*,#887,.F.);
#610=ORIENTED_EDGE('',*,*,#888,.F.);
#611=ORIENTED_EDGE('',*,*,#889,.T.);
#612=ORIENTED_EDGE('',*,*,#879,.F.);
#613=ORIENTED_EDGE('',*,*,#889,.F.);
#614=ORIENTED_EDGE('',*,*,#890,.F.);
#615=ORIENTED_EDGE('',*,*,#891,.F.);
#616=ORIENTED_EDGE('',*,*,#877,.F.);
#617=ORIENTED_EDGE('',*,*,#891,.T.);
#618=ORIENTED_EDGE('',*,*,#892,.F.);
#619=ORIENTED_EDGE('',*,*,#871,.T.);
#620=ORIENTED_EDGE('',*,*,#875,.F.);
#621=ORIENTED_EDGE('',*,*,#893,.T.);
#622=ORIENTED_EDGE('',*,*,#894,.T.);
#623=ORIENTED_EDGE('',*,*,#895,.T.);
#624=ORIENTED_EDGE('',*,*,#896,.T.);
#625=ORIENTED_EDGE('',*,*,#770,.T.);
#626=ORIENTED_EDGE('',*,*,#763,.T.);
#627=ORIENTED_EDGE('',*,*,#766,.T.);
#628=ORIENTED_EDGE('',*,*,#769,.T.);
#629=ORIENTED_EDGE('',*,*,#782,.T.);
#630=ORIENTED_EDGE('',*,*,#775,.T.);
#631=ORIENTED_EDGE('',*,*,#778,.T.);
#632=ORIENTED_EDGE('',*,*,#781,.T.);
#633=ORIENTED_EDGE('',*,*,#892,.T.);
#634=ORIENTED_EDGE('',*,*,#890,.T.);
#635=ORIENTED_EDGE('',*,*,#888,.T.);
#636=ORIENTED_EDGE('',*,*,#886,.T.);
#637=ORIENTED_EDGE('',*,*,#885,.T.);
#638=ORIENTED_EDGE('',*,*,#867,.T.);
#639=ORIENTED_EDGE('',*,*,#870,.T.);
#640=ORIENTED_EDGE('',*,*,#872,.T.);
#641=ORIENTED_EDGE('',*,*,#894,.F.);
#642=ORIENTED_EDGE('',*,*,#897,.F.);
#643=ORIENTED_EDGE('',*,*,#898,.F.);
#644=ORIENTED_EDGE('',*,*,#899,.F.);
#645=ORIENTED_EDGE('',*,*,#900,.T.);
#646=ORIENTED_EDGE('',*,*,#897,.T.);
#647=ORIENTED_EDGE('',*,*,#893,.F.);
#648=ORIENTED_EDGE('',*,*,#901,.T.);
#649=ORIENTED_EDGE('',*,*,#902,.T.);
#650=ORIENTED_EDGE('',*,*,#901,.F.);
#651=ORIENTED_EDGE('',*,*,#896,.F.);
#652=ORIENTED_EDGE('',*,*,#903,.F.);
#653=ORIENTED_EDGE('',*,*,#895,.F.);
#654=ORIENTED_EDGE('',*,*,#899,.T.);
#655=ORIENTED_EDGE('',*,*,#904,.T.);
#656=ORIENTED_EDGE('',*,*,#903,.T.);
#657=ORIENTED_EDGE('',*,*,#898,.T.);
#658=ORIENTED_EDGE('',*,*,#900,.F.);
#659=ORIENTED_EDGE('',*,*,#902,.F.);
#660=ORIENTED_EDGE('',*,*,#904,.F.);
#661=VERTEX_POINT('',#1531);
#662=VERTEX_POINT('',#1532);
#663=VERTEX_POINT('',#1534);
#664=VERTEX_POINT('',#1536);
#665=VERTEX_POINT('',#1540);
#666=VERTEX_POINT('',#1541);
#667=VERTEX_POINT('',#1546);
#668=VERTEX_POINT('',#1550);
#669=VERTEX_POINT('',#1556);
#670=VERTEX_POINT('',#1557);
#671=VERTEX_POINT('',#1559);
#672=VERTEX_POINT('',#1561);
#673=VERTEX_POINT('',#1565);
#674=VERTEX_POINT('',#1566);
#675=VERTEX_POINT('',#1571);
#676=VERTEX_POINT('',#1575);
#677=VERTEX_POINT('',#1581);
#678=VERTEX_POINT('',#1582);
#679=VERTEX_POINT('',#1584);
#680=VERTEX_POINT('',#1586);
#681=VERTEX_POINT('',#1590);
#682=VERTEX_POINT('',#1593);
#683=VERTEX_POINT('',#1596);
#684=VERTEX_POINT('',#1599);
#685=VERTEX_POINT('',#1602);
#686=VERTEX_POINT('',#1605);
#687=VERTEX_POINT('',#1608);
#688=VERTEX_POINT('',#1610);
#689=VERTEX_POINT('',#1613);
#690=VERTEX_POINT('',#1614);
#691=VERTEX_POINT('',#1616);
#692=VERTEX_POINT('',#1618);
#693=VERTEX_POINT('',#1622);
#694=VERTEX_POINT('',#1624);
#695=VERTEX_POINT('',#1626);
#696=VERTEX_POINT('',#1628);
#697=VERTEX_POINT('',#1630);
#698=VERTEX_POINT('',#1632);
#699=VERTEX_POINT('',#1636);
#700=VERTEX_POINT('',#1638);
#701=VERTEX_POINT('',#1642);
#702=VERTEX_POINT('',#1644);
#703=VERTEX_POINT('',#1648);
#704=VERTEX_POINT('',#1650);
#705=VERTEX_POINT('',#1653);
#706=VERTEX_POINT('',#1654);
#707=VERTEX_POINT('',#1656);
#708=VERTEX_POINT('',#1658);
#709=VERTEX_POINT('',#1662);
#710=VERTEX_POINT('',#1664);
#711=VERTEX_POINT('',#1669);
#712=VERTEX_POINT('',#1675);
#713=VERTEX_POINT('',#1679);
#714=VERTEX_POINT('',#1681);
#715=VERTEX_POINT('',#1686);
#716=VERTEX_POINT('',#1688);
#717=VERTEX_POINT('',#1692);
#718=VERTEX_POINT('',#1694);
#719=VERTEX_POINT('',#1698);
#720=VERTEX_POINT('',#1702);
#721=VERTEX_POINT('',#1706);
#722=VERTEX_POINT('',#1707);
#723=VERTEX_POINT('',#1709);
#724=VERTEX_POINT('',#1711);
#725=VERTEX_POINT('',#1715);
#726=VERTEX_POINT('',#1716);
#727=VERTEX_POINT('',#1718);
#728=VERTEX_POINT('',#1720);
#729=VERTEX_POINT('',#1730);
#730=VERTEX_POINT('',#1734);
#731=VERTEX_POINT('',#1738);
#732=VERTEX_POINT('',#1740);
#733=VERTEX_POINT('',#1742);
#734=VERTEX_POINT('',#1744);
#735=VERTEX_POINT('',#1746);
#736=VERTEX_POINT('',#1748);
#737=VERTEX_POINT('',#1752);
#738=VERTEX_POINT('',#1756);
#739=VERTEX_POINT('',#1758);
#740=VERTEX_POINT('',#1762);
#741=VERTEX_POINT('',#1766);
#742=VERTEX_POINT('',#1767);
#743=VERTEX_POINT('',#1774);
#744=VERTEX_POINT('',#1778);
#745=VERTEX_POINT('',#1782);
#746=VERTEX_POINT('',#1786);
#747=VERTEX_POINT('',#1792);
#748=VERTEX_POINT('',#1796);
#749=VERTEX_POINT('',#1800);
#750=VERTEX_POINT('',#1804);
#751=VERTEX_POINT('',#1810);
#752=VERTEX_POINT('',#1811);
#753=VERTEX_POINT('',#1813);
#754=VERTEX_POINT('',#1815);
#755=VERTEX_POINT('',#1819);
#756=VERTEX_POINT('',#1821);
#757=VERTEX_POINT('',#1825);
#758=VERTEX_POINT('',#1829);
#759=EDGE_CURVE('',#661,#662,#905,.T.);
#760=EDGE_CURVE('',#663,#662,#906,.T.);
#761=EDGE_CURVE('',#664,#663,#907,.T.);
#762=EDGE_CURVE('',#661,#664,#908,.T.);
#763=EDGE_CURVE('',#665,#666,#909,.T.);
#764=EDGE_CURVE('',#662,#665,#910,.T.);
#765=EDGE_CURVE('',#666,#661,#911,.T.);
#766=EDGE_CURVE('',#666,#667,#912,.T.);
#767=EDGE_CURVE('',#664,#667,#913,.T.);
#768=EDGE_CURVE('',#668,#663,#914,.T.);
#769=EDGE_CURVE('',#667,#668,#915,.T.);
#770=EDGE_CURVE('',#668,#665,#916,.T.);
#771=EDGE_CURVE('',#669,#670,#917,.T.);
#772=EDGE_CURVE('',#671,#670,#918,.T.);
#773=EDGE_CURVE('',#672,#671,#919,.T.);
#774=EDGE_CURVE('',#669,#672,#920,.T.);
#775=EDGE_CURVE('',#673,#674,#921,.T.);
#776=EDGE_CURVE('',#670,#673,#922,.T.);
#777=EDGE_CURVE('',#674,#669,#923,.T.);
#778=EDGE_CURVE('',#674,#675,#924,.T.);
#779=EDGE_CURVE('',#672,#675,#925,.T.);
#780=EDGE_CURVE('',#676,#671,#926,.T.);
#781=EDGE_CURVE('',#675,#676,#927,.T.);
#782=EDGE_CURVE('',#676,#673,#928,.T.);
#783=EDGE_CURVE('',#677,#678,#929,.T.);
#784=EDGE_CURVE('',#679,#677,#930,.T.);
#785=EDGE_CURVE('',#680,#679,#931,.T.);
#786=EDGE_CURVE('',#678,#680,#932,.T.);
#787=EDGE_CURVE('',#681,#681,#116,.T.);
#788=EDGE_CURVE('',#682,#682,#117,.T.);
#789=EDGE_CURVE('',#683,#683,#118,.T.);
#790=EDGE_CURVE('',#684,#684,#119,.T.);
#791=EDGE_CURVE('',#685,#685,#120,.T.);
#792=EDGE_CURVE('',#686,#686,#121,.T.);
#793=EDGE_CURVE('',#687,#687,#122,.T.);
#794=EDGE_CURVE('',#688,#688,#123,.T.);
#795=EDGE_CURVE('',#689,#690,#933,.T.);
#796=EDGE_CURVE('',#691,#690,#934,.T.);
#797=EDGE_CURVE('',#692,#691,#935,.T.);
#798=EDGE_CURVE('',#689,#692,#936,.T.);
#799=EDGE_CURVE('',#691,#693,#937,.T.);
#800=EDGE_CURVE('',#693,#694,#938,.T.);
#801=EDGE_CURVE('',#695,#694,#939,.T.);
#802=EDGE_CURVE('',#695,#696,#940,.T.);
#803=EDGE_CURVE('',#696,#697,#941,.T.);
#804=EDGE_CURVE('',#697,#698,#942,.T.);
#805=EDGE_CURVE('',#692,#698,#943,.T.);
#806=EDGE_CURVE('',#696,#699,#944,.T.);
#807=EDGE_CURVE('',#699,#700,#945,.T.);
#808=EDGE_CURVE('',#700,#697,#946,.T.);
#809=EDGE_CURVE('',#699,#701,#947,.T.);
#810=EDGE_CURVE('',#701,#702,#948,.T.);
#811=EDGE_CURVE('',#702,#700,#949,.T.);
#812=EDGE_CURVE('',#703,#703,#124,.T.);
#813=EDGE_CURVE('',#704,#704,#125,.T.);
#814=EDGE_CURVE('',#705,#706,#950,.T.);
#815=EDGE_CURVE('',#706,#707,#951,.T.);
#816=EDGE_CURVE('',#707,#708,#952,.T.);
#817=EDGE_CURVE('',#705,#708,#953,.T.);
#818=EDGE_CURVE('',#709,#705,#954,.T.);
#819=EDGE_CURVE('',#708,#710,#955,.T.);
#820=EDGE_CURVE('',#710,#709,#956,.T.);
#821=EDGE_CURVE('',#701,#709,#957,.T.);
#822=EDGE_CURVE('',#711,#695,#958,.T.);
#823=EDGE_CURVE('',#706,#711,#959,.T.);
#824=EDGE_CURVE('',#710,#702,#960,.T.);
#825=EDGE_CURVE('',#712,#707,#961,.T.);
#826=EDGE_CURVE('',#698,#712,#962,.T.);
#827=EDGE_CURVE('',#679,#713,#963,.T.);
#828=EDGE_CURVE('',#713,#714,#964,.T.);
#829=EDGE_CURVE('',#714,#712,#965,.T.);
#830=EDGE_CURVE('',#711,#680,#966,.T.);
#831=EDGE_CURVE('',#715,#713,#967,.T.);
#832=EDGE_CURVE('',#716,#715,#968,.T.);
#833=EDGE_CURVE('',#714,#716,#969,.T.);
#834=EDGE_CURVE('',#717,#715,#970,.T.);
#835=EDGE_CURVE('',#718,#717,#971,.T.);
#836=EDGE_CURVE('',#716,#718,#972,.T.);
#837=EDGE_CURVE('',#717,#719,#973,.T.);
#838=EDGE_CURVE('',#677,#719,#974,.T.);
#839=EDGE_CURVE('',#719,#720,#975,.T.);
#840=EDGE_CURVE('',#720,#678,#976,.T.);
#841=EDGE_CURVE('',#721,#722,#977,.T.);
#842=EDGE_CURVE('',#722,#723,#978,.T.);
#843=EDGE_CURVE('',#724,#723,#979,.T.);
#844=EDGE_CURVE('',#724,#721,#980,.T.);
#845=EDGE_CURVE('',#725,#726,#981,.T.);
#846=EDGE_CURVE('',#727,#725,#982,.T.);
#847=EDGE_CURVE('',#728,#727,#983,.T.);
#848=EDGE_CURVE('',#726,#728,#984,.T.);
#849=EDGE_CURVE('',#728,#724,#985,.T.);
#850=EDGE_CURVE('',#723,#720,#986,.T.);
#851=EDGE_CURVE('',#694,#726,#987,.T.);
#852=EDGE_CURVE('',#725,#693,#988,.T.);
#853=EDGE_CURVE('',#690,#729,#989,.T.);
#854=EDGE_CURVE('',#727,#729,#990,.T.);
#855=EDGE_CURVE('',#729,#730,#991,.T.);
#856=EDGE_CURVE('',#730,#689,#992,.T.);
#857=EDGE_CURVE('',#718,#731,#993,.T.);
#858=EDGE_CURVE('',#731,#732,#994,.T.);
#859=EDGE_CURVE('',#732,#733,#995,.T.);
#860=EDGE_CURVE('',#733,#734,#996,.T.);
#861=EDGE_CURVE('',#734,#735,#997,.T.);
#862=EDGE_CURVE('',#735,#736,#998,.T.);
#863=EDGE_CURVE('',#736,#730,#999,.T.);
#864=EDGE_CURVE('',#722,#737,#1000,.T.);
#865=EDGE_CURVE('',#731,#737,#1001,.T.);
#866=EDGE_CURVE('',#738,#722,#1002,.T.);
#867=EDGE_CURVE('',#739,#738,#1003,.T.);
#868=EDGE_CURVE('',#739,#737,#1004,.T.);
#869=EDGE_CURVE('',#740,#721,#1005,.T.);
#870=EDGE_CURVE('',#738,#740,#1006,.T.);
#871=EDGE_CURVE('',#741,#742,#1007,.T.);
#872=EDGE_CURVE('',#740,#741,#1008,.T.);
#873=EDGE_CURVE('',#742,#721,#1009,.T.);
#874=EDGE_CURVE('',#736,#742,#1010,.T.);
#875=EDGE_CURVE('',#743,#742,#1011,.T.);
#876=EDGE_CURVE('',#735,#743,#1012,.T.);
#877=EDGE_CURVE('',#744,#743,#1013,.T.);
#878=EDGE_CURVE('',#734,#744,#1014,.T.);
#879=EDGE_CURVE('',#745,#744,#1015,.T.);
#880=EDGE_CURVE('',#733,#745,#1016,.T.);
#881=EDGE_CURVE('',#746,#745,#1017,.T.);
#882=EDGE_CURVE('',#732,#746,#1018,.T.);
#883=EDGE_CURVE('',#737,#746,#1019,.T.);
#884=EDGE_CURVE('',#747,#746,#1020,.T.);
#885=EDGE_CURVE('',#747,#739,#1021,.T.);
#886=EDGE_CURVE('',#748,#747,#1022,.T.);
#887=EDGE_CURVE('',#748,#745,#1023,.T.);
#888=EDGE_CURVE('',#749,#748,#1024,.T.);
#889=EDGE_CURVE('',#749,#744,#1025,.T.);
#890=EDGE_CURVE('',#750,#749,#1026,.T.);
#891=EDGE_CURVE('',#743,#750,#1027,.T.);
#892=EDGE_CURVE('',#741,#750,#1028,.T.);
#893=EDGE_CURVE('',#751,#752,#1029,.T.);
#894=EDGE_CURVE('',#752,#753,#1030,.T.);
#895=EDGE_CURVE('',#753,#754,#1031,.T.);
#896=EDGE_CURVE('',#754,#751,#1032,.T.);
#897=EDGE_CURVE('',#755,#752,#1033,.T.);
#898=EDGE_CURVE('',#756,#755,#1034,.T.);
#899=EDGE_CURVE('',#753,#756,#1035,.T.);
#900=EDGE_CURVE('',#757,#755,#1036,.T.);
#901=EDGE_CURVE('',#751,#757,#1037,.T.);
#902=EDGE_CURVE('',#758,#757,#1038,.T.);
#903=EDGE_CURVE('',#758,#754,#1039,.T.);
#904=EDGE_CURVE('',#756,#758,#1040,.T.);
#905=LINE('',#1530,#1041);
#906=LINE('',#1533,#1042);
#907=LINE('',#1535,#1043);
#908=LINE('',#1537,#1044);
#909=LINE('',#1539,#1045);
#910=LINE('',#1542,#1046);
#911=LINE('',#1543,#1047);
#912=LINE('',#1545,#1048);
#913=LINE('',#1547,#1049);
#914=LINE('',#1549,#1050);
#915=LINE('',#1551,#1051);
#916=LINE('',#1553,#1052);
#917=LINE('',#1555,#1053);
#918=LINE('',#1558,#1054);
#919=LINE('',#1560,#1055);
#920=LINE('',#1562,#1056);
#921=LINE('',#1564,#1057);
#922=LINE('',#1567,#1058);
#923=LINE('',#1568,#1059);
#924=LINE('',#1570,#1060);
#925=LINE('',#1572,#1061);
#926=LINE('',#1574,#1062);
#927=LINE('',#1576,#1063);
#928=LINE('',#1578,#1064);
#929=LINE('',#1580,#1065);
#930=LINE('',#1583,#1066);
#931=LINE('',#1585,#1067);
#932=LINE('',#1587,#1068);
#933=LINE('',#1612,#1069);
#934=LINE('',#1615,#1070);
#935=LINE('',#1617,#1071);
#936=LINE('',#1619,#1072);
#937=LINE('',#1621,#1073);
#938=LINE('',#1623,#1074);
#939=LINE('',#1625,#1075);
#940=LINE('',#1627,#1076);
#941=LINE('',#1629,#1077);
#942=LINE('',#1631,#1078);
#943=LINE('',#1633,#1079);
#944=LINE('',#1635,#1080);
#945=LINE('',#1637,#1081);
#946=LINE('',#1639,#1082);
#947=LINE('',#1641,#1083);
#948=LINE('',#1643,#1084);
#949=LINE('',#1645,#1085);
#950=LINE('',#1652,#1086);
#951=LINE('',#1655,#1087);
#952=LINE('',#1657,#1088);
#953=LINE('',#1659,#1089);
#954=LINE('',#1661,#1090);
#955=LINE('',#1663,#1091);
#956=LINE('',#1665,#1092);
#957=LINE('',#1667,#1093);
#958=LINE('',#1668,#1094);
#959=LINE('',#1670,#1095);
#960=LINE('',#1672,#1096);
#961=LINE('',#1674,#1097);
#962=LINE('',#1676,#1098);
#963=LINE('',#1678,#1099);
#964=LINE('',#1680,#1100);
#965=LINE('',#1682,#1101);
#966=LINE('',#1683,#1102);
#967=LINE('',#1685,#1103);
#968=LINE('',#1687,#1104);
#969=LINE('',#1689,#1105);
#970=LINE('',#1691,#1106);
#971=LINE('',#1693,#1107);
#972=LINE('',#1695,#1108);
#973=LINE('',#1697,#1109);
#974=LINE('',#1699,#1110);
#975=LINE('',#1701,#1111);
#976=LINE('',#1703,#1112);
#977=LINE('',#1705,#1113);
#978=LINE('',#1708,#1114);
#979=LINE('',#1710,#1115);
#980=LINE('',#1712,#1116);
#981=LINE('',#1714,#1117);
#982=LINE('',#1717,#1118);
#983=LINE('',#1719,#1119);
#984=LINE('',#1721,#1120);
#985=LINE('',#1723,#1121);
#986=LINE('',#1724,#1122);
#987=LINE('',#1725,#1123);
#988=LINE('',#1727,#1124);
#989=LINE('',#1729,#1125);
#990=LINE('',#1731,#1126);
#991=LINE('',#1733,#1127);
#992=LINE('',#1735,#1128);
#993=LINE('',#1737,#1129);
#994=LINE('',#1739,#1130);
#995=LINE('',#1741,#1131);
#996=LINE('',#1743,#1132);
#997=LINE('',#1745,#1133);
#998=LINE('',#1747,#1134);
#999=LINE('',#1749,#1135);
#1000=LINE('',#1751,#1136);
#1001=LINE('',#1753,#1137);
#1002=LINE('',#1755,#1138);
#1003=LINE('',#1757,#1139);
#1004=LINE('',#1759,#1140);
#1005=LINE('',#1761,#1141);
#1006=LINE('',#1763,#1142);
#1007=LINE('',#1765,#1143);
#1008=LINE('',#1768,#1144);
#1009=LINE('',#1769,#1145);
#1010=LINE('',#1771,#1146);
#1011=LINE('',#1773,#1147);
#1012=LINE('',#1775,#1148);
#1013=LINE('',#1777,#1149);
#1014=LINE('',#1779,#1150);
#1015=LINE('',#1781,#1151);
#1016=LINE('',#1783,#1152);
#1017=LINE('',#1785,#1153);
#1018=LINE('',#1787,#1154);
#1019=LINE('',#1789,#1155);
#1020=LINE('',#1791,#1156);
#1021=LINE('',#1793,#1157);
#1022=LINE('',#1795,#1158);
#1023=LINE('',#1797,#1159);
#1024=LINE('',#1799,#1160);
#1025=LINE('',#1801,#1161);
#1026=LINE('',#1803,#1162);
#1027=LINE('',#1805,#1163);
#1028=LINE('',#1807,#1164);
#1029=LINE('',#1809,#1165);
#1030=LINE('',#1812,#1166);
#1031=LINE('',#1814,#1167);
#1032=LINE('',#1816,#1168);
#1033=LINE('',#1818,#1169);
#1034=LINE('',#1820,#1170);
#1035=LINE('',#1822,#1171);
#1036=LINE('',#1824,#1172);
#1037=LINE('',#1826,#1173);
#1038=LINE('',#1828,#1174);
#1039=LINE('',#1830,#1175);
#1040=LINE('',#1832,#1176);
#1041=VECTOR('',#1251,1.);
#1042=VECTOR('',#1252,1.);
#1043=VECTOR('',#1253,1.);
#1044=VECTOR('',#1254,1.);
#1045=VECTOR('',#1257,1.);
#1046=VECTOR('',#1258,1.);
#1047=VECTOR('',#1259,1.);
#1048=VECTOR('',#1262,1.);
#1049=VECTOR('',#1263,1.);
#1050=VECTOR('',#1266,1.);
#1051=VECTOR('',#1267,1.);
#1052=VECTOR('',#1270,1.);
#1053=VECTOR('',#1273,1.);
#1054=VECTOR('',#1274,1.);
#1055=VECTOR('',#1275,1.);
#1056=VECTOR('',#1276,1.);
#1057=VECTOR('',#1279,1.);
#1058=VECTOR('',#1280,1.);
#1059=VECTOR('',#1281,1.);
#1060=VECTOR('',#1284,1.);
#1061=VECTOR('',#1285,1.);
#1062=VECTOR('',#1288,1.);
#1063=VECTOR('',#1289,1.);
#1064=VECTOR('',#1292,1.);
#1065=VECTOR('',#1295,1.);
#1066=VECTOR('',#1296,1.);
#1067=VECTOR('',#1297,1.);
#1068=VECTOR('',#1298,1.);
#1069=VECTOR('',#1331,1.);
#1070=VECTOR('',#1332,1.);
#1071=VECTOR('',#1333,1.);
#1072=VECTOR('',#1334,1.);
#1073=VECTOR('',#1337,1.);
#1074=VECTOR('',#1338,1.);
#1075=VECTOR('',#1339,1.);
#1076=VECTOR('',#1340,1.);
#1077=VECTOR('',#1341,1.);
#1078=VECTOR('',#1342,1.);
#1079=VECTOR('',#1343,1.);
#1080=VECTOR('',#1346,1.);
#1081=VECTOR('',#1347,1.);
#1082=VECTOR('',#1348,1.);
#1083=VECTOR('',#1351,1.);
#1084=VECTOR('',#1352,1.);
#1085=VECTOR('',#1353,1.);
#1086=VECTOR('',#1362,1.);
#1087=VECTOR('',#1363,1.);
#1088=VECTOR('',#1364,1.);
#1089=VECTOR('',#1365,1.);
#1090=VECTOR('',#1368,1.);
#1091=VECTOR('',#1369,1.);
#1092=VECTOR('',#1370,1.);
#1093=VECTOR('',#1373,1.);
#1094=VECTOR('',#1374,1.);
#1095=VECTOR('',#1375,1.);
#1096=VECTOR('',#1378,1.);
#1097=VECTOR('',#1381,1.);
#1098=VECTOR('',#1382,1.);
#1099=VECTOR('',#1385,1.);
#1100=VECTOR('',#1386,1.);
#1101=VECTOR('',#1387,1.);
#1102=VECTOR('',#1388,1.);
#1103=VECTOR('',#1391,1.);
#1104=VECTOR('',#1392,1.);
#1105=VECTOR('',#1393,1.);
#1106=VECTOR('',#1396,1.);
#1107=VECTOR('',#1397,1.);
#1108=VECTOR('',#1398,1.);
#1109=VECTOR('',#1401,1.);
#1110=VECTOR('',#1402,1.);
#1111=VECTOR('',#1405,1.);
#1112=VECTOR('',#1406,1.);
#1113=VECTOR('',#1409,1.);
#1114=VECTOR('',#1410,1.);
#1115=VECTOR('',#1411,1.);
#1116=VECTOR('',#1412,1.);
#1117=VECTOR('',#1415,1.);
#1118=VECTOR('',#1416,1.);
#1119=VECTOR('',#1417,1.);
#1120=VECTOR('',#1418,1.);
#1121=VECTOR('',#1421,1.);
#1122=VECTOR('',#1422,1.);
#1123=VECTOR('',#1423,1.);
#1124=VECTOR('',#1426,1.);
#1125=VECTOR('',#1429,1.);
#1126=VECTOR('',#1430,1.);
#1127=VECTOR('',#1433,1.);
#1128=VECTOR('',#1434,1.);
#1129=VECTOR('',#1437,1.);
#1130=VECTOR('',#1438,1.);
#1131=VECTOR('',#1439,1.);
#1132=VECTOR('',#1440,1.);
#1133=VECTOR('',#1441,1.);
#1134=VECTOR('',#1442,1.);
#1135=VECTOR('',#1443,1.);
#1136=VECTOR('',#1446,1.);
#1137=VECTOR('',#1447,1.);
#1138=VECTOR('',#1450,1.);
#1139=VECTOR('',#1451,1.);
#1140=VECTOR('',#1452,1.);
#1141=VECTOR('',#1455,1.);
#1142=VECTOR('',#1456,1.);
#1143=VECTOR('',#1459,1.);
#1144=VECTOR('',#1460,1.);
#1145=VECTOR('',#1461,1.);
#1146=VECTOR('',#1464,1.);
#1147=VECTOR('',#1467,1.);
#1148=VECTOR('',#1468,1.);
#1149=VECTOR('',#1471,1.);
#1150=VECTOR('',#1472,1.);
#1151=VECTOR('',#1475,1.);
#1152=VECTOR('',#1476,1.);
#1153=VECTOR('',#1479,1.);
#1154=VECTOR('',#1480,1.);
#1155=VECTOR('',#1483,1.);
#1156=VECTOR('',#1486,1.);
#1157=VECTOR('',#1487,1.);
#1158=VECTOR('',#1490,1.);
#1159=VECTOR('',#1491,1.);
#1160=VECTOR('',#1494,1.);
#1161=VECTOR('',#1495,1.);
#1162=VECTOR('',#1498,1.);
#1163=VECTOR('',#1499,1.);
#1164=VECTOR('',#1502,1.);
#1165=VECTOR('',#1505,1.);
#1166=VECTOR('',#1506,1.);
#1167=VECTOR('',#1507,1.);
#1168=VECTOR('',#1508,1.);
#1169=VECTOR('',#1511,1.);
#1170=VECTOR('',#1512,1.);
#1171=VECTOR('',#1513,1.);
#1172=VECTOR('',#1516,1.);
#1173=VECTOR('',#1517,1.);
#1174=VECTOR('',#1520,1.);
#1175=VECTOR('',#1521,1.);
#1176=VECTOR('',#1524,1.);
#1177=AXIS2_PLACEMENT_3D('',#1529,#1249,#1250);
#1178=AXIS2_PLACEMENT_3D('',#1538,#1255,#1256);
#1179=AXIS2_PLACEMENT_3D('',#1544,#1260,#1261);
#1180=AXIS2_PLACEMENT_3D('',#1548,#1264,#1265);
#1181=AXIS2_PLACEMENT_3D('',#1552,#1268,#1269);
#1182=AXIS2_PLACEMENT_3D('',#1554,#1271,#1272);
#1183=AXIS2_PLACEMENT_3D('',#1563,#1277,#1278);
#1184=AXIS2_PLACEMENT_3D('',#1569,#1282,#1283);
#1185=AXIS2_PLACEMENT_3D('',#1573,#1286,#1287);
#1186=AXIS2_PLACEMENT_3D('',#1577,#1290,#1291);
#1187=AXIS2_PLACEMENT_3D('',#1579,#1293,#1294);
#1188=AXIS2_PLACEMENT_3D('',#1588,#1299,#1300);
#1189=AXIS2_PLACEMENT_3D('',#1589,#1301,#1302);
#1190=AXIS2_PLACEMENT_3D('',#1591,#1303,#1304);
#1191=AXIS2_PLACEMENT_3D('',#1592,#1305,#1306);
#1192=AXIS2_PLACEMENT_3D('',#1594,#1307,#1308);
#1193=AXIS2_PLACEMENT_3D('',#1595,#1309,#1310);
#1194=AXIS2_PLACEMENT_3D('',#1597,#1311,#1312);
#1195=AXIS2_PLACEMENT_3D('',#1598,#1313,#1314);
#1196=AXIS2_PLACEMENT_3D('',#1600,#1315,#1316);
#1197=AXIS2_PLACEMENT_3D('',#1601,#1317,#1318);
#1198=AXIS2_PLACEMENT_3D('',#1603,#1319,#1320);
#1199=AXIS2_PLACEMENT_3D('',#1604,#1321,#1322);
#1200=AXIS2_PLACEMENT_3D('',#1606,#1323,#1324);
#1201=AXIS2_PLACEMENT_3D('',#1607,#1325,#1326);
#1202=AXIS2_PLACEMENT_3D('',#1609,#1327,#1328);
#1203=AXIS2_PLACEMENT_3D('',#1611,#1329,#1330);
#1204=AXIS2_PLACEMENT_3D('',#1620,#1335,#1336);
#1205=AXIS2_PLACEMENT_3D('',#1634,#1344,#1345);
#1206=AXIS2_PLACEMENT_3D('',#1640,#1349,#1350);
#1207=AXIS2_PLACEMENT_3D('',#1646,#1354,#1355);
#1208=AXIS2_PLACEMENT_3D('',#1647,#1356,#1357);
#1209=AXIS2_PLACEMENT_3D('',#1649,#1358,#1359);
#1210=AXIS2_PLACEMENT_3D('',#1651,#1360,#1361);
#1211=AXIS2_PLACEMENT_3D('',#1660,#1366,#1367);
#1212=AXIS2_PLACEMENT_3D('',#1666,#1371,#1372);
#1213=AXIS2_PLACEMENT_3D('',#1671,#1376,#1377);
#1214=AXIS2_PLACEMENT_3D('',#1673,#1379,#1380);
#1215=AXIS2_PLACEMENT_3D('',#1677,#1383,#1384);
#1216=AXIS2_PLACEMENT_3D('',#1684,#1389,#1390);
#1217=AXIS2_PLACEMENT_3D('',#1690,#1394,#1395);
#1218=AXIS2_PLACEMENT_3D('',#1696,#1399,#1400);
#1219=AXIS2_PLACEMENT_3D('',#1700,#1403,#1404);
#1220=AXIS2_PLACEMENT_3D('',#1704,#1407,#1408);
#1221=AXIS2_PLACEMENT_3D('',#1713,#1413,#1414);
#1222=AXIS2_PLACEMENT_3D('',#1722,#1419,#1420);
#1223=AXIS2_PLACEMENT_3D('',#1726,#1424,#1425);
#1224=AXIS2_PLACEMENT_3D('',#1728,#1427,#1428);
#1225=AXIS2_PLACEMENT_3D('',#1732,#1431,#1432);
#1226=AXIS2_PLACEMENT_3D('',#1736,#1435,#1436);
#1227=AXIS2_PLACEMENT_3D('',#1750,#1444,#1445);
#1228=AXIS2_PLACEMENT_3D('',#1754,#1448,#1449);
#1229=AXIS2_PLACEMENT_3D('',#1760,#1453,#1454);
#1230=AXIS2_PLACEMENT_3D('',#1764,#1457,#1458);
#1231=AXIS2_PLACEMENT_3D('',#1770,#1462,#1463);
#1232=AXIS2_PLACEMENT_3D('',#1772,#1465,#1466);
#1233=AXIS2_PLACEMENT_3D('',#1776,#1469,#1470);
#1234=AXIS2_PLACEMENT_3D('',#1780,#1473,#1474);
#1235=AXIS2_PLACEMENT_3D('',#1784,#1477,#1478);
#1236=AXIS2_PLACEMENT_3D('',#1788,#1481,#1482);
#1237=AXIS2_PLACEMENT_3D('',#1790,#1484,#1485);
#1238=AXIS2_PLACEMENT_3D('',#1794,#1488,#1489);
#1239=AXIS2_PLACEMENT_3D('',#1798,#1492,#1493);
#1240=AXIS2_PLACEMENT_3D('',#1802,#1496,#1497);
#1241=AXIS2_PLACEMENT_3D('',#1806,#1500,#1501);
#1242=AXIS2_PLACEMENT_3D('',#1808,#1503,#1504);
#1243=AXIS2_PLACEMENT_3D('',#1817,#1509,#1510);
#1244=AXIS2_PLACEMENT_3D('',#1823,#1514,#1515);
#1245=AXIS2_PLACEMENT_3D('',#1827,#1518,#1519);
#1246=AXIS2_PLACEMENT_3D('',#1831,#1522,#1523);
#1247=AXIS2_PLACEMENT_3D('',#1833,#1525,#1526);
#1248=AXIS2_PLACEMENT_3D('',#1834,#1527,#1528);
#1249=DIRECTION('',(0.,0.,1.));
#1250=DIRECTION('',(1.,0.,0.));
#1251=DIRECTION('',(-1.,0.,0.));
#1252=DIRECTION('',(0.,0.,-1.));
#1253=DIRECTION('',(-1.,0.,0.));
#1254=DIRECTION('',(0.,0.,1.));
#1255=DIRECTION('',(0.,-1.,0.));
#1256=DIRECTION('',(0.,0.,1.));
#1257=DIRECTION('',(1.,9.77309000550314E-16,0.));
#1258=DIRECTION('',(-0.582931174825858,0.684101048142743,-0.438402784373167));
#1259=DIRECTION('',(-0.582931174825858,-0.684101048142744,0.438402784373165));
#1260=DIRECTION('',(0.,-0.53955835666738,-0.84194820490954));
#1261=DIRECTION('',(0.,-0.84194820490954,0.53955835666738));
#1262=DIRECTION('',(0.,-4.99201000281096E-16,1.));
#1263=DIRECTION('',(0.582931174825858,0.684101048142743,0.438402784373167));
#1264=DIRECTION('',(0.761145221725947,-0.648581491752393,-7.75402853085413E-17));
#1265=DIRECTION('',(0.648581491752393,0.761145221725947,0.));
#1266=DIRECTION('',(0.582931174825858,-0.684101048142744,-0.438402784373166));
#1267=DIRECTION('',(-1.,0.,0.));
#1268=DIRECTION('',(0.,-0.539558356667381,0.841948204909539));
#1269=DIRECTION('',(0.,0.841948204909539,0.539558356667381));
#1270=DIRECTION('',(-2.49600500140548E-16,-4.99201000281096E-16,-1.));
#1271=DIRECTION('',(-0.761145221725947,-0.648581491752392,0.));
#1272=DIRECTION('',(0.648581491752392,-0.761145221725947,0.));
#1273=DIRECTION('',(-1.,0.,0.));
#1274=DIRECTION('',(0.,0.,-1.));
#1275=DIRECTION('',(-1.,0.,0.));
#1276=DIRECTION('',(0.,0.,1.));
#1277=DIRECTION('',(0.,-1.,0.));
#1278=DIRECTION('',(0.,0.,1.));
#1279=DIRECTION('',(1.,9.77309000550314E-16,0.));
#1280=DIRECTION('',(-0.582931174825859,0.684101048142743,-0.438402784373167));
#1281=DIRECTION('',(-0.582931174825858,-0.684101048142744,0.438402784373165));
#1282=DIRECTION('',(0.,-0.53955835666738,-0.84194820490954));
#1283=DIRECTION('',(0.,-0.84194820490954,0.53955835666738));
#1284=DIRECTION('',(0.,-4.99201000281096E-16,1.));
#1285=DIRECTION('',(0.582931174825858,0.684101048142743,0.438402784373167));
#1286=DIRECTION('',(0.761145221725947,-0.648581491752393,-7.75402853085413E-17));
#1287=DIRECTION('',(0.648581491752393,0.761145221725947,0.));
#1288=DIRECTION('',(0.582931174825858,-0.684101048142744,-0.438402784373166));
#1289=DIRECTION('',(-1.,0.,0.));
#1290=DIRECTION('',(0.,-0.539558356667381,0.841948204909539));
#1291=DIRECTION('',(0.,0.841948204909539,0.539558356667381));
#1292=DIRECTION('',(-6.2400125035137E-17,-4.99201000281096E-16,-1.));
#1293=DIRECTION('',(-0.761145221725947,-0.648581491752392,0.));
#1294=DIRECTION('',(0.648581491752392,-0.761145221725947,0.));
#1295=DIRECTION('',(0.,1.,0.));
#1296=DIRECTION('',(-1.,0.,-2.83220159343154E-15));
#1297=DIRECTION('',(0.,-1.,0.));
#1298=DIRECTION('',(1.,0.,2.83220159343154E-15));
#1299=DIRECTION('',(2.83220159343154E-15,0.,-1.));
#1300=DIRECTION('',(1.,0.,2.83236975540113E-15));
#1301=DIRECTION('',(2.56996070515083E-15,1.,-6.9710504599828E-30));
#1302=DIRECTION('',(-1.,4.33680868994201E-15,3.25260651745651E-15));
#1303=DIRECTION('',(0.,-1.,0.));
#1304=DIRECTION('',(-1.,0.,0.));
#1305=DIRECTION('',(9.63735264431552E-16,1.,-1.66923844304129E-15));
#1306=DIRECTION('',(-1.,0.,3.2526065174565E-15));
#1307=DIRECTION('',(6.42490176287691E-16,1.,-3.33847688608258E-15));
#1308=DIRECTION('',(-1.,0.,2.168404344971E-15));
#1309=DIRECTION('',(9.63735264431552E-16,1.,-1.66923844304129E-15));
#1310=DIRECTION('',(-0.999999999999999,0.,9.75781955236949E-15));
#1311=DIRECTION('',(0.,-1.,0.));
#1312=DIRECTION('',(-1.,0.,0.));
#1313=DIRECTION('',(0.,1.,0.));
#1314=DIRECTION('',(-1.,0.,8.67361737988396E-15));
#1315=DIRECTION('',(1.28498035257541E-15,1.,-6.43481580921488E-30));
#1316=DIRECTION('',(-1.,0.,5.42101086242751E-15));
#1317=DIRECTION('',(-1.60622544071928E-15,1.,-1.66923844304128E-15));
#1318=DIRECTION('',(-1.,0.,3.2526065174565E-15));
#1319=DIRECTION('',(0.,-1.,0.));
#1320=DIRECTION('',(-1.,0.,0.));
#1321=DIRECTION('',(1.28498035257542E-15,1.,-4.28987720614326E-30));
#1322=DIRECTION('',(-1.,2.168404344971E-15,3.25260651745649E-15));
#1323=DIRECTION('',(3.21245088143848E-16,1.,-1.66923844304129E-15));
#1324=DIRECTION('',(-1.,0.,1.0842021724855E-15));
#1325=DIRECTION('',(-8.34619221520644E-17,1.,1.44560289664734E-16));
#1326=DIRECTION('',(1.,1.52168725962877E-16,5.3259054087007E-16));
#1327=DIRECTION('',(2.25435149574634E-16,1.,2.34279079725092E-16));
#1328=DIRECTION('',(0.999999999999999,0.,-1.90210907453597E-15));
#1329=DIRECTION('',(1.66923844304128E-16,1.,2.89120579329467E-16));
#1330=DIRECTION('',(1.,0.,-1.1793076262123E-15));
#1331=DIRECTION('',(0.,-1.,0.));
#1332=DIRECTION('',(1.,0.,0.));
#1333=DIRECTION('',(0.,-1.,0.));
#1334=DIRECTION('',(-1.,0.,0.));
#1335=DIRECTION('',(0.,0.,1.));
#1336=DIRECTION('',(-1.,0.,0.));
#1337=DIRECTION('',(-5.8310032805943E-16,0.,-1.));
#1338=DIRECTION('',(0.,1.,0.));
#1339=DIRECTION('',(0.,0.,1.));
#1340=DIRECTION('',(0.,-1.,0.));
#1341=DIRECTION('',(0.,0.,1.));
#1342=DIRECTION('',(0.,1.,0.));
#1343=DIRECTION('',(0.,0.,1.));
#1344=DIRECTION('',(-1.,0.,0.));
#1345=DIRECTION('',(0.,-1.,0.));
#1346=DIRECTION('',(1.,-1.19213159469743E-15,0.));
#1347=DIRECTION('',(0.,0.,1.));
#1348=DIRECTION('',(-1.,1.19213159469743E-15,0.));
#1349=DIRECTION('',(-1.19213159469743E-15,-1.,0.));
#1350=DIRECTION('',(1.,-1.19175502799607E-15,0.));
#1351=DIRECTION('',(0.866025403784439,0.5,0.));
#1352=DIRECTION('',(0.,0.,1.));
#1353=DIRECTION('',(-0.866025403784439,-0.5,0.));
#1354=DIRECTION('',(0.5,-0.866025403784439,0.));
#1355=DIRECTION('',(0.866025403784439,0.5,0.));
#1356=DIRECTION('',(-8.34619221520641E-17,1.,1.44560289664734E-16));
#1357=DIRECTION('',(1.,1.52168725962877E-16,-2.32057307093387E-15));
#1358=DIRECTION('',(2.25435149574633E-16,1.,2.34279079725091E-16));
#1359=DIRECTION('',(1.,0.,-9.13012355777258E-16));
#1360=DIRECTION('',(1.66923844304129E-16,1.,2.89120579329467E-16));
#1361=DIRECTION('',(1.,0.,0.));
#1362=DIRECTION('',(1.,-5.96065797348716E-16,0.));
#1363=DIRECTION('',(0.,0.,1.));
#1364=DIRECTION('',(-1.,5.96065797348716E-16,0.));
#1365=DIRECTION('',(0.,0.,1.));
#1366=DIRECTION('',(-5.96065797348716E-16,-1.,0.));
#1367=DIRECTION('',(1.,-5.95877513998033E-16,0.));
#1368=DIRECTION('',(0.866025403784438,-0.500000000000001,0.));
#1369=DIRECTION('',(-0.866025403784438,0.500000000000001,0.));
#1370=DIRECTION('',(0.,0.,-1.));
#1371=DIRECTION('',(-0.500000000000001,-0.866025403784438,0.));
#1372=DIRECTION('',(0.866025403784438,-0.500000000000001,0.));
#1373=DIRECTION('',(1.,-5.71886860212134E-16,0.));
#1374=DIRECTION('',(-1.,0.,0.));
#1375=DIRECTION('',(0.,1.,0.));
#1376=DIRECTION('',(0.,0.,-1.));
#1377=DIRECTION('',(1.,0.,0.));
#1378=DIRECTION('',(-1.,5.71886860212134E-16,0.));
#1379=DIRECTION('',(-5.71886860212134E-16,-1.,0.));
#1380=DIRECTION('',(1.,-5.71591385334358E-16,0.));
#1381=DIRECTION('',(0.,-1.,0.));
#1382=DIRECTION('',(1.,0.,0.));
#1383=DIRECTION('',(0.,0.,1.));
#1384=DIRECTION('',(1.,0.,0.));
#1385=DIRECTION('',(1.16620065611886E-15,0.,1.));
#1386=DIRECTION('',(0.,1.,0.));
#1387=DIRECTION('',(0.,0.,1.));
#1388=DIRECTION('',(0.,0.,1.));
#1389=DIRECTION('',(1.,0.,0.));
#1390=DIRECTION('',(0.,1.,0.));
#1391=DIRECTION('',(1.,0.,1.41610079671577E-15));
#1392=DIRECTION('',(0.,-1.,0.));
#1393=DIRECTION('',(-1.,0.,-1.41610079671577E-15));
#1394=DIRECTION('',(-1.41610079671577E-15,0.,1.));
#1395=DIRECTION('',(-1.,0.,-1.41596803726607E-15));
#1396=DIRECTION('',(0.897500436873915,0.,0.441013566470616));
#1397=DIRECTION('',(0.,-1.,0.));
#1398=DIRECTION('',(-0.897500436873915,0.,-0.441013566470616));
#1399=DIRECTION('',(-0.441013566470616,0.,0.897500436873915));
#1400=DIRECTION('',(-0.897500436873915,0.,-0.441013566470616));
#1401=DIRECTION('',(0.,0.,-1.));
#1402=DIRECTION('',(-0.897500436873917,0.,0.441013566470611));
#1403=DIRECTION('',(0.,-1.,-6.62614009158444E-17));
#1404=DIRECTION('',(1.,0.,0.));
#1405=DIRECTION('',(0.,1.,0.));
#1406=DIRECTION('',(0.897500436873917,0.,-0.441013566470611));
#1407=DIRECTION('',(-0.441013566470611,0.,-0.897500436873917));
#1408=DIRECTION('',(0.897500436873917,0.,-0.441013566470611));
#1409=DIRECTION('',(1.,-4.0436444661464E-17,0.));
#1410=DIRECTION('',(0.,-1.,0.));
#1411=DIRECTION('',(1.,0.,0.));
#1412=DIRECTION('',(0.,1.,0.));
#1413=DIRECTION('',(0.,0.,-1.));
#1414=DIRECTION('',(-1.,0.,0.));
#1415=DIRECTION('',(0.,1.,0.));
#1416=DIRECTION('',(-0.897500436873826,0.,-0.441013566470797));
#1417=DIRECTION('',(0.,-1.,0.));
#1418=DIRECTION('',(0.897500436873826,0.,0.441013566470797));
#1419=DIRECTION('',(0.441013566470797,0.,-0.897500436873826));
#1420=DIRECTION('',(0.897500436873826,0.,0.441013566470797));
#1421=DIRECTION('',(0.,0.,-1.));
#1422=DIRECTION('',(0.,0.,1.));
#1423=DIRECTION('',(1.,0.,0.));
#1424=DIRECTION('',(0.,1.,0.));
#1425=DIRECTION('',(-1.,0.,0.));
#1426=DIRECTION('',(-1.,0.,0.));
#1427=DIRECTION('',(0.,0.,-1.));
#1428=DIRECTION('',(1.,0.,0.));
#1429=DIRECTION('',(0.897500436873829,0.,-0.44101356647079));
#1430=DIRECTION('',(0.,0.,1.));
#1431=DIRECTION('',(0.,-1.,0.));
#1432=DIRECTION('',(1.,0.,0.));
#1433=DIRECTION('',(0.,1.,0.));
#1434=DIRECTION('',(-0.897500436873829,0.,0.44101356647079));
#1435=DIRECTION('',(0.44101356647079,0.,0.897500436873829));
#1436=DIRECTION('',(-0.897500436873829,0.,0.44101356647079));
#1437=DIRECTION('',(0.,0.,1.));
#1438=DIRECTION('',(-1.,0.,0.));
#1439=DIRECTION('',(0.,0.,1.));
#1440=DIRECTION('',(-1.,0.,-1.7929958408029E-16));
#1441=DIRECTION('',(0.,0.,-1.));
#1442=DIRECTION('',(-1.,0.,0.));
#1443=DIRECTION('',(0.,0.,-1.));
#1444=DIRECTION('',(0.,1.,0.));
#1445=DIRECTION('',(-1.,0.,0.));
#1446=DIRECTION('',(-2.94020928131662E-16,0.,1.));
#1447=DIRECTION('',(0.,1.,3.31054098468856E-17));
#1448=DIRECTION('',(1.,0.,0.));
#1449=DIRECTION('',(0.,0.,-1.));
#1450=DIRECTION('',(0.577350269189625,-0.577350269189626,-0.577350269189626));
#1451=DIRECTION('',(0.,0.,-1.));
#1452=DIRECTION('',(0.577350269189625,-0.577350269189626,0.577350269189626));
#1453=DIRECTION('',(0.707106781186547,0.707106781186548,4.15808384185321E-16));
#1454=DIRECTION('',(-5.88071258356138E-16,0.,1.));
#1455=DIRECTION('',(-0.577350269189627,-0.577350269189625,-0.577350269189625));
#1456=DIRECTION('',(-1.,0.,0.));
#1457=DIRECTION('',(0.,0.707106781186548,-0.707106781186547));
#1458=DIRECTION('',(1.,0.,0.));
#1459=DIRECTION('',(-0.577350269189626,-0.577350269189626,0.577350269189626));
#1460=DIRECTION('',(-3.61400724161835E-16,0.,1.));
#1461=DIRECTION('',(2.94020928131662E-16,0.,-1.));
#1462=DIRECTION('',(-0.707106781186549,0.707106781186546,-4.15808384185322E-16));
#1463=DIRECTION('',(5.88071258356138E-16,0.,-1.));
#1464=DIRECTION('',(0.,1.,0.));
#1465=DIRECTION('',(-1.,0.,-2.84380897701116E-16));
#1466=DIRECTION('',(-2.84494650060196E-16,0.,1.));
#1467=DIRECTION('',(-1.,-8.26058798084192E-16,-2.06514699521048E-16));
#1468=DIRECTION('',(0.,1.,0.));
#1469=DIRECTION('',(0.,0.,1.));
#1470=DIRECTION('',(1.,0.,0.));
#1471=DIRECTION('',(0.,6.80283716069336E-16,-1.));
#1472=DIRECTION('',(0.,1.,0.));
#1473=DIRECTION('',(-1.,0.,0.));
#1474=DIRECTION('',(0.,0.,1.));
#1475=DIRECTION('',(-1.,0.,-1.7929958408029E-16));
#1476=DIRECTION('',(0.,1.,0.));
#1477=DIRECTION('',(-1.7929958408029E-16,0.,1.));
#1478=DIRECTION('',(1.,0.,1.795438797636E-16));
#1479=DIRECTION('',(0.,0.,1.));
#1480=DIRECTION('',(0.,1.,3.31054098468856E-17));
#1481=DIRECTION('',(1.,0.,0.));
#1482=DIRECTION('',(0.,0.,-1.));
#1483=DIRECTION('',(-1.,0.,0.));
#1484=DIRECTION('',(3.7548127185645E-16,0.,1.));
#1485=DIRECTION('',(1.,0.,-3.75567632548979E-16));
#1486=DIRECTION('',(0.577350269189627,-0.577350269189626,0.577350269189625));
#1487=DIRECTION('',(1.,0.,-4.13029399042094E-16));
#1488=DIRECTION('',(1.91661677085421E-16,0.707106781186547,0.707106781186547));
#1489=DIRECTION('',(-1.,0.,2.71050543121376E-16));
#1490=DIRECTION('',(-6.80283716069336E-16,0.,-1.));
#1491=DIRECTION('',(0.577350269189626,-0.577350269189626,0.577350269189626));
#1492=DIRECTION('',(0.707106781186548,0.707106781186547,-7.91377247320452E-16));
#1493=DIRECTION('',(1.11889664200504E-15,0.,1.));
#1494=DIRECTION('',(1.,9.50533411494141E-17,1.42580011724121E-16));
#1495=DIRECTION('',(-0.577350269189626,-0.577350269189626,0.577350269189626));
#1496=DIRECTION('',(-1.26783951767101E-16,0.707106781186547,0.707106781186547));
#1497=DIRECTION('',(-1.,0.,-1.79110198894605E-16));
#1498=DIRECTION('',(6.80283716069336E-16,-6.80283716069336E-16,1.));
#1499=DIRECTION('',(0.577350269189625,0.577350269189626,-0.577350269189627));
#1500=DIRECTION('',(-0.707106781186548,0.707106781186547,5.93532935490338E-16));
#1501=DIRECTION('',(-5.60315682740509E-16,2.80157841370254E-16,-1.));
#1502=DIRECTION('',(1.,0.,0.));
#1503=DIRECTION('',(0.,0.707106781186547,0.707106781186547));
#1504=DIRECTION('',(-1.,0.,0.));
#1505=DIRECTION('',(0.,-4.99201000281096E-16,-1.));
#1506=DIRECTION('',(1.,9.77309000550314E-16,0.));
#1507=DIRECTION('',(0.,-4.99201000281096E-16,1.));
#1508=DIRECTION('',(-1.,0.,0.));
#1509=DIRECTION('',(0.,1.,0.));
#1510=DIRECTION('',(1.,0.,0.));
#1511=DIRECTION('',(-0.582931174825859,0.684101048142743,-0.438402784373167));
#1512=DIRECTION('',(-1.,0.,0.));
#1513=DIRECTION('',(-0.582931174825858,-0.684101048142744,0.438402784373165));
#1514=DIRECTION('',(0.,-0.53955835666738,-0.84194820490954));
#1515=DIRECTION('',(0.,-0.84194820490954,0.53955835666738));
#1516=DIRECTION('',(0.,0.,-1.));
#1517=DIRECTION('',(0.582931174825858,-0.684101048142744,-0.438402784373166));
#1518=DIRECTION('',(-0.761145221725947,-0.648581491752392,0.));
#1519=DIRECTION('',(0.648581491752392,-0.761145221725947,0.));
#1520=DIRECTION('',(-1.,0.,0.));
#1521=DIRECTION('',(0.582931174825858,0.684101048142743,0.438402784373167));
#1522=DIRECTION('',(0.,-0.539558356667381,0.841948204909539));
#1523=DIRECTION('',(0.,0.841948204909539,0.539558356667381));
#1524=DIRECTION('',(0.,0.,1.));
#1525=DIRECTION('',(0.761145221725947,-0.648581491752393,-7.75402853085413E-17));
#1526=DIRECTION('',(0.648581491752393,0.761145221725947,0.));
#1527=DIRECTION('',(0.,-1.,0.));
#1528=DIRECTION('',(0.,0.,1.));
#1529=CARTESIAN_POINT('',(0.,0.,0.));
#1530=CARTESIAN_POINT('',(0.565,5.68,-2.565));
#1531=CARTESIAN_POINT('',(0.565,5.68,-2.565));
#1532=CARTESIAN_POINT('',(-0.565,5.68,-2.565));
#1533=CARTESIAN_POINT('',(-0.565,5.68,2.565));
#1534=CARTESIAN_POINT('',(-0.565,5.68,2.565));
#1535=CARTESIAN_POINT('',(0.565,5.68,2.565));
#1536=CARTESIAN_POINT('',(0.565,5.68,2.565));
#1537=CARTESIAN_POINT('',(0.565,5.68,-2.565));
#1538=CARTESIAN_POINT('',(0.686,5.68,-2.565));
#1539=CARTESIAN_POINT('',(-1.775,7.1,-3.475));
#1540=CARTESIAN_POINT('',(-1.775,7.1,-3.475));
#1541=CARTESIAN_POINT('',(1.775,7.1,-3.475));
#1542=CARTESIAN_POINT('',(-0.565,5.68,-2.565));
#1543=CARTESIAN_POINT('',(1.775,7.1,-3.475));
#1544=CARTESIAN_POINT('',(1.775,7.1,-3.475));
#1545=CARTESIAN_POINT('',(1.775,7.1,-3.475));
#1546=CARTESIAN_POINT('',(1.775,7.1,3.475));
#1547=CARTESIAN_POINT('',(0.565,5.68,2.565));
#1548=CARTESIAN_POINT('',(0.565,5.68000000000001,-3.78));
#1549=CARTESIAN_POINT('',(-1.775,7.1,3.475));
#1550=CARTESIAN_POINT('',(-1.775,7.1,3.475));
#1551=CARTESIAN_POINT('',(1.775,7.1,3.475));
#1552=CARTESIAN_POINT('',(1.775,5.68,2.565));
#1553=CARTESIAN_POINT('',(-1.775,7.1,3.475));
#1554=CARTESIAN_POINT('',(-1.775,7.1,-3.78));
#1555=CARTESIAN_POINT('',(5.645,5.68,-2.565));
#1556=CARTESIAN_POINT('',(5.645,5.68,-2.565));
#1557=CARTESIAN_POINT('',(4.515,5.68,-2.565));
#1558=CARTESIAN_POINT('',(4.515,5.68,2.565));
#1559=CARTESIAN_POINT('',(4.515,5.68,2.565));
#1560=CARTESIAN_POINT('',(5.645,5.68,2.565));
#1561=CARTESIAN_POINT('',(5.645,5.68,2.565));
#1562=CARTESIAN_POINT('',(5.645,5.68,-2.565));
#1563=CARTESIAN_POINT('',(5.766,5.68,-2.565));
#1564=CARTESIAN_POINT('',(3.305,7.1,-3.475));
#1565=CARTESIAN_POINT('',(3.305,7.1,-3.475));
#1566=CARTESIAN_POINT('',(6.855,7.1,-3.475));
#1567=CARTESIAN_POINT('',(4.515,5.68,-2.565));
#1568=CARTESIAN_POINT('',(6.855,7.1,-3.475));
#1569=CARTESIAN_POINT('',(6.855,7.1,-3.475));
#1570=CARTESIAN_POINT('',(6.855,7.1,-3.475));
#1571=CARTESIAN_POINT('',(6.855,7.1,3.475));
#1572=CARTESIAN_POINT('',(5.645,5.68,2.565));
#1573=CARTESIAN_POINT('',(5.645,5.68000000000001,-3.78));
#1574=CARTESIAN_POINT('',(3.305,7.1,3.475));
#1575=CARTESIAN_POINT('',(3.305,7.1,3.475));
#1576=CARTESIAN_POINT('',(6.855,7.1,3.475));
#1577=CARTESIAN_POINT('',(6.855,5.68,2.565));
#1578=CARTESIAN_POINT('',(3.305,7.1,3.475));
#1579=CARTESIAN_POINT('',(3.305,7.1,-3.78));
#1580=CARTESIAN_POINT('',(13.25,-1.72,-3.27499999999999));
#1581=CARTESIAN_POINT('',(13.25,-1.72,-3.27499999999999));
#1582=CARTESIAN_POINT('',(13.25,0.,-3.27499999999999));
#1583=CARTESIAN_POINT('',(15.7,-1.72,-3.27499999999999));
#1584=CARTESIAN_POINT('',(15.7,-1.72,-3.27499999999999));
#1585=CARTESIAN_POINT('',(15.7,0.,-3.27499999999999));
#1586=CARTESIAN_POINT('',(15.7,0.,-3.27499999999999));
#1587=CARTESIAN_POINT('',(13.25,0.,-3.27499999999999));
#1588=CARTESIAN_POINT('',(13.25,0.,-3.27499999999999));
#1589=CARTESIAN_POINT('',(-5.2583805365547E-15,-8.5,2.54));
#1590=CARTESIAN_POINT('',(-0.400000000000006,-8.5,2.54));
#1591=CARTESIAN_POINT('',(0.439999999999993,-8.5,2.97548706018875));
#1592=CARTESIAN_POINT('',(-3.41523684332934E-15,-4.05,2.54));
#1593=CARTESIAN_POINT('',(-0.400000000000005,-4.05,2.54));
#1594=CARTESIAN_POINT('',(-5.6037190063093E-15,-8.5,2.54000000000001));
#1595=CARTESIAN_POINT('',(-5.08000000000001,-8.5,-2.54));
#1596=CARTESIAN_POINT('',(-5.48000000000001,-8.5,-2.54));
#1597=CARTESIAN_POINT('',(-4.64000000000001,-8.5,-2.10451293981125));
#1598=CARTESIAN_POINT('',(-5.08,-4.05,-2.54));
#1599=CARTESIAN_POINT('',(-5.48,-4.05,-2.54));
#1600=CARTESIAN_POINT('',(-5.08000000000001,-8.5,-2.54));
#1601=CARTESIAN_POINT('',(5.07999999999999,-8.5,-2.54));
#1602=CARTESIAN_POINT('',(4.67999999999999,-8.5,-2.54));
#1603=CARTESIAN_POINT('',(5.51999999999999,-8.5,-2.10451293981125));
#1604=CARTESIAN_POINT('',(5.08,-4.05,-2.54));
#1605=CARTESIAN_POINT('',(4.68,-4.05,-2.54));
#1606=CARTESIAN_POINT('',(5.07999999999999,-8.5,-2.53999999999999));
#1607=CARTESIAN_POINT('',(-13.25,-1.72,-0.300000000000002));
#1608=CARTESIAN_POINT('',(-11.825,-1.72,-0.300000000000002));
#1609=CARTESIAN_POINT('',(-13.25,-4.49999999999999,-0.299999999999999));
#1610=CARTESIAN_POINT('',(-11.825,-4.49999999999999,-0.300000000000002));
#1611=CARTESIAN_POINT('',(-13.25,-4.72,-0.3));
#1612=CARTESIAN_POINT('',(-13.25,0.,2.67499999999999));
#1613=CARTESIAN_POINT('',(-13.25,0.,2.67499999999999));
#1614=CARTESIAN_POINT('',(-13.25,-1.72,2.67499999999999));
#1615=CARTESIAN_POINT('',(-15.7,-1.72,2.67499999999999));
#1616=CARTESIAN_POINT('',(-15.7,-1.72,2.67499999999999));
#1617=CARTESIAN_POINT('',(-15.7,0.,2.67499999999999));
#1618=CARTESIAN_POINT('',(-15.7,0.,2.67499999999999));
#1619=CARTESIAN_POINT('',(-13.25,0.,2.67499999999999));
#1620=CARTESIAN_POINT('',(-13.25,0.,2.67499999999999));
#1621=CARTESIAN_POINT('',(-15.7,-1.72,2.67499999999999));
#1622=CARTESIAN_POINT('',(-15.7,-1.72,-3.27500000000002));
#1623=CARTESIAN_POINT('',(-15.7,-1.72,-3.27500000000002));
#1624=CARTESIAN_POINT('',(-15.7,0.,-3.27500000000002));
#1625=CARTESIAN_POINT('',(-15.7,0.,-5.25));
#1626=CARTESIAN_POINT('',(-15.7,0.,-5.25));
#1627=CARTESIAN_POINT('',(-15.7,0.,-5.25));
#1628=CARTESIAN_POINT('',(-15.7,-4.49999999999999,-5.25));
#1629=CARTESIAN_POINT('',(-15.7,-4.49999999999999,-5.25));
#1630=CARTESIAN_POINT('',(-15.7,-4.49999999999999,5.25));
#1631=CARTESIAN_POINT('',(-15.7,-4.49999999999999,5.25));
#1632=CARTESIAN_POINT('',(-15.7,0.,5.25));
#1633=CARTESIAN_POINT('',(-15.7,0.,2.67499999999999));
#1634=CARTESIAN_POINT('',(-15.7,0.,-5.25));
#1635=CARTESIAN_POINT('',(-15.7,-4.49999999999999,-5.25));
#1636=CARTESIAN_POINT('',(-9.879422863406,-4.5,-5.25));
#1637=CARTESIAN_POINT('',(-9.879422863406,-4.5,-5.25));
#1638=CARTESIAN_POINT('',(-9.879422863406,-4.5,5.25));
#1639=CARTESIAN_POINT('',(-9.879422863406,-4.5,5.25));
#1640=CARTESIAN_POINT('',(-15.7,-4.49999999999999,-5.25));
#1641=CARTESIAN_POINT('',(-9.879422863406,-4.5,-5.25));
#1642=CARTESIAN_POINT('',(-9.1,-4.05,-5.25));
#1643=CARTESIAN_POINT('',(-9.1,-4.05,-5.25));
#1644=CARTESIAN_POINT('',(-9.1,-4.05,5.25));
#1645=CARTESIAN_POINT('',(-9.1,-4.05,5.25));
#1646=CARTESIAN_POINT('',(-9.879422863406,-4.5,-5.25));
#1647=CARTESIAN_POINT('',(13.25,-1.72,-0.299999999999998));
#1648=CARTESIAN_POINT('',(14.675,-1.72,-0.300000000000002));
#1649=CARTESIAN_POINT('',(13.25,-4.50000000000001,-0.300000000000001));
#1650=CARTESIAN_POINT('',(14.675,-4.50000000000001,-0.300000000000002));
#1651=CARTESIAN_POINT('',(13.25,-4.72,-0.300000000000002));
#1652=CARTESIAN_POINT('',(9.87942286340599,-4.50000000000001,-5.25));
#1653=CARTESIAN_POINT('',(9.87942286340599,-4.50000000000001,-5.25));
#1654=CARTESIAN_POINT('',(15.7,-4.50000000000001,-5.25));
#1655=CARTESIAN_POINT('',(15.7,-4.50000000000001,-5.25));
#1656=CARTESIAN_POINT('',(15.7,-4.50000000000001,5.25));
#1657=CARTESIAN_POINT('',(15.7,-4.50000000000001,5.25));
#1658=CARTESIAN_POINT('',(9.87942286340599,-4.50000000000001,5.25));
#1659=CARTESIAN_POINT('',(9.87942286340599,-4.50000000000001,-5.25));
#1660=CARTESIAN_POINT('',(9.87942286340599,-4.50000000000001,-5.25));
#1661=CARTESIAN_POINT('',(9.1,-4.05000000000001,-5.25));
#1662=CARTESIAN_POINT('',(9.1,-4.05000000000001,-5.25));
#1663=CARTESIAN_POINT('',(9.87942286340599,-4.50000000000001,5.25));
#1664=CARTESIAN_POINT('',(9.1,-4.05000000000001,5.25));
#1665=CARTESIAN_POINT('',(9.1,-4.05000000000001,5.25));
#1666=CARTESIAN_POINT('',(9.1,-4.05000000000001,-5.25));
#1667=CARTESIAN_POINT('',(-9.1,-4.05,-5.25));
#1668=CARTESIAN_POINT('',(15.7,0.,-5.25));
#1669=CARTESIAN_POINT('',(15.7,-4.33680868994202E-16,-5.25));
#1670=CARTESIAN_POINT('',(15.7,-4.50000000000001,-5.25));
#1671=CARTESIAN_POINT('',(-17.27,0.225000000000001,-5.25));
#1672=CARTESIAN_POINT('',(9.1,-4.05000000000001,5.25));
#1673=CARTESIAN_POINT('',(-9.1,-4.05,-5.25));
#1674=CARTESIAN_POINT('',(15.7,-4.33680868994202E-16,5.25));
#1675=CARTESIAN_POINT('',(15.7,-4.33680868994202E-16,5.25));
#1676=CARTESIAN_POINT('',(-15.7,0.,5.25));
#1677=CARTESIAN_POINT('',(-17.27,-4.72500000000001,5.25));
#1678=CARTESIAN_POINT('',(15.7,-1.72,-3.27499999999999));
#1679=CARTESIAN_POINT('',(15.7,-1.72,2.67500000000001));
#1680=CARTESIAN_POINT('',(15.7,-1.72,2.67500000000001));
#1681=CARTESIAN_POINT('',(15.7,0.,2.67500000000002));
#1682=CARTESIAN_POINT('',(15.7,-4.33680868994202E-16,2.67500000000002));
#1683=CARTESIAN_POINT('',(15.7,-4.33680868994202E-16,-5.25));
#1684=CARTESIAN_POINT('',(15.7,-4.50000000000001,-5.25));
#1685=CARTESIAN_POINT('',(13.25,-1.72,2.67500000000001));
#1686=CARTESIAN_POINT('',(13.25,-1.72,2.67500000000001));
#1687=CARTESIAN_POINT('',(13.25,0.,2.67500000000001));
#1688=CARTESIAN_POINT('',(13.25,0.,2.67500000000001));
#1689=CARTESIAN_POINT('',(15.7,0.,2.67500000000001));
#1690=CARTESIAN_POINT('',(15.7,0.,2.67500000000001));
#1691=CARTESIAN_POINT('',(10.725,-1.72,1.43426605761113));
#1692=CARTESIAN_POINT('',(10.725,-1.72,1.43426605761113));
#1693=CARTESIAN_POINT('',(10.725,0.,1.43426605761113));
#1694=CARTESIAN_POINT('',(10.725,0.,1.43426605761113));
#1695=CARTESIAN_POINT('',(13.25,0.,2.67500000000001));
#1696=CARTESIAN_POINT('',(13.25,0.,2.67500000000001));
#1697=CARTESIAN_POINT('',(10.725,-1.72,1.43426605761113));
#1698=CARTESIAN_POINT('',(10.725,-1.72,-2.03426605761112));
#1699=CARTESIAN_POINT('',(13.25,-1.72,-3.27499999999999));
#1700=CARTESIAN_POINT('',(10.47625,-1.72,-3.57249999999999));
#1701=CARTESIAN_POINT('',(10.725,-1.72,-2.03426605761112));
#1702=CARTESIAN_POINT('',(10.725,0.,-2.03426605761112));
#1703=CARTESIAN_POINT('',(10.725,0.,-2.03426605761112));
#1704=CARTESIAN_POINT('',(10.725,0.,-2.03426605761112));
#1705=CARTESIAN_POINT('',(-10.725,6.55,-4.225));
#1706=CARTESIAN_POINT('',(-10.725,6.55,-4.225));
#1707=CARTESIAN_POINT('',(10.725,6.55,-4.225));
#1708=CARTESIAN_POINT('',(10.725,6.55,-4.225));
#1709=CARTESIAN_POINT('',(10.725,0.,-4.225));
#1710=CARTESIAN_POINT('',(-10.725,0.,-4.225));
#1711=CARTESIAN_POINT('',(-10.725,0.,-4.225));
#1712=CARTESIAN_POINT('',(-10.725,0.,-4.225));
#1713=CARTESIAN_POINT('',(10.725,0.,-4.225));
#1714=CARTESIAN_POINT('',(-13.25,-1.72,-3.27500000000001));
#1715=CARTESIAN_POINT('',(-13.25,-1.72,-3.27500000000001));
#1716=CARTESIAN_POINT('',(-13.25,0.,-3.27500000000001));
#1717=CARTESIAN_POINT('',(-10.725,-1.72,-2.03426605761051));
#1718=CARTESIAN_POINT('',(-10.725,-1.72,-2.03426605761051));
#1719=CARTESIAN_POINT('',(-10.725,0.,-2.03426605761051));
#1720=CARTESIAN_POINT('',(-10.725,0.,-2.03426605761051));
#1721=CARTESIAN_POINT('',(-13.25,0.,-3.27500000000001));
#1722=CARTESIAN_POINT('',(-13.25,0.,-3.27500000000001));
#1723=CARTESIAN_POINT('',(-10.725,0.,-2.03426605761051));
#1724=CARTESIAN_POINT('',(10.725,0.,-4.225));
#1725=CARTESIAN_POINT('',(-15.7,0.,-3.27500000000002));
#1726=CARTESIAN_POINT('',(15.7,0.,-5.25));
#1727=CARTESIAN_POINT('',(-13.25,-1.72,-3.27500000000002));
#1728=CARTESIAN_POINT('',(-15.7,0.,-3.27500000000002));
#1729=CARTESIAN_POINT('',(-13.25,-1.72,2.67499999999999));
#1730=CARTESIAN_POINT('',(-10.725,-1.72,1.43426605761051));
#1731=CARTESIAN_POINT('',(-10.725,-1.72,-2.03426605761051));
#1732=CARTESIAN_POINT('',(-15.94875,-1.72,-3.57250000000002));
#1733=CARTESIAN_POINT('',(-10.725,-1.72,1.43426605761051));
#1734=CARTESIAN_POINT('',(-10.725,0.,1.43426605761051));
#1735=CARTESIAN_POINT('',(-10.725,0.,1.43426605761051));
#1736=CARTESIAN_POINT('',(-10.725,0.,1.43426605761051));
#1737=CARTESIAN_POINT('',(10.725,0.,1.43426605761113));
#1738=CARTESIAN_POINT('',(10.725,0.,1.675));
#1739=CARTESIAN_POINT('',(10.725,0.,1.675));
#1740=CARTESIAN_POINT('',(9.675,0.,1.675));
#1741=CARTESIAN_POINT('',(9.675,0.,1.675));
#1742=CARTESIAN_POINT('',(9.675,0.,4.225));
#1743=CARTESIAN_POINT('',(9.675,0.,4.225));
#1744=CARTESIAN_POINT('',(-9.675,0.,4.225));
#1745=CARTESIAN_POINT('',(-9.675,0.,4.225));
#1746=CARTESIAN_POINT('',(-9.675,0.,1.675));
#1747=CARTESIAN_POINT('',(-9.675,0.,1.675));
#1748=CARTESIAN_POINT('',(-10.725,0.,1.675));
#1749=CARTESIAN_POINT('',(-10.725,0.,1.675));
#1750=CARTESIAN_POINT('',(15.7,0.,-5.25));
#1751=CARTESIAN_POINT('',(10.725,6.55,-4.225));
#1752=CARTESIAN_POINT('',(10.725,6.55,1.675));
#1753=CARTESIAN_POINT('',(10.725,0.,1.675));
#1754=CARTESIAN_POINT('',(10.725,-1.82,1.775));
#1755=CARTESIAN_POINT('',(10.175,7.1,-3.675));
#1756=CARTESIAN_POINT('',(10.175,7.1,-3.675));
#1757=CARTESIAN_POINT('',(10.175,7.1,1.125));
#1758=CARTESIAN_POINT('',(10.175,7.1,1.125));
#1759=CARTESIAN_POINT('',(10.175,7.1,1.125));
#1760=CARTESIAN_POINT('',(10.175,7.1,-4.225));
#1761=CARTESIAN_POINT('',(-10.175,7.1,-3.675));
#1762=CARTESIAN_POINT('',(-10.175,7.1,-3.675));
#1763=CARTESIAN_POINT('',(10.175,7.1,-3.675));
#1764=CARTESIAN_POINT('',(-10.725,7.1,-3.675));
#1765=CARTESIAN_POINT('',(-10.175,7.1,1.125));
#1766=CARTESIAN_POINT('',(-10.175,7.1,1.125));
#1767=CARTESIAN_POINT('',(-10.725,6.55,1.675));
#1768=CARTESIAN_POINT('',(-10.175,7.1,-3.675));
#1769=CARTESIAN_POINT('',(-10.725,6.55,1.675));
#1770=CARTESIAN_POINT('',(-10.175,7.1,1.675));
#1771=CARTESIAN_POINT('',(-10.725,0.,1.675));
#1772=CARTESIAN_POINT('',(-10.725,-1.82,-4.325));
#1773=CARTESIAN_POINT('',(-9.675,6.55,1.675));
#1774=CARTESIAN_POINT('',(-9.675,6.55,1.675));
#1775=CARTESIAN_POINT('',(-9.675,0.,1.675));
#1776=CARTESIAN_POINT('',(-10.725,0.,1.675));
#1777=CARTESIAN_POINT('',(-9.675,6.55,4.225));
#1778=CARTESIAN_POINT('',(-9.675,6.55,4.225));
#1779=CARTESIAN_POINT('',(-9.675,0.,4.225));
#1780=CARTESIAN_POINT('',(-9.675,0.,1.42));
#1781=CARTESIAN_POINT('',(9.675,6.55,4.225));
#1782=CARTESIAN_POINT('',(9.675,6.55,4.225));
#1783=CARTESIAN_POINT('',(9.675,0.,4.225));
#1784=CARTESIAN_POINT('',(-9.675,0.,4.225));
#1785=CARTESIAN_POINT('',(9.675,6.55,1.675));
#1786=CARTESIAN_POINT('',(9.675,6.55,1.675));
#1787=CARTESIAN_POINT('',(9.675,0.,1.675));
#1788=CARTESIAN_POINT('',(9.675,0.,4.225));
#1789=CARTESIAN_POINT('',(10.725,6.55,1.675));
#1790=CARTESIAN_POINT('',(9.57,0.,1.675));
#1791=CARTESIAN_POINT('',(9.12499999999999,7.1,1.125));
#1792=CARTESIAN_POINT('',(9.12499999999999,7.1,1.125));
#1793=CARTESIAN_POINT('',(9.12499999999999,7.1,1.125));
#1794=CARTESIAN_POINT('',(10.725,7.1,1.125));
#1795=CARTESIAN_POINT('',(9.125,7.1,3.675));
#1796=CARTESIAN_POINT('',(9.125,7.1,3.675));
#1797=CARTESIAN_POINT('',(9.125,7.1,3.675));
#1798=CARTESIAN_POINT('',(9.12499999999999,7.1,1.125));
#1799=CARTESIAN_POINT('',(-9.125,7.1,3.675));
#1800=CARTESIAN_POINT('',(-9.125,7.1,3.675));
#1801=CARTESIAN_POINT('',(-9.125,7.1,3.675));
#1802=CARTESIAN_POINT('',(9.675,7.1,3.675));
#1803=CARTESIAN_POINT('',(-9.125,7.1,1.125));
#1804=CARTESIAN_POINT('',(-9.125,7.1,1.125));
#1805=CARTESIAN_POINT('',(-9.675,6.55,1.675));
#1806=CARTESIAN_POINT('',(-9.125,7.1,4.225));
#1807=CARTESIAN_POINT('',(-10.175,7.1,1.125));
#1808=CARTESIAN_POINT('',(-9.125,7.1,1.125));
#1809=CARTESIAN_POINT('',(-6.855,7.1,3.475));
#1810=CARTESIAN_POINT('',(-6.855,7.1,3.475));
#1811=CARTESIAN_POINT('',(-6.855,7.1,-3.475));
#1812=CARTESIAN_POINT('',(-6.855,7.1,-3.475));
#1813=CARTESIAN_POINT('',(-3.305,7.1,-3.475));
#1814=CARTESIAN_POINT('',(-3.305,7.1,-3.475));
#1815=CARTESIAN_POINT('',(-3.305,7.1,3.475));
#1816=CARTESIAN_POINT('',(-3.305,7.1,3.475));
#1817=CARTESIAN_POINT('',(-11.7975,7.1,4.6475));
#1818=CARTESIAN_POINT('',(-5.645,5.68,-2.565));
#1819=CARTESIAN_POINT('',(-5.645,5.68,-2.565));
#1820=CARTESIAN_POINT('',(-4.515,5.68,-2.565));
#1821=CARTESIAN_POINT('',(-4.515,5.68,-2.565));
#1822=CARTESIAN_POINT('',(-3.305,7.1,-3.475));
#1823=CARTESIAN_POINT('',(-3.305,7.1,-3.475));
#1824=CARTESIAN_POINT('',(-5.645,5.68,2.565));
#1825=CARTESIAN_POINT('',(-5.645,5.68,2.565));
#1826=CARTESIAN_POINT('',(-6.855,7.1,3.475));
#1827=CARTESIAN_POINT('',(-6.855,7.1,-3.78));
#1828=CARTESIAN_POINT('',(-4.515,5.68,2.565));
#1829=CARTESIAN_POINT('',(-4.515,5.68,2.565));
#1830=CARTESIAN_POINT('',(-4.515,5.68,2.565));
#1831=CARTESIAN_POINT('',(-3.305,5.68,2.565));
#1832=CARTESIAN_POINT('',(-4.515,5.68,-2.565));
#1833=CARTESIAN_POINT('',(-4.515,5.68000000000001,-3.78));
#1834=CARTESIAN_POINT('',(-4.394,5.68,-2.565));
#1835=MECHANICAL_DESIGN_GEOMETRIC_PRESENTATION_REPRESENTATION('',(#38,#31,
#32,#33,#34,#35,#36),#1836);
#1836=(
GEOMETRIC_REPRESENTATION_CONTEXT(3)
GLOBAL_UNCERTAINTY_ASSIGNED_CONTEXT((#1837))
GLOBAL_UNIT_ASSIGNED_CONTEXT((#1843,#1839,#1838))
REPRESENTATION_CONTEXT('100102297ugm000_b','TOP_LEVEL_ASSEMBLY_PART')
);
#1837=UNCERTAINTY_MEASURE_WITH_UNIT(LENGTH_MEASURE(2.E-5),#1843,
'DISTANCE_ACCURACY_VALUE','Maximum Tolerance applied to model');
#1838=(
NAMED_UNIT(*)
SI_UNIT($,.STERADIAN.)
SOLID_ANGLE_UNIT()
);
#1839=(
CONVERSION_BASED_UNIT('DEGREE',#1841)
NAMED_UNIT(#1840)
PLANE_ANGLE_UNIT()
);
#1840=DIMENSIONAL_EXPONENTS(0.,0.,0.,0.,0.,0.,0.);
#1841=PLANE_ANGLE_MEASURE_WITH_UNIT(PLANE_ANGLE_MEASURE(0.0174532925),#1842);
#1842=(
NAMED_UNIT(*)
PLANE_ANGLE_UNIT()
SI_UNIT($,.RADIAN.)
);
#1843=(
LENGTH_UNIT()
NAMED_UNIT(*)
SI_UNIT(.MILLI.,.METRE.)
);
ENDSEC;
END-ISO-10303-21;
